{
    "label": "幻靈進化專長 CC Evolution Feats",
    "mapping": {
        "prerequisites": "system.prerequisites.value"
    },
    "entries": {
        "Advanced Weaponry": {
            "name": "進階武裝 Advanced Weaponry",
            "description": "<p>你的幻靈的攻擊發生進化。</p>\n<p>選擇一個幻靈的起始近戰無武裝攻擊。它獲得下列特徵之一，在獲得專長時選擇：卸武、擒抱、非致命、猛推、摔拌、或多用B、多用P、多用S。</p>"
        },
        "Alacritous Action": {
            "name": "輕靈動作 Alacritous Action",
            "description": "<p>你的幻靈移動得更快。它在速度上獲得+10尺狀態加值。</p>"
        },
        "Amphibious Form": {
            "name": "兩棲形態 Amphibious Form",
            "description": "<p>你的幻靈適應了陸上和水下的生活。它獲得兩棲特徵，讓它可以在水中和空氣中呼吸，且在水下進行鈍擊和揮砍無武裝打擊時不會受到-2罰值。它獲得等同於陸地速度或25尺中較低的游泳速度；如果它通常是水生的，則獲得等同於游泳速度或25尺中較低的陸地速度。</p>"
        },
        "Blood Frenzy": {
            "name": "嗜血狂怒 Blood Frenzy",
            "description": "<p><strong>需求</strong> 你的幻靈的上一個動作對一個活物造成了流血傷害。</p>\n<hr />\n<p>你的幻靈沉浸在狂怒之中。它獲得@UUID[Compendium.pf2e.spells-srd.HStu2Yhw3iQER9tY]{激勵幻靈 Boost Eidolon}的好處，並獲得等同於你等級的臨時HP，但在AC上承受-2罰值。它不能自願終止狂怒，或在狂怒中開始另一個狂怒。</p>\n<p>狂怒持續1分鐘，之後你的幻靈陷入1分鐘的@UUID[Compendium.pf2e.conditionitems.HL2l2VRSaQHu9lUw]{疲乏 Fatigued}，而且在1分鐘內無法開始另一個狂怒。</p>",
            "prerequisites": [
                {
                    "value": "Bloodletting Claws"
                }
            ]
        },
        "Bloodletting Claws": {
            "name": "放血利爪 Bloodletting Claws",
            "description": "<p>你的幻靈在一次強有力的攻擊中能造成流血的傷口。如果你的幻靈使用近戰無武裝攻擊造成重擊，並造成揮砍或穿刺傷害，其目標受到[[/r (1d6)[persistent,bleed]]] @UUID[Compendium.pf2e.conditionitems.lDVqvLKA6eF3Df60]{持續流血傷害}。你的幻靈在該流血傷害上能獲得物品加值，數量等同於無武裝攻擊的攻擊骰上的物品加值。這是一個重擊專精效果。</p>"
        },
        "Burrowing Form": {
            "name": "掘地形態 Burrowing Form",
            "description": "<p>你的幻靈能夠鑽過鬆軟的泥土。你的幻靈獲得15尺掘地速度。</p>"
        },
        "Constricting Hold": {
            "name": "緊握 Constricting Hold",
            "description": "<p><strong>需求</strong> 你的幻靈有一個被@UUID[Compendium.pf2e.conditionitems.kWc1fhmv9LBiTuei]{擒抱 Grabbed}或@UUID[Compendium.pf2e.conditionitems.VcDeM8A5oI6VqhbM]{束縛 Restrained}的生物。</p>\n<p>你的幻靈緊緊擠壓生物，對其造成等同於你的幻靈等級外加其力量調整值的[[/r @actor.level+@actor.abilities.str.mod #bludgeoning]]{鈍擊傷害}，其基礎強韌豁免要對抗你的法術DC。</p>"
        },
        "Defend Summoner": {
            "name": "防衛召喚師 Defend Summoner",
            "description": "<p>你的幻靈擋下了針對你的攻擊。當你的幻靈使用了該動作，你的AC獲得+2環境加值，直到你下一回合開始。該加值只在你處於幻靈觸及內時才適用（在大多數情況下，這意味著你的幻靈與你鄰接或位於你的方格中）。</p>"
        },
        "Dual Energy Heart": {
            "name": "能量雙心 Dual Energy Heart",
            "description": "<p>第二種能量在你的幻靈中棲息。選擇一種額外的能量傷害型別。你能造成能量傷害的無武裝攻擊獲得多用特徵，關聯於這第二種能量傷害型別，而且你的幻靈獲得第二種能量傷害的抗力，數值等於你等級的一半。</p>",
            "prerequisites": [
                {
                    "value": "Energy Heart"
                }
            ]
        },
        "Eidolon's Opportunity": {
            "name": "幻靈藉機 Eidolon's Opportunity",
            "description": "<p><strong>觸發</strong> 一個處於你幻靈觸及內的生物使用了一個操作動作或一個移動動作，進行一次遠端攻擊，或在他所使用的的移動動作中離開了一個方格。</p>\n<hr />\n<p>你的幻靈對觸發的生物進行一次近戰打擊。如果這次攻擊是重擊，且觸發動作是操作動作，你的幻靈打斷了該動作。這次打擊不計入你的多次攻擊罰值中，你的多次攻擊罰值也不應用在這次打擊上。</p>"
        },
        "Eidolon's Wrath": {
            "name": "幻靈怒火 Eidolon's Wrath",
            "description": "<p>你的幻靈獲得<em>@UUID[Compendium.pf2e.spells-srd.kuZnUNrhXHRYQ2eM]{幻靈怒火 Eidolon's Wrath}</em>聚能法術，是它施展的，而非你。你在獲得該專長時決定其傷害型別：強酸、寒冷、電擊、火焰、負能量、正能量或音波。如果幻靈是天族、魔族或觀察者，且陣營並非絕對中立，你可以選擇其陣營中的一種傷害型別。</p>\n<p>將你的聚能池中的聚能點數提升1點。如常，你的幻靈共享你的聚能點。</p>"
        },
        "Energy Heart": {
            "name": "能量之心 Energy Heart",
            "description": "<p>能量鼓動著幻靈的心臟。</p>\n<p>選擇力場外的一種能量傷害型別。幻靈的1個無武裝攻擊的傷害型別變為所選型別，並獲得該型別的抗力，數值等於你等級的一半（最小1）。</p>"
        },
        "Energy Resistance": {
            "name": "能量抵抗 Energy Resistance",
            "description": "<p>你的幻靈有更強的抗力。來自能量之心和能量雙心的抗力提升至你的等級。</p>",
            "prerequisites": [
                {
                    "value": "Energy Heart"
                }
            ]
        },
        "Ever-Vigilant Senses": {
            "name": "無寐感官 Ever-Vigilant Senses",
            "description": "<p>你的幻靈有著強化的感官。它在察覺上獲得+2環境加值，而且無法被夾擊，除非夾擊的生物等級比幻靈高。</p>\n<p>幻靈可以看見@UUID[Compendium.pf2e.conditionitems.zJxUflt9np0q4yML]{隱形 Invisible}的生物和物體；它們變得透明，變成@UUID[Compendium.pf2e.conditionitems.DmAIPqOBomZ7H95W]{隱蔽 Concealed}狀態。</p>\n<p>當你的幻靈移動到一個幻象的30尺內就可能不相信幻象，由GM骰一個祕密檢定判斷是否成功不相信，即使你的幻靈沒有花費動作去和幻象互動。</p>"
        },
        "Expanded Senses": {
            "name": "擴充套件感官 Expanded Senses",
            "description": "<p>你的幻靈進化出了更加敏銳的感官。</p>\n<p>你的幻靈獲得昏暗視覺和黑暗視覺，也獲得靈敏嗅覺作為範圍30尺的模糊感官。</p>"
        },
        "Glider Form": {
            "name": "滑翔形態 Glider Form",
            "description": "<p>你的幻靈進化出了翅膀，能飄浮的身體，或某些其他能控制下降的方式。</p>\n<p>它能緩慢朝地面滑翔，在空中每下降5尺，最多能前進25尺。</p>\n<p>只要它每輪都花費至少1個動作滑翔，並還沒有接觸到地面，它就能在你的回合結束時保持在空中。</p>"
        },
        "Grasping Limbs": {
            "name": "抓握肢 Grasping Limbs",
            "description": "<p>你的幻靈擒拿了敵人。選擇一種幻靈的具有擒抱特徵的無武裝攻擊。該攻擊獲得@UUID[Compendium.pf2e.bestiary-ability-glossary-srd.Tkd8sH4pwFIPzqTr]{攫抓 Grab}動作。</p>"
        },
        "Hulking Size": {
            "name": "龐大體型 Hulking Size",
            "description": "<p>你的幻靈顯著生長。你的幻靈變成大體型，且觸及提升至10尺。這不會改變其他資料。</p>"
        },
        "Magical Adept": {
            "name": "魔法導師 Magical Adept",
            "description": "<p>你的幻靈獲得更多魔法。從你的幻靈根源中選擇1個2環法術和1個1環法術。你的幻靈能夠每天1次以內在法術的形式施展這些法術。在你獲得這個專長後的每個偶數等級，你的幻靈可以將1個內在法術交換成比你所能施展的最高法術環級低2級或更多的新法術。</p>",
            "prerequisites": [
                {
                    "value": "Magical Understudy"
                }
            ]
        },
        "Magical Master": {
            "name": "魔法大師 Magical Master",
            "description": "<p>你的幻靈獲得一堆低環法術。從幻靈根源中為1到7的每個法術環級都選擇1個內在法術，且這些法術是幻靈通過魔法導師專長沒有取得的。你的幻靈可以每天1次以內在法術的形式施展每個法術。</p>\n<p>你在每個偶數等級都可以交換這些法術，但你的幻靈在1到7的每個法術環級都不能知曉超過1個法術。</p>",
            "prerequisites": [
                {
                    "value": "Magical Adept"
                }
            ]
        },
        "Magical Understudy": {
            "name": "魔法替身 Magical Understudy",
            "description": "<p>你的幻靈可以施展法術。它獲得施法行動，並學會2個屬於它的根源的戲法；它按照內在法術的形式施展這些戲法。</p>"
        },
        "Miniaturize": {
            "name": "小型化 Miniaturize",
            "description": "<p>你的幻靈能縮得更小。使用縮小時，你的幻靈能將體型縮至超小型。</p>",
            "prerequisites": [
                {
                    "value": "Shrink Down"
                }
            ]
        },
        "Phase Out": {
            "name": "相位脫離 Phase Out",
            "description": "<p>你的幻靈漸漸從真實相位中脫離，獲得對全部傷害的抗力（除了力場和負能量），數值等於你等級的一半。它不是虛體，但也不能使用打擊或其他需要完整身體形態的動作，例如@UUID[Compendium.pf2e.actionspf2e.PMbdMWc2QroouFGD]{擒拿 Grapple}、@UUID[Compendium.pf2e.actionspf2e.7blmbDrQFNfdT731]{推撞 Shove}、或@UUID[Compendium.pf2e.actionspf2e.ge56Lu1xXVFYUnLP]{摔絆 Trip}。</p>\n<p>你的幻靈能使用一個具有專注特徵的單動作回到正常形態。</p>",
            "prerequisites": [
                {
                    "value": "your eidolon is a phantom"
                }
            ]
        },
        "Pushing Attack": {
            "name": "推離攻擊 Pushing Attack",
            "description": "<p>你的幻靈有一種能將敵人推離的攻擊方式。選擇一種幻靈的具有猛推特徵的無武裝攻擊。該攻擊獲得@UUID[Compendium.pf2e.bestiary-ability-glossary-srd.t6cx9FOODmeZQNYl]{推離 Push}動作。</p>"
        },
        "Ranged Combatant": {
            "name": "遠端戰鬥 Ranged Combatant",
            "description": "<p>飛刺、火焰噴射、和神聖衝擊都是幻靈可能使用的遠距離打擊手段。它獲得一種遠端無武裝攻擊，射程增量是30尺，造成1d4點傷害並具有魔法和助進特徵。</p>\n<p>當你選擇該專長時，選擇一種傷害型別：強酸、鈍擊、寒冷、電擊、火焰、負能量、穿刺、正能量、或揮砍。如果你的幻靈是陣營並非絕對中立的天族、魔族或觀察者，你能選擇對應一種其陣營的傷害型別。</p>"
        },
        "Resilient Shell": {
            "name": "強韌外殼 Resilient Shell",
            "description": "<p>你的幻靈針對攻擊獲得了強韌的防護。幻靈獲得對抗物理傷害的抗力，數值等同於其體質調整值。</p>"
        },
        "Shrink Down": {
            "name": "縮小 Shrink Down",
            "description": "<p>你的幻靈能夠收縮以適應狹窄空間。你的幻靈的體型變小，最小到小體型。它在縮小狀態時可以再次使用該動作以變回正常體型。</p>"
        },
        "Spell-Repelling Form": {
            "name": "拒魔形態 Spell-Repelling Form",
            "description": "<p>你的幻靈經過進化，能從法術造成的危險中保護自己。幻靈在對抗魔法的所有豁免骰中獲得+1狀態加值。</p>"
        },
        "Steed Form": {
            "name": "坐騎形態 Steed Form",
            "description": "<p>你的幻靈發生改變，變得特別適合擔任你的坐騎。當你騎乘它，你每輪都獲得完整數量的動作，而不會降低至2。這隻適用於你騎乘你的幻靈時的情況，其他人騎乘時並不能獲益。你的幻靈仍然必須至少比你的體型大一級才能讓你騎乘。由於你們兩者共同合作以移動，你幻靈在讓你騎乘時的移動動作獲得同步特徵。</p>"
        },
        "Summoner Dedication Adjustment": {
            "name": "召喚師入門調整 Summoner Dedication Adjustment",
            "description": "<p>此特性用於調整幻靈能力值，以適應使用召喚師入門專長的玩家。幻靈5級前能力上限為16。</p>"
        },
        "Towering Size": {
            "name": "高聳體型 Towering Size",
            "description": "<p>你的幻靈變得更加巨大。它變成超大型，替換了大型，且所有攻擊的觸及提升至15尺。</p>",
            "prerequisites": [
                {
                    "value": "Hulking Size"
                }
            ]
        },
        "Trample": {
            "name": "踐踏 Trample",
            "description": "<p>你的幻靈行走至多兩倍的速度，並能穿過體型至少小一級的生物所佔據的空間，踐踏幻靈經過空間的每個生物。幻靈在一次踐踏過程中只能對同一名生物踐踏一次。</p>\n<p>幻靈造成對這些生物造成鈍擊傷害，數值等同於其次要攻擊的傷害，且這些生物需要進行一次基礎反射豁免對抗你的法術DC。</p>"
        },
        "Vibration Sense": {
            "name": "顫動感官 Vibration Sense",
            "description": "<p>你的幻靈獲得@UUID[Compendium.pf2e.bestiary-ability-glossary-srd.j2wsK6IsW5yMW1jW]{震動感知 Tremorsense}作為範圍30尺的模糊感官。如果幻靈是水生的，則獲得@UUID[Compendium.pf2e.bestiary-ability-glossary-srd.VdSMQ6yRZ3YXNXHL]{水波感知 Wavesense}作為範圍30尺的模糊感官。如果是兩棲的，則獲得兩者。</p>"
        },
        "Weighty Impact": {
            "name": "重量衝擊 Weighty Impact",
            "description": "<p>你的幻靈將敵人擊倒。選擇一種幻靈的具有摔絆特徵的無武裝攻擊。該攻擊獲得@UUID[Compendium.pf2e.bestiary-ability-glossary-srd.BCLvAx4Pz4MLa2pu]{擊倒 Knockdown}動作。</p>"
        }
    }
}
