{
	"label": "載具 Vehicles",
    "mapping": {
        "description": "system.details.description",
        "crew": "system.details.crew",
        "pilotingCheck": "system.details.pilotingCheck",
        "speed": "system.details.speed"
    },
	"entries": {
		"Adaptable Paddleboat": {
			"name": "自適應明輪船 Adaptable Paddleboat",
			"description": "<p>這艘兩棲明輪船通過水輪來在水裡保持緩慢而穩定的速度。必要時，船隻能使用巧妙的發條裝置移動水輪的位置，並將其變形為合適陸地的輪子。</p>",
			"crew": "駕駛員*1",
			"pilotingCheck": "駕駛學識(DC 16), 航海學識(DC 16)，或手藝(DC 18)",
			"speed": "游泳15尺(發條)",
            "items":{
                "Deploy Wheels":{
                    "name": "展開車輪 Deploy Wheels",
                    "description": "<p>駕駛員拉動一根槓桿，啟動發條部件，將明輪船的水輪變為車輪，以便在地面上形式。這將讓明輪船獲得地面速度20尺，游泳速度減少至5尺。該變形將一直持續到駕駛員再次使用該行動改變輪子的形態為止。</p>"
                },
                "Wind-UP":{
                    "name": "上發條 Wind-UP",
                    "description": "<p>上發條10分鐘，操作時間1小時，解除DC16，待機</p>"
                }
            }
		},
		"Airship": {
			"name": "飛艇 Airship",
			"crew": "駕駛員*1，組員*5",
			"pilotingCheck": "奧法(DC 32), 手藝(DC 32), 自然(DC 32)，或駕駛學識(DC 30)",
			"speed": "飛行50尺(鍊金、魔法)",
            "items":{
                "Sluggish":{
                    "name": "笨重 Sluggish",
                    "description": "<p>此載具須行經等同於體長2倍的距離後才能轉向90度。</p>"
                }
            }
		},
		"Ambling Surveyor": {
			"name": "漫步勘測者 Ambling Surveyor",
			"description": "<p>這種巨大的、神器的發條漫遊者依靠連續而沉重的履帶移動，這使得該載具更容易在各種不利條件下行駛。載具裡裝載有魔法發條鳥，可以將視覺資訊傳回勘測者。</p>",
			"crew": "駕駛員*1，組員*2",
			"pilotingCheck": "駕駛學識(DC 32)或手藝(DC 34)",
			"speed": "15尺(發條、魔法)",
            "items":{
                "Continous Track":{
                    "name": "連續履帶 Continous Track",
                    "description": "<p>這種載具通過一系列齒輪和輪子所驅動的重型履帶前進，讓它能輕鬆地崎嶇地面上行駛。泥土、岩石、碎石、斜坡和灌木叢對於漫步測量者來說都不是困難地形。漫步測量者忽視泥土、岩石、碎石、斜坡和灌木導致的困難地形，但這些地表特徵導致的高等困難地形對漫步測量者來說是一般的困難地形。</p>"
                },
                "Sluggish":{
                    "name": "笨重 Sluggish",
                    "description": "<p>此載具須行經等同於體長2倍的距離後才能轉向90度。</p>"
                },
                "Survey":{
                    "name": "勘測 Survey",
                    "description": "<p><strong>需求</strong> 漫步勘測者沒有進行移動；</p>\n<hr />\n<p><strong>效果</strong> 駕駛員和組員放出一批共計六隻的發條鳥，這些鳥會在漫步勘測者附近1英里半徑內飛行，持續2個小時。發條鳥所看到的一切都被魔法傳回漫步勘測者的組員，呈現出虛幻的影象。如果他們想利用這些資訊全面地調查該地區並繪製成地圖，他們就必須實時對這些影象進行分類整理。兩個小時之後，鳥兒們會飛回來。如果鳥兒們受到攻擊，或如果它們的察覺對於它們能看到什麼非常重要，那麼它們使用@UUID[Compendium.pf2e.pathfinder-bestiary-3.cKZtOsBlN3Qu8Kyq]{發條密探 Clockwork Spy}的基礎資料，但是它們只負責調查行動，因此沒有發條密探的其他能力。更換每隻發條鳥需要花費250gp。</p>"
                },
                "Wind-Up":{
                    "name": "上發條 Wind-Up",
                    "description": "<p>上發條10分鐘，操作時間1小時，解除DC 32，待機</p>"
                }
            }
		},
		"Apparatus of the Octopus": {
			"name": "潛水章魚 Apparatus of the Octopus",
			"description": "<p>該載具形狀像章魚（或更稀有的可能會採取烏賊或其他水生生物的外觀），幾乎完全由魔法作為動力源。發條部件組成了載具的控制和穩定姿態的機構，但齒輪是由魔法驅動的。雖然它只需要一名駕駛員就能操作，但它可以容納第二名組員，如果第二名組員專門負責控制載具的機械手臂或眼睛的話，會很有幫助。</p>",
			"crew": "駕駛員*1",
			"pilotingCheck": "駕駛學識(DC 28)或手藝(DC 30)",
			"speed": "5尺，游泳40尺(發條、魔法)",
            "items":{
                "Manipulate Hands":{
                    "name": "操作手部 Manipulate Hands",
                    "description": "<p>一名組員拉動一個操縱桿，就能伸展並控制載具的機械臂。機械手臂無法攻擊，並且無法進行@UUID[Compendium.pf2e.actionspf2e.cYdz2grcOcRt4jk6]{解除裝置 Disable Device}、@UUID[Compendium.pf2e.actionspf2e.RDXXE7wMrSPCLv5k]{偷竊 Steal}、或拔開瓶塞這樣的操作，但是它能持握最多50負載的物品。</p>"
                },
                "Open Eyes":{
                    "name": "睜開眼睛 Open Eyes",
                    "description": "<p>一名組員拉通一個操縱桿，開啟潛航器的眼睛，在20尺內發出明亮光照，在20-40尺範圍內發出昏暗光照。組員能再次拉動操縱桿來關閉眼睛。</p>"
                },
                "Open Portholes":{
                    "name": "開啟舷窗 Open Portholes",
                    "description": "<p> 一名組員拉動操縱桿開啟兩個舷窗，讓組員能看到載具外面的情況，但外面的生物同樣也能看到看到裡面。組員能再次拉動操縱桿來關閉舷窗。</p>"
                },
                "Submersible":{
                    "name": "潛水器 Submersible",
                    "description": "<p>潛水章魚的潛水器可以保護組員和乘客不受水壓的影響，其最大下潛深度能達到5000英尺，它所內含的空氣足夠一名組員呼吸12小時，或足夠駕駛員和乘客呼吸6小時。</p>"
                }
            }
		},
		"Armored Carriage": {
			"name": "裝甲車 Armored Carriage",
			"description": "<p>緩慢且穩定，裝甲車將發條裝置和裝甲外殼結合在一起，提供了安全而舒適的乘坐體驗。</p>",
			"crew": "駕駛員*1",
			"pilotingCheck": "駕駛學識(DC 20)或手藝(DC 22)",
			"speed": "25尺(發條)",
            "items":{
                "Weapon Mount":{
                    "name": "武器搭載 Weapon Mount",
                    "description": "<p>這輛車後部有個可以裝載遠端武器的武器架。購買載具時，這個武器架是空的。將武器安裝到武器架上需要10分鐘，並通過@Check[type:crafting|dc:20|name:Attach weapon]檢定，以及一把適合安裝的武器。</p>"
                },
                "Wind-Up":{
                    "name": "上發條 Wind-Up",
                    "description": "<p>上發條10分鐘，操作時間1小時，解除DC 20，待機</p>"
                }
            }
		},
		"Automated Cycle": {
			"name": "自動機車 Automated Cycle",
			"description": "<p>這種發條機車通過齒輪和傳動裝置提供了大部分動力，這使得在駕駛員不需要通過用腳蹬踏板來維持機車的速度。駕駛員只需要使用踏板和轉向系統來控制載具的速度和方向。該載具配備了兩個車斗，分別位於駕駛員兩側。</p>",
			"crew": "駕駛員*1",
			"pilotingCheck": "駕駛學識(DC 15)或手藝(DC 17)",
			"speed": "30尺(發條)",
            "items":{
                "Sidecars":{
                    "name": "車斗 Sidecars",
                    "description": "<p>載具兩側的每個車斗都能裝載1位乘客或10負載的物品。每當有一個車斗裡裝載了乘客或貨物，該載具的速度就減少5尺。</p>"
                },
                "Wind-Up":{
                    "name": "上發條 Wind-Up",
                    "description": "<p>上發條10分鐘，操作時間1小時，解除DC14，待機</p>"
                }
            }
		},
		"Bathysphere": {
			"name": "Bathysphere",
			"crew": "駕駛員*1",
			"pilotingCheck": "手藝(DC 22), 工程學識(DC 20)，或駕駛學識(DC 20)",
			"speed": "游泳20尺(alchemical, underwater only)"
		},
		"Bone Ship": {
			"name": "Bone Ship",
			"description": "<p>Rarely does anything living remain after a bone ship's passing-only death, destruction, and waves red as blood that clash and foam in its wake. When a bone ship forms, necromantic magic dredges great bones from the seabed and slowly bends them into place with malicious intent. Whales' ribs typically form the timbers of the hull, and their great spinal columns twist into towering masts. Muscles and tendons lash the ship together, tightening and loosening to precisely turn the ship as it sails.</p>\n<p>When a bone ship encounters another vessel or finds some other opportunity to sow death, smaller corpses strewn throughout the ship animate to form a crew and boarding party. Each crew member resembles a humanoid skeleton, but they might be made of bones from multiple creatures. For battle, the ship also creates magical cannons formed of bone that propel bone shards and debris with blasts of magic. The small black gemstones stippled across the ship's structure hold the souls of a drowned crew, for a bone ship is the cursed legacy of dead sailors.</p>\n<p>When mass death happens at sea-often from an entire ship sinking far from shore-the anguish of the dying victims can spawn a bone ship. This event might occur when a sailor makes a final plea to a dark god or when a deity takes the opportunity to bind many dead sailors' souls together as a destructive show of divine power. When not created through divine intervention, a bone ship can grow slowly and organically from one of the ships piloted by the undead sailors known as @UUID[Compendium.pf2e.pathfinder-bestiary-2.48agy7vl9fQW1LLA]{Draugr}. As draugr ships plague the seas and sink other vessels, they can collect more souls and bones, eventually becoming bone ships. These vessels look different from many other bone ships with patchwork or asymmetrical appearances.</p>\n<p>A bone ship is almost gluttonous, possessing an unceasing appetite for death, destruction, and new souls to add to its number. These desires stem from an underlying cause, either placed within the ship by its creator or accreted from the scattered final wishes of its component dead souls. For example, a deity might send a bone ship on a special mission to carry a message or dispose of a particularly persistent adversary or annoyance. Though bone ships usually travel upon the waves, they have no need to breathe and can carry out underwater missions at the behest of their creator.</p>\n<p>Bone ships hold a legendary reputation among sailors. These undead can appear out of nowhere to wreak destruction, and if a crew's bodies are absent from a shipwreck, the calamity might be blamed on a bone ship. The sea can bring death suddenly in many ways, but eternal enslavement of the soul presents a more terrifying fate than death alone.</p>",
			"crew": "駕駛員*1，組員*12",
			"pilotingCheck": "航海學識(DC 40), Religion (DC 38); the ship's propulsion is wind if 航海學識is used, or magical if Religion is used",
			"speed": "游泳40尺"
		},
		"Carriage": {
			"name": "驛馬車 Carriage",
			"crew": "駕駛員*1",
			"pilotingCheck": "駕駛學識(DC 16)或自然(DC 18~DC 26，取決於拖曳生物)",
			"speed": "拖曳生物中速度最慢者（以兩個大型生物拖曳）"
		},
		"Cart": {
			"name": "二輪拖車 Cart",
			"crew": "駕駛員*1",
			"pilotingCheck": "駕駛學識(DC 14)或自然(DC 16~DC 24，取決於拖曳生物)",
			"speed": "拖曳生物的速度（以一個大型生物拖曳）"
		},
		"Cauldron of Flying": {
			"name": "Cauldron of Flying",
			"description": "<p>A large cooking pot 4 feet high and 5 feet in diameter, bulging slightly in the middle and flaring at the top.</p>",
			"crew": "駕駛員*1",
			"pilotingCheck": "奧法(DC 24), 神祕(DC 20)，或駕駛學識(DC 22)",
			"speed": "飛行30尺(魔法)"
		},
		"Chariot, Heavy": {
			"name": "重型馬戰車 Chariot, Heavy",
			"crew": "駕駛員*1",
			"pilotingCheck": "駕駛學識(DC 18)或自然(DC 20~DC 28，取決於拖曳生物)",
			"speed": "拖曳生物中速度最慢者（以兩個大型生物拖曳）"
		},
		"Chariot, Light": {
			"name": "輕型馬戰車 Chariot, Light",
			"crew": "駕駛員*1",
			"pilotingCheck": "駕駛學識(DC 14)或自然(DC 16~DC 24，取決於拖曳生物)",
			"speed": "拖曳生物中速度最慢者（以一個大型生物拖曳）"
		},
		"Cliff Crawler": {
			"name": "Cliff Crawler",
			"crew": "駕駛員*1，組員*2",
			"pilotingCheck": "奧法(DC 29), 工程學識(DC 27), 駕駛學識(DC 27)，或自然(DC 29)",
			"speed": "攀爬40尺(魔法)"
		},
		"Clockwork Borer": {
			"name": "發條鑽孔機 Clockwork Borer",
			"description": "<p>發條鑽孔機實際上是個巨大的金屬鑽頭，附著在一個大型的輪式車輛上。其內部的發條齒輪能移動鑽機並驅動鑽頭，讓它快速穿過鬆軟的物質，甚至能以較慢的速度鑽穿堅硬的岩石。</p>",
			"crew": "駕駛員*1",
			"pilotingCheck": "駕駛學識(DC 26)或手藝(DC 28)",
			"speed": "20尺，掘地10尺(發條)",
            "items":{
                "Adamantine Drill":{
                    "name": "精金鑽頭 Adamantine Drill",
                    "description": "<p>大多數情況下，掘進速度能讓一個生物或載具在鬆軟的泥土中前進，但該載具裝備的精金鑽頭能以每分鐘5尺的速度挖穿基岩和岩石。</p>"
                },
                "Pivoting Seats":{
                    "name": "旋軸座椅 Pivoting Seats",
                    "description": "<p>該載具的座位安裝在一個帶有配重的平臺上，隨著載具的移動，平臺會自動旋轉，並根據重力調整位置。無論載具的位置或角度如何，座位上的生物都能保持頭朝上。</p>"
                },
                "Sluggish":{
                    "name": "笨重 Sluggish",
                    "description": "<p>此載具須行經等同於體長2倍的距離後才能轉向90度。</p>"
                },
                "Wind-Up":{
                    "name": "上發條 Wind-Up",
                    "description": "<p>上發條10分鐘，操作時間1小時，解除DC 26，待機</p>"
                }
            }
		},
		"Clockwork Bumblebee": {
			"name": "Clockwork Bumblebee",
			"description": "<p>This whimsical vehicle carries a small number of passengers and crew. It's capable of short bursts of flight, but the weight of the clockwork mechanisms prevents sustained use. The駕駛員，crew, and passenger all ride on the back, straddling the hull on built-in saddles.</p>",
			"crew": "駕駛員*1，組員*2",
			"pilotingCheck": "手藝(DC 28)或駕駛學識(DC 26)",
			"speed": "飛行30尺(發條)"
		},
		"Clockwork Castle": {
			"name": "發條城堡 Clockwork Castle",
			"description": "<p>雖然名字對於它的大小來說有點誇大，但神奇的發條城堡確實是個巨大的移動堡壘，在10條蜘蛛一樣的發條腿上，是三層如同宮殿一般的住所。傳說中有一棟獨特的發條城堡，比普通的尺寸還要大得多，也許它本身是一件神器。</p>",
			"crew": "駕駛員*1，組員*2",
			"pilotingCheck": "駕駛學識(DC 35), 奧法(DC 39)，或手藝(DC 37)",
			"speed": "40尺(發條、魔法)",
            "items":{
                "Environmental Protections":{
                    "name": "環境保護 Environmental Protections",
                    "description": "<p>此載具的內部溫度被被魔法恆定。此載具內的人員可免受嚴寒、炎熱、極寒和熾熱環境的影響。</p>"
                },
                "Luxurious Accommodations":{
                    "name": "奢華豪宅 Luxurious Accommodations",
                    "description": "<p>該載具包含艦橋、機械間、最多能容納13個生物的私人臥房、以及4個額外的房間（通常為餐廳、廚房、衛生間和會議室）。</p>"
                },
                "Maneuverable":{
                    "name": "機動性 Maneuverable",
                    "description": "<p>該載具有十條蜘蛛腿，讓它能快速轉彎，原地轉向，甚至後退。每進行一次90度轉彎都需要花費5尺移動力；例如，如果載具原地掉頭，然後向反方向移動，就需要花費10尺額外移動力。此載具一旦@UUID[Compendium.pf2e.conditionitems.6dNUvdb1dhToNDj3]{破損 Broken}就無法使用此能力。</p>"
                },
                "Weapon Mounts":{
                    "name": "武器搭載 Weapon Mounts",
                    "description": "<p>載具有四個武器搭載點；每個角落各有一個。購買載具時，武器架是空的。將武器安裝到武器架上需要10分鐘，並通過@Check[type:crafting|dc:35|name:Attach a weapon]檢定，以及一把適合安裝的武器。其中三個武器架可以裝載遠端武器，第四個武器架可以裝載體型不超過大型的攻城武器。</p>"
                },
                "Skewering Step":{
                    "name": "穿刺步伐 Skewering Step",
                    "description": "<p>載具的2名組員每人在他們的回合中執行一個3動作行動，用城堡的腿刺穿周圍的敵人。在第二個組員的回合結束時，載具下方或相鄰的每個生物都會受到[[/r (7d8)[piercing]]]{7d8穿刺傷害}（@Check[type:reflex|dc:35|basic:true|name:Avoid leg]豁免）。</p>"
                },
                "Wind-Up":{
                    "name": "上發條 Wind-Up",
                    "description": "<p>上發條10分鐘，操作時間1小時，解除DC 35，待機</p>"
                }
            }
		},
		"Clockwork Wagon": {
			"name": "發條貨車 Clockwork Wagon",
			"description": "<p>發條貨車是重緩慢而笨重的馬車，內部和外部都有各種齒輪和傳動裝置，它能拉動大約兩倍於普通馬車的活物。然而，它的乘客空間比普通馬車要少。</p>",
			"crew": "駕駛員*1",
			"pilotingCheck": "駕駛學識(DC 18)或手藝(DC 20)",
			"speed": "20尺(發條)",
            "items":{
                "Hauler":{
                    "name": "貨倉 Hauler",
                    "description": "<p>這種載具被設計用來遠距離運輸重型貨物。它可容納總計400負載的貨物。</p>"
                },
                "Sluggish":{
                    "name": "笨重 Sluggish",
                    "description": "<p>此載具須行經等同於體長2倍的距離後才能轉向90度。</p>"
                },
                "Wind-Up":{
                    "name": "上發條 Wind-Up",
                    "description": "<p>上發條1小時，操作時間8小時，解除DC 18，待機</p>"
                }
            }
		},
		"Clunkerjunker": {
			"name": "破爛垃圾車 Clunkerjunker",
			"description": "<p>破爛垃圾車是地精們的最愛，它本質上是一輛由垃圾拼湊成的裝甲推車，使用易揮發的化學物質、爆炸和鍊金反應來推動自己顛簸前行。雖然創意令人應先深刻，並且製作成本超低，但不幸的是，這些垃圾很容故障，導致釀成災難。</p>",
			"crew": "駕駛員*1",
			"pilotingCheck": "駕駛學識(DC 16)或手藝(DC 18)",
			"speed": "30尺(鍊金)",
            "items":{
                "Volatile Flamethrower":{
                    "name": "不穩定火焰噴射器 Volatile Flamethrower",
                    "description": "<p>駕駛員在自己的回合中花費3個動作，讓載具側面噴出鍊金之火。這需要消耗3瓶下等熾火膠（minor alchemist’s fire），作為該行動的一部分，駕駛員會將其裝填進去。駕駛員必須嘗試@Check[type:flat|dc:5]檢定。如果成功，和該載具相鄰的生物受到[[/r (1d8)[fire]]]{1d8火焰傷害}（@Check[type:reflex|dc:15|basic:true|name:Avoid Flames]豁免）。如果純骰檢定失敗，會發生逆火，對駕駛員和乘客造成[[/r (1d8)[fire]]]{1d8火焰傷害}（無豁免）。</p>"
                },
                "Fall Apart":{
                    "name": "土崩瓦解 Fall Apart",
                    "description": "<p>當此載具遭受物理傷害時，駕駛員必須嘗試一次@Check[type:flat|dc:11]檢定（遭受重擊時為@Check[type:flat|dc:20]檢定）。如果失敗，裝甲外殼會破裂，載具失去它的硬度，並且AC受到-4減值。</p>"
                },
                "Smog":{
                    "name": "煙幕 Smog",
                    "description": "<p>@Template[type:emanation|distance:10]{10尺} @UUID[Compendium.pf2e.bestiary-ability-glossary-srd.v61oEQaDdcRpaZ9X]{靈光}</p>\n<hr />\n<p>當此載具開動時，它都會不斷噴出煙霧和化學物質。靈光中的生物（包括駕駛員和乘客）基於視覺的察覺檢定有-1環境減值。</p>"
                }
            }
		},
		"Cutter": {
			"name": "Cutter",
			"crew": "駕駛員*1，組員*3",
			"pilotingCheck": "自然(DC 24)或航海學識(DC 22)",
			"speed": "游泳30尺(風力)"
		},
		"Firefly": {
			"name": "螢火蟲 Firefly",
			"description": "<p>螢火蟲融合了魔法和科技，利用魔法和磁懸浮原理在地面上方滑翔。雖然螢火蟲更像一個四方盒子，而非昆蟲的形狀，但它的名字來源於驅動它的魔法電能所發出的持續不斷的光芒，以及載具兩側伸出的穩定磁鐵，其位置看起來像和昆蟲的翅膀大致相同。</p>",
			"crew": "駕駛員*1",
			"pilotingCheck": "駕駛學識(DC 20), 奧法(DC 22)，或手藝(DC 22)",
			"speed": "懸浮20尺(電力、魔法)",
            "items":{
                "Flash":{
                    "name": "閃光 Flash",
                    "description": "<p>駕駛員讓載具超載，使其發出燦爛的光芒。任何位於其發光靈光的明亮光照範圍內的生物，必須通過@Check[type:fortitude|dc:19|name:Avoid flash]豁免檢定，否則@UUID[Compendium.pf2e.conditionitems.TkIyaNPgTZFBCCuh]{目眩 Dazzled}1分鐘。螢火蟲的光芒會暗淡10分鐘，其發光能力被減少為10尺昏暗光照，在此期間無法使用閃光能力。如果螢火蟲處於破損狀態，閃光將無法使用。</p>"
                },
                "Glow":{
                    "name": "發光 Glow",
                    "description": "<p>此載具由魔法電能驅動，在20尺範圍內發出明亮光照，在20-40尺範圍內發出昏暗光照。</p>"
                },
                "Hover":{
                    "name": "懸浮 Hover",
                    "description": "<p>這個飛行器採用快速旋轉的螺旋槳升空，讓它能在1尺高的空中懸浮。它無法飛得更高，當飛行員停止魔法或載具破損時，它會下降1尺並落在地面。</p>"
                }
            }
		},
		"Firework Pogo": {
			"name": "Firework Pogo",
			"crew": "駕駛員*1",
			"pilotingCheck": "手藝(DC 21)或駕駛學識(DC 19)",
			"speed": "Jump Jet (鍊金)"
		},
		"Galley": {
			"name": "槳帆船 Galley",
			"crew": "駕駛員*1，槳手*20",
			"pilotingCheck": "航海學識(DC 27), 交涉(DC 29)，或威嚇(DC 29)",
			"speed": "游泳30尺(划槳、風力)",
            "items":{
                "Maneuverable":{
                    "name": "靈活 Maneuverable",
                    "description": "<p>透過熟練槳手的靈巧操作，槳帆船可以快速轉向、原地迴轉甚至倒船逆行。順著航向移動未滿船長時依然可進行90度轉向，但此時每次轉向額外消耗5'移動距離。槳帆船可划槳逆行，但逆行時速度減半且不可轉向。</p>"
                }
            }
		},
		"Glider": {
			"name": "滑翔翼 Glider",
			"crew": "駕駛員*1",
			"pilotingCheck": "駕駛學識(DC 14)或自然(DC 16)",
			"speed": "飛行25尺(風力)",
            "items":{
                "Starting Drop":{
                    "name": "跳落起飛 Starting Drop",
                    "description": "<p>能讓此滑翔翼起飛的唯一手段即是在風向良好時從懸崖上跳落。此時滑翔翼失控且每輪墜落60'，直到操作員成功接管操作。若墜落地面前操作員都未能成功@UUID[Compendium.pf2e.actionspf2e.yh9O9BQjwWrAIiuf]{接管 Takes Control}操作，則操作員與滑翔翼都承受墜落傷害。</p>"
                }
            }
		},
		"Hillcross Glider": {
			"name": "Hillcross Glider",
			"description": "<p>Hillcross gliders are made of bone and stretched hide, tied together with</p>\n<p>sinew, and sealed with a glue made from animal fat.</p>",
			"crew": "駕駛員*1",
			"pilotingCheck": "駕駛學識(DC 19)或自然(DC 21)",
			"speed": "飛行35尺(風力)"
		},
		"Mobile Inn": {
			"name": "移動旅店 Mobile Inn",
			"description": "<p>移動旅店實際上是裝甲車的升級版，它提供了簡單（且擁擠）的旅店服務，讓富有的旅行者更能忍受長途旅行。這種載具本質上是個帶輪子的小旅館，有鍊金催化劑和蒸汽機提供動力，配備有爐子、儲物櫃、臉盆、桌子、兩條長凳以及一個能容納4個人的緊湊臥室。它可以被改修成只容納一名乘客但舒適度顯著提升的版本，也可以改修成拆除隔間但能容納5名乘客的版本。</p>",
			"crew": "駕駛員*1",
			"pilotingCheck": "駕駛學識(DC 24)或手藝(DC 26)",
			"speed": "速度30尺(鍊金)"
		},
		"Rowboat": {
			"name": "划艇 Rowboat",
			"crew": "駕駛員*1",
			"pilotingCheck": "運動(DC 16)或航海學識(DC 14)",
			"speed": "游泳20尺(划槳)",
            "items":{
                "Portaged":{
                    "name": "便攜 Portaged",
                    "description": "<p>划艇可由兩個中型生物或一個大型生物搬運，搬運時生物陷入超載。</p>"
                }
            }
		},
		"Sailing Ship": {
			"name": "帆船 Sailing Ship",
			"crew": "駕駛員*1，組員*8",
			"pilotingCheck": "航海學識(DC 26), 交涉(DC 28)，或威嚇(DC 28)",
			"speed": "游泳40尺(風力)",
            "items":{
                "Sluggish":{
                    "name": "笨重 Sluggish",
                    "description": "<p>此載具須行經等同於體長2倍的距離後才能轉向90度。</p>"
                }
            }
		},
		"Sand Barge": {
			"name": "Sand Barge",
			"crew": "駕駛員*1，組員*2",
			"pilotingCheck": "交涉(DC 24), 威嚇(DC 24)，或航海學識(DC 22)",
			"speed": "40尺(划槳、風力)"
		},
		"Sand Diver": {
			"name": "潛沙器 Sand Diver",
			"description": "<p>潛沙器是一種形似蠍子的載具，利用鍊金反應來推動自身前進。它的尾巴結構充當了散熱器的作用，並且在載具掘洞時在身後施放鍊金氣體。它的前方不是鉗子，而是兩個挖掘裝置，可以在沙子裡掘進。</p>",
			"crew": "駕駛員*1",
			"pilotingCheck": "駕駛學識(DC 18)或手藝(DC 20)",
			"speed": "20尺，掘地10尺(鍊金)",
            "items":{
                "Shard Trail":{
                    "name": "碎渣尾跡 Shard Trail",
                    "description": "<p>潛沙器只能在沙子裡@UUID[Compendium.pf2e.actionspf2e.H6v1VgowHaKHnVlG]{掘地 Burrow}，利用來自鍊金核心的熱量和火焰慢慢挖出一條通道來。當它在沙子中挖洞時，它排出的鍊金氣體會留在地下，會將沙子轉變為類似玻璃樣的副產物。如果有生物在掘進時，穿過了載具過去24小時內的挖掘路線，將會因為玻璃渣而受到[[/r (1d12)[piercing]]]{1d12穿刺傷害}（@Check[type:fortitude|dc:17|basic:true|name:Avoid shards]豁免）。如果生物沿著潛沙器掘進路徑的同一空間掘進，就必須在每輪第一次掘進時嘗試此豁免檢定。</p>"
                },
                "Sluggish":{
                    "name": "笨重 Sluggish",
                    "description": "<p>此載具須行經等同於體長2倍的距離後才能轉向90度。</p>"
                }
            }
		},
		"Sandsailer": {
			"name": "Sandsailer",
			"crew": "駕駛員*1，組員*2",
			"pilotingCheck": "運動(DC 39), 駕駛學識(DC 34), 航海學識(DC 34)，或自然(DC 39)",
			"speed": "80尺(風力)"
		},
		"Second Kiss": {
			"name": "二度之吻 Second Kiss",
			"description": "<p>二度之吻號是一艘巨大的硬式飛艇。橢圓形的織物包裹在木頭和金屬組成的框架上，裡面裝有十二個密封的弗洛寧氣囊，為飛艇提供升力。船艙兩側安裝了一對發條驅動的螺旋槳，提供前進的動力。船員們則使用安裝在四個巨大尾翼中的舵和副翼來駕駛這艘船。</p>",
			"crew": "駕駛員*1，組員*3",
			"pilotingCheck": "駕駛學識(DC 30)或手藝(DC 32)",
			"speed": "飛行30",
            "items":{
                "Sluggish":{
                    "name": "笨重 Sluggish",
                    "description": "<p>此載具須行經等同於體長2倍的距離後才能轉向90度。</p>"
                }
            }
		},
		"Shark Diver": {
			"name": "Shark Diver",
			"crew": "駕駛員*1，組員*4",
			"pilotingCheck": "手藝(DC 30)或駕駛學識(DC 28)",
			"speed": "游泳40尺(鍊金)"
		},
		"Sleigh": {
			"name": "雪橇 Sleigh",
			"crew": "駕駛員*1",
			"pilotingCheck": "駕駛學識(DC 15)或自然(DC 17~DC 25，取決於拖曳生物)",
			"speed": "拖曳生物中速度最慢者(以兩個大型生物或6箇中型生物拖曳)",
            "items":{
                "Sluggish":{
                    "name": "笨重 Sluggish",
                    "description": "<p>此載具須行經等同於體長2倍的距離後才能轉向90度。</p>"
                }
            }
		},
		"Snail Coach": {
			"name": "蝸牛客車 Snail Coach",
			"description": "<p>蝸牛客車的外形和名字相似，是一種由魔法和鍊金術催化劑聯合驅動的載具，有堅硬的外殼以保護自己免受攻擊。它留下的粘液既能攀爬，又能給追擊的敵人留下障礙。</p>",
			"crew": "駕駛員*1",
			"pilotingCheck": "駕駛學識(DC 23)或手藝(DC 25)",
			"speed": "15尺，攀爬15尺(鍊金、魔法)",
            "items":{
                "Adhesive Secretions":{
                    "name": "粘液分泌 Adhesive Secretions",
                    "description": "<p>該載具能分泌一種鍊金粘合劑，讓它能粘在固體表面並爬上去。粘液所佔據的空間在1輪內被視為困難地形。任何生物，如果在粘液裡結束回合，必須通過@Check[type:reflex|dc:23|name:Avoid adhesive]檢定，否則速度會受到-10尺減值，持續1輪。如果大失敗，生物還會被@UUID[Compendium.pf2e.conditionitems.eIcWbB5o3pP6OIMe]{禁足 Immobilized}1輪（@UUID[Compendium.pf2e.actionspf2e.SkZAQRkLLkmBQNB9]{逃脫 Escape}DC 23）。</p>"
                }
            }
		},
		"Speedster": {
			"name": "神速機 Speedster",
			"description": "<p>神速機是一種輕便的流線型的混合了發條和蒸汽動力的鍊金底盤，外觀大致為馬或者其他為速度而生的生物。神速機是一種告訴移動的載具，可以在短時間內通過快速施放儲存的蒸汽壓力來進行加速。</p>",
			"crew": "駕駛員*1",
			"pilotingCheck": "駕駛學識(DC 27)或手藝(DC 29)",
			"speed": "50尺(鍊金、發條)",
            "items":{
                "Speed Boost":{
                    "name": "增壓 Speed Boost",
                    "description": "<p>駕駛員增壓神速機的鍊金蒸汽引擎，在短時間內提高速度。在[[/r 1d4 #rounds]]{1d4輪}內，神速機的速度變為80尺，並且駕駛員進行的所有移動動作都獲得魯莽特徵。當駕駛員採取已經帶有魯莽特徵的動作時，駕駛員的檢定結果將下降一個成功度。神速機無法在1小時內再次增壓，因為壓力需要重新蓄積。</p>"
                },
                "Streamlined":{
                    "name": "流線型 Streamlined",
                    "description": "<p>該載具沒有額外的貨物儲存空間。</p>"
                },
                "Wind-Up":{
                    "name": "上發條 Wind-Up",
                    "description": "<p>上發條10分鐘，操作時間2小時，解除DC 28，待機</p>"
                }
            }
		},
		"Steam Cart": {
			"name": "蒸汽車 Steam Cart",
			"description": "<p>蒸汽車看起來像一個裝著鍊金鍋爐的推車，通過簡單的蒸汽引擎產生蒸汽來推動載具移動。</p>",
			"crew": "駕駛員*1",
			"pilotingCheck": "駕駛學識(DC 16)或手藝(DC 18)",
			"speed": "25尺(鍊金)",
            "items":{
                "Steam Cloud":{
                    "name": "蒸汽雲 Steam Cloud",
                    "description": "<p>每當蒸汽車因碰撞受到傷害時，它的引擎都會噴出5尺瀰漫範圍的蒸汽雲。蒸汽車和所有在蒸汽中的生物都獲得隱蔽狀態，蒸汽雲外的生物對蒸汽雲裡的生物而言也視為@UUID[Compendium.pf2e.conditionitems.DmAIPqOBomZ7H95W]{隱蔽 Concealed}狀態。蒸汽雲將在1輪內消散。</p>"
                }
            }
		},
		"Steam Giant": {
			"name": "蒸汽巨人 Steam Giant",
			"crew": "駕駛員*1，組員*3",
			"pilotingCheck": "駕駛學識(DC 32)或手藝(DC 34)",
			"speed": "20尺(鍊金)",
            "items":{
                "Flame Jet":{
                    "name": "烈焰噴射 Flame Jet",
                    "description": "<p>兩個組員可分別進行此3動作行動，在第二個完成行動的組員結束回合時，產生由蒸汽巨人佔據空間內任一格的任一角落發源的烈焰噴射。此烈焰會向30尺錐狀區域內的所有生物造成[[/r (6d8)[fire]]]{6d8火焰傷害}（@Check[type:reflex|dc:32|basic:true]豁免）。蒸汽巨人破損時無法使用烈焰噴射。</p>"
                }
            }
		},
		"Steam Trolley": {
			"name": "蒸汽客車 Steam Trolley",
			"description": "<p>蒸汽客車本質是一種更大的蒸汽車，有一種更加笨重的鍊金鍋爐，提供更強勁的蒸汽動力。</p>",
			"crew": "駕駛員*1，組員*1",
			"pilotingCheck": "駕駛學識(DC 19)或手藝(DC 21)",
			"speed": "25尺(鍊金)"
		},
		"Strider": {
			"name": "Strider",
			"crew": "駕駛員*1",
			"pilotingCheck": "奧法(DC 25), 手藝(DC 25), 工程學識(DC 23)，或駕駛學識(DC 23)",
			"speed": "30尺(鍊金、魔法)"
		},
		"Titanic Stomper": {
			"name": "巨無霸踐踏者 Titanic Stomper",
			"description": "<p>巨無霸踐踏者可以算得上是烏斯塔拉夫最危險的載具之一，結合了魔法和最新的線圈技術，它被精心地安裝在一個巨大的斯塔西亞線圈和八條巨大的踐踏腿上，形狀像一條長長的蜥蜴或青足龍蛇。巨無霸踐踏者是用來對付不死軍團的。目前只剩下兩臺，這導致它們幾乎獨一無二，而製造更多這樣的載具則困難重重，因為它的幾個關鍵發明者在設計後續型號的過程中被殺了。這是一種更小且更強大的機械裝甲，被稱為Grobelarch ，在製造過程中突然失控並殺死了它的創造者。</p>",
			"crew": "駕駛員*1，組員*3",
			"pilotingCheck": "駕駛學識(DC 34)或手藝",
			"speed": "40尺，(電力、魔法)",
            "items":{
                "Bolt Blast":{
                    "name": "閃電爆發 Bolt Blast",
                    "description": "<p>載具的2名組員每人在他們的回合中執行一個3動作行動，在第二個組員的回合結束時發射一道閃電。這條閃電從巨無霸踐踏者前方以組員所選擇的角度噴射出來，對120尺直線上所有生物造成[[/r (5d12)[electricity]]]{5d12電擊傷害}（@Check[type:reflex|dc:34|basic:true|name:Avoid the blast]豁免）。如果巨無霸踐踏者處於@UUID[Compendium.pf2e.conditionitems.6dNUvdb1dhToNDj3]{破損 Broken}狀態，就無法發射閃電。</p>"
                },
                "Electrical Absorption":{
                    "name": "電能吸收 Electrical Absorption",
                    "description": "<p><strong>觸發</strong> 巨無霸踐踏者被造成電擊傷害的效果作為目標，或位於造成電擊傷害的效果範圍內；</p>\n<hr />\n<p><strong>效果</strong> 駕駛員用它的反應動作啟動斯塔西亞線圈，引導電流進入巨無霸踐踏者的電能引擎中。在接下來的1分鐘內，閃電爆發的傷害增加到[[/r (7d12)[electricity]]]{7d12電擊傷害}。</p>"
                },
                "Quaking Step":{
                    "name": "震顫步伐 Quaking Step",
                    "description": "<p>巨無霸踐踏者每走一步，地面都會震動。當載具移動時其移動路徑20尺範圍內的所有地面生物都必須嘗試@Check[type:reflex|dc:32|name:Stay standing]豁免。如果失敗，它們就會@UUID[Compendium.pf2e.conditionitems.AJh5ex99aV6VTggg]{措手不及 Flat-Footed}1輪，如果大失敗，它們會被擊@UUID[Compendium.pf2e.conditionitems.j91X7x0XSomq8d60]{倒地 Prone}。</p>"
                }
            }
		},
		"Velocipede": {
			"name": "Velocipede",
			"crew": "駕駛員*1",
			"pilotingCheck": "運動(DC 15)或駕駛學識(DC 17)",
			"speed": "The Speed of the pilot (pedaled [as rowed])"
		},
		"Vonthos's Golden Bridge": {
			"name": "馮託斯的金橋 Vonthos's Golden Bridge",
			"description": "<p>這個奇怪的載具由法師馮託斯製造，作為他參加艾巴薩羅姆的星石試煉時所進行的努力準備的一部分，這件載具被認為是魔法和科技結合的奇蹟。馮託斯的金橋是一個由王座製成的飛行球體，周圍環繞著鑲嵌著黃金和寶石的發條環，上面被注入了強力的自適應防護法術，因此賦予它獨特的能力。</p>",
			"crew": "駕駛員*1",
			"pilotingCheck": "駕駛學識(DC 36)或奧法(DC 38)",
			"speed": "飛行40尺(發條、魔法)",
            "items":{
                "Captivating Wealth":{
                    "name": "迷人財富 Captivating Wealth",
                    "description": "<p>@Template[type:emanation|distance:40]{40尺} @UUID[Compendium.pf2e.bestiary-ability-glossary-srd.v61oEQaDdcRpaZ9X]{靈光}</p>\n<hr />\n<p>黃金、寶石和其他珍寶裝飾著這個飛行球體，散發著使生物著迷的光輝。每一個在靈光中開始其回合的生物，都必須嘗試@Check[type:will|dc:36|traits:magic]豁免；如果失敗，該生物陷入@UUID[Compendium.pf2e.conditionitems.AdPVz7rbaVSRxHFg]{迷魂 Fascinated}和@UUID[Compendium.pf2e.conditionitems.e1XGnhKNSQIm5IXg]{呆滯 Stupefied 2}，直到其不在位於靈光範圍。通過豁免的生物將在1小時內對此臨時免疫。每當駕駛員啟動稜鏡防禦時，迷人財富的範圍就會減少10尺，持續1小時，直到減少為0尺。</p>"
                },
                "Protective Barrier":{
                    "name": "防護屏障 Protective Barrier",
                    "description": "<p>載具周圍環繞著的圓環雖然無法完全覆蓋駕駛員，但卻提供了不可思議的防護，神奇地維持著內部的溫度並抵消物理攻擊。駕駛員可免受嚴寒、炎熱、極寒和熾熱環境的影響。駕駛員還獲得針對所有物理傷害型別的10點抗力（除了精金）。</p>"
                },
                "Prismatic Defense":{
                    "name": "稜鏡防禦 Prismatic Defense",
                    "description": "<p>駕駛員利用隱藏在載具華麗裝飾中的魔法寶石獲得額外的防護能力。該載具獲得20抗力，針對以下單獨一種能量傷害型別：酸液、寒冷、電擊、火焰、力場或音波。此抗力將一直持續到駕駛員下次啟動稜鏡防禦時為止。</p>"
                },
                "Wind-Up":{
                    "name": "上發條 Wind-Up",
                    "description": "<p>上發條10分鐘，操作時間1小時，解除DC 37，待機</p>"
                }
            }
		},
		"Wagon": {
			"name": "四輪拖車 Wagon",
			"crew": "駕駛員*1",
			"pilotingCheck": "駕駛學識(DC 15)或自然(DC 17~DC 25，取決於拖曳生物)",
			"speed": "拖曳生物中速度最慢者（以兩個大型生物拖曳）"
		},
		"Sky Chariot, Medium": {
			"name": "中型御天戰車 Sky Chariot, Medium",
			"crew": "駕駛員*1",
			"pilotingCheck": "奧法（DC 29），自然（DC 29到37，取決於拉車的生物），或駕駛學識（DC 27）",
			"speed": "由拉車生物中飛行速度最慢的決定（拉車生物可以是四個大型生物、兩個超大型生物或一個巨型生物）"
		},
		"Clockwork Hopper": {
			"name": "發條蹦蹦 Clockwork Hopper",
			"description": "<p>發條蹦蹦的樣子看上去像一隻大兔子，可以像跳躍一樣大步前進，避開地形障礙，但是跳躍時很顛簸，會導致一些駕駛員暈車。</p>",
			"crew": "駕駛員*1",
			"pilotingCheck": "駕駛學識（DC 22）或手藝（DC 24）",
			"speed": "35尺（發條）",
            "items":{
                "Hopper":{
                    "name": "彈跳 Hopper",
                    "description": "<p>這輛車是跳躍著在地面上移動的。發條蹦蹦會忽略泥土、岩石、碎石、斜坡和灌木叢造成的困難地形，由這些地表特徵產生的高等困難地形對於發條蹦蹦來說只是困難地形。</p>"
                },
                "Wind-Up":{
                    "name": "上發條 Wind-Up",
                    "description": "<p>上發條10分鐘，操作時間1小時，解除DC22，待機</p>"
                },
                "massive Jump":{
                    "name": "奮力一躍 Massive Jump",
                    "description": "<p>駕駛員將使用彈簧驅動裝置，將發條蹦蹦彈射到空中，進行一次大跳。該載具能在不接觸地面的情況下向前直線跳躍，向前方移動最多70尺和向上移動最多30尺，最後落在固體表面上。發條蹦蹦著陸空間相鄰的生物受到[[/r (4d10)[bludgeoning]]]{4d10鈍擊傷害}，@Check[type:reflex|dc:22|basic:true|name:Avoid clockwork hopper]豁免，如果大失敗，則會被擊@UUID[Compendium.pf2e.conditionitems.j91X7x0XSomq8d60]{倒地 Prone}。發條蹦蹦在1分鐘內無法再次使用奮力一躍。如果發條蹦蹦處於@UUID[Compendium.pf2e.conditionitems.6dNUvdb1dhToNDj3]{破損 Broken}狀態，奮力一躍將無法使用。</p>"
                }
            }
		},
		"Sky Chariot, Light": {
			"name": "輕型御天戰車 Sky Chariot, Light",
			"crew": "駕駛員*1",
			"pilotingCheck": "奧法（DC 25），自然（DC 25到33，取決於拉車的生物），或駕駛學識（DC 23）",
			"speed": "由拉車生物中飛行速度最慢的決定（拉車生物可以是兩個大型生物或一個超大型生物）"
		},
		"Sky Chariot, Heavy": {
			"name": "重型御天戰車 Sky Chariot, Heavy",
			"crew": "駕駛員*1",
			"pilotingCheck": "奧法（DC 33），自然（DC 33到41，取決於拉車的生物），或駕駛學識（DC 31）",
			"speed": "由拉車生物中飛行速度最慢的決定（拉車生物可以是六個大型生物、兩個超大型生物或一個巨型生物）"
		}
	}
}