{
    "label": "心能者心能戲法 Psychic Psi cantrips",
    "entries": {
        "Dancing Lights (Amped)": {
            "name": "舞光術(增幅) Dancing Lights (Amped)",
            "description": "<p>你創造最多四個懸浮的光源，任意兩者之間距離不超過10尺。每個光源都會發出如同火炬的光亮。當你維持該法術時，你可以移動每個光源至多60尺。</p>\n<p>你的舞光術可以漂浮在任何你喜歡的位置。在創造出舞光術後，它們可以移動到彼此的10尺之外，以及移動到你的120尺外。你也獲得如下增幅：</p>\n<p><strong>增幅</strong> 你的光源一齊旋轉，令人眼花繚亂。當你施展法術時，你會在一個無人的5尺方格內創造一個由四個光源組成的閃動圖樣。如果你在維持法術時移動這些光源，這些光源必須保持在一起。該法術獲得視覺特性。當你施法時，在光源周圍5尺範圍內的每個生物都必須進行一次強韌豁免。</p>\n<hr />\n<p><strong>成功</strong> 該生物會@UUID[Compendium.pf2e.conditionitems.Dazzled]{目眩 Dazzled}，直到你下一回合開始，然後在1分鐘內暫時免疫。</p>\n<p><strong>失敗</strong> 該生物會@UUID[Compendium.pf2e.conditionitems.Dazzled]{目眩 Dazzled}，直到你的下一回合開始，並且每當它與舞光相鄰並開始回合時，都必須嘗試一次新的豁免。</p>\n<p><strong>大失敗</strong> 和失敗一樣，但該生物也會被舞光@UUID[Compendium.pf2e.conditionitems.Fascinated]{迷魂 Fascinated}，直到你下一回合開始。</p>"
        },
        "Dancing Lights (Psychic)": {
            "name": "舞光術(心能者) Dancing Lights (Psychic)",
            "description": "<p>你創造最多四個懸浮的光源，任意兩者之間距離不超過10尺。每個光源都會發出如同火炬的光亮。當你維持該法術時，你可以移動每個光源至多60尺。</p>\n<p>你的舞光術可以漂浮在任何你喜歡的位置。在創造出舞光術後，它們可以移動到彼此的10尺之外，以及移動到你的120尺外。</p>"
        },
        "Daze (Amped)": {
            "name": "暈眩術(增幅) Daze (Amped)",
            "description": "<p>該法術創造的一股能量動搖了目標的心防，讓其更易受到接下來的心能攻擊。法術的傷害骰改為1d10。目標必須嘗試一次基礎意志豁免。如果目標在豁免中大失敗，它獲得 @UUID[Compendium.pf2e.conditionitems.dfCMdR4wnpbYNTix]{震懾 Stunned 1}。</p>\n<p>如果目標在意志豁免中失敗，它獲得1點心靈傷害的弱點，並在意志豁免上承受-1狀態減值，直到你的下回合結束。大失敗時，弱點變成3，目標也陷入@UUID[Compendium.pf2e.conditionitems.Stunned]{震懾 Stunned 1}。弱點在暈眩術造成傷害之前應用。</p>\n<hr />\n<p><strong>增幅升階（+2）</strong> 失敗或大失敗的弱點都提升1，法術傷害增加2d10。</p>"
        },
        "Daze (Psychic)": {
            "name": "暈眩術(心能者) Daze (Psychic)",
            "description": "<p>你矇蔽了目標的精神，利用精神衝擊令目標暈眩。這股衝擊造成等於你的施法屬性調整值的心靈傷害；目標必須嘗試一次基礎意志豁免。如果目標在豁免中大失敗，它獲得 @UUID[Compendium.pf2e.conditionitems.dfCMdR4wnpbYNTix]{震懾 Stunned 1}。</p>\n<hr />\n<p><strong>升階 (+2)</strong> 該傷害增加1d6。</p>"
        },
        "Detect Magic (Amped)": {
            "name": "偵測魔法(增幅) Detect Magic (Amped)",
            "description": "<p>你發出一股標記魔法存在的脈衝。你不會獲得魔法存在或不存在以外的任何資訊。你可以選擇忽略你完全知曉的魔法，例如你或者你盟友的魔法物品以及持續法術。</p>\n<p>僅當幻術魔法的環級低於你的偵測魔法環級時，你才能偵測幻術魔法。但是，具有幻術靈光但是沒有在外表上做偽裝的物品（例如一瓶隱形術藥水），通常能夠正常偵測。</p>\n<p>你擁有其他施法者夢寐以求的精細掌控技巧。當你施展偵測魔法時，你會察覺到範圍中的任何受到法術影響或攜帶魔法物品的生物，並且你會確定範圍中任何魔法危害當中的主要魔法位置（對於偵測幻象有正常的限制）。這通常表現為你視野的改變，比如看到生物或危害周圍有一個柔和的光環。對這些現象的感應並不能使你清楚地知道生物身上的是哪種法術，也不能知道它的哪些物品是有魔法的。</p>\n<p>你偵測魔法的脈衝幫助你感覺到附近魔法的強項或弱點。當你探測到敵人或危害上有魔法存在時，你會在3個回合內獲得對來自該敵人或危害的魔法的豁免+1狀態加值。如果你在一次施放偵測魔法的過程中發現了多個魔法來源，你將獲得對所有這些魔法的加值。</p>\n<hr />\n<p><strong>升階 (3環)</strong> 你會了解法術偵測區域中最高環級的效果的學派。如果有相同強度的多個效果，GM決定你瞭解的為哪一個。</p>\n<p><strong>升階 (4環)</strong> 如3環級，你也能指出最高環級魔法的來源。如同一種模糊感官，你不會了解具體的位置，但是可以將來源鎖定到5尺立方（或者最近的那個5尺立方，如果來源體積比這個區域更大）。</p>\n<p><strong>增幅升階（7環）</strong> 對魔法的豁免狀態加值增加到+2。</p>"
        },
        "Detect Magic (Psychic)": {
            "name": "偵測魔法(心能者) Detect Magic (Psychic)",
            "description": "<p>你發出一股標記魔法存在的脈衝。你不會獲得魔法存在或不存在以外的任何資訊。你可以選擇忽略你完全知曉的魔法，例如你或者你盟友的魔法物品以及持續法術。</p>\n<p>僅當幻術魔法的環級低於你的偵測魔法環級時，你才能偵測幻術魔法。但是，具有幻術靈光但是沒有在外表上做偽裝的物品（例如一瓶隱形術藥水），通常能夠正常偵測。</p>\n<p>你擁有其他施法者夢寐以求的精細掌控技巧。當你施展偵測魔法時，你會察覺到範圍中的任何受到法術影響或攜帶魔法物品的生物，並且你會確定範圍中任何魔法危害當中的主要魔法位置（對於偵測幻象有正常的限制）。這通常表現為你視野的改變，比如看到生物或危害周圍有一個柔和的光環。對這些現象的感應並不能使你清楚地知道生物身上的是哪種法術，也不能知道它的哪些物品是有魔法的。</p>\n<hr />\n<p><strong>升階 (3環)</strong> 你會了解法術偵測區域中最高環級的效果的學派。如果有相同強度的多個效果，GM決定你瞭解的為哪一個。</p>\n<p><strong>升階 (4環)</strong> 如3環級，你也能指出最高環級魔法的來源。如同一種模糊感官，你不會了解具體的位置，但是可以將來源鎖定到5尺立方（或者最近的那個5尺立方，如果來源體積比這個區域更大）。</p>"
        },
        "Guidance (Amped)": {
            "name": "神導術(增幅) Guidance (Amped)",
            "description": "<p>你請求神力的引導，賦予目標在持續時間結束前的一次攻擊骰，察覺檢定，豁免骰，或者技能檢定上獲得+1狀態加值。目標在擲骰前選擇是否使用該加值。如果目標使用該加值，該法術結束。無論怎樣結束，該目標接下來會暫時免疫1小時。</p>\n<p>增幅 你可以在關鍵時刻向你的盟友投射出一閃的洞見，使他們免於失敗。增幅的神導術不會導致生物暫時對神導術免疫，而且即使生物暫時對神導術免疫，也可以被增幅神導術作為目標。當你的盟友在攻擊骰、察覺檢定、豁免或技能檢定中失敗或大失敗時，你可以作為觸發的反應動作施放一個增幅神導術，而神導術的加值可能會將這次失敗變為成功，或將大失敗變為普通失敗。神導的加值可追溯應用至他們的檢定上。</p>\n<hr />\n<p><strong>增幅</strong><strong>升階（6環）</strong> 法術的加值增加到+2。</p>\n<p>@UUID[Compendium.pf2e.spell-effects.3qHKBDF7lrHw8jFK]{法術效果：神導術}</p>\n<p>@UUID[Compendium.pf2e.spell-effects.3LyOkV25p7wA181H]{效果：神導術免疫}</p>"
        },
        "Guidance (Psychic)": {
            "name": "神導術(心能者) Guidance (Psychic)",
            "description": "<p>你請求神力的引導，賦予目標在持續時間結束前的一次攻擊骰，察覺檢定，豁免骰，或者技能檢定上獲得+1狀態加值。目標在擲骰前選擇是否使用該加值。如果目標使用該加值，該法術結束。無論怎樣結束，該目標接下來會暫時免疫1小時。</p>\n<p>@UUID[Compendium.pf2e.spell-effects.3qHKBDF7lrHw8jFK]{法術效果：神導術}</p>\n<p>@UUID[Compendium.pf2e.spell-effects.3LyOkV25p7wA181H]{效果：神導術免疫}</p>"
        },
        "Mage Hand (Amped)": {
            "name": "法師之手(增幅) Mage Hand (Amped)",
            "description": "<p>你創造一個魔法手，隱形或者隱約可見，它會抓住目標物體，並緩慢移動它至多20尺。由於你是令該物體懸浮，所以你可以向任意方向移動它。當你維持該法術時，你可以移動該物體額外20尺。如果該物體在法術結束時處於空中，該物體會墜落。</p>\n<p>你創造出複數念控之手抓住一個生物並使其移動。你可以將一箇中等或更小體型的生物而非物體作為目標。你試圖對目標進行@UUID[Compendium.pf2e.actionspf2e.Shove]{推撞 Shove}，沿著你選擇的方向，用法術攻擊骰而非運動檢定來對抗它的強韌DC，該生物的速度會受到-10尺的環境減值，直到法術結束。從你施法的那一輪開始，在你每一輪第一次維持這個法術時，你可以再次嘗試推撞該生物。</p>\n<hr />\n<p><strong>升階 (3環)</strong> 你能以2負載或者更低的無主物體為目標。</p>\n<p><strong>增幅升階（4環）</strong> 你可以嘗試對該生物進行@UUID[Compendium.pf2e.actionspf2e.Disarm]{卸武 Disarm}，而不是嘗試推撞它。如果你以這種方式將物品從生物的手掌中奪出，法師之手會立即抓住它。法師之手對該生物的任何影響會立刻結束，而該法術現在會抓住該物品，就像你用未增幅的法師之手拿起了它一樣。</p>\n<p><strong>升階 (5環)</strong> 該射程增加到60尺，並且你能以2負載或者更低的無主物體為目標。</p>\n<p><strong>升階 (7環)</strong> 射程增加到60尺，並且你能以3負載或者更低的無主物體為目標。</p>"
        },
        "Mage Hand (Psychic)": {
            "name": "法師之手(心能者) Mage Hand (Psychic)",
            "description": "<p>你創造一個魔法手，隱形或者隱約可見，它會抓住目標物體，並緩慢移動它至多20尺。由於你是令該物體懸浮，所以你可以向任意方向移動它。當你維持該法術時，你可以移動該物體額外20尺。如果該物體在法術結束時處於空中，該物體會墜落。</p>\n<hr />\n<p><strong>升階 (3環)</strong> 你能以2負載或者更低的無主物體為目標。</p>\n<p><strong>升階 (5環)</strong> 該射程增加到60尺，並且你能以2負載或者更低的無主物體為目標。</p>\n<p><strong>升階 (7環)</strong> 射程增加到60尺，並且你能以3負載或者更低的無主物體為目標。</p>"
        },
        "Message (Amped)": {
            "name": "傳訊術(增幅) Message (Amped)",
            "description": "<p>你無聲地念出言語，這段言語會直接送到目標耳中，而不是從你的嘴中念出。其他人聽起來頂多是你與它們正常說話，但法術目標會如同正站在你身邊一般聽到你的言語。</p>\n<p>目標可以通過一個反應動作做出一段簡要回應，或者根據其意願，也可以通過其下個回合的自由動作來回應，但它如此做時必須能看見你，並且在射程內。如果它做出迴應，它的迴應會直接送達你的耳中，如同最初的資訊一般。</p>\n<p>你的傳訊不受障礙阻隔。該法術可以旅行120尺，繞過牆壁和障礙物傳達到目標，這意味著只要你不需要效果線或視覺系來施展該法術，只要你知道目標的位置且有一條未被阻擋並不長於120尺的路徑到達目標。</p>\n<p>你心靈感應的資訊讓你可以在傳遞情報時協調你和盟友的動作。傳訊術的目標可以立刻花費反應進行快步或行走。</p>\n<hr />\n<p><strong>升階 (3環)</strong> 法術的射程增加到500尺。</p>\n<p><strong>增幅升階(4環)</strong> 傳訊術的目標可以選擇花費反應進行@UUID[Compendium.pf2e.actionspf2e.Shove]{推撞 Shove}，打擊，或@UUID[Compendium.pf2e.actionspf2e.Trip]{摔絆 Trip}。</p>"
        },
        "Message (Psychic)": {
            "name": "傳訊術(心能者) Message (Psychic)",
            "description": "<p>你無聲地念出言語，這段言語會直接送到目標耳中，而不是從你的嘴中念出。其他人聽起來頂多是你與它們正常說話，但法術目標會如同正站在你身邊一般聽到你的言語。</p>\n<p>目標可以通過一個反應動作做出一段簡要回應，或者根據其意願，也可以通過其下個回合的自由動作來回應，但它如此做時必須能看見你，並且在射程內。如果它做出迴應，它的迴應會直接送達你的耳中，如同最初的資訊一般。</p>\n<p>你的傳訊不受障礙阻隔。該法術可以旅行120尺，繞過牆壁和障礙物傳達到目標，這意味著只要你不需要效果線或視覺系來施展該法術，只要你知道目標的位置且有一條未被阻擋並不長於120尺的路徑到達目標。</p>\n<hr />\n<p><strong>升階 (3環)</strong> 法術的射程增加到500尺。</p>"
        },
        "Phase Bolt (Amped)": {
            "name": "相位矢(增幅) Phase Bolt (Amped)",
            "description": "<p>你用手指指向目標並投射出一束魔法能量，它會在在相位中來回閃現，直到抵達目標。對目標進行一次遠端法術攻擊骰，對抗目標的AC；如果目標在AC上有環境加值（例如舉盾或有掩蔽），該加值在本次攻擊中將減少2點。命中時，你造成[[/r (1d4)[piercing]]]{1d4}加上你施法關鍵屬性調整值的穿刺傷害。重擊則傷害翻倍。</p>\n<p>你的<em>相位矢 Phase bolt</em>能暫時將命中目標的掩護移位。在成功時，降低目標的AC環境加值（如果有）1點，直到你的下一回合開始。</p>\n<p>你的相位矢進入完全相移，變得 @UUID[Compendium.pf2e.conditionitems.Invisible]{隱形 Invisible}，直到射入目標——彷彿它傳送到了目標中一般。目標對此次攻擊@UUID[Compendium.pf2e.conditionitems.Flat-Footed]{措手不及 Flat-Footed}。此外，相位矢忽略數值等同法術等級一半的硬度與穿刺傷害抗性。大成功時，目標不能受到傳送效果影響，直到你的下回合開始。</p>\n<hr />\n<p><strong>增幅升階（+1）</strong> 傷害增加[[/r 2d4]]{2d4}。</p>"
        },
        "Phase Bolt (Psychic)": {
            "name": "相位矢(心能者) Phase Bolt (Psychic)",
            "description": "<p>你用手指指向目標並投射出一束魔法能量，它會在在相位中來回閃現，直到抵達目標。對目標進行一次遠端法術攻擊骰，對抗目標的AC；如果目標在AC上有環境加值（例如舉盾或有掩蔽），該加值在本次攻擊中將減少2點。命中時，你造成[[/r (1d4)[piercing]]]{1d4}加上你施法關鍵屬性調整值的穿刺傷害。重擊則傷害翻倍。</p>\n<p>你的<em>相位矢 Phase bolt</em>能暫時將命中目標的掩護移位。在成功時，降低目標的AC環境加值（如果有）1點，直到你的下一回合開始。</p>\n<hr />\n<p><strong>升階（+1）</strong> 傷害增加[[/r 1d4]]{1d4}。</p>"
        },
        "Produce Flame (Amped)": {
            "name": "燃火術(增幅) Produce Flame (Amped)",
            "description": "<p>一小團火焰在你的手心產生，你可以通過近戰或者遠端將其射出。進行一次法術攻擊骰，對抗你的目標的AC。這通常是一次遠端攻擊，但是你也可以對你無武裝觸及中的生物嘗試一次近戰攻擊。</p>\n<p>在成功時，你造成1d10火焰傷害加上1點火焰濺射傷害。在大成功時，目標承受雙倍傷害，以及 [[/r (1d4)[persistent,fire]]] @UUID[Compendium.pf2e.conditionitems.lDVqvLKA6eF3Df60]{持續火焰傷害}。</p>\n<p>你能極大增強對臨近目標的熱度。當使用燃火術進行近戰法術攻擊時，將基礎傷害骰從d10提升為d12（但不改變持續傷害）。</p>\n<hr />\n<p><strong>增幅升階（+1）</strong> 該傷害增加1d10，濺射傷害增加1點，以及重擊時的 @UUID[Compendium.pf2e.conditionitems.lDVqvLKA6eF3Df60]{持續傷害} 增加1d4。</p>"
        },
        "Produce Flame (Psychic)": {
            "name": "燃火術(心能者) Produce Flame (Psychic)",
            "description": "<p>一小團火焰在你的手心產生，你可以通過近戰或者遠端將其射出。進行一次法術攻擊骰，對抗你的目標的AC。這通常是一次遠端攻擊，但是你也可以對你無武裝觸及中的生物嘗試一次近戰攻擊。</p>\n<p>在成功時，你造成1d4+你的施法屬性調整值的火焰傷害。在大成功時，目標承受雙倍傷害，以及 [[/r (1d4)[persistent,fire]]] @UUID[Compendium.pf2e.conditionitems.lDVqvLKA6eF3Df60]{持續火焰傷害}。</p>\n<p>你能極大增強對臨近目標的熱度。當使用燃火術進行近戰法術攻擊時，將基礎傷害骰從d4提升為d6（但不改變持續傷害）。</p>\n<hr />\n<p><strong>升階 (+1)</strong> 該傷害增加1d4，以及重擊時的 @UUID[Compendium.pf2e.conditionitems.lDVqvLKA6eF3Df60]{持續傷害} 增加1d4。</p>"
        },
        "Ray of Frost (Amped)": {
            "name": "冰凍射線(增幅) Ray of Frost (Amped)",
            "description": "<p>你射出一道凍結射線。嘗試一次法術攻擊骰。該射線造成等你1d10寒冷傷害。</p>\n<p>你隔空汲取熱量來補充自己的力量。你獲得數值等於你造成傷害的一半的臨時生命值（在適用抗性之後）。你會在1分鐘後失去這些臨時生命。</p>\n<hr />\n<p><strong>大成功</strong> 目標承受雙倍傷害，並且在其速度上承受-10尺狀態減值，持續1輪。</p>\n<p>@UUID[Compendium.pf2e.spell-effects.I4PsUAaYSUJ8pwKC]{法術效果：冰凍射線}</p>\n<p><strong>成功</strong> 目標承受正常傷害。</p>\n<hr />\n<p><strong>增幅升階（+1）</strong> 該傷害增加1d10。</p>"
        },
        "Ray of Frost (Psychic)": {
            "name": "冰凍射線(心能者) Ray of Frost (Psychic)",
            "description": "<p>你射出一道凍結射線。嘗試一次法術攻擊骰。該射線造成等你1d4+你的施法屬性調整值的寒冷傷害。</p>\n<hr />\n<p><strong>大成功</strong> 目標承受雙倍傷害，並且在其速度上承受-10尺狀態減值，持續1輪。</p>\n<p>@UUID[Compendium.pf2e.spell-effects.I4PsUAaYSUJ8pwKC]{法術效果：冰凍射線}</p>\n<p><strong>成功</strong> 目標承受正常傷害。</p>\n<hr />\n<p><strong>升階 (+1)</strong> 該傷害增加1d4。</p>"
        },
        "Shield (Amped)": {
            "name": "護盾術(增幅) Shield (Amped)",
            "description": "<p>你產生一層魔法護盾。這視同你使用了舉起盾牌動作，賦予你在AC上的+1環境加值，直到你的下個回合開始，但這裡不需要手來使用。</p>\n<p>當該法術生效時，你可以使用你的魔法護盾來進行盾牌格擋反應動作。該盾牌具有硬度5。不同於常規的盾牌格擋，你可以使用法術的反應動作來對抗魔法飛彈法術。</p>\n<p>升階該法術會增加護盾的硬度。</p>\n<p>你的護盾術可以施展在他人身上。當你施展護盾術，你可以選擇30尺內的目標盟友取代你自己獲得該法術增益。使用護盾術進行格擋的選擇仍然取決於你並佔用你的反應。</p>\n<p>護盾在你每個回合開始時仍會撤下，但你可以在維持法術時自動再次舉盾。</p>\n<p>當你用此法術進行格擋時，三層盾牌中的一層會被打破，你將不再獲得AC加成，但法術並沒有結束。你可以繼續使用該法術，直到最後一層被打破；一旦最後一層破裂，該法術結束，你在10分鐘內不能再施放護盾術或增幅護盾術。當你用增幅護盾術進行格擋時，你可以選擇破壞多層護盾以提高你的防禦力。如果你破壞了兩層而不是一層盾，那麼盾的格擋硬度會增加到正常值的1.5倍（1級為7，3級為15，5級為22，7級為30，9級為37）。如果你破壞了所有三層，那麼硬度將增加到正常值的兩倍。</p>\n<p>@UUID[Compendium.pf2e.spell-effects.Jemq5UknGdMO7b73]{法術效果：護盾術}</p>\n<hr />\n<p><strong>升階 (3環)</strong> 該護盾具有硬度10。</p>\n<p><strong>升階 (5環)</strong> 該護盾具有硬度15。</p>\n<p><strong>升階 (7環)</strong> 該護盾具有硬度20。</p>\n<p><strong>升階 (9環)</strong> 該護盾具有硬度25。</p>"
        },
        "Shield (Psychic)": {
            "name": "護盾術(心能者) Shield (Psychic)",
            "description": "<p>你產生一層魔法護盾。這視同你使用了舉起盾牌動作，賦予你在AC上的+1環境加值，直到你的下個回合開始，但這裡不需要手來使用。</p>\n<p>當該法術生效時，你可以使用你的魔法護盾來進行盾牌格擋反應動作。該盾牌具有硬度5。不同於常規的盾牌格擋，你可以使用法術的反應動作來對抗魔法飛彈法術。</p>\n<p>升階該法術會增加護盾的硬度。</p>\n<p>你的護盾術可以施展在他人身上。當你施展護盾術，你可以選擇30尺內的目標盟友取代你自己獲得該法術增益。使用護盾術進行格擋的選擇仍然取決於你並佔用你的反應。</p>\n<p>@UUID[Compendium.pf2e.spell-effects.Jemq5UknGdMO7b73]{法術效果：護盾術}</p>\n<hr />\n<p><strong>升階 (3環)</strong> 該護盾具有硬度10。</p>\n<p><strong>升階 (5環)</strong> 該護盾具有硬度15。</p>\n<p><strong>升階 (7環)</strong> 該護盾具有硬度20。</p>\n<p><strong>升階 (9環)</strong> 該護盾具有硬度25。</p>"
        },
        "Telekinetic Projectile (Amped)": {
            "name": "念動射彈(增幅) Telekinetic Projectile (Amped)",
            "description": "<p>你向目標射出區域中一個未固定的，無主的，1負載1以下的物體。對目標嘗試一次法術攻擊骰。如果你命中，你造成鈍擊，穿刺，或者揮砍傷害（對應於你所扔出的物體），數值等於1d6加上你的施法屬性調整值。射出物體的特殊特徵或者魔法特性不會影響該攻擊或者傷害。</p>\n<p>你用更強的力量投擲物品，以飛雹般的射彈將敵人擊退。成功時，你將目標從你的方向推離5尺。大成功時，你在造成雙倍傷害之外還能將目標推離10尺。</p>\n<hr />\n<p><strong>大成功</strong> 你造成雙倍傷害。</p>\n<p><strong>成功</strong> 你造成完整傷害。</p>\n<hr />\n<p><strong>增幅升階（+1)</strong> 傷害提升2d6。</p>"
        },
        "Telekinetic Projectile (Psychic)": {
            "name": "念動射彈(心能者) Telekinetic Projectile (Psychic)",
            "description": "<p>你向目標射出區域中一個未固定的，無主的，1負載1以下的物體。對目標嘗試一次法術攻擊骰。如果你命中，你造成鈍擊，穿刺，或者揮砍傷害（對應於你所扔出的物體），數值等於1d6加上你的施法屬性調整值。射出物體的特殊特徵或者魔法特性不會影響該攻擊或者傷害。</p>\n<hr />\n<p><strong>大成功</strong> 你造成雙倍傷害。</p>\n<p><strong>成功</strong> 你造成完整傷害。</p>\n<hr />\n<p><strong>升階 (+1)</strong> 該傷害增加1d6。</p>"
        },
        "Warp Step (Amped)": {
            "name": "躍遷步(增幅) Warp Step (Amped)",
            "description": "<p>當你行走時，腳下的大地開始扭曲——你的腳步伸展，距離縮小，一切都在向你逐漸靠近。你的速度獲得+10尺狀態加值，直到你的回合結束。然後你@UUID[Compendium.pf2e.actionspf2e.Bcxarzksqt9ezrs6]{行走 Stride}兩次。如果你有相應的移動型別，你可以使用躍遷步進行@UUID[Compendium.pf2e.actionspf2e.Burrow]{掘進 Burrow}、@UUID[Compendium.pf2e.actionspf2e.Climb]{攀爬 Climb}、@UUID[Compendium.pf2e.actionspf2e.cS9nfDRGD83bNU1p]{飛行 Fly}或@UUID[Compendium.pf2e.actionspf2e.c8TGiZ48ygoSPofx]{游泳 Swim}，而不只是行走。</p>\n<hr />\n<p><strong>增幅升階（4環）</strong> 你完全扭曲了空間而不需要再走過其間的距離。你可以選擇傳送到一個在你視線和效果範圍內的位置，最大距離等於你速度的兩倍（在應用了躍遷步的狀態加值後）。這將賦予該法術以傳送特性。</p>"
        },
        "Warp Step (Psychic)": {
            "name": "躍遷步(心能者) Warp Step (Psychic)",
            "description": "<p>當你行走時，腳下的大地開始扭曲——你的腳步伸展，距離縮小，一切都在向你逐漸靠近。你的速度獲得+10尺狀態加值，直到你的回合結束。然後你@UUID[Compendium.pf2e.actionspf2e.Bcxarzksqt9ezrs6]{行走 Stride}兩次。如果你有相應的移動型別，你可以使用躍遷步進行@UUID[Compendium.pf2e.actionspf2e.Burrow]{掘進 Burrow}、@UUID[Compendium.pf2e.actionspf2e.Climb]{攀爬 Climb}、@UUID[Compendium.pf2e.actionspf2e.cS9nfDRGD83bNU1p]{飛行 Fly}或@UUID[Compendium.pf2e.actionspf2e.c8TGiZ48ygoSPofx]{游泳 Swim}，而不只是行走。</p>"
        }
    }
}
