{
    "label": "族裔 Ancestries",
    "entries": {
        "Anadi": {
            "name": "半蛛人 Anadi",
            "description": "<p><em>半蛛人是一種避世隱居的、富有智慧的蜘蛛，來自加侖德南部的叢林中。雖然他們在很多方面都很像天生的變形者，但他們兩位一體的形態實際上來自精心研製的魔法。</em></p>\n<hr />\n<p>作為一個群居且愛好和平的種族，半蛛人的先祖們努力和他們家鄉的鄰居建立貿易關係。然而，半蛛人很快就發現，大多數人對於他們的外表是極其反感的。為了避免衝突，古代半蛛人主動撤退到了與世隔絕的地方，直到他們最終找到了解決辦法。他們最偉大的學者們發明了一種融合了變化系和幻術系的法術，能讓他們擁有人類形態。這項技術被發揚光大，並最終傳授給了大部分半蛛人。</p>\n<p>他們在外交上的新策略取得了比早期努力更加令人滿意的結果，儘管他們和外界接觸依然很少，這導致一些地方流傳著半蛛人的一些錯誤流言，例如聲稱他們是人類，在滿月的時候會就會變成巨大的蜘蛛云云。即使是當代的探險家也常常認為半蛛人是人類和蜘蛛的混血兒。如今的半蛛人正緩慢而堅定地努力創造一個不需要隱藏他們真實面目的世界。</p>\n<h2>你可能...</h2>\n<ul>\n<li>會向那些贏得你信任的同伴展示真實的自己。</li>\n<li>對那些被歪曲和遭到不公平的汙衊的文化公開表示同情。</li>\n<li>為你所愛的人提供幫助，毫不猶豫地保護他們免受危險。</li>\n</ul>\n<h2>其他人也許...</h2>\n<ul>\n<li>欣賞你崇尚以非暴力方式解決複雜問題的態度。</li>\n<li>在目擊你的本來面貌後反應異常激烈。</li>\n<li>會假設你對德魯伊法術有親和力，因為你有變形能力。</li>\n</ul>\n<h2>外貌描述</h2>\n<p>半蛛人的真實形態很像人類大小的蜘蛛，顏色豐富多彩。有些基本色調看起來樸素柔和，有些的顏色則醒目且充滿活力，身體上的花紋大部分都繼承自他們的先祖。正常戰立時，他們從前腿到後腿的長度為5尺。</p>\n<p>所有半蛛人都擁有變成人類的偽裝能力。這種形態的外觀可以是任何人類民族，但通常與半蛛人所生長的地區相匹配。半蛛人在經歷多個階段的蛻皮之後，大約在13歲左右成年。普通的半蛛人能活到80歲左右。</p>\n<h2>社會</h2>\n<p>半蛛人生活在集體社會，過著種植蘑菇或編織毯子的平靜生活。他們的文化重視合作和互相尊重。因為他們的族群修養，他們難以處理嚴重爭端並且在其他種族眼裡過於害羞。半蛛人理解其他種族的蜘蛛恐懼症是本能的，很難控制。因此這也意味著半蛛人會盡力去適應和安撫別人，即使在他們遭遇不公平對待的情況下。</p>\n<h2>陣營和宗教</h2>\n<p>半蛛人社會的合作天性和他們對暴力的厭惡意味著許多半蛛人傾向於善良陣營。他們更偏向於中立而非混亂或守序，儘管後者並非聞所未聞。</p>\n<p>傳說表示祖母蜘蛛（Grandmother Spider）把半蛛人從奴役中解救出來，並把他們帶到格拉利昂，並且在這個過程中成為了他們的守護神。她崇尚彼此幫助和喜歡惡作劇的價值觀和半蛛人的文化交織在一起，甚至那些並不崇拜她的半蛛人也會傳頌她的冒險故事。</p>\n<h2>名字</h2>\n<p>半蛛人的名字是由養育他們的網婚（web marriage）成員給的。每個家長都貢獻一個音節，通常是他們自己名字的第一個音節。年長的半蛛人覺得自己的身份已經固化，因此也會接受別人用一個簡短的頭銜來稱呼他們。生活在其他族裔中的半蛛人很少會採用化名，但如果他們的名字與當地文化有強烈的反差的話，有些人也許會起一個。</p>\n<h3>範例名字</h3>\n<p>Altava, Anavachti, Strings-On-The-River Inkeelah, Kerialnamu, Maracha, Leaves-Shelter-Her-Feet Naiala, Orvasa, Reloana, Rivuken, Velachamon</p>\n<h2 style=\"border-bottom: 1px solid var(--color-underline-header);\">半蛛人屬性</h2>\n<p><strong>生命值</strong> 8</p>\n<p><strong>體型</strong> 中型</p>\n<p><strong>速度</strong> 25 尺</p>\n<p><strong>屬性提升</strong> 敏捷、感知、自選</p>\n<p><strong>屬性缺陷</strong> 體質</p>\n<p><strong>語言</strong> 半蛛人語、芒吉語</p>\n<p><strong>額外語言</strong> 等同於你的智力調整值（如果為正的話）。從龍語、精靈語、豺狼人語、蜥蜴人語、獸人語、木族語和其他你能接觸的語言（比如你居住地區普遍使用的語言）中選擇。</p>\n<p><strong>尖牙</strong> 你天生就具備捕獵和自衛的能力。你獲得尖牙非武裝攻擊，能造成1d6穿刺傷害。你的尖牙屬於搏擊武器組並且擁有嫻熟、非武裝特徵。</p>\n<p><strong>變形</strong> （半蛛人，奧術，專注，變形，變化系） 你可以在人類或蜘蛛的外形中切換。每種形態都擁有一個特定的、固定的外觀。在你的人類形態下，你不能使用族裔給與你的非武裝攻擊（尖牙）。在你的蜘蛛形態下，你在攀爬時不會措手不及，但是你無法使用武器、盾牌或任何其他需要持握的物品，你所能進行的帶有操作特徵的動作也受到限制。你只能進行下列操作動作：施放帶有姿勢成分的法術、編織絲線和網、或簡單的互動動作（例如開啟一扇未上鎖的門）。你的蜘蛛腿無法執行那些需要手指或靈巧雙手的操作，包括任何需要檢查才能完成的動作。GM可以裁定你的蜘蛛腿是否能完成其他操作動作。</p>"
        },
        "Android": {
            "name": "仿生人 Android",
            "description": "<p><em>來自另一個世界的技術奇蹟，仿生人擁有人工合成的身體及生者的靈魂。</em><em>他們的雙重本質使他們在壓力下保持思維敏捷、沉著冷靜，但卻能在寧靜和孤獨中感到舒適自在。</em></p>\n<hr />\n<p>仿生人第一次來到格拉力昂是在群星雨(Rain of Stars)中，一艘來自安卓法(Androffa)的星艦在紐梅利亞地區(Numeria)附近墮機，其碎片散落在整個地區之中。雖然這次墜機的一些仿生人倖存者至今依然行走在格拉力昂，但絕大多數仿生人是由在星艦的殘骸中零星運作的稱為工廠的技術艙所製造出來的。從這些金屬子宮中誕生的仿生人擁有成熟的身體和新生的靈魂;它們出生時只知道它們的創造者的語言和生存所必需的運動能力。他們不瞭解其所處環境、起源及目的。大多數仿生人通過其在遊歷紐梅利亞(Numeria)時的觀察學會了如何表現得體。</p>\n<p>仿生人往往是內向、理性且善於思考的。其有著永不滿足的好奇心，渴望理解自己和周圍的世界，他們非常重視對於知識的追求。不過他們很難理解他人情緒及表達自己，這使得他們看起來很冷漠。雖然仿生人可以建立情感紐帶，但他們發現很難與非仿生人族裔之間建立感情聯絡。</p>\n<p>如果你扮演一個在奇幻世界中出現的外星仿生人角色，被迫通過觀察及邏輯去學習現實與社會之間的細微差別，那你就應該扮演一個仿生人。</p>\n<h2>你可能...</h2>\n<ul>\n<li>事先假設別人想利用或傷害你，而保密你的仿生人身份。</li>\n<li>即使在簡單的任務中，也要提前計劃以應對突發事件。</li>\n<li>‌事先計算你的行動、想法及創意會造成的影響。</li>\n</ul>\n<h2>其他人也許...</h2>\n<ul>\n<li>瞭解如何操作科技物品，並且能夠與構造體和機器人進行交流。</li>\n<li>相信你是不朽的，羨慕你永遠的青春和活力。</li>\n<li>認為你沒有感情，無法與他人建立情感聯絡。</li>\n</ul>\n<h2>外貌描述</h2>\n<p>仿生人是按照類人生物的形象為模版創造出來的;因此，工廠生產的所有仿生人都擁有類人生物的外貌。仿生人在膚色、種族、身高和體型以及性別認同方面表現出極大的多樣性。儘管他們不能進行繁殖，但他們像人類一樣呼吸、吃飯和睡覺。它們的身體中含有奈米機械，通過奈米溶液來替代血液的功用，這些溶液控制著它們的有機過程。這些奈米機器由類似紋身的生物電路控制，通常分佈在仿生人的手、前臂、臉或脖子上。許多仿生人可以利用他們的奈米機械來提高他們身體的效率，在使用時生物電路會發光。</p>\n<p>仿生人不會老化。隨著時間的推移，它們的有機外觀變得不那麼令人信服，導致它們看起來更假。在存活約一個世紀後，大多數的安卓都覺得他們的時代即將結束，並願意將自己的靈魂送往骨園，以面對法萊斯瑪（Pharasma，墓土女士）的審判。其後，他們的身體會關機而進入休眠模式，奈米機械會重置身體至出廠時的狀態。在幾周後，一個全新的靈魂會進入空置的身體中，從而重新啟動仿生人。這個過程被稱為更新（Renewal），是類似於生育的事件，在仿生人社會中具有重大的意義。而死於暴力傷害的仿生人則無法再生，所以仿生人竭盡全力保護自己和他們的同胞不受傷害。</p>\n<h2>社會</h2>\n<p>仿生人有被他們的紐梅利亞鄰居剝削、奴役和破壞的歷史，所以他們為了生存躲起來。大多數人選擇通過融入人類社會或適應遊牧生活方式來保密自己的血統。有些安卓遠離人類，和同類生活在一起。由於隱祕需要，這些群體往往規模較小;因為兩個仿生人就可以通過小心謹慎的保密行為來避免危險，但一大群安卓則會引起太多的注意。</p>\n<p>他們的社群是高效和高度組織化的。每個居民都瞭解自己的角色，併為能有效地履行職責而感到自豪。辯論和講座頻繁發生，因為他們試圖通過教育和探究瞭解自己和他們的世界。這些與世隔絕、隱祕的飛地一旦被發現就會重新安置到更安全的地方。</p>\n<h2>陣營和宗教</h2>\n<p>大多數仿生人都是中立陣營的。他們關心自己以及同伴和同類的安全。對宗教感興趣的仿生人通常崇拜卡珊德拉(Casandalee)或布萊(Brigh)，她們是結合發明和生命的女神。其他受歡迎的神包括黛絲娜(Desna)、義洛裡(Irori)和哥茲萊(Gozreh)。</p>\n<h2>名字</h2>\n<p>仿生人採用他們周圍社會的命名慣例，而那些在自己的同類中長大的人則選擇使用機械語中的名字。偶爾，這樣的仿生人會在他們的名字上加上一個數字名稱，表示他們的身體承載了多少代生命，作為對他們血統的一種敬意。</p>\n<h3><span style=\"text-decoration: underline;\">範例名字</span></h3>\n<p>Anati, Daniv, Era-4, Feralia, Gelegor, Ilgos-5, Koresh, Oris, Prime, Urdun, Verity-3, Ymry</p>\n<h2 style=\"border-bottom: 1px solid var(--color-underline-header);\">仿生人資料</h2>\n<p><strong>生命值</strong> 8</p>\n<p><strong>體型</strong> 中型</p>\n<p><strong>速度</strong> 25尺</p>\n<p><strong>屬性提升</strong> 敏捷, 智力, 自選</p>\n<p><strong>屬性缺陷</strong> 魅力</p>\n<p><strong>語言</strong> Common, Androffan</p>\n<p><strong>額外語言</strong> 數量等於你的智力調整值（若為正）的額外語言，從以下語言選取：深淵語、天界語、龍語、矮人語、地底通用語、奇匠語和其他可能接觸到的語言（例如你所在地區的語言）。</p>\n<p><strong>感官</strong> 昏暗視覺</p>\n<p><strong>被創造者</strong> 你的人造身體比單純的生物機體更能抵抗疾病。你對疾病、毒素和輻射的豁免檢定獲得+1環境加值。</p>\n<p><strong>無表情者</strong> 你很難理解和表達複雜的情緒。在交涉、表演和察言觀色檢定中，你獲得-1環境減值。</p>"
        },
        "Automaton": {
            "name": "靈導械 Automaton",
            "description": "<p><em>這些智慧構裝體蘊涵著真正的靈魂，他們是一個帝國在滅完前於卓越科技上最終努力的遺產。靈導械結合了獨特的科技與魔法能量，成為全格拉迪昂結合兩者技術的獨特存在</em></p>\n<hr />\n<p>吉斯塔克帝國(Jistka Imperium) 是星隕之災（Earthfall）後第一個出現的主要人類文明，屹立於其後成為拉哈多姆（Rahadoum）的地區之上，並且得益於在市政與科學領域的巨大進步持續了七個世紀之久。然而，吉斯塔克的領袖頻頻熱衷於對科學技術的激進使用，從而讓早期的進步成為了剛愎自用、內戰並滅亡的墊腳石。吉斯塔克帝國的擴張浪潮和外交手段缺失導致帝國的發展過程中樹敵無數。最為有名的對手就是古奧斯里昂（Ancient Osirion）王國。奧斯里昂的敵意最終封鎖了帝國的命運，即使吉斯塔克偷工減料的將邪魔注入魔像之中，他們的傳奇魔像軍團也沒有戰勝奧斯里昂古奧且墮落的魔法。作為對內部腐敗和外部壓力的絕望反擊嘗試，一群吉斯塔克核心黨羽建立了奇匠密會（Artificer Conclave）以發展阻止帝國崩潰並重歸吉斯塔克榮耀的新式科技。而他們最成功的發明就是靈導械（automaton），密會確信其是吉斯塔克構造領域的巔峰之作——至少，是吉斯塔克救贖的最終希望。密會創造者們將吉斯塔克人的思維、生命力和靈魂注入到這些構裝體中，創造了由組織所能僱傭的最強戰士和智者的生命力驅動的魔法與科技奇蹟。不幸的是，儘管密會不懈努力，靈導械的到來還是太遲，難以去拯救業已毀滅的帝國。帝國滅亡，徒留靈導械自生自滅。</p>\n<p>靈導械傑出且前瞻的構造使其在千年以後的今日依然有少量殘留，隨風四散。然而，時間的推移暴露了靈導械最為致命的弱點：他們那物質化的靈魂。只有最強者才得以在漫長歲月後依然保留他們的記憶、自身的感官和洞察力。靈導械的存在亦如格拉迪昂上其他生靈般獨特；對於特定的靈導械也擁有著由無數經歷造就的自身個性。大多數靈導械表現孤僻，因為害怕被誤解和依附而寧願避人耳目。即使是更願意生活於開放環境的靈導械也明白他們的獨特性質會成為獵人、學者或者更糟物件的首要目標。對於靈導械，生活中沒有經常遭遇不被信任或擔憂是極為罕見的。</p>\n<h2>你可能...</h2>\n<ul>\n<li>生活了數個世紀並且經歷無數重大事件。</li>\n<li>除非別人贏得，否則遲疑於信任他人。</li>\n<li>記得你成為一個靈導械之前的小部分生活。</li>\n</ul>\n<h2>其他人也許...</h2>\n<ul>\n<li>初次見面時，誤以為你是一個沒有心智的構裝體。</li>\n<li>認定你擁有關於魔法和科技的祕密知識。</li>\n<li>向你投以敬畏。</li>\n</ul>\n<h2>外貌描述</h2>\n<p>靈導械共有著統一的構造——經由魔法加工的金屬和岩石混合構成。這種設計讓靈導械能夠經受住直面戰鬥的嚴苛考驗，並讓他們格外見堅韌。他們沉重的軀體可以像其他戰鬥人員一樣快速移動，從而讓靈導械成為令人膽怯的對手。一臺靈導械的設計根據它的角色需求而變化。大多數靈導械具有基本的人性結構，儘管也有些靈導械的外形與動物非常相似。大多數靈導械都有一隻發出昏暗、魔法光芒的單眼。每個都包含一個強大神器，其既能容納自身靈魂，又能用混合後的生命和位面能量來供能。這些靈導械核心是魔法工程的奇蹟，其製作方法已在歲月長河中流失。</p>\n<p>作為構裝體，靈導械通常不需要呼吸、進食或睡眠；然而，靈導械的身體需要以恆定的速度排出驚人的魔法尾氣。這種排放過程需要可呼吸的空氣，以防止尾氣堆積導致靈導械繫統被堵塞，其有時會造成致命的影響。因此，靈導械確實可以如活著生物一般窒息。雖然它們無需睡覺，但靈導械需要一段魔法重校準和修復的階段來穩定其核心內的能量。如果沒有這個過程，靈導械核心就不能為靈導械提供充足能量，它們就會進入低功耗狀態（類似於沒有睡夠8小時的類人生物）。</p>\n<p>靈導械不會老化，其核心的設計賦予它們一個看似無盡的能量源。今天存在的許多靈導械已經有數千年曆史，它們的軀體一如在它們被創造的那天時一樣有效，即使它們的思維可能已經隨著歲月的流逝而退化。靈導械通常會迷失在歲月之中迎來破壞性的結局。一臺靈導械的軀體和其他構裝體一樣脆弱易被破壞，然而破壞靈導械核心更加困難。因此，一臺靈導械的靈魂可能在其身體被摧毀後的數年內仍然被困在其核心中。這是最初創造者有意為之，他們希望提供功能性的永生。然而，在現實中，身體的破壞會經常導致故障，以致於需要如復生魔法的魔法干預，來完全恢復靈導械。在核心被破壞的情況下，或者它發生災難性的故障，以至於它不能再容納靈魂，核心就會將精神釋放到靈魂之河（River of Souls）。</p>\n<p>在某些情況下，靈導械可以學習如何有意或下意識地影響其核心。這些靈導械最終學會了如何將他們的靈魂從核心中釋放出來，讓他們在覺得自己已經實現美滿人生時得以讓靈魂更進一步。這種行為會讓靈導械成為一個無意識的構裝體，通常其依然能運作，但除了漫無目的的遊蕩和偶爾的自衛行為，不再有任何能力。</p>\n<h2>社會</h2>\n<p>因為靈導械的命運各不相同，許多靈導械過著獨居生活。也有少數自動機被設計成一起工作的情況，例如一個戰士團，他們作為一個團隊，一起居住在藏身處或作為流浪者一起旅行。然而，這些群體很少，靈導械的定居點更是少之又少。只有少數開始建立類似定居點的靈導械一般躲藏在吉斯塔克的廢墟中。這些群體一般有著幾十臺靈導械，但任何試圖聯絡或訪問他們的嘗試都是不了了之。這樣的聚集地特別隱祕，居住其中的靈導械會不惜一切代價保護他們的家園。</p>\n<p>靈導械更有可能遇到其他族裔。根據靈導械的個性，這種相遇會有多種方式，從極度隱蔽到公開到訪。一個靈導械的獨特外觀使他們無論在哪裡都能脫穎而出，但大多數人都以敬畏或好奇的眼光看待他們，而不是害怕。在整個格拉利昂，魔法構裝體並不是一個陌生的概念，但它們中的許多都是無心智的。在克服了最初對具有心智的構裝體的震驚之後，對大多數人來說，掌握如何與靈導械打交道的方法通常並不困難。然而，靈導械更有可能在艾巴薩羅姆、埃茲耶爾、誇恩提姆（Absalom、Azir or Quantium）等大城市中尋得日常生活的假象。無論他們去哪裡，靈導械都必須保持警惕，防止有人試圖奪走他們的軀體進行研究或獲取他們的核心。</p>\n<h2>陣營和宗教</h2>\n<p>吉斯塔克帝國的人民把軸心城（Axis）的御衡者們（aeons）視為理想的存在，其行為值得效仿，因此許多吉斯塔克人是守序中立陣營（lawful neutral）。由於許多靈導械蘊含著吉斯塔克人的靈魂，所以大多數靈導械都是守序中立陣營，或者至少在不同程度上是守序陣營。然而，數個世紀過後，相當數量的靈導械已經移向了絕對中立陣營，因為在沒有主體社會或持久的理想，他們的觀點發生了變化。靈導械傾向於崇拜技術或魔法之神，如布萊和內希斯（Brigh and Nethys），或者其他主要的半身。崇拜義洛理和法拉茲瑪（Irori and Pharasma）在自動人中也比較常見。法拉茲瑪的靈導械有可能學會如何從他們的核心中釋放他們的靈魂，並且經常選擇這樣做。儘管他們是遠在卡珊德拉（Casandalee）時代之前的古老存在，少數靈導械會將新興的神器女神視為靈魂明燈。</p>\n<h2>名字</h2>\n<p>靈導械通常會保留他們被轉化為構裝體之前的名字，只要他們能記住的話。即使其他記憶消退，對於他們名字的記憶也常常保留。因此，許多靈導械的名字都源自於吉斯塔克人。其次常見的是那些不得不給自己起一個新名字的靈導械，因為他們在某個時刻失去了對舊名字的記憶。那些特別信奉奇匠密會事業的靈導械可能會改用密會成員之一的名字，以紀念他們用自己身軀支援的事業。一些靈導械喜歡在他們的一生中改變名字，要麼從他們遇到的文化中選擇一個新的名字，要麼新增一個頭銜來代表他們生命中的一個重要時刻。在某些情況下，靈導械將使用一個特別珍惜的頭銜來代替任何其他名字。</p>\n<h3>範例名字</h3>\n<p>阿爾尼曼 Alnhaman，巴氏敏 Busmin，傷痛者 The Doleful，伊諾 Enoh，希馬爾 Himar，坎特拉爾 Kantral，眷屬者 The Kindred，努米納 Numinar，學者 Scholar，酪乳 Tehkis，旅途者 Wayfarer，玉密安 Yulmian</p>\n<h2 style=\"border-bottom: 1px solid var(--color-underline-header);\">靈導械資料</h2>\n<p><strong>生命值</strong> 8</p>\n<p><strong>體型</strong> 中型或小型</p>\n<p><strong>速度</strong> 25尺</p>\n<p><strong>屬性提升</strong> 力量, 自選</p>\n<p><strong>語言</strong> 通用語，奇匠語（Utopian）</p>\n<p><strong>額外語言</strong> 等同於你智力調整值的額外語言（如果為正），從深淵語、水族語、風族語、天界語、矮人語、精靈語、火族語、煉獄語、土族語和任意其他你取得可用的語言（比如你所在區域的語言）。由GM決定，你是否還具有吉斯塔克的記憶，你也許可以用吉斯塔克語（Jistka）來替代通用語。</p>\n<p><strong>感官</strong> 昏暗視覺</p>\n<p><strong>靈導械核心</strong> 你的軀體包含了一個灌注有位面精華的靈導械核心，其確保了你從事各種任務並保有你的靈魂和生命力。這種生命能量像類人生物的血液般流經你的軀體。它讓你成為一個活著的生物。你沒有一般構裝體的免疫能力，會被以活著生物為目標的效果所影響，並且可以如常通過正能量恢復生命。額外的，當生命值降為0時你不會被摧毀。取而代之的是，你的生命力會嘗試在險境中維持你的運作；當生命值將為0時，你被擊倒並瀕死。</p>\n<p><strong>構裝軀體</strong> 你生理學需求與其他活著的生物不同。你不需要吃飯飲水。你不需要睡覺，但是你依然需要每日休整期。在休整期，你必須進入2個小時的修復狀態，除了你依然警戒四周而無需承受失去意識減值以外，其和睡眠類似。格外與睡眠類似的是，如果你太長時間沒有進入你的修復狀態，你會疲乏並且直到進入2小時的修復前都不能恢復狀態。</p>"
        },
        "Azarketi": {
            "name": "阿扎克緹 Azarketi",
            "description": "<p>阿扎克緹人，一個破碎帝國的遺裔，緊緊恪守他們驕傲的傳統，但仍然浮出水面與地面互動。</p>\n<p>這些內海世界的水棲人類揹負著陰暗沉重的歷史。大多數人稱他們為“半魚人”，有時也稱為“低阿茲蘭蒂人”，但他們通常自稱為“阿扎克緹”（azarketi），這個阿茲蘭蒂詞大致翻譯為“海民”。星隕之災後，驕傲的阿茲蘭蒂人被他們的宿敵阿爾古蘇所奴役，改造成了半魚半人的阿扎克緹。許多阿扎克特人感到他們並不完全屬於他們的人類兄弟，也不屬於束縛他們的海洋，因此他們在努力尋找一種身份認同和存在價值。雖然他們仍然不被地面居民信任，但阿扎克緹人慶祝他們獨特的血統和他們來自受人尊敬的阿茲蘭提文化的後裔。</p>\n<h2>你可能...</h2>\n<ul>\n<li>尋求讓對你持有負面看法和偏見的人刮目相看。</li>\n<li>孤僻，對陌生人持懷疑態度。</li>\n<li>視水為家，但對岸邊的社會充滿興趣。</li>\n</ul>\n<h2>其他人也許...</h2>\n<ul>\n<li>認為你是海洋大使，並徵求你對航海事務的意見。</li>\n<li>誤解你溫柔的肢體語言和溫和的表情。</li>\n<li>以不信任或懷疑的態度對待你，並提防著你的背叛。</li>\n</ul>\n<h2>外貌描述</h2>\n<p>阿扎克緹人看似樣貌高雅、身體矯健的人類。他們柔軟、親水的面板色調從珍珠般的白色到粉紅色、綠色或讓人聯想到珊瑚的棕色。有頭髮的阿扎克特人比較少見；許多人的頭上有鰭或鱗片狀的脊。就像他們的先祖阿茲蘭蒂人一樣，他們通常擁有紫色的瞳孔。長著三套鰓的脖子兩側，有蹼的手和腳，無不顯示著他們的水生血統。眾所周知，阿扎克緹人的壽命比人類長，儘管他們的成熟速度差不多。</p>\n<h2>社會</h2>\n<p>阿扎克緹缺乏幫助其族群保持凝聚力的文化中心。浩瀚的海洋和水路使這些游泳健將遍佈內海和其他地方。許多阿扎克緹人只依賴他們附近社群的小型家庭團體，他們更喜歡與他們信任和熟悉的同志一起的小群體。</p>\n<p>一些阿扎克緹人更喜歡與他們的地面居住的兄弟們建立聯絡。生活在港口、河邊小鎮和海岸邊，使阿扎克緹人有更多的人生際遇，而這些機會是陸地和海洋民族所沒有的。儘管與陸地社會融合可能很困難，但阿扎克緹人通過形成粘合的社群來管理。社群成員之間往往會有親切如家人的稱謂，而不考慮有無實際親緣關係。</p>\n<p>一些有能力的阿扎克緹人會穿上反映其阿茲蘭蒂遺民身份的服裝。然而更為常見的是，外出的阿扎克緹人會盡力保持不顯眼。許多阿扎克緹人都會穿上頭巾或其他頭部包裹物，這既能隱藏他們的鰓，又能在穿戴前浸泡在水中，提供額外的舒適時間。</p>\n<h2>陣營和宗教</h2>\n<p>由於他們通常是地面生活領域的局外人，阿扎克緹人傾向於親近海洋或其他形式的水的神靈，最受歡迎的是哥茲萊。他們也可能其他自然或航海的神靈表示敬意，如黛絲娜。</p>\n<p>一些阿扎克緹人受到誘惑，走向深海的召喚，把他們的老阿爾古蘇主人當作神來侍奉。這些人受到古老邪惡存在的誘惑，比如神祕的蒙面大師—一個既造就了也毀滅了阿茲蘭提人的深海中的強大生命。</p>\n<p>阿扎克緹人在信仰和價值觀上有很大的不同，這從他們廣泛的效忠分歧中可以看出；因此，阿扎克緹人可以有任何傾向。</p>\n<h2>名字</h2>\n<p>阿扎克緹人經常採用對阿扎克緹人的家族來說很重要的航海、天氣或地理特徵的名字。其他有些阿扎克緹群體會選擇人類的名字，以鼓勵與地表文化保持一致。有些阿扎克緹人的姓名已經流傳了很多代，以至於他們仍然使用古老的阿茲蘭蒂語，或者指代已經流逝於歲月的水體。</p>\n<h3><span style=\"text-decoration: underline;\">範例名字</span></h3>\n<p>阿弗特Aft，阿里茲Aliz，卡斯凱德Cascade，德爾塔Delta，哈爾博Harbor，伊拉尼Ilani，尹庫阿Inkua，基普Jib，拉昆Lagoon，洛貝Lobay,，馬琳Marine，提達爾Tidal，溫瓦德Windward，扎爾科特Zarket</p>\n<h2 style=\"border-bottom: 1px solid var(--color-underline-header);\">阿扎克緹人資料</h2>\n<p><strong>生命值</strong> 8</p>\n<p><strong>體型</strong> 中型</p>\n<p><strong>速度</strong> 20尺, 游泳30尺</p>\n<p><strong>屬性提升</strong> 體質, 魅力, 自選</p>\n<p><strong>屬性缺陷</strong> 感知</p>\n<p><strong>語言</strong> 通用語、阿爾古蘇語</p>\n<p><strong>額外語言</strong> 數量等於你的智力調整值（若為正）的額外語言，從以下語言選取：邪靈語、水族語、阿茲蘭提語、龍語、精靈語、地底通用語和其他可能接觸到的語言（例如你所在地區的語言）</p>\n<p><strong>感官</strong> 昏暗視覺</p>\n<p><strong>補水</strong> 雖然你是一個兩棲生物，在陸地上和在水中同樣有能力，但你的身體要求你在24小時內至少返回水生環境一次。你必須浸泡在水中，以便為你適水的面板補充水分。如果你不這樣做，你的面板就會開始開裂，你的鰓會感到疼痛。在離開水的頭24小時後，你的強韌豁免會受到-1的狀態減值。48小時後，你會開始窒息，直到返回水中。</p>"
        },
        "Catfolk": {
            "name": "貓族 Catfolk",
            "description": "<p><em>貓族是好奇心與社交性俱強的放浪遊子，他們身上融合著人與貓的外貌與脾性。貓族喜好學習新知識、聽聞新故事與收集新道具，且為了愛人的安全與幸福可以不遺餘力。貓族自視為自然環境的天選守護者，即便強敵環伺依然能保持一身愚勇。</em></p>\n<hr />\n<p>貓族是天性樂觀活潑的類人族裔，他們喜好探索新地，不管發現的究竟是未知遺蹟還是舒服的午覺點都很開心。他們能言善道，不論是與在關係緊密的社群內的同族人，或是在外面機運巧逢的異鄉人，都能交流自如。貓族一身是膽，自視為從意圖毀天滅地的勢力下保護世界的守護者，因此為了增添戰力，貓族文化上相當重視堅強社群、見聞廣博以及持續不懈的自我精進。</p>\n<p>貓族反射神經發達，能夠在半空中完成翻正反射，因此墜落時總是以腳著地。貓族的情緒起伏也跟反射速度不相上下，性格暴躁易怒，轉眼間就能從呵呵大笑變得怒目圓睜。一如普通的貓科動物，貓族在開心的時候會不由自主地發出喉鳴，生氣或驚嚇時則會發出低咆。</p>\n<p>若你想扮演好奇、勇敢又友善，身手靈巧心思機敏的角色，適合選用貓族族裔。</p>\n<h2>你可能...</h2>\n<ul>\n<li>由於真誠的好奇心而不斷提出充滿熱情的問題。</li>\n<li>透過無視或乾脆逃離現場來回避人際衝突。</li>\n<li>仔細研究目標或難題後，一出手便迅速解決。</li>\n</ul>\n<h2>其他人也許...</h2>\n<ul>\n<li>覺得你持續不斷的詢問與意見搞得其他人都沒有發言的空檔。</li>\n<li>認為你驕傲自大。</li>\n<li>認為你反射性的喉鳴與低咆表露出比實際上更多的情緒。</li>\n</ul>\n<h2>外貌描述</h2>\n<p>所有貓族都能直立行走，並長有柔軟體毛、修長尾巴、寬大耳朵與垂直瞳孔，他們也像普通的貓一樣有範圍極廣的個體差異。貓族手指靈活，末端長有一般可伸縮的短爪。大部分的貓族以自己精心打理的儀容為傲，對於沾水染汙則是能避則避。</p>\n<p>貓族成長快速，出生後沒幾個月便能站立行走，但依然在與人類差不多的年紀才開始獨立工作，平均壽命為60到70歲。貓族一般不會比人類高，且由於其纖細體態，比相近身高的人類來得要輕。</p>\n<h2>社會</h2>\n<p>貓族自稱為阿摩閏 Amurrun，但多數貓族認為這稱呼算是族內的私密用法。貓族與大家族裡的其他親戚一同養育小孩，並且以其他類人族裔看了要怕的放任程度讓孩子們自由探索，不過還是小貓便能惹出各式各樣的麻煩。貓族族內是透過鬆散的學徒制來傳授職業技能，族人一生內常學會多種行業的工作手法。</p>\n<p>貓族社群一般是由指派領袖所領導，由他負責替社群代言以及仲裁糾紛。貓族領袖常是施法者且多為女性。貓族偏好以花式裝死來應對不平冒犯，甚至會暫時離開社群來等待麻煩事自動消失或解決。</p>\n<h2>陣營和宗教</h2>\n<p>貓族並不特別信教，但他們相信族人是出自被賦予智慧以與摧殘自然環境，破壞現實結構的穢邪惡物對抗的遠古大貓。諸神賜與貓族口說言語、使用工具和揮舞刀兵的能力以及強大的社群認同感。</p>\n<p>大部分的貓族屬於善良陣營。由於族人喜愛自由旅行及自決命運，貓族多為混亂而非守序。信教的貓族通常會信仰形式鬆散的泛靈論，祭祀大地精魂以及獵物的亡靈來維持自然秩序。</p>\n<h2>冒險者</h2>\n<p>貓族喜愛探索未知地域，管他是奔放荒野還是遠古地城都很開心。雖然發掘祕藏財寶的確很讓人興奮，但對貓族人來說旅途的經驗本身才是出門冒險真正的報酬。</p>\n<p>常見的貓族背景包括雜耍藝人、工匠、賭徒、獵人、遊民、斥侯，以及強盜、郵遞員、起義者、遊騎兵、祛邪師。由於好奇天性與靈敏身手，貓族適合擔任浪客、吟遊詩人、戰士與盜賊。對自然環境之愛與解謎揭祕的本能則驅使許多貓族成為調查員、德魯伊與術士。</p>\n<h2>名字</h2>\n<p>貓族出生時只會取個簡短的名字。少年時期初次離家時可改個新名，但大部分的貓族會保留早已習慣的出生名。貓族喜歡在名字上新增稱號或敬稱，許多貓族甚至在與外族人交流時只以那些稱號為名，因此會以六運 Six Fates、降魔 Fiend Killer、霧衫 Mistcloak 等稱號聞名於世。</p>\n<h3><span style=\"text-decoration: underline;\">範例名字</span></h3>\n<p>Alyara, Crinto, Drewan, Espes, Ferrus, Gerran, Halhat, Hoya, Ruun, Sevastin, Tespa, Yonsol, Zakkar, Zathra</p>\n<h2 style=\"border-bottom: 1px solid var(--color-underline-header);\">貓族資料</h2>\n<p><strong>生命值</strong> 8</p>\n<p><strong>體型</strong> 中型</p>\n<p><strong>速度</strong> 25尺</p>\n<p><strong>屬性提升</strong> 敏捷, 魅力, 自選</p>\n<p><strong>屬性缺陷</strong> 感知</p>\n<p><strong>語言</strong> 貓族語，通用語</p>\n<p><strong>額外語言</strong> 外加等同於角色智力調整值(若為正數)的額外語言。額外語言要從龍語、精靈語、地侏語、哥布靈語、半身人語、蜥蜴人語、巨人語、木族語以及任何其他角色能接觸到的語言(比如角色所在地區的常用語)中選取。</p>\n<p><strong>感官</strong> 昏暗視覺</p>\n<p><strong>翻正反射</strong> 當你墜落時，只承受一半的墜落傷害，且不會陷入倒地。</p>"
        },
        "Conrasu": {
            "name": "空塑人 Conrasu",
            "description": "<p><em>空塑人是宇宙宇宙力量的碎片被賦予意識的產物，他們構造了複雜的外骨骼以和凡人世界建立聯絡。空塑人既是宇宙基礎法則的一部分又與之分離，他們向御衡者們求助以求理解自身的存在。</em></p>\n<hr />\n<p>空塑人並不清楚自身的起源。一些歷史學家認為他們來源自一群邪惡法師的失敗實驗——可能是來自古代吉斯卡帝國（Jitska Imperium）工匠們留下的殘骸——他們試圖給軍隊賦予神性，卻意外召喚出了御衡者的碎片。另一些人認為，空塑人是由他們的祖先用一種不斷加速、自我迭代的進化過程所構建，和那些自己設計自己身體部分的人最理想的情況一樣自然。最可能的情況是，二者兼而有之。</p>\n<h2>你可能...</h2>\n<ul>\n<li>盡你最大的努力去按照指引你的御衡者的意志行事。</li>\n<li>將儀式和重複的行為作為一種冥想和自我反思的方式。</li>\n<li>難以將你對宇宙的直覺和感應用於物質存在。</li>\n</ul>\n<h2>其他人也許...</h2>\n<ul>\n<li>認為你——往好了說，是蜂巢思維的一部分，往壞了說，你缺乏自由意志。</li>\n<li>很難理解你的觀點或難於和你進行溝通。</li>\n<li>將你視為了解御衡者或類似存在的專家。</li>\n</ul>\n<h2>外貌描述</h2>\n<p>空塑人的本體是精神實體凝聚成的抽象核心。雖然他們的存在超越的類人生物的感官，但在凡人眼中，他們的身體通常就像一個由光、黑暗或宇宙組成的球體。球體內部懸浮著被遮擋的光點，好像透過一層透明的膠狀物在向外部窺探。圍繞著“核心”構建的，乃是活化的樹木形成的外骨骼，這構成了大部分人眼裡實際所見的空塑人。</p>\n<p>空塑人受到不同道途的感召，一旦他們選定了自己的道途，就會構建出符合其形式的外骨骼，這導致空塑人有各種各樣的外觀。隨著年齡的增長，他們柔軟的綠色身體會逐漸變硬，導致他們的四肢逐漸僵死。所以空塑人必須不斷長出新的手臂和根部，他們已經僵死的四肢會留在外骨骼上。</p>\n<p>空塑人沒有木質外骨骼就無法維持其形態。失去外骨骼的空塑人會消散並死亡，儘管他們可以像其他生物一樣通過魔法復活。</p>\n<h2>社會</h2>\n<p>空塑人大體上可以分為三類。維護者（Maintainers）負責照顧其他族人，認為他們必須在各種力量之間取得適當的平衡。塑型者（Shapers）塑造並引導周圍的族人，他們覺得努力維繫宇宙均衡之力才能踐行平衡之道。最後，校正者（correctors）負責解決各種各樣的問題，他們充當秩序最堅固的堡壘，感知並理解世界的絕對真理，幾乎沒有規則之外的灰色地帶。他們認為，只有通過施加力量進行必要的干涉，平衡才能真正地實現。</p>\n<p>在極少數情況下，空塑人可能會聆聽並接受跨位面存在的召喚。一些空塑人可能會侍奉招魂者（psychopomp），另一些則可能侍奉聖使（archon），還有一些可能成為女巫，尊某個不知名的存在為自己的庇護主（patron）。</p>\n<h2>陣營和宗教</h2>\n<p>大部分空塑人認為自己和某種特定的御衡者繫結，將它們奉為神明一般追隨，實現他們所理解的御衡者的目標。因此，幾乎所有空塑人都是守序中立陣營。</p>\n<h2>名字</h2>\n<p>在空塑人覺醒自我並離開他們萌芽的苗床之前，他們幾乎沒有任何其他人所理解的自我意識。這包括名字、性別、甚至外界的時間流逝——這些都是在更廣闊的世界中逐漸獲得的。因此，空塑人幾乎可以有任何名稱。</p>\n<h3>範例名字</h3>\n<p>Automa, Azubu, Dumi, Emeka, Ganizadi, Locu, Incanes, Radi, Shell, Weave</p>\n<h2 style=\"border-bottom: 1px solid var(--color-underline-header);\">空塑人資料</h2>\n<p><strong>生命值</strong> 10</p>\n<p><strong>體型</strong> 中型</p>\n<p><strong>速度</strong> 25尺</p>\n<p><strong>屬性提升</strong> 體質, 感知, 自選</p>\n<p><strong>屬性缺陷</strong> 魅力</p>\n<p><strong>語言</strong> 芒吉語、空塑語</p>\n<p><strong>額外語言</strong> 等同於你的智力調整值（如果是正數）。從天界語、精靈語、蜥蜴人語、木族語、土族語、奇匠語、其他你能接觸的語言（比如你居住地區普遍使用的語言）中選擇。</p>\n<p><strong>陽光治療</strong> 當空塑人暴露在陽光下時，可以進入冥想狀態來治療自己，這是一次10分鐘的活動。在這種情況下它能恢復1d8生命值。在3級之後每提升2級，治療效果增加1d8。一旦空塑人以這種方式恢復了生命值，它將在1天內對此能力臨時免疫。</p>"
        },
        "Dwarf": {
            "name": "矮人 Dwarf",
            "description": "<p><em>矮人聞名於他們的堅忍和嚴肅，待在用固體岩石雕刻而成的城堡和城市之中。雖然有些人認為他們是擺弄石頭和金屬的愚蠢無聊的工匠，但矮人和那些花時間瞭解他們的人能明白他們對工作的那種毫無保留的，一心追求質量而遠非數量的熱情。對於陌生人來說，他們看起來似乎多疑排外，但對他們的朋友和家人來說，他們的溫暖關懷無可比擬，大廳中總是充滿了歡笑聲和錘子敲打鐵砧的聲音。</em></p>\n<hr />\n<p>矮人們很難相信親屬以外的人，但這種謹慎並非毫無道理可言。矮人有著漫長的為抵抗野蠻的敵人，尤其是巨人、地精、獸人以及地底深處的恐怖存在而被迫流離失所的艱辛歷程。雖然來自矮人的信任來之不易的，但一旦獲得，它就像鋼鐵一樣強大。</p>\n<p>矮人們很難相信親屬以外的人，但這種謹慎並非毫無道理可言。矮人有著漫長的為抵抗野蠻的敵人，尤其是巨人、地精、獸人以及地底深處的恐怖存在而被迫流離失所的艱辛歷程。雖然來自矮人的信任來之不易的，但一旦獲得，它就像鋼鐵一樣強大。</p>\n<h2>你可能...</h2>\n<ul>\n<li>無論情況如何，盡全力維護你的個人榮譽。</li>\n<li>欣賞任何型別的高品質的工藝，並堅持把它應用到你的所有裝備上。</li>\n<li>一旦你下定決心，就不會動搖或退縮。</li>\n</ul>\n<h2>其他人也許...</h2>\n<ul>\n<li>覺得你是固執的人，不論他個人認為這是堅忍不拔還是頑固不化。</li>\n<li>認為你是石雕、採礦、貴金屬和寶石方面的專家。</li>\n<li>意識到你與家人、後代和朋友們之間的深厚聯絡。</li>\n</ul>\n<h2>外貌描述</h2>\n<p>矮人身材矮胖，比大多數人類矮一英尺左右。 他們有著寬大結實的身體和魁梧的骨架。無論男女矮人都會為自己的頭髮長度而自豪，他們經常把頭髮編成複雜的樣式，其中一些代表著特定的部族。長長的鬍鬚是矮人中男子氣質和榮譽的象徵，因此一個剃光下巴的男性矮人會被認為是弱者、不可信、甚至更糟。</p>\n<p>矮人通常在25歲左右成年，但在他們的傳統主義文化中認為完成每個家族獨特的成人儀式才更有意義。一般矮人可以活到350歲左右。</p>\n<h2>社會</h2>\n<p>古代地表上矮人統治的帝國很久以前就已隕落，被獸人和地精種的敵人所淹沒。現今的矮人保留了許多在古代推動他們的民族前進的偉大品質：從戰鬥、工藝到維繫家人朋友中歷練出的剛烈、勇敢和執著無畏。</p>\n<p>雖然他們那群山中的天空城堡（Sky Citadels）間的距離足以在各個矮人氏族中產生巨大的文化鴻溝，但大多數矮人社會都有許多相似之處。幾乎所有矮人都對石雕、金屬製品和寶石切割充滿熱情；大多數人都在建築和採礦方面非常嫻熟；並且許多人對巨人，獸人和地精種都有滿腔仇恨。</p>\n<p>矮人們的腰帶上很少會見不到綁著他們的氏族匕首。這把匕首是在每個矮人出生前就鑄造的，帶有他們氏族的寶石。父母用這把匕首切斷嬰兒的臍帶，使其成為第一個染上他們血液的武器。</p>\n<h2>陣營和宗教</h2>\n<p>矮人傾向於重視榮譽，並嚴格遵循其氏族和王國的傳統。他們有著強烈的友誼和正義感，儘管他們常常只關注他們認為是朋友的人。他們工作勤勉，玩的也更加瘋狂——特別是當涉及飄香的烈酒時。</p>\n<p>典型的矮人是守序善良或守序中立的，更傾向於崇拜那些對應陣營的神祇。矮人之神托拉格是矮人們的主要神祇，雖然對托拉格的家庭成員的崇拜也很常見。</p>\n<h2>冒險者</h2>\n<p>矮人冒險者傾向於成為尋寶者或傭兵。他們經常離開他們的城堡和地下城市來尋求財富，以振興他們的家園或收回被他們同族的敵人奪走的失落已久的矮人寶藏或土地。</p>\n<p>典型的矮人背景包括侍祭、工匠、商人、礦工和鬥士。矮人們專擅於各種武鬥類職業，如野蠻人、戰士、武僧和遊俠，但他們也能成為優秀的牧師和德魯伊。</p>\n<h2>名字</h2>\n<p>矮人會用祖先或矮人英雄的名字為他們的孩子取名以示榮耀，並且很少會為孩子發明一個新名字或借用另一種文化的名字。在介紹自己時，矮人傾向於列出他們的家庭和氏族，以及任何與其他家庭的聯絡及敬意。矮人的名字通常包含硬子音，且很少會多於或少於兩個音節。</p>\n<h3><span style=\"text-decoration: underline;\">範例名字</span></h3>\n<p>阿格娜 Agna，波蒂爾 Bodill，道戈林 Dolgrin，阿朱克 Edrukk，格蘭亞 Grunyar，英格拉 Ingra，卡茲穆克 Kazmuk，柯特瑞 Kotri，魯普 Lupp，莫格雷 Morgrym，羅格 Rogar，茹西卡 Rusilka，圖拉 Torra，揚格芮特 Yangrit</p>\n<h2 style=\"border-bottom: 1px solid var(--color-underline-header);\">矮人資料</h2>\n<p><strong>生命值</strong> 10</p>\n<p><strong>體型</strong> 中型</p>\n<p><strong>速度</strong> 20尺</p>\n<p><strong>屬性提升</strong> 體質, 感知, 自選</p>\n<p><strong>屬性缺陷</strong> 魅力</p>\n<p><strong>語言</strong> 通用語、矮人語</p>\n<p><strong>額外語言</strong> 數量等於你的智力調整值（若為正）的額外語言，從以下語言中選取：侏儒語、地精語、巨人語、獸人語、土族語、地底通用語和其它可用語言（例如你所在地區的語言）。</p>\n<p><strong>感官</strong> 黑暗視覺</p>\n<p><strong>氏族匕首</strong> 你免費獲得一柄所屬氏族的氏族匕首，它在你出生時就被交予你。出售這柄匕首是非常嚴重的禁忌，只會讓你被其他矮人蔑視。</p>"
        },
        "Elf": {
            "name": "精靈 Elf",
            "description": "<p><em>作為一個古老的族群，精靈早已見證了無數變遷並且有著只有親歷歷史才會具有的獨特視角。自從遠古時代離開這個世界後，在回到這劇變的故土的精靈一直極力試圖奪回他們遠古的故鄉——尤其是從那些入侵他們部分家園的可怕惡魔手中。對一些人來說，精靈是一種令人敬畏的存在——優雅美麗，才華四溢而知識淵博。然而，對於他們自己來說，比起實現他們的理想，他們更重視個人自由。</em></p>\n<hr />\n<p>精靈揉合了超凡的優雅、機敏的智力，以及某種方式對其他族裔的成員也具有吸引力的神祕魅力。精靈往往忱於求知，但他們漫長的生命中卻充斥著各種短命種時常覺得毫無效率的複雜教學法。精靈注重慷慨和魅力，並且致力於提升他們的舉止，外表和文化。</p>\n<p>精靈注重隱私，往往沉浸於他們的樹林與親友的祕密之中。他們在親屬之外建立友誼的速度很是緩慢，但出於特定原因：他們會微妙而深刻的與周圍環境和同伴進行同調。這是一種生理改變，但不僅僅限於表面。在短命種中度過一生的精靈往往會對自己認識產生偏差。看著一代又一代的夥伴衰老死去，他們會變得鬱鬱寡歡。這些精靈被稱為孤獨者。</p>\n<p>如果你想要建立一個擅長法術，神祕兮兮而故弄玄虛的角色，你應該選擇精靈。</p>\n<h2>你也許...</h2>\n<ul>\n<li>-對你與短命種之間的友誼關係很是謹慎，要麼小心的保持距離，要麼索性離群索居</li>\n<li>-對於專業和興趣之間的概念很是模糊，因為你都要掌握他們。</li>\n<li>-瞳色，膚色，髮色以及舉止都反映著你所居住環境的特徵</li>\n</ul>\n<h2>其他人會...</h2>\n<ul>\n<li>—注重你的外表，要麼欣賞你的優雅，要麼覺得你弱不禁風</li>\n<li>—認為你擅長箭術，法術和打惡魔，並且專精一項或多項藝術。</li>\n<li>—擔心你私底下看不起他們，或是覺得自己在屈尊行事。</li>\n</ul>\n<h2>體貌描述</h2>\n<p>精靈通常比人類要來得高，修長的面部特徵與尖尖的耳朵凸顯出他們那纖細的風采。寬闊的瞳孔填滿了大大的雙眼，這讓精靈有著異質的外貌，也讓他們得以在光線極其微弱時仍保有敏銳的視覺。</p>\n<p>精靈會巧妙且不易察覺地適應身處的環境跟相伴的同伴，也時常具有反映周遭環境的肉體特徵。舉例而言，在原始森林中棲息數百年的精靈可能有著翠綠色的頭髮與粗糙的手指，而居住在沙漠中的精靈則可能有著燦金色的瞳孔與面板。精靈的時尚，就像精靈本身一樣，氣象與反映出他們周圍的環境。生活在森林或是其他荒野地區的精靈穿著適應他們所在區域地形和植物的衣服,而居住在城市裡面的精靈則喜歡緊跟最新的時尚。</p>\n<p>精靈的肉體通常在20歲左右步入成年期，但往往要到他們生命頭一個世紀將近結束，經歷了許多，有過幾份工作以及面對了一代短命種的死亡後才會被其他精靈認為在心靈上也已完全成熟），而他們的壽命大概在600歲上下。</p>\n<h2>社會</h2>\n<p>精靈的文明深邃、豐富而且正在衰敗。他們的社會在千年前達到頂峰，甚至久在他們為了躲避一場大災害而逃離這個世界之前。他們回來了，但是重建並非易事。他們天生的耐心和求知慾使得精靈可以成為優秀的賢者，哲學家或是法師，並且他們的社會獎勵在他們內在的奇思妙想與知識之上。</p>\n<p>精靈有著根深蒂固的個人主義觀念，允許每個精靈在找到自己有著特定追求或是熱情的最佳職業前從事多種職業進行探索。精靈對仇敵往往是此恨綿綿無絕期，精靈將其稱之為“伊杜利爾”，但這種敵對的關係有時也能隨著時間流逝而綻放出友誼。</p>\n<h2>陣營和宗教</h2>\n<p>精靈往往情緒化又反覆無常，但他們往往心懷理想。因此，大多數精靈都是混亂善良的。他們偏好信仰跟他們一樣熱愛一切神祕與藝術事物的神祇。戴絲娜與紗琳尤其受到擁戴。前者是因為她的奇思妙想。後者是因為她對藝術的鑑賞。卡莉絲翠則是最惡名昭彰的精靈神只，因為她是將許多精靈的理念推至極限的象徵。</p>\n<h2>冒險者</h2>\n<p>很多精靈為了發現美和新事物而踏上冒險之旅。有些背景選項特別適合精靈。如果你是在荒野中長大的話，可以考慮獵人背景；如果你是在宮廷中成長，則可以考慮貴族背景；而若你是在學院中生活，那麼可以選擇學者背景。此外，運動員、藝人以及斥侯背景跟精靈都蠻合得來的。選擇職業的時候，可以考慮遊俠或遊蕩者，這兩個職業都能從精靈天生的機敏裡獲益。你也可以考慮成為煉金術士或法師，這兩個職業都符合精靈天生對知識的好奇。</p>\n<h2>姓名</h2>\n<p>一個精靈往往只會把自己的名字當做祕密而不告訴外人，同時會給見面的人取暱稱。這個暱稱會隨著時間推移而改變，因為這對於精靈的生活來說只是小事一樁，甚至只是一時興趣。一個精靈可能會被不同年齡和地區的人知道許多名字。精靈的名字由多個音節組成並且用於表達情感——至少在精靈語是這樣的。他們通常以“爾”和“婭”結尾，以致於其他文化有時會避免這些名字用這些音節結尾，以免聽起來太精靈。</p>\n<h3><span style=\"text-decoration: underline;\">典型名字</span></h3>\n<p>阿雷爾，安茹涅拉婭，卡拉德爾，妲拉婭，芳涅拉，赫達萊爾，雅薩爾，蘭里斯，奧帕婭爾，賽德隆，索姆婭爾，塔拉謝爾，泰莎婭，瓦瑞爾，雅蘭達婭，佐德隆。</p>\n<h2 style=\"border-bottom: 1px solid var(--color-underline-header);\">精靈資料</h2>\n<p><strong>生命值</strong> 6</p>\n<p><strong>體型</strong> 中型</p>\n<p><strong>速度</strong> 30尺</p>\n<p><strong>屬性提升</strong> 敏捷, 智力, 自選</p>\n<p><strong>屬性缺陷</strong> 體質</p>\n<p><strong>語言</strong> 通用語，精靈語</p>\n<p><strong>額外語言</strong> 等同於你智力調整值的額外語言，可選天界語、龍語、豺狼人語、侏儒語、地精語、獸人語，風族語和其他你取得可用的語言（比如你所在區域的語言）。</p>\n<p><strong>感官</strong> 昏暗視覺</p>"
        },
        "Fetchling": {
            "name": "竊影鬼 Fetchling",
            "description": "<p><em>竊影鬼曾經是人類，但是現在成為了異類。他們灰白的膚色、閃光的雙眼和操縱陰影的超自然能力都體現出了陰影位面的古老影響。</em></p>\n<hr />\n<p>竊影鬼很引人注目，他們的面板看起來完全沒有血色，這些看上去輕盈而朦朧的人似乎要消失在陰影中。他們能在黑暗中視物，能操控陰影，擁有神祕力量。一些力量強大的竊影鬼在陰影位面和物質位面穿行，從陰影中突然出現而又消失的無影無蹤，只在別的族裔中留下有關他們的隱祕傳說。通過魔法和其他手段，他們的腳步遍及格拉利昂和其他星球，適應能力媲美人類。</p>\n<p>第一批竊影鬼是難民。很久以前，當星隕之災摧毀了古代阿茲蘭特（Azlant），世界陷入黑暗時，一小批阿茲蘭特人尋求救贖。一個名叫“寡婦（Widow）”的戴著兜帽的神祕人響應了他們的召喚，撕開了一條通往陰影位面的通道。阿茲蘭特人進入了通道，用幽深的暗影取代了黑暗的大地。當倖存者與陰影位面奇怪的環境和危險的居民打交道時，位面的特性慢慢地影響了他們，給他們帶來了巨大的變化。</p>\n<p>如果你想扮演一個更樂於生活在映象般的陰影世界、被深黯之影澆灌，並且能充分體現光影二元對立的角色，那麼你應該選擇竊影鬼。</p>\n<h2>你可能…</h2>\n<ul>\n<li>在光線昏暗、有大量陰影的陰暗區域生活和工作，並且只在接待訪客時點亮燈光。</li>\n<li>除了身高或面部結構等特徵外，還可以通過觀察人的影子來識別他們。</li>\n<li>面對陌生的生物和環境時，保持淡定。</li>\n</ul>\n<h2>其他人也許…</h2>\n<ul>\n<li>相信你擁有神祕的力量，比如可以把光當飯吃，將身體融入黑暗，或者在位面之間旅行。</li>\n<li>猜測你謹慎、矜持、喜歡單獨行事。</li>\n<li>對你的祖先與陰影位面的聯絡很感興趣</li>\n</ul>\n<h2>外貌描述</h2>\n<p>陰影位面大部分地方看起來都像是主物質位面的映象，只是褪去了顏色。陰影位面的力量也影響了竊影鬼，他們的膚色從純白到深黑，以及介乎兩者之間的灰色。他們的體態和體型與人類一樣多樣，但大多身上有著如液體一樣的陰影在流轉。竊影鬼發光的、沒有瞳孔的眼睛可以看穿黑暗。竊影鬼最大的特徵是他們的影子幾乎從來都不會以真實投影的形狀顯現。相反的是，竊影鬼的影子的形狀和大小可能和本人極度不協調，或忽明忽暗、隨意延展，或模仿附近其他生物的影子。</p>\n<h2>社會</h2>\n<p>無論是生活在主物質位面還是陰影位面，無論團結成緊密的社會還是避世隱居，大多數竊影鬼的都和格拉利昂關係緊密。兩個位面上的竊影鬼社群都相對孤立；許多竊影鬼社會的文化中都保留著剛踏上陰影位面時的記憶：當時他們遭遇了許多充滿敵意的敵人和令人迷惑的鄰居。竊影鬼傾向於形成緊密的社群並適應當地的習俗，這已經成了他們廣大文化的一部分，並且兩個主要的竊影鬼勢力：艾斯特拉瑞（Estlaris）和莎倫達（sharedars）更是強化了這一特點——他們生活在更強大實體的陰影中。</p>\n<h2>陣營和宗教</h2>\n<p>一種生存文化想要代代相傳就意味著他們的後代需要保持更謹慎的處事態度並擁有良好的適應能力。因此大多數竊影鬼都傾向於中立的人生觀。有些人選擇加入一方勢力來實現個人或社會的進步，或陰謀從內部瓦解它。另一些人則試圖打破他們眼中對個人的束縛和社會的桎梏。</p>\n<p>不少竊影鬼是無信者，他們承認神祇的威能，卻不崇拜任何神祇。信教的竊影鬼更喜歡能提供保護和安定的神，無論是埃拉斯蒂爾（Erastil）的鄉野懷抱，還是宗-庫山（Zon-Kuthon）的鎖鏈束縛。那些獨來獨往，穿梭於位面之間的人會尋求艾瑟塔（Alseta）、黛絲娜（Desna）和哥茲萊（Gozreh）帶來的慰藉。卡莉絲翠（Calistria）會吸引野心勃勃的竊影鬼，而祖母蜘蛛（Grandmother Spider）和西凡娜（Sivanah）則會幫助那些既不希望引起注意也不會遭到束縛、能自由穿梭於世界的人。有些人把這三位神祇奉為一個神系（pantheon）來尊崇，稱之為“歡笑面紗（Laughing Veil）”；一些人甚至把諾格巴（Norgorber）列為第四位成員。</p>\n<h2>名字</h2>\n<p>竊影鬼適應了新的世界，他們的名字也是如此。他們的名字通常包括各種語言的音節，或者一些竊影鬼家庭乾脆會按照當地的文化來起名。他們的主流名字通常有流暢的發音，包含刺耳或嘶嘶的子音，以及代表重要親屬或社群特徵的姓氏。</p>\n<h3><span style=\"text-decoration: underline;\">範例名字</span></h3>\n<p>Amelisce, Ashka, Drosil, Eitsanara, Eomva, Ikyamek, Inva, Jegan, Lirtae, Meotrai, Sorsul, Zokaratz</p>\n<h2 style=\"border-bottom: 1px solid var(--color-underline-header);\">竊影鬼資料</h2>\n<p><strong>生命值</strong> 8</p>\n<p><strong>體型</strong> 中型</p>\n<p><strong>速度</strong> 25尺</p>\n<p><strong>屬性提升</strong> 敏捷, 自選</p>\n<p><strong>語言</strong> 通用語、陰影語</p>\n<p><strong>額外語言</strong> 數量等同於智力調整值（如果是正數）。選擇邪靈語（Aklo）、龍語（Draconic）、影界蟻族語（D'ziriak）、亡靈語（Necril）、地底通用語（Undercommon），或任意你可能接觸到的語言（例如你生活的地區的主流語言）。</p>\n<p><strong>感官</strong> 黑暗視覺</p>"
        },
        "Fleshwarp": {
            "name": "塑肉體 Fleshwarp",
            "description": "<p><em>塑肉體是通過魔法、鍊金術或非自然能量創造出來的或徹底被扭曲形體的人。他們怪異的外表讓他們很難在這個世界找到容身之處。</em></p>\n<hr />\n<p>魔法和科學能扭曲骨頭和肌腱，這在格拉利昂上是很普遍的。塑肉體正是那些被這樣的方法永久改變的人——有時一個塑肉體可以被從無生命的肉塊中創造出來，但更常見的情況是，受害者在非自願的情況下被奇怪的能量或殘虐的創造者轉化。</p>\n<p>該族裔的名字“塑肉體”，是一個籠統的術語，因為在格拉利昂，真正的塑肉儀式的比失控的魔法、技術或禁忌科學造成的轉化更臭名昭著。無論是瑟西隆（Thassilonian）的巫師、內克斯（Nexian）的塑肉師，還是黑暗之地的卓爾精靈，塑肉儀式都是一種在裝滿汙穢的魔法藥劑的大桶裡將肉體和心靈重塑的技藝。這使得一些怪物學者認為，只有那些由傳統的塑肉儀式創造出來的生物才應該被認為是塑肉體。無論他們的形態因何而扭曲，他們都被永遠地變成了塑肉體，這狂野而奇異的人生遠非他們原先種族所能體驗。</p>\n<p>雖然塑肉體是類人生物，但是沒有哪兩個塑肉體的外觀是完全一致的。一個可能有不尋常的肢體和光滑如玻璃般的面板，而另一個可能披著一層厚且多刺的毛皮。有些可能具有動物的特徵，比如野豬的鼻子、鱗片或蹄子。還有一些人有著完全非人的外表，比如手背上長出鼓鼓囊囊的眼睛。有些可能只擁有微小的奇異特徵來顯示它們的身份，比如發光的牙齒，冒煙的眼睛，或者指尖長出的骨刺。塑肉體之間唯一的共同點就是他們天生各異，當你扮演一個塑肉體時，你可以任憑想象力馳騁！</p>\n<p>如果你想扮演一個堅毅頑強、可以隨著成長不斷改變自己的形態、可以利用自己獨特外表來激發別人敬畏或恐懼的角色，那你應該選擇扮演塑肉體。</p>\n<h2>你可能...</h2>\n<ul>\n<li>擁有不同尋常的外表，能引發別人的敬畏或恐懼。</li>\n<li>更習慣於依靠自己。</li>\n<li>基於過去的經驗，不信任大量聚集的人群，尤其是暴民。</li>\n</ul>\n<h2>其他人也許...</h2>\n<ul>\n<li>認為你的身體既迷人又可怕。</li>\n<li>假設你是研究奇怪生物或神祕現象的專家。</li>\n<li>把你看做一個神祕而不可預測的、甚至有些危險的外鄉人。</li>\n</ul>\n<h2>外貌描述</h2>\n<p>塑肉體是類人動物，身高5到7英尺，體重從100磅到300磅不等。塑肉體四肢外觀上的比例和特徵差異很大，但是依然擁具備功能性的兩條腿、兩條胳膊和一個頭；擁有更多四肢的塑肉體應該選擇一個適當的族裔專長來反映這種差異，或者他們多出來的副肢是退化的，不具備功能性的。由於其獨特的創造環境，塑肉體在外觀上差別很大。即使是通過同樣的程式改變的兩“兄弟”看起來也會有很大的不同。</p>\n<h2>社會</h2>\n<p>塑肉體數量很少，因此也很少聚集。他們通常獨自生活，或者和一個小家庭共同生活，或者住在社群的郊外。然而，有些人選擇在城市裡謀生，他們隱藏在普通人群中，追求自己的事業，同時避免與那些可能會害怕或迫害他們的人接觸。</p>\n<p>塑肉體非常堅韌，而且善於向他人學習，所以那些接觸到同類的塑肉體通常會幫助彼此生存、隱藏或更有效地成長。但如果你並非某位塑肉體的親密朋友或者愛人，那麼去討論他被創造的過程將會是極其不禮貌的，因為那是一段痛苦而令人恐懼的過程。</p>\n<h2>陣營和宗教</h2>\n<p>塑肉體從大部分社會中獲益甚少，因此除了幫助其他塑肉體之外，他們很少為社會做出貢獻。他們必須能快速適應環境才能獨立生存。因此，很少有塑肉體是合法的存在。儘管有些偏執或目光短淺的人認為塑肉體是怪物，但塑肉體的邪惡傾向並不會比別的族裔多或者少，而且大多數塑肉體只想過上無憂無慮的生活。塑肉體大多數都是中立陣營，因為異化並不會迫使塑肉體蔑視他人，也不會鼓勵塑肉體迴避它。這對於生活在那些給與他們創傷性轉變的社會中的塑肉體來說，尤其如此。塑肉體通常不會隨便選擇宗教信仰；大多數人要麼是無信者（認為自己被神所蔑視，或者僅僅認為信仰對生存來說不切實際），要麼異乎尋常地虔誠。塑肉體通常信仰阿拉茲尼（Arazni）、卡莉絲翠（Calistria）、黛絲娜（Desna）或哥茲萊（Gozreh）；邪惡的塑肉體通常會崇拜拉瑪什圖（Lamashtu），從怪物之母（Mother of Monsters）那裡尋求一絲慰藉。</p>\n<h2>名字</h2>\n<p>塑肉體可能來自任何文化或族裔，因此也擁有本名，但有些人在被改造之後給自己取了新名字，或為了慶祝這種改變，或為了讓自己的人生重新開始，或為了隱瞞過去的身份。</p>\n<p>許多塑肉體也留有別人給他們取的描述性綽號，例如“三隻手（Triple Handed）”、“樹皮足（Barkfoot）”或“多嘴怪（Many-Mouth）”。塑肉體不會接受那些冒犯到自己的綽號，但是他們會接受那些描述自己獨特外觀的名字，或是他們關心的人給自己起的名字。</p>\n<h3><span style=\"text-decoration: underline;\">範例名字</span></h3>\n<p>Borble, Dag, Feff, Hurn, Kemp, Omber, Ostro, Shurni, Surm, Wumpin</p>\n<h2 style=\"border-bottom: 1px solid var(--color-underline-header);\">塑肉體資料</h2>\n<p><strong>生命值</strong> 10</p>\n<p><strong>體型</strong> 中型或小型</p>\n<p><strong>速度</strong> 25尺</p>\n<p><strong>屬性提升</strong> 體質, 自選</p>\n<p><strong>語言</strong> 通用語</p>\n<p><strong>額外語言</strong> 數量等於你的智力調整值（如果是正數）。從邪靈語、龍語、矮人語、精靈語、地精語、地底通用語中的一種，或任意你可能接觸到的語言（例如你生活的地區的主流語言）。</p>\n<p><strong>感官</strong> 昏暗視覺</p>\n<p><strong>非正常生理</strong> 你不同尋常的生理構造可以讓你抵抗其他生物所遭受的身體苦難。你在對抗疾病和毒素時獲得+1環境加值。</p>"
        },
        "Gnoll": {
            "name": "豺狼人 Gnoll",
            "description": "<p><em>作為如鬣狗（Hyena）般強壯的類人生物，豺狼人既是狡猾的戰士，也是獵手。令人畏懼的容貌與高效的戰術為她們帶去了糟糕的名聲。</em></p>\n<hr />\n<p>在大陸東部，例如卡塔佩什（Katapesh），豺狼人因被視作殘忍的奴隸販子與惡魔崇拜者而惡名昭彰。即使在芒吉莽原，許多外來者也堅信豺狼人是巫師、食人族或更糟的東西，而事實卻比這複雜得多。</p>\n<p>自稱為寇洛（Kholo）的芒吉豺狼人是極為務實的獵手和劫掠者，對她們而言，榮譽不過是無意義風險的代名詞。任何豺狼人的死亡不僅會影響它們自身，還會影響它們的同伴與親屬。把時間浪費在除勝利外的任何事物上都被認為是失德之舉，無論是善行還是惡行。豺狼人將效率視作最為重要的美德，堅信在最優的戰鬥中對手絕不會有機會進行任何回擊。芒吉豺狼人是伏擊、佯攻與心理戰的大師——顯然，這些都不是會令她們受到鄰居喜愛的品質。</p>\n<p>同樣地，豺狼人的先祖崇拜與同類相食的習俗也廣遭誤解。她們通過食用死者來表現尊重，舉行盛大的宴會，並將剩下的骨頭製成藝術品或武器。有時，這樣的尊重也會被豺狼人應用於可敬的對手，並希望藉此將對手的狡詐或力量帶入氏族。雖然這是欽佩的象徵，但並非所有人都這麼認為。</p>\n<h2>你可能...</h2>\n<ul>\n<li>總嘗試工作地更為聰明，而非更加努力。</li>\n<li>具有非常外向的身體行為——常擁抱、拳打腳踢或舔你的朋友。</li>\n<li>保留一根你最愛的親屬的骨頭，以便向那人尋求建議。</li>\n</ul>\n<h2>其他人也許...</h2>\n<ul>\n<li>被你的體型、牙齒和怪異的笑聲嚇到。</li>\n<li>假定你是個無恥之徒。</li>\n<li>尊重你狩獵方式的殘忍效率。</li>\n</ul>\n<h2>外貌描述</h2>\n<p>豺狼人是一種類似於鬣狗的大個子類人生物，具有短鼻口，鋒利的牙齒和大而誇張的圓耳朵。它們通體覆蓋著蓬鬆的皮毛，背部的相對粗糙，腹部和咽部的更為柔軟而輕盈——通常呈灰白色、棕色或褐色，常有斑點和條紋。豺狼人通常有6到7尺高，女性往往比男性高上一頭，相應地也更為強壯。15歲的豺狼人就被視作成年，並具有約為60歲的平均壽命，儘管有些個體能夠健康地活到100歲以上。</p>\n<h2>社會</h2>\n<p>寇洛通常生活在具有10到20個相互關聯的家庭的部族中。每個部族包括100至200位豺狼人，由女性組成的委員會統治，其成員通常是每個家庭中的最年長者。首席長老（Chief Elder）會被從每個長者委員會中選出，具有最高地位並負責制定議程。委員會由氏族的持骨者（bonekeeper）和說書人（storyteller），以及一至多位領導狩獵與突襲的年輕豺狼人擔任顧問。</p>\n<p>持骨者專注於聆聽豺狼人先祖和神明的話語——這個稱號來源於裝飾她們衣服和房屋的先祖之骨。說書人既是老師，也是智者，她們被要求對氏族歷史、地域傳說以及其他任何相關知識都有如百科全書般的瞭解，通常也會說好幾種語言。</p>\n<p>女性寇洛通常會成為獵手、戰士和領袖，而男性寇洛則會成為工匠、看護工和採集者，然而，這種對性別角色規則的堅持因宗族而異。無論男女，她們都可能成為持骨者或說書人，而對於男性豺狼人而言，這些身份是令他們獲得威信的重要途經。</p>\n<h2>陣營和宗教</h2>\n<p>芒吉豺狼人擁有一種對生活不多愁善感、實事求是的態度，她們優先考慮結果而非方法。通常對自己人忠實而慷慨，對外人卻冷酷無情——豺狼人是典型的混亂中立者，但也會根據她們的“自己人”而偏向善或惡。</p>\n<p>豺狼人每天都會向她們的祖先求助，祈禱這些同族能庇護幼崽，抵禦疾病，或為狩獵帶來好運。在特殊場合或危急時刻，她們也會呼喚神明。大多數寇洛將卡莉斯翠（Calistria）和紗琳（Shelyn）視作好姐妹（the Elder and Younger Sisters），向這一對代表力與美的孿生女神呈上敬意。內希斯（Nethys）被視作好哥們（the Brother），是持骨者的守護神。拉瑪什圖（Lamashtu）在其他一些豺狼人社群中廣受歡迎，被視作需要安撫的老媽媽（the Old Mother），通常只有在最後關頭才會被呼喚，其他時候會被祈求遠離。</p>\n<h2>名字</h2>\n<p>新生的寇洛會被取一個根名（root name），通常是某種骨頭、植物或動物的名字（從來不會是鬣狗，這被認為自戀且傲慢）。當豺狼人到達生命中的某個里程碑時，她們會給自己的名字加上描述符。根名通常由家族傳承，而描述符則被用於表現豺狼人個體的個性——通常是在喧鬧的慶典上。</p>\n<h3>範例名字</h3>\n<p>猴麵包樹、胡狼、影之縞瑪瑙大象、紅荊棘、不屈鐵蘆葦、白刺槐、渴望之牙、啄木鳥(Baobab, Jackal, Onyx Elephant in Shadows, Red Thorn, Unbent Iron Reed, White Acacia, Wistful Tooth, Woodpecker)</p>\n<h2 style=\"border-bottom: 1px solid var(--color-underline-header);\">豺狼人資料</h2>\n<p><strong>生命值</strong> 8</p>\n<p><strong>體型</strong> 中型</p>\n<p><strong>速度</strong> 25尺</p>\n<p><strong>屬性提升</strong> 力量, 智力, 自選</p>\n<p><strong>屬性缺陷</strong> 感知</p>\n<p><strong>語言</strong> 通用語、豺狼人語</p>\n<p><strong>額外語言</strong> 數量等同於你的智力調整值（如果是正數）。從龍語、精靈語、蜥蜴人語、亡靈語、獸人語、木族語、其他你能接觸的語言（比如你居住地區普遍使用的語言）中選擇。</p>\n<p><strong>感官</strong> 昏暗視覺</p>\n<p><strong>齧咬</strong> 你鋒利的牙齒和強健的雙頜是可怕的武器。你獲得用下顎發動的無武裝攻擊，能造成1d6點穿刺傷害。你的下顎屬於搏擊武器組。</p>"
        },
        "Gnome": {
            "name": "侏儒 Gnome",
            "description": "<p><em>很久以前，早期的侏儒祖先從第一世界，精類的國度，移民而來。雖然第一批侏儒流浪到格拉利昂的因由尚不明確，但這種血統在現代侏儒中表現出了奇思妙想，古怪癖好，過度痴迷以及某些人認為是天真的性情。這些特質在其身體特徵中體現得更加明顯，纖細的四肢、五顏六色的毛髮、和極富表現力的童顏，都進一步反映了它們來源於異世。</em></p>\n<hr />\n<p>侏儒們總是渴望著新鮮體驗，不斷地在精神層面和肉體層面上漫遊，以此來逃避那威脅著全體族民的可怕疾病。這種苦難——即白化症——會侵襲那些失去夢想、創新，且沒能投身新的體驗的侏儒，因為他們缺失了來自第一世界的關鍵的魔法本質。侏儒會根據生活的區域，選定與自身妖精血脈相應的魔法根源，但除非用新的經驗來補充這種魔法，否則這仍不足以避免白化症。白化症會如字面意義一般慢慢地讓侏儒的體色流失殆盡，讓他們陷入深沉的抑鬱，並最終奪去他們的生命。罕有侏儒能倖免於難，成為被稱為白化者的、陰鬱而又睿智的倖存之人。</p>\n<p>如果你期望具有無限熱情、對品德和生命抱有異樣而輕率看法的角色，那扮演侏儒就對了。</p>\n<h2>你可能...</h2>\n<ul>\n<li>在全盤考慮前先下手為強。</li>\n<li>在全盤考慮前先下手為強。</li>\n<li>在全盤考慮前先下手為強。</li>\n</ul>\n<h2>其他人也許...</h2>\n<ul>\n<li>欣賞你的熱情和應對突發情況的能力。</li>\n<li>試圖瞭解你的動機或適應你那快速的思維跳躍。</li>\n<li>認為你不可理喻、反覆無常、不堪重用、甚至輕率魯莽。</li>\n</ul>\n<h2>外貌描述</h2>\n<p>大多數侏儒站著也只有3英尺多高，比人類小孩重上一點。他們面板、毛髮和眼睛天生的顏色都多種多樣。尚未開始白化的侏儒，頭髮和眼睛可能是除了白色以外的任何顏色，其中最普遍的是那些鮮豔的顏色。膚色的範圍略窄，一般趨向於土黃色或粉色，儘管有時會是綠色、黑色或淡藍色。侏儒的大眼睛和密集的面部肌肉使他們的情緒極富表現力。侏儒會在18歲達到生理成熟，儘管許多人在成年後仍保持著孩子般的好奇心。理論上只要一名侏儒一直避免白化症的侵襲，她就可以活到任意歲數。但實際上罕有侏儒能活到400歲以上。</p>\n<h2>社會</h2>\n<p>儘管大多數侏儒採用了他們住地的某些文化習俗，但其實他們傾向於挑挑揀揀，讓他們的社群適應自己的精類邏輯。這通常導致大多數侏儒社群最終幾乎都完全由侏儒組成，其他人會因為對侏儒式政治的迷惑而遷往其他地方。侏儒們幾乎沒有完全屬於自身的文化。格拉利昂的地表不存在侏儒王國或城邦，即使真有那麼一個國家，侏儒也只會不知所措。</p>\n<p>由於生性所需，罕有侏儒會白頭偕老，他們更願意讓關係友好地順其自然下去，從而更好地用新的體驗來避免白化。儘管侏儒家庭規模通常較小，但許多侏儒社群卻會共同撫養孩子，讓家庭間的界限不斷變化。當成年人離開定居點時，那些沒有親屬的青少年有時會跟隨離去，組建成收養家庭一起旅行。</p>\n<h2>陣營和宗教</h2>\n<p>儘管侏儒們是隨性的謊話精，動機和手段令人費解，但至少許多人會試圖讓世界變得更加美好。他們容易產生強烈的情感，因此通常善良但鮮于守序。侏儒最常信仰重視個性和自然的神靈，如凱登凱連、黛絲娜、哥茲萊和紗琳。</p>\n<h2>冒險者</h2>\n<p>對於大多數侏儒來說，冒險並非必要。冒險中的侏儒經常蒐集紀念品，以此來銘記並重溫那些最激動人心的往事。</p>\n<p>侏儒通常會考慮藝人、商人或流浪者背景。此外，動物知音、酒保、賭徒和修補匠背景也十分合適。</p>\n<p>侏儒與魔法的聯絡使得施法職業特別適合你，尤其是那些與你的原能內在法術的根源相符的職業，如德魯伊或原能術士，儘管祕源侏儒可能會選擇其他職業。</p>\n<h2>名字</h2>\n<p>侏儒的名稱非常複雜，有著很多音節。他們不太在意家族姓氏，大多數孩子純粹是在父母的心血來潮下獲得的名字。侏儒基本不會擔心自己的名字發音太過簡單，他們也常用短小的暱稱。有些人甚至會收集並記下這些暱稱。在侏儒中，越短的名字越女性化。</p>\n<h3><span style=\"text-decoration: underline;\">範例名字</span></h3>\n<p>阿布羅施特 Abroshtor，巴斯塔格雷 Bastargre，貝雪 Besh，菲吉特 Fijit，哈倫加洛姆 Halungalom，克羅姆尼特 Krolmnite，涅奇 Neji，瑪捷特 Majet，小圓 Pai，珀施門特 Poshment，葵柯 Queck，特麗歌 Trig，扎祖科特 Zarzuket，加奎米耶 Zatqualmie</p>\n<h2 style=\"border-bottom: 1px solid var(--color-underline-header);\">侏儒資料</h2>\n<p><strong>生命值</strong> 8</p>\n<p><strong>體型</strong> 小型</p>\n<p><strong>速度</strong> 25尺</p>\n<p><strong>屬性提升</strong> 體質, 魅力, 自選</p>\n<p><strong>屬性缺陷</strong> 力量</p>\n<p><strong>語言</strong> 通用語、侏儒語、木族語</p>\n<p><strong>額外語言</strong> 數量等於你的智力調整值（若為正）的額外語言，從以下語言中選取：龍語、矮人語、精靈語、地精語、巨人語、獸人語和其它可用語言（例如你所在地區的語言）。</p>\n<p><strong>感官</strong> 昏暗視覺</p>"
        },
        "Goblin": {
            "name": "地精 Goblin",
            "description": "<p><em>對於其他民族依依不捨的繁雜歷史，地精們完全沒有興趣。這些小傢伙活在當下，比起真實的記錄，他們更喜歡誇大的故事。哪怕就幾十年前發生的戰爭，對他們來說可能也像是古老的往事。雖然不被其他種族理解，地精們依然自得其樂。地精的美德是把握眼前、創造力、還有真性情。他們從不擔憂自己的旅程會如何結束，而是努力充實自己的生活。他們編織故事，而不拘泥現實。他們身形雖小，但夢想無垠。</em></p>\n<hr />\n<p>在外人眼中，地精是一群熱愛歌曲、火焰、吃些令人作嘔的食物，同時痛恨閱讀、狗和馬的單純生物——這些描述對於大部分地精都完美符合。不過，地精種群當中已發生了翻天覆地的變化，越來越多的地精拒絕遵循這些刻板印象。即使在更好地融入世界的地精當中，也有不少還在一些小的方面沿循舊習，只是程度上更加合乎常理。有些地精還對火有著深深的迷戀，有的能毫不害怕地吃下那些可能會讓別人胃裡翻江倒海的食物，還有的地精則是積習難改的修補匠，會把同伴們的垃圾當成將來要製作的小裝置的材料。</p>\n<p>儘管地精的文化已經徹底分裂，但他們的名聲幾乎沒有改善。因此，那些去大城市旅行的地精經常受到嘲笑，也導致了許多地精需要加倍努力來證明自己的價值。</p>\n<p>如果你想創造一個特立獨行，熱情洋溢，又歡脫搞怪的角色，那就玩一個地精吧。</p>\n<h2>你可能...</h2>\n<ul>\n<li>努力證明自己能在其他文明民族之中佔有一席之地，證明的物件甚至可能包括你自己。</li>\n<li>在危難中咬緊牙關——有時要咬的不僅於此——保護自己和你的朋友。</li>\n<li>用滑稽行為和惡作劇為他人減輕沉重的情緒負擔（自己順便從中取樂）。</li>\n</ul>\n<h2>其他人也許...</h2>\n<ul>\n<li>採取措施防止你意外（或者故意）點著太多東西。</li>\n<li>認為你不會——或者不肯——閱讀。</li>\n<li>好奇你是怎麼在你的族裔那些典型的口味偏好、魯莽行徑和玩火愛好中存活下來的。 </li>\n</ul>\n<h2>外貌描述</h2>\n<p>地精是矮小的類人生物，軀幹臃腫，四肢纖細，腦袋大得過分，長著一對招風大耳，外加圓溜溜的紅眼睛。他們的膚色包括了綠色、灰色和藍色，常常帶有傷疤、疥瘡和皮疹。地精一般高3英尺。大多數禿頂，毛髮稀少或者完全沒有。他們鋸齒般的牙齒會不斷脫落並再次長出來，而快速的新陳代謝讓他們吃個不停，還經常打盹。地精中的變異也比其他族裔常見，地精們往往把特別明顯的突變當成力量和財富的跡象。</p>\n<p>地精3歲達到青春期，接著在4或5年後成年。地精的壽命可達到50年或更長，但如果沒有人保護他們免遭外敵和同胞的傷害，很少有地精能活過20歲。</p>\n<h2>社會</h2>\n<p>地精傾向於聚集在強大的領袖身邊，結成小型部落。這些部落人數很少超過一百，因為部落越大，領袖想維持紀律就越費勁——這是個眾所周知的艱難任務。隨著內海地區湧現出新的威脅，許多部落長老已經放棄了魯莽的行事方式，希望能建立聯盟，好讓人民有更大的機會生存下去。對於地精而言，玩樂和創造比生產和學習更加重要，他們的營地總是充斥著歌聲和歡笑。</p>\n<p>地精們會和盟友親密合作，凶猛地捍衛那些曾保護過他們，或願意傾聽他們心聲的人。出於自我保護，地精往往會猜測那些常被他們俗稱“長腿怪（Longshanks）”的高個種族不會善待他們。學會信任長腿怪對地精來說很困難，甚至只有在最近這幾年，他們才會考慮這種同伴關係。不過，他們作為一個民族的態度正在飛快轉變，而他們短暫的壽命和糟糕的記憶也在幫他們迅速適應這一切。</p>\n<h2>陣營和宗教</h2>\n<p>即使是心懷善意的地精，也很難做到恪守規則，這意味著他們很少隸屬守序陣營。大多數地精冒險者的陣營是混亂中立或混亂善良。有組織的信仰也會讓地精一頭霧水，他們中的大多數寧願選擇自己的神祇，挑選強大的怪物、自然奇觀、或是能讓他們心馳神往的任何東西來信仰。長腿怪可能會在神學體系上大書特書，而對地精來說，只要你願意，什麼東西都能被當成神。不過，和其他種族待久了，地精也可能會接受他們的一些信仰，有很多地精冒險者就信仰了凱登·凱連。</p>\n<h2>冒險者</h2>\n<p>某種程度上來說，幾乎每個地精都是運用技巧和智慧，險中求生的冒險者。地精生來就愛探索和尋覓財寶，但也有些地精會憑自己的意願成為真正的冒險者，這往往發生在他們與同伴或部落分離之後。</p>\n<p>地精一般擁有雜耍藝人、罪犯、藝人、角鬥士、獵人和街巷流浪兒背景。你可以考慮玩一個煉金術士或者吟遊詩人，因為許多地精都熱愛火焰和歌曲。作為鬥志旺盛的逆境求生者，地精常常成為在陰影中疾奔的遊蕩者，不過，與生俱來的不俗魅力也會吸引他們踏上術士之類魔法職業的道路。</p>\n<h2>名字</h2>\n<p>地精取的名字都很簡單。一個好名字應該容易發音，短到足夠一口氣喊完，還要聽起來有範兒。取名者經常挑選一個跟他喜歡的某件東西名字押韻的詞，這樣寫起歌來會容易些。在地精文化中，沒有任何關於命名的真正傳統，所以當地精孩童們歲數大到能做些近似交談的事情時，往往就會給自己取名字了。</p>\n<h3><span style=\"text-decoration: underline;\">範例名字</span></h3>\n<p>Ak, Bokker, Frum, Guzmuk, Krobby, Loohi, Mazmord, Neeka, Omgot, Ranzak, Rickle, Tup, Wakla, Yonk, Zibini</p>\n<h2 style=\"border-bottom: 1px solid var(--color-underline-header);\">地精資料</h2>\n<p><strong>生命值</strong> 6</p>\n<p><strong>體型</strong> 小型</p>\n<p><strong>速度</strong> 25尺</p>\n<p><strong>屬性提升</strong> 敏捷, 魅力, 自選</p>\n<p><strong>屬性缺陷</strong> 感知</p>\n<p><strong>語言</strong> 通用語、地精語</p>\n<p><strong>額外語言</strong> 數量等於智力調整值（若為正值）的額外語言，從以下語言中選擇：龍語、矮人語、豺狼人語、侏儒語、半身人語、獸人語、其他有機會接觸的語言（比如你所在地區通行的語言）。</p>\n<p><strong>感官</strong> 黑暗視覺</p>"
        },
        "Goloma": {
            "name": "戈洛瑪 Goloma",
            "description": "<p><em>戈洛瑪對大多數人都感到害怕，所以他們會故意利用自己非比尋常的生理特徵來嚇退那些他們認為是危險捕食者的人。戈洛瑪很少被遇見也很少被理解，他們那張長著許多眼睛又像是被木頭遮蓋住的臉給他們遇見的大多數人都帶去了恐懼。</em></p>\n<hr />\n<p>儘管戈洛瑪有能力變得和格拉里昂上其它智慧生物一樣危險，但是他們卻有著一種根深蒂固的心理，認為他們自己是獵物而所有的雙眼人都是捕食者。正因如此，戈洛瑪很少會在他人面前現身，而當他們露面時，他們通常會裝作很有威脅性的樣子來保護他們自己。即便是少數那些冒險離開族群加入芒吉社會的戈洛瑪，通常也會因為在認知和心態上的巨大差異而難以與其它族裔建立關係。</p>\n<h2>你或許…</h2>\n<ul>\n<li>本能地對大量的差異資訊進行快速有效的處理。</li>\n<li>營造一種恫嚇的氛圍來掩飾你的緊張情緒。</li>\n<li>難以將單個物體或人與其它相似的物或人區分開來。</li>\n</ul>\n<h2>其他人也許…</h2>\n<ul>\n<li>被你奇怪的生理特徵嚇到。</li>\n<li>把你在區分不同人這件事上遇到的困難誤解成冷漠。</li>\n<li>對你一眼就能發現細節並迅速得出結論的本事感到敬畏。</li>\n</ul>\n<h2>體貌描述 Physical Description</h2>\n<p>戈洛瑪是長著粗糙面板的類人生物，膚色從暖棕色到烏木色不等，然而罹患白化病的病態灰或白色個體也算不上少見。戈洛瑪的手指和腳上都覆蓋著一層薄薄的幾丁質。他們的臉也是由這種光滑的幾丁質所構成的矩形楔狀物，幾乎類似於木製面具，從臉上突出來的是八隻凝膠狀、閃亮的眼睛。戈洛瑪的嘴巴和下頜位於楔狀面龐的下方，一個骨質頭冠則從他們幾丁質臉部的頂端延伸出去。他們的後腦勺與脖子後方都披蓋著黑色的頭髮，上面佈滿了數千只凝視的小眼睛。這些眼睛在環顧四周時往往會發光並蠕動——這對大多數人來說都是令人不安的景象。</p>\n<h2>社會 Society</h2>\n<p>一個古老的戈洛瑪故事講到，在很久以前爆發的一場災難中，各路神魔從大地深處湧現，並從其他生物那裡偷走了他們的眼睛。只有戈洛瑪和其他那些躲起來的人才得以倖免——然而這些倖存者也很快便被如今成為雙眼人的生物們所狩獵，他們渴望著奪走戈洛瑪的眼睛來彌補他們自己的損失。這個故事很精確地總結了大多數戈洛瑪的心態：暴露在外會讓自己變得脆弱，而信任陌生人則是自尋死路。戈洛瑪一般會和其它同族一起成群旅行和生活，在族群裡才是他們才會覺得最為舒適。</p>\n<p>戈洛瑪在很小的時候就懂得要在任何時候保持警惕，觀察環境中任何不對勁的現象並且快速、慎重地在本能的指導下去做出反應 (而不是經過深思熟慮) 。其他的族裔通常認為戈洛瑪太過偏執也太過謹慎。戈洛瑪在大範圍內觀察事物的本事也遠勝於其在觀察特定物體上的能力——他們能輕而易舉地注意到大環境中的共性，卻很難記住某個特定物體或生物的模樣。這隻會讓他們變得更加偏執，因為他們很難在視覺上區分已知的朋友與潛在的敵人。</p>\n<h2>陣營和宗教 Alignment and Religion</h2>\n<p>戈洛瑪習慣於專注在他們自己的生存事項上，因而他們通常是中立的，當然那些會在墨守成規的平穩裡比其它人獲得更多舒適感的戈洛瑪會更傾向於守序陣營。戈洛瑪經常會向凱爾寇特 (Kalekot) 獻上敬意，祂是散佈恐懼來庇護無辜者的神祇 (譯註：神版蝙蝠俠，芒吉荒原的神祇部分還沒有譯文，因此這個只是暫時的譯名) ，儘管戈洛瑪依舊不肯將他們的信任獻給凱爾寇特，但他們確實將祂認作自己的保護者。戈洛瑪會向凱爾寇特祈禱以詛咒那些傷害過他們的人，因為他們中的大多數都認為正義只有通過超自然的手段才能得以實現。其他在戈洛瑪中受歡迎的神祇還有肯定社群力量的瑪茲魯達 (Mazludeh) 以及祖母蜘蛛 (Grandmother Spider) ，哪怕一個典型的戈洛瑪理想社群通常是孤立而與世隔絕的。</p>\n<h2>姓名 Names</h2>\n<p>戈洛瑪的真名會保守在同族之中，有成百上千個寓言都在警示他們，讓別的生物知道自己的真名將會有什麼樣的後果。戈洛瑪的名字通常沒有柔和的音節 (因為這樣的音節對他們來說很難發音) ，他們的名字一般以硬子音以及單獨發音的母音組成。當生活在其它群體之中時，戈洛瑪會傾向於使用一些讓人望而生畏的名字，他們會用上邪靈語和死靈語中的元素以及發音，又或者會採取那些在當地語言中會產生強烈反應的詞彙。</p>\n<h3>範例姓名 Sample Names</h3>\n<p>Biqkuul, Ehbouja, Haamaah, Kouzo, Quaerjii, Tebaazu, Uruueda, Zekuukeu</p>\n<h2 style=\"border-bottom: 1px solid var(--color-underline-header);\">戈洛瑪資料</h2>\n<p><strong>生命值</strong> 8</p>\n<p><strong>體型</strong> 中型</p>\n<p><strong>速度</strong> 30 尺</p>\n<p><strong>屬性提升</strong> 智力,自選</p>\n<p><strong>語言</strong> 戈洛瑪語, 芒吉語</p>\n<p><strong>額外語言</strong> 等同於你的智力調整值 (如果為正的話) 。從深淵語、邪靈語、龍語、精靈語、半身人語、死靈語、獸人語、木族語和其他你能接觸到的語言 (比如你居住地區普遍使用的語言) 中選擇。</p>\n<p><strong>眼觀六路 Eyes In Back</strong> 你長有許多不同朝向的眼睛，並能本能地注意到視野邊緣上事物的運動。在使用搜尋 (Seek) 基本動作時，你能夠在兩個區域內搜尋生物而非原本的一個。若有可用的精確感官，你能選擇視覺線內的兩個30尺錐形範圍 (cones) 或兩個15尺爆發範圍 (bursts) 而非原本的一個。</p>"
        },
        "Grippli": {
            "name": "樹蛙人 Grippli",
            "description": "<p><em>樹蛙人是一群害羞謹慎的人，他們會盡量避免捲入他人複雜危險的事務中去。儘管樹蛙人有如此的人生態度和矮小的體型，但在情況需要時，他們也會採取大膽而高尚的行動。</em></p>\n<hr />\n<p>避世且謹慎，樹蛙人是樹梢的苟活主義者，他們會守著自己的一畝三分地，從可怕的威脅中保護自身。他們使用巧妙簡單的工具使得樹蛙人被誤解為原始，但這忽視了他們將土地塑造成隱蔽的果園，還有允許樹蛙人平靜舒適地生活其間的隱祕洞穴。樹蛙人很樂意離開他們的森林家園外出進行貿易，探險，以及與威脅世界的敵人戰鬥。</p>\n<h2>你可能...</h2>\n<ul>\n<li>會在克服挑戰時找到聰明的利用環境的方法。</li>\n<li>因對敲骨吸髓的陌生人的警世故事感到警惕，從而交友緩慢。</li>\n<li>對家園或聚落有著強烈的保護欲。</li>\n</ul>\n<h2>其他人也許</h2>\n<ul>\n<li>假定你不喜歡城市和生活在其中的人。</li>\n<li>在理解局面和解決問題上相信你公正謹慎的處事方法。</li>\n<li>與你保持距離，因有毒而害怕觸控你。</li>\n</ul>\n<h2>外貌描述</h2>\n<p>樹蛙人看起來就像是人形的樹蛙，有著超大號的眼睛，寬大的嘴巴，瘦長的身材。他們輕巧的骨架和大腳趾在攀爬時提供了極好的抓握力，而他們多彩的面板提供了與他們家園環境相稱的偽裝——對應樹棲的綠色和棕色，對應水棲的藍色和橙色，以及這之間其他多種顏色。樹蛙人生長迅速，在孵化後約3年便能長到約2尺的成年體型，儘管他們只有在12歲左右才被認為是成年。樹蛙人很少能活過60歲，儘管有例外的個體能活到一個世紀之長。</p>\n<h2>社會</h2>\n<p>樹蛙人採用一種精緻的遊獵採集生活方式，他們會重塑地貌以滿足自身需求；修建溢口來誘捕魚類，播種果樹，種植提供廕庇的植物以供未來狩獵，還有更多在農業學家眼界之外的技術。這些策略同時依賴於聚落合作和分散的人口，因此樹蛙人通常生活在一個個依附於複雜關係網上的小村莊裡。避世性保護了樹蛙人的生命和生存方式已有數千年，但他們越發發覺自己同樣受到了遠古邪惡和新生探險家們的威脅。</p>\n<h2>陣營和宗教</h2>\n<p>被教導要等待，觀察且尊重生死的自然規律，大多數樹蛙人採取中立陣營。那些採取積極行動來阻止邪惡避難到叢林中的樹蛙人通常為中立善良，最值得注意的是那些罕見的吸收邪惡存在到靈魂中進行遏制的囚魔人（fiend-keepers），他們最終會用善良的行為來轉變其中的罪惡。中立神祇如哥茲萊（Gozreh）或埃拉斯蒂爾（Erastil）通常會獲得樹蛙人的尊重，雖然聚落通常更青睞於那些更不知名，更隱祕的神明，如至高天神使（empyreal lords），招魂者引座人（psychopomp ushers），或則精類的古老者（Eldest）。</p>\n<h2>名字</h2>\n<p>樹蛙人的名字通常包含了非樹蛙人難以正確發音的響亮的母音和輕快的子音。走南闖北的樹蛙人通常會接受一個或多個更容易讓同伴們念出的名字。</p>\n<h3>範例名字</h3>\n<p>Aalpo'ol, Bogwynne, Ctaprak, Eegru, Gpoun, Gruoksh, Hrrauti, Iopo, Iykiki, Kyrsiik, Mhruugu, Oplugo, Quaasol, Yolkuu, Ztaal</p>\n<h2 style=\"border-bottom: 1px solid var(--color-underline-header);\">樹蛙人資料</h2>\n<p><strong>生命值</strong> 6</p>\n<p><strong>體型</strong> 小型</p>\n<p><strong>速度</strong> 25尺</p>\n<p><strong>屬性提升</strong> 敏捷, 感知, 自選</p>\n<p><strong>屬性缺陷</strong> 力量</p>\n<p><strong>語言</strong> 通用語、樹蛙人語</p>\n<p><strong>額外語言</strong> 等同於你的智力調整值（如果為正的話）。從深淵語、水族語、沼蜍人語、龍語、精靈語、蜥蜴人語、木族語和其他你能接觸的語言（比如你居住地區普遍使用的語言）中選擇。</p>\n<p><strong>感官</strong> 昏暗視覺</p>"
        },
        "Halfling": {
            "name": "半身人 Halfling",
            "description": "<p><em>半身人們沒有自己的領地，也幾乎不會有比村莊更大的定居點。相反的是，他們更習慣於和都市高牆中的人類生活在一起，與那些高個子共建小社群。許多半身人在他們大個兒鄰居的陰影下過著完美充實的生活，而其他半身人更喜歡漂泊為生、環遊世界，並在機遇和冒險到來時巧妙利用。</em></p>\n<hr />\n<p>樂觀又開朗、超常的運氣、被強烈的旅行慾望所驅使，半身人們用自大與好奇來彌補自己矮小的身材。他們既興奮又隨和，對快樂的熱情遠勝暴力，是最好的機會主義者。即使在最危險的關頭，半身人也很少失去那份幽默感。</p>\n<p>許多高個子因為體型原因而解僱半身人，甚至像對待孩子一樣對待他們。但半身人卻會利用這些偏見和誤解來取得優勢，獲得機會並作出大膽的惡作劇或英雄行徑。半身人的好奇心受到智慧和謹慎的影響，讓他們盤算著風險和逃出生天的方法。</p>\n<p>雖然有時候旅行癖和好奇心讓他們傾向於冒險，但半身人仍與家人和家庭建立強大的羈絆，他們往往會拼盡全力來實現舒適的家庭生活。</p>\n<p>如果你想扮演一個誓與冒險和舒適的對立面抗爭到底的角色，你應該扮演一個半身人。</p>\n<h2>你可能...</h2>\n<ul>\n<li>和各種各樣的人保持融洽且樂於結交新的朋友。</li>\n<li>即使知道好奇心會帶來麻煩，也難以剋制地沉浸其中。</li>\n<li>對奴隸制的施行深惡痛絕，積極獻身於解放那些被強制勞動的人。</li>\n</ul>\n<h2>其他人也許...</h2>\n<ul>\n<li>欣賞你那無論多麼糟糕的情況都能找到一線希望或保持幽默的能力。</li>\n<li>認為你好運相隨。</li>\n<li>會低估你的力量、耐力和戰鬥力。</li>\n</ul>\n<h2>外貌描述</h2>\n<p>半身人是矮小的類人生物，看起來像小隻的人類。很少有半身人能長到3英尺高。半身人身體比例各不相同，有些看起來像身高較矮、頭部略大的成年人，有的則像人類孩童。</p>\n<p>大多數半身人走路時喜歡赤腳而非穿鞋，隨著時間的推移這些人的腳底板變得堅硬又粗糙。濃密、通常捲曲的毛髮溫暖著他們寬闊、晒黑的腳頂。半身人地膚色常為較深地黃褐色，如琥珀或橡木色，而髮色則在淡金到烏黑之間。</p>\n<p>半身人在20歲左右達到生理成年，一般的半身人可以活到150歲左右。</p>\n<h2>社會</h2>\n<p>儘管他們樂觀又友善，但半身人通常不會聚居一地。在內海地區他們沒有自己的文化故土，而是穿梭於世界各地的社會之中。半身人珍惜任何能勉強維持的生活，許多人從事著卑微的勞動或簡單的服務工作。有些半身人不想在城市生活，轉而走上了廣闊的旅途，從一個地方到另一個地方，追尋著財富和名望。這些漂泊的半身人經常以小團體的形式一起旅行，在親朋好友間分享艱難困苦和平淡之樂。</p>\n<p>無論身處何處，他們都會緊密地融入所處的社會之中，適應周圍主要種族的文化，並在其中加入獨特的半身人特色，創造出的融合文化擴散開來，使兩種文化都得以豐富。</p>\n<h2>陣營和宗教</h2>\n<p>半身人忠於自己的朋友和家人，但他們並不畏懼為了生存而做必須做的事情。半身人的陣營各不相同，通常與居住在其周圍的其他族裔的陣營保持一致。半身人熱愛的神要麼給予好運，比如黛絲娜，要麼鼓勵狡智，比如諾格巴，或是許多人讚譽身為解放者的凱登·凱連，還有周圍其他族裔常見的任何宗教。</p>\n<h2>冒險者</h2>\n<p>半身人生來就有的旅行癖和機會主義讓他們成為了理想的冒險家。許多人為了他們所具有的天賦，與半身人一起旅行會帶來好運的迷信流言，而忍受著他們樂天的態度。</p>\n<p>典型的半身人背景包括雜耍藝人、罪犯、特使、藝人、勞工和街巷流浪兒。半身人盛產強大的牧師和盜賊，也不乏許多武僧和遊俠。</p>\n<h2>名字</h2>\n<p>半身人的名字通常有兩到三個音節，發音柔和並會避免硬子音。半身人將長而複雜的名字看作是傲慢的象徵，而他們樂於讓名字聽起來更加謙虛。當然這隻適用於半身人自己，半身人的名字適合半身人，就像他們明白精靈和人類可能有更長的名字以適應自己的審美。人類總喜歡用綽號來稱呼半身人，而“幸運兒”這個綽號更是常見到了荒唐的地步。</p>\n<h3><span style=\"text-decoration: underline;\">範例名字</span></h3>\n<p>阿娜琺 Anafa, 安託 Antal, 貝麗絲 Bellis, 伯拉姆 Boram, 娥荼 Etune, 翡琉 Filiu, 賈米爾 Jamir, 卡萊布 Kaleb, 林娜 Linna, 瑪拉 Marra, 米羅 Miro, 莉琉卡 Rillka, 西絲特拉 Sistra, 蘇馬克 Sumak, 雅米拉 Yamyra</p>\n<h2 style=\"border-bottom: 1px solid var(--color-underline-header);\">半身人資料</h2>\n<p><strong>生命值</strong> 6</p>\n<p><strong>體型</strong> 小型</p>\n<p><strong>速度</strong> 25尺</p>\n<p><strong>屬性提升</strong> 敏捷, 感知, 自選</p>\n<p><strong>屬性缺陷</strong> 力量</p>\n<p><strong>語言</strong> 通用語、半身人語</p>\n<p><strong>額外語言</strong> 數量等於你的智力調整值（若為正）的額外語言，從以下語言中選取：矮人語、精靈語、侏儒語、地精語和其它可用語言（例如你所在地區的語言）。</p>\n<p><strong>銳眼 Keen Eyes</strong> 敏銳的眼神讓你能發現其他人注意不到的隱蔽甚至隱形生物的蛛絲馬跡。使用搜尋動作尋找30尺內的藏匿或無蹤的生物時，你獲得+2環境加值。當你攻擊一個對你隱蔽或藏匿的對手時，對隱蔽的純骰檢定DC降至3點，藏匿則為降至9點。</p>"
        },
        "Hobgoblin": {
            "name": "大地精 Hobgoblin",
            "description": "<p><em>和他們的地精親戚相比，大地精更加高大強壯。大地精在力量和尺寸上都與人類接近，具有寬闊的肩膀和長且強力的手臂。</em></p>\n<hr />\n<p>大地精在內海的聲望得到了改變，這是由於一座大地精國家——奧普拉克Oprak，近期在奈多和涅瑪薩斯之間的山脈中建立。在幾年前突襲了摩爾蘇恩和涅瑪薩斯的鐵牙軍團為了終止戰爭，做出了一個精心策劃的決定，宣佈奧普拉克為新的家園，並與其鄰國交好。目前，奧普拉克嚴格執行著不可與他族發生衝突的命令，這裡的大地精們也開始保持著一顆合作而非征服的心態，謹慎探索著阿維斯坦的土地。許多人，尤其是那些曾遭受鐵牙軍團暴行的人們，擔心這僅僅是下一次侵略前的短暫休息，並認為奧普拉克在積蓄足夠的力量之後，會再次摧毀他們的敵人。其他人則希望這些頑固的士兵可以證明他們是自己的盟友，以共同對抗默語暴君的無盡軍團。</p>\n<h2>你可能...</h2>\n<ul>\n<li>在任何問題上尋求最高效且易於實行的解決方案。</li>\n<li>在你旅行中參與的任何團體中提倡清晰的命令鏈，並嚴格遵守命令，即使你並不同意它。</li>\n<li>適當尋求其他生物的幫助，即使你並沒有完全瞭解或信任對方。</li>\n</ul>\n<h2>其他人也許...</h2>\n<ul>\n<li>根據你的聲望和攻擊性的外貌，認為你十分危險。</li>\n<li>認為你憎恨魔法或其他神祕技藝。</li>\n<li>讚揚你不可思議的耐力，獻身精神和紀律。</li>\n</ul>\n<h2>外貌描述</h2>\n<p>大地精站立時與人類差不多高，但他們的腿更短，軀幹和手臂更長。他們有著光禿、寬闊的頭和亮晶晶的眼珠，以及灰色的面板——有時會被晒成鐵藍色。大地精十分吃苦耐勞；他們能夠很快地從疾病中康復，並能夠輕易長時間地努力工作。</p>\n<p>大地精成熟得很快，大多在1歲時就能行走、說話、並持握武器，在8到12歲時進入青春期，並在14歲左右成年。大地精通常能活到70歲。</p>\n<h2>社會</h2>\n<p>大地精基於軍事制度來建設自己的社會。即使是市民團體，例如合作農場和商貿協會都會採用像是軍團、連隊或軍事編制一樣的組織結構。大多數大地精的社會屬性都是固定的，並基本上都會努力奮鬥以提升自己的社會地位。大地精會承受的懲罰通常都是社會地位的下降，但死刑和奴役對於嚴重的犯罪來說也十分常見，例如縱火和擅離職守。</p>\n<p>大地精老兵在他們的社會中擁有十分崇高的地位，常常會成為領袖或建言者。大地精很少練習魔法，並常常嘲笑魔法學徒，這是由於他們比起魔法，更加信任自己手上的劍。他們的藝術通常與軍事文化息息相關；許多大地精認為激動人心的軍隊行進和武器鍛造才是唯一值得推廣的藝術行為，但奧普拉克的和平政策開始讓這種觀點有所改變。</p>\n<h2>陣營和宗教</h2>\n<p>儘管大地精們大都十分熟悉戰爭的混亂，但他們一般具有十分有條理的精神，並傾向於生活在穩定的階級社會。儘管多數大地精認為多愁善感是懦弱的象徵，但那些性情溫和的大地精最近在交涉和國際事務中大獲成功。因此，大地精冒險者通常守序中立，只有那些拒絕並離開他們的軍事社會大地精是混亂的。在大地精社會中，信仰的地位很低，大多數人都認為信仰缺乏實踐意義，但他們也會勉強認同具有宗教信仰的大地精，這是因為這些大地精施展的治療魔法十分有效。</p>\n<h2>冒險者</h2>\n<p>大地精的社會是嚴格軍事化的階級社會，大地精成年之後會接受戰鬥訓練，而有一部分人便成為了傑出的冒險者。由於他們嚴格的軍事教育，大多大地精都有鬥士背景。勞工、習武者、礦工和斥候背景也十分常見。離群的大地精通常擁有罪犯、隱士、或遊民背景。大地精常常會成為戰士、遊俠或遊蕩者，儘管他們大都是通過傳統的訓練成為遊蕩者的。大地精對精靈有著種族間的裂隙，而且十分不信任奧術魔法，這被他們成為“精靈魔法”。大地精中的奧術學徒十分罕見，而且會受到其他同類的排擠。十分聰明的大地精常常會成為煉金術士。</p>\n<h2>名字</h2>\n<p>和地精類似，大地精的名字通常很簡單，儘管他們的名字聽起來十分低沉有力。在極少情況下，大地精會更名，保留核心但新增一些層次，作為對一些強烈創傷和重要事件的迴應。大地精沒有姓氏，認為姓氏是沒有意義的自負象徵；個人的聲望應該由他們的行為來決定，而不應關聯於他們的血統。</p>\n<h3><span style=\"text-decoration: underline;\">範例名字</span></h3>\n<p>阿茲Aze、杜克納Druknar、蓋甘Ghargan、哈克蘭Hathkren、依瑪克拉Imakra、誇拉安Kralaeng、麥茲克Mazkol、歐祖Olzu、雷澤Rezal、希克拉格Sivkrag、沃馬克Volmak、佐納姆Zornum</p>\n<h2 style=\"border-bottom: 1px solid var(--color-underline-header);\">大地精資料</h2>\n<p><strong>生命值</strong> 8</p>\n<p><strong>體型</strong> 中型</p>\n<p><strong>速度</strong> 25尺</p>\n<p><strong>屬性提升</strong> 體質, 智力, 自選</p>\n<p><strong>屬性缺陷</strong> 感知</p>\n<p><strong>語言</strong> 通用語、地精語</p>\n<p><strong>額外語言</strong> 等同於你的智力調整值（如果為正）的額外語言。從龍語、矮人語、侏儒語、巨人語、半身人語、獸人語以及其他你能夠接觸到的語言（比如你所在地區的常用語言）中選取。</p>\n<p><strong>感官</strong> 黑暗視覺</p>"
        },
        "Human": {
            "name": "人類 Human",
            "description": "<p><em>人類和格拉里昂上的任何居民一般變化莫測而不可捉摸，他們有著強大的行動力和生產力用以隱忍和擴張。雖然人類崛起之前有著許多興旺發達的文明，但縱觀歷史，人類已經建立了許多極其偉大亦或者是恐怖的社群，並且現在他們的人口在整個內海地區也是最多的。</em></p>\n<hr />\n<p>人類的野心，廣泛性和卓越的潛力使其成為這個世界上最主要的族裔。人類的帝國與領域海納百川，他們的公民用手中利劍與魔法的力量銘刻下自己的大名。人類的性格是多姿多彩的，從殘忍到仁慈，從險惡到聖潔。在人類創造巨大的國家和自由的城鎮時，他們中的許多人都冒險著去探索，離開他們的家園來勘探未知的領域，尋找失落許久的財寶，或是僅僅因為他們能做到就帶著強大的軍隊去政府他們的鄰邦。</p>\n<p>如果你想要建立一個無所不能的角色，你應該選擇人類。</p>\n<h2>你也許...</h2>\n<ul>\n<li>—為了自己或是事業，努力成就偉大</li>\n<li>—嘗試去了解自己在世界上的目標</li>\n<li>—珍惜家人和朋友的關係</li>\n</ul>\n<h2>其他人也許...</h2>\n<ul>\n<li>—尊重你的應變力，適應力以及—在大多數情況下—你活躍的思維</li>\n<li>—不信任的意圖，擔心你只是為了榮華富貴</li>\n<li>—不確定你期待著什麼並且懷疑你的意圖</li>\n</ul>\n<h2>體貌描述</h2>\n<p>人類體貌特徵的跨度有如世界氣候一般差異萬千。人類的膚色、體型、面容變化幅度極大。大體而言，愈靠近赤道的人類居民，其膚色愈深。</p>\n<p>人類在15歲生理成熟，但是要幾年後才會心理成熟。一個典型人類可以活到90歲左右。人類經常和其他族裔的生物進行交配，從而產生具有雙方特徵的子嗣。而其中最著名的半人類無疑是半精靈和半獸人。</p>\n<h2>社會</h2>\n<p>人類的多樣性也體現在他們的政府，傾向和社會規範上。雖然最古老的人類文明也可以追溯幾千年的歷史，但和精靈和矮人的社會相比，人類文明似乎處在永不停止的變化之中，因為帝國常常分裂，而新的又被舊的所吞併。</p>\n<h2>陣營和宗教</h2>\n<p>人性可能是所有族裔中最為複雜的，具有無比邪惡和非常善良的潛質。有些人類聚集為浩大的部落，有些人類建造了巨集偉的城市。總的來說，大多數人都是絕對中立的，但是他們會傾向於聚集在陣營相同，或至少是陣營接近的國家與社群中。人類也會信仰多種多樣的神祇並且產生了許多不同的宗教，他們傾向於向任何他們遇到的神祇尋求庇護。</p>\n<h2>姓名</h2>\n<p>與許多特定傳統與共同歷史相悖的上古文明不同，人類的多樣性導致了幾乎無限的名詞。北方部落的人類與南方國家的人類有著完全不同的名字。遍佈世界的人類都講著通用語（但是格拉利昂外的一些大路上有自己的區域共同語言），但他們的名字與他們的信仰和外表一樣多種多樣。</p>\n<h3><span style=\"text-decoration: underline;\">範例名字</span></h3>\n<p>格拉利昂內海附近有著很多大陸，有著各種各樣的人類種群起源於那些遙遠的土地。人類角色可以來源於其中任一種群，無論他們是否認為這是家鄉。</p>\n<hr />\n<p>內海地區人類種群的角色都講通用語（也成為塔爾多語），而其他種群則允許使用一種不常見的語言。</p>\n<h2 style=\"border-bottom: 1px solid var(--color-underline-header);\">人類資料</h2>\n<p><strong>生命值</strong> 8</p>\n<p><strong>體型</strong> 中型</p>\n<p><strong>速度</strong> 25尺</p>\n<p><strong>屬性提升</strong> 自選2項</p>\n<p><strong>語言</strong> 通用語</p>\n<p><strong>額外語言</strong> 數量等於1 + 你智力調整值（若為正）的額外語言，可選常見語言表中的語言和其他你取得可用的語言（比如你所在區域的語言）。</p>"
        },
        "Kitsune": {
            "name": "狐妖 Kitsune",
            "description": "<p><em>姣媚機伶的狐妖和精魂世界息息相通，從中獲得許多魔法力量，其中最主要的就是改變形體的能力。無論隱藏身份還是招搖著尾巴走過鬧市，狐妖隨時都把身邊的社會看在眼裡。</em></p>\n<hr />\n<p>狐妖有兩種形體，一種是狐首人身，另一種則取決於成長環境。如果在人口密集的地方長大，他們通常會發展出所謂的「無尾型態」，看起來像是比較常見，沒有狐狸特徵的類人生物，比如精靈或人類。在森林或農村地方長大的話，他們就容易發展出狐狸的樣貌。</p>\n<p>雖然也有的聚落完全由狐妖組成，但多數狐妖都會和其他族裔共同生活，觀察著其他人只憑潛意識遵行的社會規矩或動態。順應和顛覆人們的期待，對狐妖來說一樣好玩。他們熱愛笑話、故事、文字遊戲，特別是出乎聽者意料的謎語，這讓他們有了詭計多端的名聲。</p>\n<p>由於兩種型態分別聯絡著物質與精魂世界，狐妖的自我概念和身份認同也各自不同。有些狐妖甚至覺得兩種型態完全是不同的個體，可以用來探索自己個性的不同面向。</p>\n<p>如果你想扮演的角色擁有魔法天賦、藏著數不盡的面貌，每個面貌各有各的巧笑顧盼，那就選擇狐妖。</p>\n<h2>你也許……</h2>\n<ul>\n<li>專心觀察著四周人的習慣，竊竊記下該怎麼模仿他們。</li>\n<li>熱衷笑話、文字遊戲、惡作劇或是不必要的複雜計劃。</li>\n<li>在不同場合表現出不同卻又真誠的一面。</li>\n</ul>\n<h2>其他人或許……</h2>\n<ul>\n<li>被你的神祕迷人所吸引。</li>\n<li>訝異你多采多姿的超自然能力。</li>\n<li>好奇你還有什麼沒告訴他們。</li>\n</ul>\n<h2>體貌描述</h2>\n<p>狐妖有著敏銳的狐狸耳朵、尖間的吻部，手腳長著可以伸屈的爪子。他們的皮毛緻密光澤，通常呈現紅色、褐色、黑色或白色。狐妖還有著蓬鬆的尾巴；隨著他們磨練自己天生的魔法能力，尾巴會愈長愈多，最多可達九條。</p>\n<h2>社會</h2>\n<p>狐妖很少成為居住社群裡的多數族裔，甚至許多狐妖終身都不會遇見家人以外的狐妖。就算存在狐妖的社會，主軸也是和其他族裔交流時發現的共通點。這樣的社會觀讓他們能輕易模仿別人，也讓他們很容易注意到有誰需要幫忙或是親切的對待。因此，狐妖通常都有緊密的人際關係，並以自己的社交生活為重。</p>\n<p>當狐妖碰到面時，興許會展開一連串的脣槍舌戰，彼此都想盡辦法嘴贏對方。雖然拆穿其他狐妖化形的本領是天大的冒犯，但狐妖之間又喜歡偷偷把同族逼到「角色崩壞」，用精準的指責打亂他們的化形。</p>\n<h2>陣營和宗教</h2>\n<p>出於平衡兩種天性的習慣，狐妖的陣營多為中立，不過製造麻煩的天性讓許多狐妖都有點偏於混沌。有些狐妖善於控制或違背別人的意願，但就算是他們，也只有最邪惡的才會輕率自私地使用這些技巧。</p>\n<p>狐妖的守護神是農業與工藝的女神大狐女（Daikitsu）。雖然不是每個狐妖都信奉大狐女，不過大部份都還是尊她為狐妖一族的法力來源。天夏的狐妖也常信仰靜瑠（Shizuru）和月夜（Tsukiyo），把自己多變的面貌，比做日月間的輝映。阿維斯坦則有一小部份狐妖崇拜身處真實與表象之間的幻象女神希華娜（Sivanah），他們相信隱藏女神的真身的紗幔不只七重，而是像狐妖一樣有九道。</p>\n<h2>名字</h2>\n<p>雖然狐妖也有一些傳統名字，不過他們更喜歡使用自己居住的社會中常見的名字，以免引人助益。有些狐妖在不同的型態會有不同的名字：狐妖型態使用傳統名字、無尾型態使用當地流行的名字，而狐狸型態很可能完全沒有名字。</p>\n<h3><span style=\"text-decoration: underline;\">範例名字</span></h3>\n<p>浜子（Hamako）、直彥（Haohiko）、狐光（Kitsukou）、今（Kon）、關臘（Kwan-la）、塔拉若（Talaro）</p>\n<h2 style=\"border-bottom: 1px solid var(--color-underline-header);\">狐妖資料</h2>\n<p><strong>生命值</strong> 8</p>\n<p><strong>體型</strong> 中型</p>\n<p><strong>速度</strong> 25尺</p>\n<p><strong>屬性提升</strong> 魅力, 自選</p>\n<p><strong>語言</strong> 通用語</p>\n<p><strong>額外語言</strong> 數量等於你的智力調整值（假如其為正）的額外語言。從精靈語、侏儒語、地精語、半身人語、矮人語、木族語和任何你接觸過的語言中挑選（比如你居住地區普遍使用的語言）。</p>\n<p><strong>感官</strong> 昏暗視覺</p>\n<p><strong>變形 Change Shape</strong>(專注、神術、狐妖、變形、變化) 你變成另一種由傳承決定的型態。如果你的傳承沒有列出型態，則你的變化型態是無尾型態，呈現為你成長背景中常見的中型類人生物族裔（通常是人類）。此型態的年齡和身材都和你的真實型態相同，毛色等體貌特徵也大致相似。使用化形算作是用欺騙技能的喬裝動作來創造偽裝。處在此型態時，你會失去由狐妖傳承或族裔專長得到的非武裝打擊。你維持變化型態的時間不受限制，只要再次使用此能力，就可以變回真正的狐妖型態。</p>"
        },
        "Kobold": {
            "name": "狗頭人 Kobold",
            "description": "<p><em>每個狗頭人都知道自己那孱弱的身軀之下掩藏著偉大的真龍之力。對於自己人來說，狗頭人是能工巧匠以及忠誠的盟友，而對那些入侵狗頭人巢穴的傢伙來說，他們會化身為優秀的散兵，在獲得龍裔術士或者真龍霸主的支援時則會更加棘手。然而這些爬蟲類投機主義者在有利可圖時還是很樂意與其他類人生物合作的，正因為兼具謹慎與狡詐的品性，狗頭人才能在這廣闊的世界中謀求更多的財富。</em></p>\n<hr />\n<p>狗頭人是足智多謀的倖存者，他們那塞滿陷阱的巢穴以及投機性質拾荒行為讓大多數其他類人生物將其視為害蟲，而他們對於龍類的敬畏也讓自身落得了奴才和爪牙的爛名聲。然而有些狗頭人已經從那些隱蔽的巢穴中走出來，謀求地表定居點內相對安全的生活、有利可圖的冒險之旅、或者來自自己追隨者的敬畏目光。</p>\n<p>如果你想扮演一名自信滿滿、狡詐至極、且擁有源自血脈的古老龍類力量的角色，那麼你應該選擇扮演狗頭人。</p>\n<h2>你可能...</h2>\n<ul>\n<li>自豪於自身與龍類的聯絡，無論你認為龍是自己的祖先還是庇護者。</li>\n<li>分析周遭環境，時刻留意埋伏、有利地形以及逃生路線。</li>\n<li>自然而然地注意、採納和尊重團體的決議，無論自身是作為領導、從屬亦或者平等的團隊成員。</li>\n</ul>\n<h2>其他人也許...</h2>\n<ul>\n<li>認為你懦弱且沒膽子直面危險。</li>\n<li>欣賞你的足智多謀，在構築防禦時尤甚。</li>\n<li>認為你對於龍之力的宣稱過於誇張、屬於妄想、或者惹人憐愛。</li>\n</ul>\n<h2>外貌描述</h2>\n<p>狗頭人是矮小（大約3英尺，即0.91米）的爬蟲類類人生物，擁有纖細的軀幹和長長的尾巴。他們總是吹噓著自己祖上不知道多少輩的龍類先祖，並且他們身上也確實生有一種或更多的龍類特徵，比如結實的角、鋒利的牙齒或――更為罕見的――發育不全的翅膀或龍息能力。狗頭人發育很快，大約12歲便會成年，能活到60歲左右。</p>\n<p>狗頭人的鱗片顏色多種多樣。大多數情況下他們的顏色類似於彩色或金屬龍，混有稍微更深或淺顏色的鱗片，並由此組成斑駁的外觀。剛孵化的狗頭人的鱗片通常會反映出該社群的龍血典範，這可能是他們當前正在侍奉的龍，也可能是他們祖上的龍的血統型別。</p>\n<h2>社會</h2>\n<p>謹慎這個詞根植在狗頭人的本性之中，讓他們得以生存下去。他們通過躲避或者侍奉周遭的強大生物來避免成為獵物。當狗頭人得到強大的庇護者（比如一頭龍）或者掌控了超自然力量的源泉（比如一件神器或受到施法者的領導）時，這種順從的形象便會褪去。他們會對新事業或領袖報以不可動搖的熱情與忠誠。然而狗頭人在嗅探失敗跡象這點上久負盛名，一旦力量來源失效或者註定失敗時，他們的士氣也會立刻土崩瓦解。</p>\n<p>無論是否受到真龍的領導，狗頭人總是將自身視為與其精神典範同種的龍類。狗頭人社會所採納的規則與文化通常也會受到自身典範的特質所影響。</p>\n<h2>陣營和宗教</h2>\n<p>除了最離經叛道的狗頭人之外，絕大多數狗頭人都對等級制度和規則都有著天然的認同，所以狗頭人罕有屬於混亂陣營的個體。狗頭人冒險者傾向於守序中立或絕對中立，並根據祖輩傳下來的社交策略來謀求生存</p>\n<p>有組織的宗教都很適合狗頭人，而其中具有統帥或統治傾向的神祗尤甚。許多狗頭人被阿巴達爾（Abadar）的規則或莎琳（Shelyn）的藝術天賦所吸引。更邪惡的社群通常會選擇支援阿斯摩蒂斯（Asmodeus）和其他大魔鬼（archdevils）作為庇護主。龍神阿普蘇（Apsu）和達哈克（Dahak）也是常見的侍奉物件。狗頭人還經常被吸納進打著龍或者魔鬼旗號的邪教。</p>\n<h2>冒險者</h2>\n<p>狗頭人有著與身材不成比例的膨大自我，它們會為了尋求與之相配的力量、知識或寶藏而走上冒險的道路。當冒險者、軍隊或無情的暴君摧毀了狗頭人的社群時，倖存者們通常會依附於新的家庭，尋求情感上的慰藉――有時則會選擇復仇。典型的狗頭人背景包含工匠、藝術家、罪犯、獵人、礦工、斥候和修補匠，外加強盜、異教徒、拾荒者和僕役。狗頭人適合成為吟遊詩人、遊俠、盜賊和術士，不過有時他們會憑藉著自身的聰明才智成為鍊金術師或法師。</p>\n<h2>名字</h2>\n<p>年輕狗頭人的名字很少會多於1、2個音節。然而隨著年齡的增長、地位的提高以及自身所成就的壯舉，狗頭人會在自己名字上新增更多的音節，並以此來模仿龍語的常規用法。除非為了更好地融入群體，否則狗頭人鮮有姓氏，而在這種情況下，他們通常會冠以該群體中最能激勵人心的人物的姓氏。</p>\n<h3><span style=\"text-decoration: underline;\">範例名字</span></h3>\n<p>阿札納克（Azrnak），德拉辛（Draahzin），恩加（Enga），法茲金（Fazgyn），法齊（Fazij），傑卡加卡（Jekkajak），奇布（Kib），奇洛克（Kirrok），馬克路（Mirkol），塔卡（Tarka），烏卡克（Urkak），瓦爾謝（Varshez），弗洛坎（Vroklan），澤克斯提卡（Zekstikah），茲加茲（Zgaz）。</p>\n<hr />\n<p><strong>PFS筆記</strong> 歸功於探路者協會多年來的活動，所有角色現在都可獲取狗頭人族裔。</p>\n<h2 style=\"border-bottom: 1px solid var(--color-underline-header);\">狗頭人資料</h2>\n<p><strong>生命值</strong> 6</p>\n<p><strong>體型</strong> 小型</p>\n<p><strong>速度</strong> 25尺</p>\n<p><strong>屬性提升</strong> 敏捷, 魅力, 自選</p>\n<p><strong>屬性缺陷</strong> 體質</p>\n<p><strong>語言</strong> 通用語，龍語</p>\n<p><strong>額外語言</strong> 等同於角色智力調整值（若為正數）的額外語言。額外語言要從邪靈語（Aklo）、矮人語（Dwarven）、侏儒語（Gnomish）、煉獄語（Infernal）、土族語（Terran）、地底通用語（Undercommon）以及任何其他角色能接觸到的語言（比如角色所在地區的常用語）中選取。</p>\n<p><strong>感官</strong> 黑暗視覺</p>\n<p><strong>龍血典範 Draconic Exemplar</strong> 你能夠從龍血典範中汲取些許力量。從彩色或金屬龍中選擇一種作為你的龍血典範。這決定了你的鱗色以及外觀，根據GM的判斷，龍類有時候會對更加青睞那些與自身相近的狗頭人。你的龍血典範還會確定一些其他角色細節，詳細請使用@UUID[Compendium.pf2e.ancestryfeatures.egpiSWBrNBb1Fmig]{龍血典範表 Draconic Exemplars table}。</p>"
        },
        "Leshy": {
            "name": "萊西 Leshy",
            "description": "<p><em>作為自然環境的守護者與使者，萊西是暫時被賦予了實體形態的不朽自然精魂。</em></p>\n<hr />\n<p>當一名熟練的德魯伊或者其他原能法術的大師通過儀式製造了一個合適的容器，然後一個精魂選擇了這個容器做作為其暫時的居所時，一個萊西就“誕生”了。從儀式結束的那一刻起，萊西就能夠自給自足，所以他們並不需要這些德魯伊來照顧自己。</p>\n<p>儘管如此，萊西與自己的創造者終生保持聯絡的例子也並不罕見。不過，並不是所有的萊西都有足夠強大的精魂力量來完全保持獨立。那些較為弱小的自然精魂只能與容器形成一個脆弱的紐帶，紐帶的強度則剛好能夠其微型的身體動起來。這些精魂會變成萊西魔寵，作為創造他們的德魯伊的夥伴。獨立的萊西通常會保護這些萊西魔寵，向他人提倡給予這些萊西魔寵尊嚴與尊重。</p>\n<h2>你可能...</h2>\n<ul>\n<li>會作為那些無法離開自己領土的自然守護者的代理人進行旅行。</li>\n<li>會鼓勵那些你所遇到的文明與自然相互合作，以生態友好的方式建立自己的城市。</li>\n<li>會在旅途中結交新的朋友並建立紐帶。</li>\n</ul>\n<h2>其他人也許...</h2>\n<ul>\n<li>會由於你的超自然起源，把你當成一個稀奇古怪的東西。</li>\n<li>J會因為你長得很可愛而親切地對待你；或者因為你長得很嚇人而對你感到恐懼。</li>\n<li>會假設你只懂得有關大自然的知識，而不熟悉文明與社會。</li>\n</ul>\n<h2>外貌描述</h2>\n<p>萊西的外貌與用來製作他們容器的材料一樣種類繁多，通常呈現為各種植物或者真菌古怪的混合體。它們的身體在形狀上有些酷似人類，同時具有許多用來製作他們身體的植物或真菌的特徵。一個典型的萊西大約會有3尺高。基於用來創造萊西的儀式的性質，萊西從被創造時起就處於成熟狀態。作為精魂，它們不會衰老，並且一個萊西有可能永遠地留在同一個容器之中——儘管很少有萊西覺得這是一件好事。</p>\n<h2>社會</h2>\n<p>儘管作為守護者的萊西通常會聚集在一起，但旅行中的萊西並不會自然而然地被其他同類所吸引。對於大多數萊西而言，家庭的概念與出身無關，而是來自於由忠誠和友誼所建立的紐帶。萊西是忠實的盟友，但是他們幾乎不會容忍那些破壞自然的人。正如萊西很樂意接受那些贏得他們信任的人加入自己的家庭那樣，他們也希望被接納的家庭成員能夠作為回報，照顧他們以及他們的自然守護者。一個遭到背叛的萊西不會直接攻擊那些輕視自己的人，但他們可能會在一個關鍵的時刻選擇袖手旁觀，或者讓背叛他們的人迷失在荒野中。</p>\n<p>萊西會通過一種類似於種族的方式進行分類，但是這種分類與他們的身體特徵無關；相反，這種分類代表了他們精魂的大致性格。儘管特定的精魂更有可能被某一類物質軀體所吸引，但那些熟悉萊西的人知道這種傾向性遠遠稱不上是絕對的規律。萊西們常常對自己的外表感到自豪，也會欣賞其他人身上各種形式的美，但他們很少會根據他人的外表做出判斷。萊西的性別是由寄宿在其體內的精魂所決定的。萊西傾向於選擇那些與自己的性別相匹配的植物身體。有些萊西非常明確的把自己定位為男性或者女性，同時也有許多萊西認為自己兩者都是。而另一些，尤其是真菌類萊西，則傾向於更加複雜的性別表達，或者完全避開這個概念。</p>\n<h2>陣營和宗教</h2>\n<p>根據寄宿於他們體內的精魂，一個萊西可以屬於任何陣營，不過它們的觀點中往往包含了中立的元素。對於大多數萊西來說宗教並不是特別重要。那些具有哲學傾向的萊西一般會偏向於蒼翠誓約（Green Faith）, 而哥茲萊則是最受虔誠萊西所歡迎的神祇。一些萊西也會崇拜綠境公（green men）, 他們是強大的自然精魂，擔當著地區的守護者。</p>\n<h2>冒險者</h2>\n<p>有一些背景特別適合萊西冒險者，尤其是那些與自然界有關的背景，比如獵人、遊牧民或者斥候。與自然相關的職業，例如德魯伊和遊俠對於萊西來說是比較受歡迎的選擇。作為德魯伊的萊西更傾向於加入綠葉派系（leaf order）。遊吟詩人這個職業也非常適合那些喜歡講故事的萊西；這類萊西通常寄宿在由藤曼組成的身體裡。</p>\n<h2>名字</h2>\n<p>萊西會在他們的一生中多次選擇和更改自己的名字。這些名字通常代表了他們性格或者價值觀中的某一個方面,不過另一個常見的命名方式是描述一個他們所欣賞的自然景象。有些萊西甚至會使用一系列與自然現象相對應的名字，比如根據不同季節或者一天之內的不同時間段使用不同的名字。</p>\n<h3><span style=\"text-decoration: underline;\">範例名字</span></h3>\n<p>夏日緋紅 Scarlet in Summer, 翠綠鏈謠者 Verdant Taleweaver, 潛伏獵手 Lurking Hunter, 傲之飲日者 Masterful Sun Drinker, 日穹夜歌 Noon Sky Evening Song, 白皚松枝 Snowy Pine Branch, 傾瀉湍流 Cascading Rapids</p>\n<h2 style=\"border-bottom: 1px solid var(--color-underline-header);\">萊西資料</h2>\n<p><strong>生命值</strong> 8</p>\n<p><strong>體型</strong> 小型</p>\n<p><strong>速度</strong> 25尺</p>\n<p><strong>屬性提升</strong> 體質, 感知, 自選</p>\n<p><strong>屬性缺陷</strong> 智力</p>\n<p><strong>語言</strong> 通用語, 風族語</p>\n<p><strong>額外語言</strong> 數量等於你的智力調整值（假如其為正）的額外語言。從龍語, 精靈語，侏儒語，地精語，半身人語, 地底通用語以及其他你能夠接觸到的語言（比如你所在地區的常用語言）中選取。</p>\n<p><strong>感官</strong> 昏暗視覺</p>\n<p><strong>植物營養 Plant Nourishment</strong> 你通過與組成你身體的植物或者真菌相匹配的方式來獲得營養, 通過光合作用與根部吸收礦物質的某種組合，或者淨化腐敗物質。你通常不需要花錢購買食物。如果你通常依靠光合作用獲取養分，並且有一週時間沒有晒太陽，那麼你會開始捱餓。如果不從自然界的陽光中獲取養分，你可以從特製的瓶裝陽光中獲取營養，但這些瓶裝陽光的價格是標準口糧的10倍（或者40SP）。</p>"
        },
        "Lizardfolk": {
            "name": "蜥蜴人 Lizardfolk",
            "description": "<p><em>蜥蜴人是完美的生存者，他們是一個甚至在精靈眼中都十分古老的帝國的後裔。</em></p>\n<hr />\n<p>蜥蜴人帶著自己身為天生掠食者的矜持，在其他類人生物的社會中穿梭。他們以作為傑出的遊俠和冷酷無情的戰士而聞名。儘管蜥蜴人已經適應了許多不同的環境，他們中的許多人仍然喜歡待在水源附近, 利用他們屏住呼吸的能力為自己取得優勢。因此，蜥蜴人一般更喜歡那些不容易因為水而損壞的裝備，他們會避免使用由皮革和金屬製成的裝備，而更偏好由石頭、象牙、玻璃和骨頭製成的裝備。</p>\n<h2>你可能...</h2>\n<ul>\n<li>即使在因為迫於壓力而採取行動的情況下，也能展現出極大的耐心。</li>\n<li>會尊重自己族人的歷史, 並且會從過往的事蹟中尋找解決當下問題的方法。</li>\n<li>會努力去完美地適應所處的環境，同時又維持著自己的文化與傳統。</li>\n</ul>\n<h2>其他人也許...</h2>\n<ul>\n<li>會假設你受到傳統的束縛，並擁有許多古老的知識。</li>\n<li>會因為你剋制的身體反應而認為你是一個冷血無情的人。</li>\n<li>因為你令人印象深刻的力量和對自然界的知識而對你表示尊重。</li>\n</ul>\n<h2>外貌描述</h2>\n<p>蜥蜴人的外表會根據他們所處的環境而有所不同，但他們都有著前突的口鼻和露在外面的牙齒，以及一條長而有力的尾巴。那些來自溫帶或者沙漠地區的蜥蜴人通常有著灰色、綠色或者棕色鱗片，因為這樣的顏色有助於偽裝。而那些來自熱帶地區的蜥蜴人通常顏色鮮豔。許多人的背上會長有尖刺或者在頸部長有花哨的裝飾, 這些特徵暗示著他們身上的氏族血統。蜥蜴人的身體在15歲時進入成年期，壽命最多長達120歲。蜥蜴人的平均身高為6到7尺，不過他們一生都在不斷生長，隨著年齡的增加，他們的力量和體型也在增長。</p>\n<h2>社會</h2>\n<p>蜥蜴人在他們自己的語言中將自己稱為艾魯西（iruxi）,他們從破殼而出的那一刻起就被整個集體共同飼養。他們有著一個可以追溯到幾千年之前的口頭傳統，通過史詩、讓人回憶起過去的雕刻，以及在由骸骨形成的化石之間舉行的先祖儀式，讓這個傳統仍舊保持著生命力。蜥蜴人是充滿熱情的占星學家，他們的目光始終著眼於未來。如果他們看上去行動遲緩，那是因為他們悠久的歷史教會了他們耐心的重要性。</p>\n<p>大多數與外人有聯絡的艾魯西人村莊，都是那些移居到偏遠地區的移民者的村莊。真正的艾魯西人定居點往往都被外人所忽視，因為這些居住地的一部分或者大部分都淹沒在水中。這些由玻璃和石頭構成的混合結構承載著一代又一代生活在其中的蜥蜴人的印記。牆面上經常裝飾著蜥蜴人的骨頭，因為很多蜥蜴人相信，在當地的居民面臨危險的時候，祖先的靈魂會將這些遺蹟啟用。</p>\n<h2>陣營和宗教</h2>\n<p>大多數艾魯西並不關心那些沉重的道德問題，因此他們通常都是中立陣營。那些冒險中的艾魯西也許會出於各種各樣的原因而離開他的人民，也因此他們可以屬於任何陣營。艾魯西的宗教對於他們的文化來說非常重要，但同時他們的宗教又十分務實，將萬物有靈論、祖先崇拜和德魯伊儀式都融合在了一起。在眾多神祇中，只有哥茲萊普遍受到蜥蜴人的信仰。但蜥蜴人也可能召喚其他來源的力量，諸如古代的真龍、占星術、河流以及武器的力量，從友好的黛絲娜到殘酷的Hanspur以及某些惡魔領主。</p>\n<h2>冒險者</h2>\n<p>有一些背景特別適合蜥蜴人冒險者。諸如動物知音、獵人、斥候或者鬥士都是很理想的背景。生活在人類文明邊緣的艾魯西可能會成長為一個強壯的街巷流浪兒、以遊牧民或者水手的身份進行旅行，或者找到一份作為勞工或者角鬥士的工作。蜥蜴人和荒野的聯絡讓他們成為優秀的遊俠或者德魯伊。如果他們選擇野蠻人、戰士或者武僧作為自己的職業，他們強大的力量也能夠讓他們感到得心應手,儘管他們也可以像遊蕩者那樣在匿蹤時進行攻擊。艾魯西人也有著依靠蜥蜴人遊吟詩人和術士流傳下來的強大的口頭傳統。</p>\n<h2>名字</h2>\n<p>蜥蜴人的名字都來源於他們的古老語言，並且通常都很傳統。通常來說，艾魯西的名字會在他們孵化時由氏族的占星家根據預兆以及當時上升的星座來決定。儘管如此，有時候艾魯西的父母也可能會用一位祖先或者歷史上一位受人愛戴的英雄的名字來為他們孵化的孩子命名。</p>\n<h3><span style=\"text-decoration: underline;\">範例名字</span></h3>\n<p>阿拉沙格Arasheg, 巴拉斯克Barashk, 埃薩魯Essaru, 恩舒克Enshuk, 吉錫金Gishkim, 哈奇Hazi, 因內沙什Inishish, 庫塔克kutak, 納沙Nasha, 舒爾庫魯Shulkuru, 提茲卡爾Tizkar, 烏塔克什Utakish, 佐卡克卡Zelkekek</p>\n<h2 style=\"border-bottom: 1px solid var(--color-underline-header);\">蜥蜴人資料</h2>\n<p><strong>生命值</strong> 8</p>\n<p><strong>體型</strong> 中型</p>\n<p><strong>速度</strong> 25尺</p>\n<p><strong>屬性提升</strong> 力量, 感知, 自選</p>\n<p><strong>屬性缺陷</strong> 智力</p>\n<p><strong>語言</strong> 通用語,蜥蜴人語</p>\n<p><strong>額外語言</strong> 數量等於你的智力調整值（假如其為正）的額外語言。從水族語, Boggard，龍語，精靈語，巨人語，風族語以及其他你能夠接觸到的語言（比如你所在地區的常用語言）中選取。</p>\n<p><strong>利爪 Claws</strong> 你尖利的爪子讓你與其他類人生物相比，擁有了另一種使用拳頭戰鬥的方式。你獲得利爪無武裝攻擊（claw unarmed attack）,造成1d4的揮砍傷害並且具有靈巧和嫻熟特性。</p>\n<p><strong>水生適應 Aquatic Adaptation</strong> 你的爬行類生理結構讓你能夠長時間屏住呼吸。你獲得龜息通用專長作為獎勵專長。</p>"
        },
        "Orc": {
            "name": "獸人 Orc",
            "description": "<p><em>獸人多半自誕生之日起，便在戰火與衝突中經受歷練。暴力的生活方式使得獸人很難壽終正寢，他們縱情於對抗強敵的試煉之中，無論這種鬥爭是為了獲取更多權力而向族群內更高階級的成員發起挑戰，還是為了掠奪周邊其他社群。大多數獸人只要能站立行走和拎起棍棒，就會開始追尋榮耀，去馴服野獸或者狩獵致命的怪物。</em></p>\n<hr />\n<p>獸人總是會被他人視作獸類，因此獸人通常會盡其所能來讓自身所在的社群接納自己。贏取了獸人夥伴忠心的人最終都會感受到，獸人那無與倫比的忠誠與正直。獸人野蠻人、戰士和遊俠被視為角鬥士和僱傭兵。儘管部分人類聚居地無法接納完整的獸人社群，但一小隊獸人僱傭兵可以勝任任何人類徵召兵能夠完成的工作，前提是這些獸人能獲得相應的報酬。儘管其他類人生物普遍認為獸人只適合生活在戰場之上，但獸人那殘酷的生態僅僅是源於其充滿衝突的歷史，並非他們真的缺乏進軍其他領域的能力。</p>\n<p>獸人文化讓他們懂得在挑戰中存活才會經受歷練，越是艱苦困難代表從中存活的價值越高。那些長壽且獲取偉大勝利的獸人往往會贏得極高的尊重。</p>\n<p>若你希望角色是勇猛、可怖且身體強健的話，則應當扮演獸人。</p>\n<h2>你可能...</h2>\n<ul>\n<li>熱切地希望在任何體能競爭的機會中證明自身的力量。</li>\n<li>相信那些謊言與背叛的行為是缺乏力量來達成目的的表現。</li>\n<li>比起壽終正寢或病死，認為在戰鬥中光榮戰死是更加可取的行為。</li>\n</ul>\n<h2>其他人也許...</h2>\n<ul>\n<li>認為你過於暴力或缺乏紀律性。</li>\n<li>低估你的智力、謀略或學識。</li>\n<li>欣賞你的直率和耿直。</li>\n</ul>\n<h2>外貌描述</h2>\n<p>獸人身高體壯，手臂較長且雙腿粗壯。大多數獸人有7英尺高（約2.13米），但他們傾向於採取一種看起來更寬的、近似於羅圈腿的站姿，而且肩部向前傾的姿態。這樣的姿勢表面上看似沒什麼道理，但這麼做讓獸人的視線與其他大多數類人生物處於差不多的高度，又可以從高處俯視其他人。獸人面板粗糙，骨骼粗大，再加上和岩石一樣堅硬的肌肉，這讓他們十分適合參與戰爭或其他對體能要求較高的任務。儘管獸人的面板很粗糙，但其表皮上很容易留下疤痕，不過大多數獸人都會對面板上逐漸增加的疤痕感到自豪。獸人的膚色通常為綠色，偶爾也會有灰色面板，部分獸人會有其他膚色，以反映他們對自身生存環境的適應。</p>\n<p>無論男女，獸人們都認為強健的體魄與傷痕累累的面板很有吸引力。一個強健的獸人會讓部落更加強大，而傷疤則是勝利的標誌，也是克服了艱難困苦的象徵。相似地，許多獸人都認為大而突出的獠牙比起小巧的獠牙更有魅力，因為前者是更有效的武器。紋身，特別是覆蓋了大量面板的大型，猙獰的紋身對許多獸人來說也頗具吸引力。</p>\n<h2>社會</h2>\n<p>大多數獸人社群會通過兩件事來定義自身：痛苦與榮耀。獸人認為只要能承受並忍耐痛苦，便能夠贏取等值的尊重。一名渾身是疤的獸人即便斷腿也會忍痛前行，因為此種行為就好像在戰場上獲得偉大勝利一般讓人欽佩。</p>\n<p>獸人所具有的權力通常來源於力量或者家族血統。其社會結構通常為封建等級制，較弱的獸人在強者的命令下勞作。貝爾克澤恩（Belkzen）的部落是此類獸人社會中最大的一支，其內部權力變更的頻率很高。一名強大獸人的戰死會動搖整個權力結構，同時引起紛爭與決鬥來決定權力劃分。厭倦了服從上級的獸人會帶著自己的戰團離開社群，向著新領地開疆拓土。</p>\n<p>年輕的獸人會由整個社群共同撫養成人。實際上，獸人基本沒辦法使用其他方式撫養孩子，因為雙胞胎、三胞胎、甚至四胞胎在獸人家庭中都十分常見，就如同孩童夭折在獸人社會中也十分常見一般。許多收人部落會在年輕獸人成年之時舉行儀式，這通常是在他們十歲或十一歲的時候，在儀式中，這些剛成年的獸人會被告知自己在部落中的身份。而對於那些會在儀式上刻下下疤痕或刺青的社群來說，這也通常是年輕獸人們第一次獲取部落疤痕或刺青的時刻。</p>\n<p>獸人無所畏懼，但大多數獸人都不會相信魔法。魔法被視為一種工具，一種用來繞過體能這個條件來讓弱者與強者競爭的工具，而這與獸人的價值觀是格格不入的。儘管獸人會敬重古拉姆戰祭的力量，甚至敬重化形為凶猛野獸的德魯伊，但無論在何種層面上，獸人都認為奧術與異能是不可信任的物件。只有最墮落腐朽的獸人社群會將死靈法術視為能夠從死者身上竊取榮耀的狡詐技藝，因此對抗死靈也成為了獸人及其類人鄰居的新共識。</p>\n<h2>陣營和宗教</h2>\n<p>獸人有句俗話：“疤痕成就獸人。”伴隨著暴力與混亂降生、生存在滿溢著暴力與混亂的大地之上意味著大多數獸人傾向於混亂陣營。古拉姆（Gorum）、拉瑪什圖（Lamashtu）以及拉瓦古格（Rovagug）是獸人社群中最常見的崇拜物件，不那麼崇尚暴力的獸人會信奉中立神祇哥茲萊（Gozreh）或善神莎倫萊（Sarenrae），這些將火焰、救贖以及榮耀納入信條的神祗對於獸人來說更有吸引力。</p>\n<p>雖然存在獸人的神祇，但是對牠們的崇拜在獸人之中卻是出人意料地罕見。獸人們認為，一個生物只要有一張臉和一個名字，那麼它就可以被殺死，因此他們的神祇被視作他們挑戰的目標而非崇拜的物件。一些獸人部落認為部落中最偉大的成員可以獲得挑戰獸人神靈的機會，以在萬神殿中佔有一席之地。大多數獸人不會浪費他們臨死的時刻去讚美神靈或是祈求來世能有個一席之地，而是向他們的神靈吐出染血的警告，用破碎的獠牙預示新的挑戰者的到來。</p>\n<h2>冒險者</h2>\n<p>獸人族群渴望克服挑戰並證明自身實力的想法驅使很多獸人走上了冒險者之路，不過獸人更傾向於獨自或者和其他同族一同上路，而非與其他種族的同僚合作。</p>\n<p>常見的獸人背景包含角鬥士、獵人、習武者、遊民以及鬥士，外加強盜、遊騎兵以及難民。獸人們偏好野蠻人和戰士這樣的近戰職業。</p>\n<h2>名字</h2>\n<p>獸人具有一種發音很粗、以喉音為主的語言，他們的命名規則也以此為基準。許多獸人的名會直接使用某個能夠概括自身特徵的獸人語單詞，比如身體強壯、個子高或凶猛。而在選擇姓時，獸人會直接使用自己的部落名或者將某個特別具有紀念意義的成就作為參考來確定。</p>\n<h3><span style=\"text-decoration: underline;\">範例名字</span></h3>\n<p>阿庫斯（Arkus），奧斯克（Ausk），杜拉（Durra），格拉斯克（Grask），格瑞切斯（Grillgiss），克魯格（Krugga），瑪哈（Mahja），穆爾杜特（Murdut），奧拉克（Ollak），奧列特（Onyat），澤克（Thurk），烏爾奇（Uirch），阿奈特（Unach）。</p>\n<h2 style=\"border-bottom: 1px solid var(--color-underline-header);\">獸人資料</h2>\n<p><strong>生命值</strong> 10</p>\n<p><strong>體型</strong> 中型</p>\n<p><strong>速度</strong> 25尺</p>\n<p><strong>屬性提升</strong> 力量, 自選</p>\n<p><strong>語言</strong> 通用語，獸人語</p>\n<p><strong>額外語言</strong> 等同於角色智力調整值（若為正數）的額外語言。額外語言要從地精語（Goblin）、巨人語（Jotun）、土族語（Terran）、地底通用語（Undercommon）以及任何其他角色能接觸到的語言（比如角色所在地區的常用語）中選取。</p>\n<p><strong>感官</strong> 黑暗視覺</p>"
        },
        "Poppet": {
            "name": "人偶 Poppet",
            "description": "<p><em>人偶是小型的簡單構裝體，通常幫助它們的主人完成簡易任務。偶爾的，人偶會獲得智慧、獨立性和生命的火花。這些人偶不再是單純的幫手或玩物，而可以自由地選擇自己的命運。</em></p>\n<hr />\n<p>常見的人偶是由布、柳條和木頭製成的最簡單的構裝體之一。它們是用於拿取工具、洗碗、整理房間或執行其他輕便任務的幫手。它們的大小和外觀各不相同，但幾乎所有的人偶都是人形的，身高在1到3英尺之間。他們通常做得很粗糙，在空白的臉上縫上鈕釦眼，用一串毛線代替頭髮，穿著用粗糙、廉價的布制的簡單外衣。富裕的家庭有時會購買人偶作為玩具，用它們柔軟的身體和縫製成的微笑來陪伴孩子。大多數人偶不能說話，而且缺乏智力，不能理解預先編定的指令以外的語言。人偶可以成為魔寵，如PFSG123頁的規則。</p>\n<p>在非常、非常罕見的情況下，一個普通的人偶會自發地顯現出生命火花——一小點的生命本質——併成為一個有思想、獨立的生物。這種情況非常罕見；不到千分之一的人偶會獲得這種火花。人偶也許是通過其建造時的一個神奇的僥倖，也許是與靈體精魂的偶然擦肩而過，甚至是一個喜愛它的孩子的熱切願望而表現出這種生命本質。無論其起源如何，這裡描述的作為族裔的人偶都有自己的生命和自由意志。他們可能認為他們的創造者或前主人是朋友，但他們不承認任何人是他們的主人，並經常離開舒適的家或工坊，到世界上尋找自己的位置。</p>\n<p>有智慧的人偶通常把自己稱為“覺醒者”，以表明他們獲得清晰和真正的自我意識的時刻。人偶可能會把這一事件說成是他們“降生”、“醒來”或“一閃而活過來”的時候。大多數人偶每年都會慶祝兩個特殊的紀念日：他們最初被創造的日子（對多數人偶來說，他們必須通過第二手訊息或研究他們創造者的記錄來了解這個日子）和他們覺醒真正意識的日子。</p>\n<h2>你可能...</h2>\n<ul>\n<li>喜歡用你出乎意料的聰明和口才讓別人吃驚。</li>\n<li>尋找大多數人可能忽略的其他有自我意識的存在。</li>\n<li>依靠你無害的外表來欺騙他人。</li>\n</ul>\n<h2>其他人也許...</h2>\n<ul>\n<li>誤以為你是個玩具。</li>\n<li>懷疑你是否有能力處理需要靈巧或複雜思維的任務。</li>\n<li>好奇你平凡的外表下是否隱藏著其他魔法奇蹟。</li>\n</ul>\n<h2>外貌描述</h2>\n<p>人偶既是類人生物，也是構裝體，這使它們同時具有兩個類別的一些優點和缺點。他們的身體通常由木頭和柳條製成，但他們也可以由布、皮革、錫、填充物或精緻的發條齒輪製成。無論哪種構造的人偶都會迅速燃燒或融化，因此必須注意避免火焰。它們在外表上幾乎沒有相似之處，因為每個人偶都是在獨特環境下創造出來的。</p>\n<p>人偶在覺醒後便有充分的警覺性和自我意識；儘管它們一開始可能不知道什麼，但它們會立即獲得智慧和意識。它們必須呼吸和睡眠，每天必須消耗食物和水；通過一種神奇的消化方式，它們可以恢復身體上的裂痕或擦傷。人偶不會像有血肉的生物那樣衰老，但它們的身體結構和精神敏銳度都會慢慢消退。一個好好打理自己身體和精神（並注意避免火災）的人偶最長可以活30年。</p>\n<h2>社會</h2>\n<p>有自由意志的人偶如此稀有，幾乎沒有這樣的人偶遇到過其他同類。人偶通常與更大的生物生活在一起，雖然那不一定是它們的創造者。它們能在更大的生物的社會中活得很融洽。大多數人偶生活在城市裡，因為玩具製造商、鐘錶工匠和其他專家都在那裡開店，但由孤獨的隱士或離群索居的發明家創造的人偶可能更喜歡在野外生活。人偶會經常留意尋找其他那些可能和它們一樣，偶然有了自我意識的生物。他們也許會定期與活化物體、魔像、盆栽、雕像或玩具進行對話，在對話中，他們非常有禮貌，因為他們希望在這些物體“醒來”的時候留下一個好印象。</p>\n<h2>陣營和宗教</h2>\n<p>普通的人偶是作為幫助者和夥伴而製造出來的，被喚醒的人偶往往保留了這種幫助他人的動力。因此，他們通常是善良的，而且人偶更多傾向於守序而不是混亂。有些人偶會花時間試圖揭開他們創造的祕密，尋找像他們一樣的同類存在，或者遠離麻煩；這些人偶則通常是中立的。人偶通常沒有宗教信仰，除非他們的創造過程中有特定的信仰加以定義，比如用艾奧梅黛的祭壇布碎片製作，或者用哥茲萊聖池周圍的蘆葦編織。這些人偶通常十分虔誠甚至狂熱。而覺醒後找到宗教信仰的人偶，通常會追隨布萊、卡珊德拉或內希斯。</p>\n<h2>名字</h2>\n<p>人偶選擇自己的名字時一般是基於它們的材料、圖案、大小或舉止的描述性綽號。它們在一生中常會獲得和捨棄一些綽號，而且它們很樂意採用它們喜歡的人給它們起的綽號。一個裝飾得像某一個人的人偶，例如一個縫製得如已故孩子的人偶，可能會自豪地採用這個人的名字。</p>\n<h3>範例名字</h3>\n<p>Burlap, Buttoneyes, Checker, Clockwhirr, Fivestitch, Nettle, Scramble, Stuffing, Taffeta, Tattercap</p>\n<h2>內海的人偶</h2>\n<p>笨拙而可愛的人偶在格拉里昂的各種社群中都常受善待，除了那些最孤僻和最迷信的地方。眾所周知，這些能幹、樂於助人、忠誠的小生物會支援主人的工作或使貴族的生活更輕鬆，在大型城市，如艾布薩羅姆、艾瑪斯Almas、卡塔佩什城和卡希爾Katheer尤其如此。在大多數人的經驗中，普通人偶和活化人偶之間的最大區別是交談能力。普通人偶通常不會說話；如果它們能說話，它們也只會複述預先編定的短語。它們通常通過釘在身上的紙條與陌生人交流，就像行走的告示板。覺醒的人偶不僅會說話，而且會進行大段大段、富有表現力的對話，這甚至可能讓對一切司空見慣的城市人也感到不可思議。</p>\n<p>在那些根基牢固的貴族喜歡炫耀財富的地區，人偶甚至被專門製作為玩具。塔爾多和切利亞斯的眾多貴族都寵愛自家的孩子，以將他們培養成適於安樂生活而忠於家族榮譽的人。這些孩子擁有最好和最昂貴的玩具，包括穿著花哨衣服的人偶。這些人偶有時還配備了隱蔽的武器，來對抗威脅他們孩子的綁架者或刺客。這些國家的平民尊重而小心翼翼地對待人偶，因為沒有人願意冒險惹到被寵壞的貴族子弟。這些國家的覺醒人偶有時會認為自己是貴族成員，而且可能很傲慢無禮。</p>\n<p>在奈克斯(Nex)、奧西里昂(Osirion)和卡塔佩什(Katapesh)等國家，魔法自由流轉，而構裝體侍從也很常見。由於許多人都會在每日工作中看到魔寵和人造人，所以一個忙碌的人偶很少引起人們的注意。人們會認為這些人偶是在為強大的主人執行任務，但人偶並不會得到太多的尊重——畢竟，如果任務真的很重要，主人就不會派一個簡單的人偶了。這些地區的人偶可能會排隊等候，糾纏工人以引起他們的注意，或者像其他人一樣進行交易物品。他們也傾向於擁有簡單和實用的外觀，沒什麼裝飾，而且由於多年的工作，往往看著破破爛爛的。來自這些地方的人偶對普通人有更深的瞭解，因為它們與普通人肩並肩（或者，更有可能是肩並膝）相處了這麼長時間。</p>\n<p>有些人偶起源於複雜工藝而不是魔法。它們可能是帶有互鎖活塞動力齒輪的高精度發條機關，或者只是以木頭和柳條製成，用巧妙的鉸鏈和精心校準的機關驅動。還有一些可能看起來像玩具士兵，或者有光滑、薄薄的金屬外層。這樣的人偶在阿肯斯塔、紐美利亞或艾布薩羅姆的發條大教堂(Clockwork Cathedral)最常見。他們經常擔心鐵鏽、砂礫或水會破壞他們的內部機關，甚至到了挑剔的程度。</p>\n<p>很少有地區的人偶會讓人感到恐懼，但烏斯塔拉夫就是其中之一。被人們悄聲傳講的鬼故事講述了普通物品，甚至是玩具，被賦予了可怕的生機而給一個家庭帶來不幸，這使得人們對人偶非常懷疑。這種信念是不幸的，因為烏斯塔拉夫有眾多的人偶；古怪的發明家、急於證明深奧理論的教授，以及來自墳墓外的附身靈魂都可能給人偶帶來生命的火花。這些人偶很快就學會了謹慎行事，以免它們被扔進篝火或湖裡。</p>\n<p>由於它們是由脆弱的材料製成的，大多數人偶存在不了多久就會壞掉。少數罕見的例外情況是來自強大的古代帝國，如阿茲蘭提帝國或吉斯塔克帝國，他們對構裝體的掌握是眾所周知的。這些人偶可能非常古老——比它們所能知道的還要古老——因為這種最近在古代遺蹟中被喚醒的人偶通常對它們的創造者或它們最初的目的沒有確切的記憶。這些人偶可能帶來了最深的謎題，因為它們也許掌握著解開失落文明祕密的鑰匙。</p>\n<h2>人偶的起源</h2>\n<p>很少能找到兩隻長相相似的人偶，但人偶最決定性的特徵並不是它們是由什麼製成的。而是他們是如何被賦予生命和獨立思想的。絕大多數人偶是魔法驅動的，而在法術出現某種失常時，那些覺醒人偶就獲得了生命和知覺的火花。由於未知的原因——也許是一個意外或創造者在修補時的錯誤——生命的火花忽然降臨。而以前沒有生命的一系列巢狀命令和計算合成了真正的思想。人偶突然間就獲得了生命和自我意識，有了說話和思考的能力，並有了對自由的渴望。</p>\n<p>在某些情況下，人偶的生命本質原本屬於另一個生命。一個走失了的碎片，來自過世的靈魂、心智印象或類似的短暫一線生機停駐在這個小構裝體中，而人偶的魔法圍繞著它形成了一個完全獨特的人格。以這種方式覺醒的人偶可能會偶爾窺視到捐出這份精華的那個存在，但他們的生命、思想和靈魂此後都是自己的。</p>\n<p>最難得的，也許是最珍貴的，是用愛喚醒的人偶。這些是忠實的助手或被珍愛的玩具，有人懇切地希望它們成為“真實的”。世界上存在著公式和禱詞之外的魔法，而這種願望的魔力在最佳的情況下喚醒了人偶：人偶知道了它們被珍視著，並能以自己的愛來回應。</p>\n<h2 style=\"border-bottom: 1px solid var(--color-underline-header);\">人偶屬性</h2>\n<p><strong>生命值</strong> 6</p>\n<p><strong>體型</strong> 小</p>\n<p><strong>速度</strong> 25尺</p>\n<p><strong>屬性提升</strong> 體質, 魅力, 自選</p>\n<p><strong>屬性缺陷</strong> 敏捷</p>\n<p><strong>語言</strong> 通用語</p>\n<p><strong>額外語言</strong> 等同於你智力調整值的額外語言（如果為正），從龍語、矮人語、精靈語、侏儒語、地精語、木族語和任意其他你取得可用的語言（比如你所在區域的語言）。</p>\n<p><strong>感官</strong> 黑暗視覺</p>\n<p><strong>構造軀體 Constructed</strong> 你身體的材料可以抵抗侵害肉體的惡性效果。你在對抗死亡效果、疾病和毒素時，以及在面對會使你陷入流失、麻痺或噁心狀態的效果時，在豁免上獲得+1環境加值。你的生命之火意味著你是一個活的生物，你像普通生物一樣被正能量治癒，被負能量傷害。</p>\n<p><strong>易燃性 Flammable</strong> 你有對火焰傷害的弱點，相當於你等級的三分之一（最低為1）。</p>"
        },
        "Ratfolk": {
            "name": "鼠族 Ratfolk",
            "description": "<p><em>自稱為尹索齊（Ysoki）的鼠族，是個機敏狡詐、適應力強又注重細節的民族，他們樂於與數量龐大的親戚共同雜居於狹小樓房之中。</em></p>\n<hr />\n<p>大部分的居於地表的類人族裔稱尹索齊為鼠族，認為他們偏好狹窄空間，能在一棟樓裡擠進一百口。而要是城裡買不到房，則會以錯綜複雜的洞窟隧道為家，裡面收藏著從四海八方的行商旅途中收集到的各地特產。</p>\n<p>鼠族天性喜好旅行，經常能在商道上發現由族人組成的行商車隊。他們手指靈巧，又有能敏銳地發覺異常、辨識危難及尋找寶物的眼睛。囤積症是鼠族的民族病，他們居住的洞窟裡常有世代累積，因為“以防萬一”等原因捨不得扔，結果堆的跟山一樣高的多樣奇葩道具。</p>\n<p>若你想扮演聰明機智、環遊四海、適應力又強的角色，適合選用鼠族族裔。</p>\n<h2>你可能...</h2>\n<ul>\n<li>以人數極高的龐大家族為傲，並與所有親戚保持著連絡。</li>\n<li>喜愛透過旅行來累積新體驗，並會在旅途中收集紀念品。</li>\n<li>性格合群。</li>\n</ul>\n<h2>其他人也許...</h2>\n<ul>\n<li>誤認你為鼠型獸化人或其他怪物。</li>\n<li>對你的乾淨整潔及其他時尚打扮感到訝異。</li>\n<li>認為你掌握不了距離感，經常入侵他人的個人空間。</li>\n</ul>\n<h2>外貌描述</h2>\n<p>鼠族口鼻長著感毛，耳朵寬大，尾巴無毛，眼珠一般為紅色，毛髮則多為棕黑短毛，平均身長4尺，重80磅。但鼠族的個體差異極端，即便在同一個家庭內都能在毛色瞳色及體型上有著明顯差異。</p>\n<p>鼠族有著保持整潔的本能，此本能又被他們族內的堅固社交結構再度強化。抱有偏見的外族常以為鼠族人骯髒帶疫，但其實他們對個人衛生可是無比重視。由於樣貌反常，時不時會被人誤會為獸化症患者，鼠族在通過其他族裔所支配的地區時，常以斗篷、手套、鞋靴、長袖寬鬆的衣袍或其他衣物來遮掩自己的外觀。</p>\n<h2>社會</h2>\n<p>鼠族文化強調團體與合作。所有鼠族都會透過活動遊戲、社交場合及體育運動等方式，學會與親戚以外的族人快速交友建立人脈的方法。畢竟出門靠朋友，而在你非靠朋友不可的場合，通常是千鈞一髮急難當頭。</p>\n<p>鼠族有著擔當商人與修補匠的悠久傳統，經常不斷搬家旅行。鼠族車隊的規模一般不會超過6輛篷車，這些篷車是由特別巨大的老鼠所拖曳，許多鼠族人能與此種巨鼠溝通。</p>\n<p>鼠族文化也深受歧視迫害影響，使他們與族人團結一心，強化家族與社群間的羈絆。鼠族十分擅長分辨奇行的緣由究竟是惡意還是無知，致力端正族人風紀，以求能在願意學習的外人眼中將世代承受的偏見逐步逆轉。他們總是在尋找不會因外貌而歧視他們的外族人物，將其接納為真心摯友，並歡迎這類人物加入鼠族社群之中。鼠族也擅長分辨有暴力傾向的獨斷偏見者，並對這類人物敬而遠之以免發生慘劇。</p>\n<h2>陣營和宗教</h2>\n<p>比起善惡之類的抽象概念，鼠族更注重有形的親戚朋友。雖然鼠族巢穴一般是堆滿了奇葩雜貨的混亂環境，但他們遵循著嚴格的社會規則。多數鼠族屬於中立陣營。</p>\n<p>鼠族一般祭奉祖先或當地的強勢信仰，但老鼠婆在鼠族文化中有著特殊的地位。別名鼠祖母的祂，可說是鼠族社會禁忌之化身：強求信徒將自身利益置於他人之上，並鼓勵欺瞞及詭計。對大部分的鼠族來說，老鼠婆是替他們達成神智正常的族人絕對不願沾染，但為了族裔必須完成的一切黑活的神祇。</p>\n<h2>冒險者</h2>\n<p>鼠族常因對探索旅行的嚮往、為了保護家族社群、或其他有的沒的理由而成為冒險者。</p>\n<p>由於天生的機智腦袋與靈巧手指，鼠族適合擔任煉金術士與盜賊，也有成為專精遠端武器的戰士或遊俠的例子。</p>\n<p>常見的鼠族背景包括動物知音、工匠、戰地醫師、商人、遊民、斥侯、修補匠，以及強盜、理髮師、拾荒者、教師。</p>\n<h2>名字</h2>\n<p>每個鼠族家族之中都流通著20餘個名字，世代之間稍有變化或縮為暱稱。舉例來說，祖父叫做圭夫爾 Grivver時，母親可能叫圭娃 Griva，而孫子則是圭夫 Griv。鼠族常被與他們交流的外族人起些綽號或別名，他們認為這些稱呼沒品惡劣，若非身處鼠族社群之外絕不容忍。</p>\n<h3><span style=\"text-decoration: underline;\">範例名字</span></h3>\n<p>Barnan, Chikis, Chonan, Deto, Jass, Jix, Knagi, Kubi, Lolo, Ninnec, Nos, Rak, Renzi, Skigim, Tali, Zess</p>\n<h2 style=\"border-bottom: 1px solid var(--color-underline-header);\">鼠族資料</h2>\n<p><strong>生命值</strong> 6</p>\n<p><strong>體型</strong> 小型</p>\n<p><strong>速度</strong> 25尺</p>\n<p><strong>屬性提升</strong> 敏捷, 智力, 自選</p>\n<p><strong>屬性缺陷</strong> 力量</p>\n<p><strong>語言</strong> 通用語，鼠族語</p>\n<p><strong>額外語言</strong> 等同於角色智力調整值(若為正數)的額外語言。額外語言要從邪靈語、龍語、矮人語、豺狼人語、地侏語、哥布靈語、半身人語、獸人語、地下通用語以及任何其他角色能接觸到的語言(比如角色所在地區的常用語)中選取。</p>\n<p><strong>感官</strong> 昏暗視覺</p>"
        },
        "Shisk": {
            "name": "希斯克人 Shisk",
            "description": "<p><em>希斯克人，神祕的山中之民，潛伏於幽暗的隧道與洞穴底下，是一種長著脫毛羽管的類人生物。他們對於收集與保護深奧知識的著迷是少數能說服他們探索外部世界的理由之一。</em></p>\n<hr />\n<p>即使是在芒吉莽原，希斯克人也很少會與外族有交集。他們主要靠蔬菜和昆蟲組成的低熱量飲食為生，所以很少需要跟他人爭奪資源或是尋求貿易。他們的社會結構很緊密，並且對外來人相當警惕，儘管他們不會直接對到訪者發起攻擊。他們的歷史主要依靠音樂和口口相傳來傳承。為了保護知識的安全，他們很少會保留文字記錄。通常希斯克人唯一存在過的證明，是探索者們發現的他們的建築殘留痕跡：直接在山體雕鑿出來而不是建在山頂的綠色環保土胚樓房。</p>\n<h2>你可能...</h2>\n<ul>\n<li>將你自己視為自然的一部分，避免拿取你不需要的東西。</li>\n<li>對想誘騙你洩露某些東西的人十分警惕。</li>\n<li>儘管是地底生物，仍然喜歡溫暖並享受日光浴。</li>\n</ul>\n<h2>其他人也許...</h2>\n<ul>\n<li>很擔心你的飲食和你吃得少。</li>\n<li>對你總是拒絕無償透露資訊而感到困惑或是惱怒。</li>\n<li>讚賞你驚人的記憶力與學識。</li>\n</ul>\n<h2>外貌描述</h2>\n<p>希斯克人有著與人類相似的特徵與膚色，一般膚色從深褐色到深黑之間變化。因為有著中空的骨骼，所以他們比看上去的要輕。希斯克人沒有體毛，取而代之的，他們的後背覆蓋著退化遺留的羽毛，如今只長著類似鈣化的針狀羽毛的骨刺。儘管不能飛行，希斯克人手臂周圍的刺也更長一些，就像他們曾經有過翅膀一樣。希斯克人的眼睛在陽光之下會收縮成一條縫，並且通常呈暖色，從淡褐色和棕色到更獨特的紅色或琥珀色不等。希斯克人上顎門齒的位置有兩顆顯眼的狹長尖牙，這讓一些人會把他們和鐵牙懶或是吸血鬼混作一談。</p>\n<h2>社會</h2>\n<p>雖然很少會遇到外來者，但希斯克人還是有與外人交談，招待客人，以及與外人做生意的意願。對外人而言，他們的經濟系統可能有點迷惑：他們極力迴避物質至上④主義，而更偏好資訊和藝術。他們會無償的供給實物物資以換取知識甚至表演。如果有人願意用有價值的資訊換取實物，他們會覺得自己是撿到大便宜的那一方。他們絕不會為了實物物資而送出資訊，只會用來交換別的知識，而且他們也很少在交易中索求實物物資。</p>\n<p>眾所周知，希斯克人偏執成狂到了不同社群之間會為了祕密而起衝突的地步。他們的戰爭不因領土與資源而打響，而是為了受人覬覦的資訊。在極少數情況下，當希斯克人中的聖人或是外交家說服了不同希斯克族群求同存異時，解決格拉利昂上存在的大難題和謎團不過是幾個小時的事情。</p>\n<p>希斯克服裝寬鬆而透氣，並且一般會做得儘可能小以免勾到他們身上的骨羽。由於他們社會對物質的漠視，希斯克人生活在與所處自然環境的極度和諧之中，只獲取他們需要的東西。希斯克人通常有一些簡單的愛好，比如晒日光浴。</p>\n<h2>陣營和宗教</h2>\n<p>因為將自己視為自然世界的一部分並且通常更注重個人追求而不是社會生活，大多數希斯克人都是中立陣營。一些希斯克人是已被長久遺忘的神明的追隨者。雖然以一群住在地下的人來說看起來相當怪異，但許多希斯克人會崇拜太陽神丘哈爾。蒼翠修道者信仰在希斯克人中也十分流行，但在尋找一個個人崇拜的神明時，希斯克人更傾向於知識和祕密相關的神比如伊芮茲，內西斯或諾格巴。</p>\n<h2>名字</h2>\n<p>希斯克人的名字通常是父母所起，雖然這些名字常常有著只有家族成員才知道的祕密含義。他們的名字常常充斥著“噝”的音節，偶爾用尖銳的母音斷開。</p>\n<h3>範例名字</h3>\n<p>阿多姆沙，阿約薩，智辛薩，達利紹，萊西亞，麗莎莎，索米蘇，昆舒(Adomssha, Asjossa, Chishinsa, Dalissho, Lessia, Lishassha, Somissu, Quinshu)</p>\n<h2 style=\"border-bottom: 1px solid var(--color-underline-header);\">希斯克人資料</h2>\n<p><strong>生命值</strong> 8</p>\n<p><strong>體型</strong> 中型</p>\n<p><strong>速度</strong> 25尺</p>\n<p><strong>屬性提升</strong> 智力, 自選</p>\n<p><strong>語言</strong> 芒吉語，希斯克語</p>\n<p><strong>額外語言</strong> 數量等於你智力調整值（若為正）的額外語言。從常見語言之中選擇，或者選擇任何其他你能接觸到的語言（比如你所在地區流行的語言）。</p>\n<p><strong>感官</strong> 黑暗視覺</p>"
        },
        "Shoony": {
            "name": "舒尼 Shoony",
            "description": "<p><em>矮小的類人生物，長得很像敦實矮小的雙足直立的犬類，舒尼有時被誤認為是軟弱孤立的和平主義者。然而，堅韌不拔的毅力，傑出的職業道德和機智的外交手腕讓舒尼遠非無助的弱小族裔。</em></p>\n<hr />\n<p>根據舒尼的記載，在創造了寇託斯島之後不久，奧羅登就創造了這個族裔作為友善的同伴。舒尼的文化根植於這個傳說和其引申義，這就可以解釋為何舒尼們長期以來有著熱情好客、善良和熱愛和平的聲譽。戰爭與舒尼的生活是對立的，舒尼依靠合作和堅韌在這個有時似乎執意要摧毀他們的世界中生存。舒尼們的樂觀讓他們臨危不亂，即使在面對其他族裔可能產生仇恨或排外情緒的頻繁鎮壓和剝削時，舒尼也總能看到他人的優點。對舒尼而言，和平永遠是一個值得爭取的目標，沒有任何人真的壞到無藥可救，所以他們的目標是用和平的方式解決問題。</p>\n<hr />\n<h2>你可能...</h2>\n<ul>\n<li>為保護你在乎的一切而戰，並努力做正確的事情。</li>\n<li>會堅持不懈地專注工作很長時間，只為了追求長遠目標。</li>\n<li>為受苦受難的人提供安慰和食物之類的生活所需，並給予他們親人般的關懷。</li>\n</ul>\n<h2>其他人也許...</h2>\n<ul>\n<li> 不自覺地因你的外形而像對待小孩一樣討好你，或者退避三舍。</li>\n<li>出於友誼或過度保護的原因，保護你遠離可怕的情況或恐怖的現象。</li>\n<li>欣賞你的實用主義和關心他人的天賦。</li>\n</ul>\n<h2>外貌描述</h2>\n<p>舒尼是一種矮小敦實的、毛茸茸的類人動物，有著扁平的犬類面孔和水汪汪的黑眼睛。它們的皮毛有各種色調和圖案，最常見的顏色是淺黃褐色或黑色，他們鬆弛的面板使即便是最纖細的舒尼看起來也像個小胖子。舒尼長者短而捲曲的尾巴，當舒尼感到滿意，或者極度興奮或愉快時，尾巴會不由自主地搖擺。像其他犬科動物一樣，舒尼不會出汗。他們哈氣是為了緩解炎熱和勞累，一直耷拉著舌頭的舒尼也很常見。</p>\n<p>舒尼在8到10歲時就成年了，而舒尼中長壽的老人也很少能超過50歲。除了在懷孕後期，男性和女性幾乎沒有什麼外貌區別。隨著年齡的增長，男性和女性的面部毛髮都會變白，面板會起皺，關節也會變得脆弱。舒尼平均身高3-1/2英尺，體重100磅。</p>\n<h2>社會</h2>\n<p>儘管舒尼喜歡社群生活，但大多數舒尼聚落都是人口不超過100人的農村。舒尼辛勤勞作，努力耕耘出肥沃的土地，他們知道人口密集的大型社群會對生態系統產生負面影響。怪獸侵襲、自然災害和其它比舒尼文化更加強大的文化剝削也都限制了舒尼社群在內海地區的擴充套件。</p>\n<p>儘管壽命短暫，但舒尼是一群樂天派，他們對土地和同族有著無法抑制的熱愛，即使在最糟糕的情況下，他們仍然保持樂觀。生活在這個美麗的世界上，努力工作，身邊圍繞著自己所愛的人，這些簡單的快樂激勵著舒尼去克服這個族裔時常要面對的困難。</p>\n<h2>陣營和宗教</h2>\n<p>大多數舒尼社群崇尚同理心和忠誠，所以邪惡陣營十分罕見，但是他們也很務實、傳統、羞怯。大多數舒尼冒險者的陣營是中立善良或守序善良。宗教是舒尼鄉村生活的基石：最初舒尼崇拜奧羅登，知道他去世。失去奧羅登之後，許多舒尼將埃拉斯蒂爾當作他們的守護神，因為這位神祗重視家庭、社群和靠土地的作物為生，這與典型的舒尼價值觀相吻合。貴族舒尼——尤其是士兵——有時也會崇拜艾奧梅黛，將其視作正直、勤奮和犧牲的典範。</p>\n<h2>冒險者</h2>\n<p>幾乎沒有舒尼願意選擇離開家鄉與親友，去面對未知的世界，而導致舒尼被迫踏上冒險征途的情況即便不是悲劇，也往往充滿戲劇性，足以改變一生。也就是說，確實有些舒尼遊歷世界尋找財富帶回家鄉或是為同族報仇，而勇敢或機敏的舒尼冒險者一定會在他們的民族傳說中贏得一席之地。</p>\n<p>典型的舒尼擁有核心規則書中的侍祭（acolyte）、農民（farmhand）、獵人（hunter）、勞工（laborer）或鬥士（warrior）背景，或《湮滅詛咒》玩家手冊中的馴獸師（animal wrangler）或索具操縱工（rigger）背景。許多舒尼冒險者都是戰士，他們磨練自己的技能，成為隊友堅定的捍衛者。也有些舒尼從事宗教研究，成為牧師或神衛，而另一些則增進自己的覓食和狩獵技能，成為天賦異稟的德魯伊和遊俠。</p>\n<h2>名字</h2>\n<p>基於強烈的家庭觀和對朋友的重視，舒尼經常用所愛之人的名字命名自己的子女，並以此為榮。舒尼的名字很短，帶喉音，其他族裔的人聽起來就像一串串鬆散的不相關的母音和柔和的子音。舒尼對名字很重視，也會花費時間和精力學習他們的朋友名字的正確發音。</p>\n<h3><span style=\"text-decoration: underline;\">範例名字</span></h3>\n<p>Ahogo, Arnbin, Bighmor, Bondin, Domwurd, Ebmeur, Gopor, Gurna, Hiemgur, Mufurlo, Oriog, Pulumar, Raliamar, Ruggion, Uhulrig, Ungrin.</p>\n<h2 style=\"border-bottom: 1px solid var(--color-underline-header);\">舒尼資料</h2>\n<p><strong>生命值</strong> 6</p>\n<p><strong>體型</strong> 小型</p>\n<p><strong>速度</strong> 25尺</p>\n<p><strong>屬性提升</strong> 敏捷, 魅力, 自選</p>\n<p><strong>屬性缺陷</strong> 體質</p>\n<p><strong>語言</strong> 通用語、舒尼語</p>\n<p><strong>額外語言</strong> 等同於你的智力調整值的額外語言（如果調整值為正值）。額外語言選擇如下：矮人語、侏儒語、地精語、半身人語、土族語，以及其他你能夠接觸到的語言（比如你所在地區的常用語言）。</p>\n<p><strong>感官</strong> 昏暗視覺</p>\n<p><strong>鈍鼻 Blunt Snout</strong> 你小而短粗的鈍鼻和迷宮般的鼻竇系統讓你可以抵抗針對鼻子的攻擊。在面對吸入性威脅（例如吸入的毒藥）和嗅覺效果（例如戰蜥人惡臭）時，你的豁免檢定結果視為比擲骰結果提升一個等級。</p>"
        },
        "Sprite": {
            "name": "小妖精 Sprite",
            "description": "<p><em>來自於被稱為第一世界的精類國度，小妖精身形小巧，異想天開，活力充沛。他們喜歡惡作劇，探索新鮮事物，擁抱與魔法有關的一切。</em></p>\n<hr />\n<p>當大多數人想象精類時，他們很有可能想起的就是小妖精。絕大多數小妖精留在第一世界，在那裡他們實質上是不朽的，當他們的生命結束時，就會轉生為新的精類形態。有些或是與其他精類融合在一起，形成一個更龐大的身體，或者分裂成多個更小的精類。然而，小妖精們對各種形式的魔法都充滿了難以置信的好奇心，導致許多小妖精冒險進入凡人世界，探索凡間那與第一世界相異的穩定性所提供的新可能。這些來客與其他主物質位面的小夥伴團體們混在一起，包括了來自第一世界的流亡者，那些和凡人締結契約的精類家族，甚至是因好奇而加入凡人靈魂迴圈之列的思索者。</p>\n<p>來到主物質位面的第一代小妖精安於守護魔法的地點或物品，學習音樂，跟毫無戒心的人做惡作劇。但當出生在凡間的孩子成年後卻沒有形成翅膀時，他們感到了恐慌——還有一些小妖精在來到凡間一段時間後也同樣失去了翅膀。許多最初的小妖精探險者認為這個跡象表明凡人的世界對他們來說太過怪異，於是回到了安全的第一世界中。</p>\n<p>然而，那些沒有翅膀的後代們表現出了祖先所無法比擬的潛力，以及對凡界的特殊魔法親和力。他們成為了小妖精當中最強大的英雄，有時，也是最危險的惡徒。當他們的力量完全解放時，許多終於長出了翅膀：比第一世界的任何小妖精更大、更獨特、更有活力，這正是他們無限潛力的標誌。</p>\n<p>如果你想要創造一個嬌小、多變而充滿好奇的角色，那你應該扮演一個小妖精。</p>\n<h2>你可能...</h2>\n<ul>\n<li>對周圍的人進行善意的惡作劇，目的是為了給他們上一堂課，幫他們找到丟失的物品，甚至幫助他們找到真愛。</li>\n<li>在你打算按照之前的計劃行動時，卻被一些新的東西吸引走了注意力。</li>\n<li>找到某項對你極為重要的魔法物品，讓你忍不住要用所有的力量來保護它。</li>\n</ul>\n<h2>其他人也許...</h2>\n<ul>\n<li>覺得你瞭解奇特的精類奧祕，並能施展遠超你實際能力的超級原始魔法。</li>\n<li>每當莫名其妙的怪事或巧合發生時，他們都認為你是主要嫌疑人。</li>\n<li>誤解你的思維方式，認為你的飄忽不定是一種馬大哈的表現。</li>\n</ul>\n<h2>外貌描述</h2>\n<p>小妖精是體型極小的精類，其特徵根據不同傳承而有很大的差異。隨著時間的推移，無翼者——也就是那些有潛力成為強大的英雄和惡徒的妖精，包括所有的PC小妖精——的魔法潛能會慢慢顯現並長出翅膀，儘管有些可能永遠沒有長出翅膀。而那些命中註定不會有那麼大成就的小妖精則通常會在完全成年並掌握其內在魔法時長出翅膀。小妖精成年的速度與人類差不多，但一個典型的小妖精如果能夠遠離災難和危險，可以活到1000歲或更久。那些在主物質位面感覺到自己大限將至的小妖精，通常會回到第一世界重生，再次開始他們的冒險。</p>\n<h2>社會</h2>\n<p>小妖精通常在偏遠的小村莊裡隱居，附近的區域常有豐富的魔力，天然美景或其他特別的奇觀。其他小妖精則或是獨來獨往，或是與小家庭或同齡夥伴一起生活，為尋找刺激而旅行著。</p>\n<h2>陣營和宗教</h2>\n<p>小妖精有各種不同的陣營，但很少是守序或邪惡的。他們更傾向於崇拜古老者——精類自己的神明——而不是凡人們信仰的神靈。他們特別傾向眾相的時間之古老者夏依卡（Shyka）和古老者中的惡作劇大師提燈王（Lantern King）。在凡間的神祇中，小妖精們最欣賞黛斯娜。由於她常被描繪成一個有蝴蝶翅膀的女子，一些信仰黛斯娜的小妖精聲稱她是他們自己的一員。小妖精們也很能理解凱登·凱連和莎琳的教義，而格利精們尤其鍾愛司掌美麗和藝術的女神。</p>\n<h2>名字</h2>\n<p>小妖精的名字完全取決於他們父母一念之間的奇想。小妖精經常會後來找到其他的暱稱，或者改變出生時加給他們的名字；其他小妖精既不會看不慣，也不覺得奇怪。</p>\n<h3><span style=\"text-decoration: underline;\">範例名字</span></h3>\n<p>Bree, Plumgrass, Cowrie, Flit, Moth, Zephyr, Naatalu, Pinebrush, Zandivar</p>\n<h2 style=\"border-bottom: 1px solid var(--color-underline-header);\">小妖精資料</h2>\n<p><strong>生命值</strong> 6</p>\n<p><strong>體型</strong> 超小型</p>\n<p><strong>速度</strong> 20尺</p>\n<p><strong>屬性提升</strong> 敏捷, 智力, 自選</p>\n<p><strong>屬性缺陷</strong> 力量</p>\n<p><strong>語言</strong> 通用語、木族語</p>\n<p><strong>額外語言</strong> 數量等於你的智力調整值（假如其為正）的額外語言。從天界語、龍語、精靈語、侏儒語、地精語和巨人語和其他對你允許的語言中選取（如所在地區的常用語言）。</p>\n<p><strong>感官</strong> 昏暗視覺</p>\n<p><strong>魔力打擊 Magical Strikes</strong> 你天生的魔力充斥全身，你所有的攻擊都視為魔法的，無論是非武裝攻擊還是武器攻擊。</p>"
        },
        "Strix": {
            "name": "梟鬼 Strix",
            "description": "<p><em>在他們自己的語言裡，梟鬼叫做itarii。這些鳥型類人生物往往棲於人煙罕至之地，一心守護家園和部落。當寶貝的社群遭受攻擊，他們會展開寬闊的翅膀，揮舞鋒銳的爪子禦敵。</em></p>\n<hr />\n<p>梟鬼回頭，不是報恩，就是報仇。千百年來他們拍打著烏黑、可怕的羽翼，替墜亡的族人討取血債。在鄰近的人類社會眼中，梟鬼就是背生雙翼的魔鬼。但這是對他們天性的誤解，梟鬼其實以富有靈性、藝術、同情新的文化自豪，只是罕為外人所見。</p>\n<p>隨著人口復甦，梟鬼的部落已經擴散到魔鬼棲（Devil’s Perch）山地之外，遍佈切利亞斯（Cheliax）和周遭國家。他們翱翔於群山、森林與海灘上空，但同族之間深厚的連結往往又會帶領他們飛返故鄉。</p>\n<p>如果你想扮演忠實又充滿謎團、凶惡又才華洋溢、盼望鳥瞰世界的角色，就該選擇梟鬼。</p>\n<h2>你可能...</h2>\n<ul>\n<li>為家人、朋友或社群奉獻，也受他們喜愛。</li>\n<li>對人類有著根深蒂固的不信任。</li>\n<li>和陌生人保持距離，或許還會對家園之外的世界表現得很天真。</li>\n</ul>\n<h2>其他人也許...</h2>\n<ul>\n<li>欣賞你真摯的友誼，即便他們可能不理解背後的文化淵源。</li>\n<li>三不五時把你當成信鴿，問你能不能幫忙送信之類的。</li>\n<li>由於從未和梟鬼相處過，而被你的外表嚇到。</li>\n</ul>\n<h2>外貌描述</h2>\n<p>梟鬼雖屬類人生物，卻有著鳥類特徵，比如可怕的利爪，還有背上覆蓋羽毛的翅膀。他們平均身高六尺，比人類高上許多；不過以體型來說，他們的身體非常輕盈。梟鬼在十四歲左右成年，平均壽命大約四十歲。他們長著尖尖的耳朵和大大的眼睛，一般來說眼白和眼瞳都是黑色，不過有有時也會呈現耀眼的金色。梟鬼無法轉動眼珠，所以在凝視不同目標時，頭會一頓一頓地轉動。他們的肌肉多半緊緻有序，以便發揮搧動翅膀所需的力量。</p>\n<h2>社會</h2>\n<p>梟鬼的生活遠離塵囂，出了世代相傳的領地以後就十分少見。他們的部落不大，有時根本只是少數關係緊密的個體。魔鬼棲是世上最大的梟鬼聚落，但格拉利昂的許多地方都有他們零星分佈。梟鬼對於家人和社群成員有個強烈的同理心和情感依附，比起個人的慾望，他們更看重社群的需求，部落或群體內也有簡單卻組織明確的分工。梟鬼的部族由女性領導，稱為rokoa。</p>\n<p>和鄰近的切利亞斯人民長年衝突，讓多數梟鬼對kotaara－－人類有著深深的恐懼與不信任。他們相信梟鬼是長了翅膀的魔鬼，滿心想要除之而後快；面對為數眾多的敵人，梟鬼只能盡力守住地盤、維持同胞的數量。在連結這麼緊密的群體裡，失去任何一個同胞都令人心碎。</p>\n<h2>陣營和宗教</h2>\n<p>梟鬼知道規則對社會運作的重要性，因此很少屬於混沌陣營，不過有些人對於外面社會的規則，就會抱持比較靈活的態度。梟鬼通常沒有宗教信仰，他們相信史詩《碎巢記》（Korrsat Akra）裡的故事記載了他們的來歷，也能在當今的世界中為他們指點方向。梟鬼最重視的就是和同伴之間的生活，還有回憶過往強烈的傷痛。法萊斯瑪（Pharasma）在有信仰的梟鬼之間相當普遍，一是因為這種信仰十分普遍，二是因為可以學習關於生死的教育祭儀為重視的社群服務。哥茲萊（Gozreh）也是許多梟鬼的日常中的依靠，他們會祈求風瀾（the Wind and the Waves）颳起立於翱翔的順風，以及在天空怒號之時保佑他們的親族。埃拉斯蒂爾（Erastil）和托拉格（Torag）也代表兩種不同的社會秩序，而且可以團結起整個部落的信仰。</p>\n<h2>名字</h2>\n<p>梟鬼的名字由回憶中各種鳥類的囀唱、尖嘯或連鳴組成，影響命名最主要的因素則是習俗和信仰。小型社群中的梟鬼可能會用類似的音節表達團結心。由於親人的意義重大，梟鬼常會用所愛之人為子女命名，並新增或稍微改變名字的音節。</p>\n<h3><span style=\"text-decoration: underline;\">範例名字</span></h3>\n<p>戚茲－咿爾（Chiit-iir）、西古利啼（Cicreeti）、咿卡他利（Ikatarii）、咿爾誇塔（Irkoata）、咖塔（Kaata）、奇咯（Kiilo）、奇唳（Kirii）、啦卡（Rahka）、勞他唯喔（Roatatwiil）、突哩歐（Turiilo）、忒威哩（Twilii）</p>\n<h2 style=\"border-bottom: 1px solid var(--color-underline-header);\">梟鬼屬性</h2>\n<p><strong>生命值</strong> 8</p>\n<p><strong>體型</strong> 中型</p>\n<p><strong>速度</strong> 25 尺</p>\n<p><strong>屬性提升</strong> 敏捷，自選</p>\n<p><strong>語言</strong> 通用語、梟鬼語</p>\n<p><strong>額外語言</strong> 數量等於你的智力調整值（假如其為正）的額外語言。從龍語、巨人語、侏儒語、煉獄語和任何你接觸過的語言中挑選（比如你居住地區普遍使用的語言）。</p>\n<p><strong>感官</strong> 昏暗視覺</p>\n<p><strong>翅膀</strong> 每個梟鬼都有一對強壯的翅膀。雖然不是每個梟鬼都一心鍛鍊飛行技巧，但揮動強壯的翅膀還是能幫助他們跳得更遠。你的水平跳躍距離增加5尺，而且不會因為沒有至少助跑10尺，就在跳高（High Jump）或跳遠（Long Jump）的檢定中自動失敗。此外，你在跳遠時，可以比運動檢定結果再多跳出10尺，但仍然不能超過你的移動速度。</p>"
        },
        "Tengu": {
            "name": "天狗 Tengu",
            "description": "<p><em>天狗作為社交性強又足智多謀的民族，早已從天夏的故鄉擴散到全球，收藏吸納旅途中遇見的一切風土民情及科研發現，並將之與自己族裔的悠久歷史相互融合。</em></p>\n<hr />\n<p>天狗生來就是能說會道的求生專家，不論在荒郊野嶺或是擁擠城市都能自在生活。他們一面旅行一面收藏知識、工具與朋友。</p>\n<p>許多天狗移民散居在格拉利昂各地以追求更好的生活，將他們祖傳的鍛刀技法從家園傳播而出。在濱海地區，天狗多以漁夫、鐵匠或“噬厄”─根據水手之間真假莫辨的迷信，能吸納厄運的船員─為業。由於在各式各樣的環境及地區生活過，天狗不常評判他人，尤其不會以社會地位作為個人價值的指標，但也由於他們因此不排斥與罪犯為伍，常使旁人對天狗多有猜忌。</p>\n<p>若你想扮演明明自身有著悠久的工藝傳承與歷史傳統，卻又依據需要樂於接納新的習俗、夥伴、言詞、工具的角色，適合選用天狗族裔。</p>\n<h2>你可能...</h2>\n<ul>\n<li>社交性強烈，樂於尋覓自己的友伴團伙。</li>\n<li>飢渴地吸收周圍人物的習俗，偶會忘記這些新知到底是哪裡學來的。</li>\n<li>無視旁人眼光，願意承接任何工作與任務。</li>\n</ul>\n<h2>其他人也許...</h2>\n<ul>\n<li>認為你略懂多樣的技能與知識，尤其是關於語言方面。</li>\n<li>被你對文化傳統時而尊敬時而輕忽的態度搞得困惑不已。</li>\n<li>難以解讀你的表情，並對你抱持著猜忌與迷信。</li>\n</ul>\n<h2>外貌描述</h2>\n<p>天狗身上有許多鳥類的特性。他們的臉上長著尖銳的鳥喙，佈滿鱗片的四肢末端也生有銳利鉤爪。除非特別訂製，包復趾頭的鞋靴天狗怎麼穿怎麼不合腳，許多天狗因此偏好拖鞋或乾脆裸足。天狗的身高很少超過5尺，而其體重比其矮短身材顯得還要更輕，這是由於天狗有著中空的骨骼。少數天狗長有無法用來飛行的退化後的翅膀。</p>\n<p>天狗是由蛋孵化而來，剛出生的第一年身上沒有羽毛，此時天狗甚少離開家中。不久後天狗身上會長出一層暗灰色的鬆軟羽絨，約15歲成年時會再換毛成漆黑羽毛。天狗常把脫落的羽毛加工成各式各樣的道具，例如羽毛筆，或是用來引導族裔魔力的魔法羽扇等。許多天狗會以在羽毛及利爪上塗畫紋樣的方式打扮自己，這也能強調他們的肢體語言，並有助於讓其他族裔的人民理解自己的表情。</p>\n<h2>社會</h2>\n<p>天狗的社交性極強，經常與近居隔壁的親族們團結一致組成社群，共同分擔家務。在城市中，天狗社群常包含著其他族裔的成員。在同個社群中成長的天狗孩童，會將所有同輩視為兄弟姊妹，常搞不清到底誰跟自己才有血緣關係。</p>\n<p>在天狗社會中，最大的分斷點在於你是留守遠祖家鄉，還是在外闖蕩四海。天狗將這兩種人分別稱為“老巢人”及“遷徙者”。老巢天狗的價值觀偏向保守的傳統主義，全力保護傳統文化不受多年來的壓迫所毀傷。遷徙天狗則是飢渴地吸收著已成他們新家園的異國外鄉的習俗。</p>\n<h2>陣營和宗教</h2>\n<p>天狗一般信奉他們成長地區裡的宗教，但他們其實有著雷公黑風這個族裔守護神。由於這位大神因酒後鬧事及情緒不穩惡名遠揚，天狗反而偏好信仰神職包含自由與旅行的神祇，例如黛絲娜和凱登·凱連，或是司掌自然之神，像是哥茲萊。貝斯瑪拉也能吸引天狗信徒，有著許多靠海維生的天狗信眾。貝斯瑪拉與黑風的相關情報詳見神與魔法一書。</p>\n<p>在他們散居天下以前，天狗信奉創世諸神的多神混和信仰。天狗傳說中訴說著遠古天狗乘著流星自夜空中降臨格拉利昂高山峰頂的故事，他們因而常在山上及其他自然奇觀邊舉行祭拜萬物精魂的儀式。直到今日，天狗仍不常區分神術及原能的信仰。</p>\n<p>比起善惡平衡，天狗更注重保古守舊及吸納新知之間的均衡，老巢天狗多為守序，遷徙天狗則偏向混亂。</p>\n<h2>冒險者</h2>\n<p>會離開遠祖故鄉的天狗，胸懷橫跨廣闊大地，收藏美麗財寶，直面刀兵或浪濤等險阻的冒險之心。</p>\n<p>天狗的背景常能體現他們在老家或外鄉的職業與地位。例如雜耍藝人、酒保、騙徒、特使、藝人、占卜師、賭徒、商人、遊民、水手，以及強盜、郵遞員、起義者、難民、拾荒者。</p>\n<p>天狗適合擔任盜賊、吟遊詩人、先知、遊俠、浪客。</p>\n<h2>名字</h2>\n<p>老巢天狗的姓名古風，包含了許多天狗語中常見的重硬子音。遷徙天狗的姓名則是吸收了百家文化精華，依命名者的心情隨意組合而來。</p>\n<h3><span style=\"text-decoration: underline;\">範例名字</span></h3>\n<p>Arkkak, Chuko, Dolgra, Dorodara, Kakkariel, Kora, Marrak, Mossarah, Pularrka, Rarorel, Ruk, Tak-Tak, Tsukotarra</p>\n<h2 style=\"border-bottom: 1px solid var(--color-underline-header);\">天狗資料</h2>\n<p><strong>生命值</strong> 6</p>\n<p><strong>體型</strong> 中型</p>\n<p><strong>速度</strong> 25尺</p>\n<p><strong>屬性提升</strong> 敏捷, 自選</p>\n<p><strong>語言</strong> 通用語，天狗語</p>\n<p><strong>額外語言</strong> 等同於角色智力調整值(若為正數)的額外語言。額外語言要從矮人語、精靈語、半身人語、地侏語、哥布靈語、木族語以及任何其他角色能接觸到的語言(比如角色所在地區的常用語)中選取。</p>\n<p><strong>感官</strong> 昏暗視覺</p>\n<p><strong>尖銳鳥喙 Sharp Beak</strong> 由於臉上長著的尖銳鳥喙，你永遠不會陷入手無寸鐵的境地。你持有造成1d6穿刺傷害的喙啄非武裝攻擊。這個喙啄屬於搏擊武器組，並持有嫻熟、非武裝特徵。</p>"
        },
        "Skeleton": {
            "name": "骷髏 Skeleton",
            "description": "<p><em>骷髏通常被認為是最弱的不死生物之一。他們是典型的無心智生物，缺乏其他不死生物的許多威脅效能力。然而，龍、巨人和其他巨獸活化成的骷髏卻是最危險的敵人。強大的生物可能保留了一些力量和理智，並作為骷髏歸來。有一些死靈法師會把他們的最強勁的敵人轉化為骷髏不死僕從——只要能控制得住。</em></p>\n<hr />\n<p>骷髏冒險者在生前通常是技藝嫻熟而實力強大的。基於堅韌的意志力、或某種特殊環境，他們在死後也保持了自我意識和理想抱負。然而，作為一名骷髏復甦是創傷性的。他以前的生活記憶通常會變得破碎或模糊，如果還留存著某些記憶的話。對一些骷髏來說，記憶會隨著時間的推移而回歸；而對於另一些來說，過去已經消逝了。這很大程度上取決於一個骷髏是如何看待自己的：要麼作為他生者生命的延續，要麼作為一個全新的存在。</p>\n<p> 骷髏冒險者為了與其他骷髏區分，通常會儘可能地華麗地打扮。巨大的羽毛帽、裝飾華麗的盔甲、刺繡絲綢衣服或閃閃發光的珠寶常常出現在他們的衣櫃裡。一些骷髏在他們的骨骼上雕刻出複雜的“紋身”，或者在頭骨上作畫，來與無心智的骷髏區分，並維持自我的感知；他們藉此告知生者，他們與其他不死生物不同。</p>\n<p>骷髏冒險者必須接受他們的新身份。因他們不受生者的顧慮，而常常被低估。</p>\n<h2>你可能...</h2>\n<ul>\n<li>比大多數人更加努力，來證明自己是一個有能力的獨立個體。</li>\n<li>在陷入危險時，幾乎不顧及你的不死身軀的安全。</li>\n<li>拼命地尋求被過往的社群所接納，而那曾經是那麼地稀鬆平常。</li>\n</ul>\n<h2>其他人也許...</h2>\n<ul>\n<li>假定你是一個死靈法師的僕從，正在努力推進某些計劃。</li>\n<li>很難與你共情。</li>\n<li>憐憫或嫉妒你的不死生命。</li>\n</ul>\n<h2>外貌描述 Physical Description</h2>\n<p>即使完全沒有肉體和器官，骨骼也可以在外觀上差別很大，畢竟生物們具有著廣泛的多樣性。骷髏可以很高、很矮、或介於兩者之間。長有角、翅膀或尾巴的生物的骨骼會保留它們的痕跡，但成為骨骼後通常難以使用。剛從新鮮屍骸中喚起的骷髏往往是森白色的骨骼，而較舊的骨骼則往往是灰色或黃色的。冒險過一段時間的骷髏的骨骼上通常會出現像傷疤一樣縱橫交錯的淺劃線，那是他們在之前的戰鬥中受創的位置。</p>\n<h2>社會 Society</h2>\n<p>在格拉里昂，很少能聚集足夠多的有智慧的骷髏，來組成某種形式的定居點。即使是在蓋布——骷髏數量最多的地方，他們也通常會與其他不死生物混在一起，而不是彼此聚集在一起。許多骷髏寧願和那些能使自己回憶起生前的生活的人們同行（儘管骷髏體內流動的負能量很容易引起這些人的厭惡）。蓋布的骷髏通常被視為僕從階級的成員，很少能提升社會階層。</p>\n<p>而在蓋布之外，骷髏極其孤僻。有些可能會躲在社群的外沿，或喬裝打扮後四處流竄，但他們很難得到生者的接納。雖然在奈多Nidal或瀨加美名Sekamina這樣的地方，人們可能不會害怕他們，但也不太可能尊重他們。</p>\n<h2>陣營和宗教 Alignment and religion</h2>\n<p>雖然幾乎所有的不死生物都是邪惡的，但一些智慧骷髏設法延緩或避免這種來自負能量的腐化。在隨著時間的推移變為邪惡之前，骷髏通常傾向於創造者或他們生前的陣營。沒有特別的效忠物件的骷髏傾向於成為中立邪惡陣營；或在能夠避免變為邪惡時，成為中立陣營。</p>\n<p>擁抱自己不死身份的骷髏通常追隨死亡之神，如厄加圖婭Urgathoa，而那些憎恨不死身份的人則通常崇拜生命與救贖之神。那些想要戰勝被施加的破壞性影響並超脫於某種被創造的目的的骷髏，通常會接受那些沒有狂熱清理不死生物信條的神祇，如莎琳。</p>\n<h2>姓名 Names</h2>\n<p>在骷髏之間，並不存在廣泛的命名共識。當死靈法師花心思給他們喚起的骷髏起名字時，他們通常會選擇符合自己口味的名字，就像給寵物取名一樣。其他骷髏則可能會因他們的作用和工作而被命名。記憶儲存完好的骷髏可能會選擇保留他們生前的名字，但其他的則可能會根據他們作為不死生物的經歷來選擇新的名字。</p>\n<h3>範例名字 Sample Names</h3>\n<p>響亮下頜、咯吱、看門的、最後的祭品、御千代、講臺、權杖素材、第六槍兵、頭蓋骨嘚兒、零錢</p>\n<h2 style=\"border-bottom: 1px solid var(--color-underline-header);\">骷髏資料 Skeleton資料</h2>\n<p><strong>生命值</strong> 6</p>\n<p><strong>體型</strong> 中型</p>\n<p><strong>速度</strong> 25尺</p>\n<p><strong>屬性提升</strong> 敏捷, 魅力, 自選</p>\n<p><strong>屬性缺陷</strong> 智力</p>\n<p><strong>語言</strong> 通用語、死靈語</p>\n<p><strong>額外語言</strong> 數量等於你的智力調整值（若為正）的額外語言，從以下語言中選取：邪靈語、矮人語、精靈語、煉獄語、獸人語、地底通用語和其它可用語言（例如你所在地區的語言）。</p>\n<p><strong>不死特性</strong> 你獲得@UUID[Compendium.pf2e.ancestryfeatures.SAbzItAI4uwbdnQk]{基礎不死增益 Basic Undead Benefits}。你不像食屍鬼那樣食肉、不像吸血鬼那樣飲血，你的不死飢渴要求你收集骨骼以修復自己。</p>"
        },
        "[Empty Ancestry]": {
            "name": "[Empty Ancestry]",
            "description": "<p>This is a blank ancestry for homebrew. This provides no inherent automation but can be used as a drag and drop template on an actor.</p>"
        },
        "Ghoran": {
            "name": "蒿蘭人 Ghoran",
            "description": "<p>這些有智慧的植物人，由一位死去已久的德魯伊創造，他們藉由其種子擁有某種程度的不朽——除非它們被除了時間的摧殘以外的外力摧毀。</p>\n<p>很久以前，在蓋布(Geb)和奈克斯(Nex)之間的戰爭最激烈的時候，大法師 奈克斯(Nex)要求叛變的德魯伊戈羅斯(Ghorus)創造一種植物，即使在最荒涼的土地上也能養活他的人民。戈羅斯確實這麼做了，他培育出一種能適應各種環境並能承受各種魔法和咒語的花。他太成功了。在驚世奇土的奇異土壤中，這種花開始生長並很快開始思考——然後學會走路和說話。 這些便是第一批蒿蘭人。儘管他們剛有意識，蒿蘭人發現許多其他族裔都善於忽略不便的真相，尤其是那些涉及下一頓飯可能來自哪裡的真相。一點一點，一粒又一粒種子，蒿蘭人將自己成長為類人生物形態，希望通過模仿類人生物的外貌來博取同情。這最終奏效了，蒿蘭人在奈克斯國贏得了公民身份和受保護的地位。即便如此，時間和捕食還是對他們造成了損失；蒿蘭人的人口很少，而且還在不斷減少。</p>\n<p>每個蒿蘭人本質上都是一個古老的生命火花，他們依次棲息在一系列植物狀的身體中。每隔二十年左右，蒿蘭人就會產生一粒種子。當他們的靈魂進入種子時，他們舊的身體會枯萎，然後迅速產生一個新的身體。這個過程會帶來人格的微小變化和一些遠古記憶的喪失，比如每個新的蒿蘭都與其前代有關，同時仍然是一個不同的個體。創造更多蒿蘭人的技術隨著德魯伊戈羅斯的消亡而消亡，因此他們在驚世奇土中是一個微小但穩定的少數群體，幾個世紀以來隨著他們中的一些人陷入暴力和災難而逐漸減少。</p>\n<p>如果你想要一個擁有古老而與眾不同靈魂的角色，試圖在一個陌生而充滿敵意的世界中生存和發展，你可以扮演蒿蘭人。</p>\n<h2>你也許…</h2>\n<ul>\n<li>隨口提及幾千年前的事件。</li>\n<li>發現“動物”的行為很奇怪。</li>\n<li>不斷地對你的身體做一些小的改變。</li>\n</ul>\n<h2>其他人或許…</h2>\n<ul>\n<li>一段時間不見後很難認出你。</li>\n<li>對你悠久的壽命和龐大的知識量感到害怕或著迷。</li>\n<li>聽說你很好吃。</li>\n</ul>\n<h2>體貌描述 Physical Description</h2>\n<p>蒿蘭人的體型大小和形狀大致為類人生物，其身體主要由類似木質藤本植物的纖維狀植物材料構成，臉龐則像一朵巨大的五顏六色的花朵。蒿蘭人對自己身體的形狀和結構有很大的控制權：花幾個小時的功夫，蒿蘭人就能會讓自己變高或變矮，變得四肢修長或胸部豐滿。他們作為嚐起來美味甘甜的草本植物而聞名。 大多數人只是對這種特質到好奇而不會嘗試咬一口，但野外的動物有時會尋找並攻擊它們。雖然他們可以學會微笑或大笑以適應其他族裔，但他們傾向於使用一套不同的情感符號，拍動面部花瓣表示快樂，在激動或不安時發出沙沙聲。每個蒿蘭人的軀幹內都有一個大空腔，裡面裝著一顆大種子。當蒿蘭人的身體變得過於衰老而無法正常運作時，他們會將自己的記憶傳輸到種子中，並將其播種到地裡。在1到2個月內，一個新的蒿蘭人個體從種子中長出，而原來的 蒿蘭人坍塌成一堆情性有機質。這種奇特的繁殖方法使蒿蘭人處於脆弱狀態，許蒿蘭人對在非蒿蘭人中進行此過程懷有戒心。作為植物，蒿蘭人對人類意義上的性別沒有天生的理解。身處於與其他族裔為伴環境的蒿蘭人有時會採用更男性化或更女性化的形態，儘管很多蒿蘭人並不在意這件事。</p>\n<h2>社會 Society</h2>\n<p>蒿蘭人起源於奈克斯(Nex)，大多數人作為少數族裔居住在那片土地上。在奈克斯的主要城市，他們在有著廣闊公園和大樹的社群中建造了自己的小飛地，其中最大的飛地位於誇恩提姆(Quantium)。雖然他們不具備像樹精一樣進入樹內異次元家園的魔法能力，但蒿蘭人生活在樹林中，通常在社群的大公園內安家。他們非常擅長建造自己的住所，如此他們就不會破壞當地植物群的生態。參觀蒿蘭人飛地的遊客最初可能沒有意識到他們進入了一個家園中，而是假設他們是在一個休閒的公共空間。只要遊客尊重公園、他們的家以及他們遇到的任何蒿蘭人，蒿蘭人通常不會介意意想不到的賓客。居住在大城市的蒿蘭人相對社會化並接受了其他族裔，他們往往渴望互動、瞭解他人和從事貿易。在這些城市之外，蒿蘭人也棲息在破碎山脈山腳下的偏遠小社群，居住在僻靜的森林中，他們往往更加孤立。這些蒿蘭人銘記於心最初創造他們族裔是作為“動物”的食物，他們通常沒有強烈的意願去了解其他族裔。然而，隨著每一個新的肉身都略微改變蒿蘭人的性格，他們有時會養成一種旅行癖，促使他們離開孤立家園，去更廣闊的世界旅行。通常，這些蒿蘭人擁有一些——甚至是寶庫般的——許多年以來一直被外界遺失的古代知識，因此他們的旅程有時會為驚世奇土及其他地方的其他人帶來重要的新發現。</p>\n<p>在他們同族之間，蒿蘭人很容易和本能地合作，他們不需要正式的政府。工作是根據從數千年的經驗中得出的無聲共識來分配的，因為每個人都做他們最擅長的事情來完成必要的任務。這種無聲共識已經能熟練地安排當一個蒿蘭人或改變新的肉身時如何去調整和適應。從遠方旅行的新蒿蘭人或其他族裔的成員的加入有時會打亂這種自然節奏。新成員是一種未知量，因此整個社群都會密切關注新來者，以進行短期分析，這可能會令人不安。這種做法並非出於任何不信任或傷害之心，而是出於好奇和需要了解新人擅長什麼以及他們需要幫助的地方。一旦蒿蘭人社群得出結論，他們就會相應地調整他們的行動——每個人都簡單地開始以不同的方式執行任務，讓新來者適應並做出貢獻，沒有正式的會議或宣告。在大多數情況下，社群的一名成員意識到他們應該告訴非蒿蘭人新人社群對他們的期望，但有時沒有人意識到有必要進行交流。當這種情況發生時，可能會讓蒿蘭人社群和新來者對對方的行為和選擇感到困惑，因為社群希望新來者簡單地投入並滿足其需求，而新來者則等待被告知社群對他們的期望。</p>\n<p>以這種古老的共識為基礎運作的蒿蘭人社群通常沒有任何類似領導者的東西。儘管如此，一個社群有時會任命一個單獨的蒿蘭人作為對外來者的特使，甚至給他們一個頭銜，以使“動物”在收到來自整個社群的訊息時更加舒適。</p>\n<h2>陣營和宗教 Alignment and religion</h2>\n<p>蒿蘭人通常缺乏向善或向惡的驅動力，儘管他們的植物衍生價值觀有時會使他們使那些並非以植物為身體的人們產生他們不分是非的印象。他們有輕微的守序傾向，尤其是在他們自己的社群。雖然大多數蒿蘭人並不是特別虔誠，但精神導向的人傾向於通過蒼翠誓約或不太常見的哥茲萊或最古老的信仰之一（例如植物般綠母(Green Mother)）來崇拜自然。他們很少對以人類為中心的神靈感興趣，因為蒿蘭人有著截然不同的思維過程和優先事項。 信仰通常不會因種子到種子、肉身到肉身而發生太大變化，這意味著較新興神靈，尤其是那些在過去幾千年中登神的神靈（“最近”，從蒿蘭人的角度來看）在蒿蘭人社群幾乎沒有立足點。</p>\n<h2>姓名 Names</h2>\n<p>大多數蒿蘭人在每次更新肉體時都會選擇一個新名字，通常是選擇一個他們在前世覺得中意的名字或概念。偶爾，蒿蘭人可能會連續多次重複使用同一個名字，尤其是如果留在其他族裔的社群中，儘管每個肉身仍然是一個不同的人。</p>\n<h3>範例姓名 Sample Names</h3>\n<p>阿姆薩魯Amsalu、艾什Ash、安姆奈特Emnet、西里Sieri、奧尼爾Ooniel、阿什馬裡什Arshmarish、韋爾特Velt、飛燕草Delphinium、雜湊Hach、翠Emerald、黒貂Sable</p>\n<h2>蒿蘭人傳承 Ghoran Heritages</h2>\n<p>以適應環境為明確目的而創造的蒿蘭人表現出幾種截然不同的身體形態。 在第 1 級選擇以下蒿蘭人傳承之一。</p>"
        }
    }
}
