{
	"label": "PF2E持續傷害效果 Persistent Damage Effects",
	"entries": {
		"Effect: Crimson Shroud": {
			"name": "效果: 猩紅壽衣 Crimson Shroud",
			"description": "<p>效果來自@Compendium[pf2e.feats-srd.M2V1vqAziOkWV30B]{猩紅壽衣 Crimson Shroud}。</p>"
		},
		"Effect: Fast Healing 1": {
			"name": "效果: 快速癒合 Fast Healing 1",
			"description": null
		},
		"Effect: Fast Healing 10": {
			"name": "效果: 快速癒合 Fast Healing 10",
			"description": null
		},
		"Effect: Fast Healing 15": {
			"name": "效果: 快速癒合 Fast Healing 15",
			"description": null
		},
		"Effect: Fast Healing 2": {
			"name": "效果: 快速癒合 Fast Healing 2",
			"description": null
		},
		"Effect: Fast Healing 20": {
			"name": "效果: 快速癒合 Fast Healing 20",
			"description": null
		},
		"Effect: Fast Healing 25": {
			"name": "效果: 快速癒合 Fast Healing 25",
			"description": null
		},
		"Effect: Fast Healing 30": {
			"name": "效果: 快速癒合 Fast Healing 30",
			"description": null
		},
		"Effect: Fast Healing 35": {
			"name": "效果: 快速癒合 Fast Healing 35",
			"description": null
		},
		"Effect: Fast Healing 40": {
			"name": "效果: 快速癒合 Fast Healing 40",
			"description": null
		},
		"Effect: Fast Healing 5": {
			"name": "效果: 快速癒合 Fast Healing 5",
			"description": null
		},
		"Effect: Hydra Regeneration": {
			"name": "效果: 多頭蛇再生 Hydra Regeneration",
			"description": "<p>多頭蛇再生數值等於3x它的腦袋數。</p>\n<p>將此效果的等級設定為剩餘腦袋數，以獲得準確的HP恢復。</p>"
		},
		"Effect: Repair Module": {
			"name": "效果: 修復模組 Repair Module",
			"description": "<p>效果來自@Compendium[pf2e.feats-srd.ZGT7NLpcvREkJsMd]{修復模組 Repair Module}。</p>"
		},
		"Hymn of Healing +": {
			"name": "復原頌+ Hymn of Healing +",
			"description": "<p>你的聖歌能修復傷口並讓人從傷痛中臨時的喘息之機。目標獲得快速癒合2。</p>\n<p>When you 當你施放法術以及每輪第一次維持該法術時，目標會獲得2點臨時生命值，持續1輪。</p>\n<p>@Compendium[pf2e-persistent-damage.pf2e-persistent-damage-effects.7MfflFvjK1k87fMg]{法術效果: 復原頌 Hymn of Healing}</p>\n<hr />\n<p><strong>升階 (+1)</strong> 快速癒合和臨時生命值各增加2點。</p>"
		},
		"Spell Effect: Hymn of Healing": {
			"name": "法術效果: 復原頌 Hymn of Healing",
			"description": "<p>效果來自@Compendium[pf2e.spells-srd.gSUQlTDYoLDGAsCP]{復原頌 Hymn of Healing}。</p>\n<p>將此效果的等級設定為等於法術環級的數字，或將此效果連結放入法術描述，這樣可以自動為效果升階。</p>"
		},
		"Troll Regeneration": {
			"name": "巨魔再生 Troll Regeneration",
			"description": "<p>基礎巨魔再生</p>"
		}
	}
}