{
    "label": "怪物種族能力術語表 Creature Family Ability Glossary",
    "entries": {
        "(Golem) Golem Antimagic": {
            "name": "魔像抗魔 Golem Antimagic"
        },
        "(Ghost) Cold Spot": {
            "description": "<p>@Template[type:emanation|distance:5|damaging:yes]{5尺} @UUID[Compendium.pf2e.bestiary-ability-glossary-srd.v61oEQaDdcRpaZ9X]{靈光}</p>\n<hr />\n<p>幽靈5尺範圍內的空氣異常寒冷。如果角色進入幽靈的靈光範圍或在其中開始自身回合，那麼幽靈每具有3等級對其造成[[/r 1d6[cold]]]傷害（@Check[type:fortitude|dc:|basic:true]豁免）。</p>",
            "name": "(幽靈)寒冷點 (Ghost) Cold Spot"
        },
        "(Ghost) Fetch": {
            "description": "<p>幽靈創造出一個生物的虛幻複製體。雙身的作用效果類似於2環<em>@UUID[Compendium.pf2e.spells-srd.f8SBoXiXQjlCKqly]{幻象生物 Illusory Creature}</em>，不同之處在於幽靈並不控制雙身，並且該法術持續時間為[[/r 1d4 #hours]]{1d4小時}，而非需要維持法術。</p>\n<p>雙身具有基本的智力，會試圖模仿本體（它的欺瞞技能加值等同於幽靈的最高技能加值），但給人的印象通常是@UUID[Compendium.pf2e.conditionitems.yblD8fOR1J8rDwEQ]{困惑 Confused}或迷茫。</p>\n<p>一個幽靈同時只能製造一個雙身。如果被複制的生物遭遇自己的雙身，必須成功通過@Check[type:will|dc:]豁免，否則只要能夠看到雙身，就會承受@UUID[Compendium.pf2e.conditionitems.e1XGnhKNSQIm5IXg]{呆滯 Stupefied 1}（大失敗為@UUID[Compendium.pf2e.conditionitems.e1XGnhKNSQIm5IXg]{呆滯 Stupefied 2}）。</p>",
            "name": "(幽靈)雙身 (Ghost) Fetch"
        },
        "(Ghost) Lynchpin": {
            "description": "<p>幽靈將自身的一些性質延伸到一個或更多的小於等於自身等級的不死生物，這些不死生物與該幽靈的故事和未竟之事有關。</p>\n<p>這些不死生物獲得幽靈的@UUID[Compendium.pf2e.bestiary-family-ability-glossary.unR8VVR4yyRnsmnB]{復生 Rejuvenation}能力，只要幽靈還存在，它們就無法被永久毀滅。如果幽靈被平息，所有相關的不死生物同樣會立即毀滅。</p>\n<p>相關聯的不死生物通常也會也會具有幽靈的@UUID[Compendium.pf2e.bestiary-family-ability-glossary.BcSlVpaN72LoQ5BV]{束縛之地 Site Bound}能力，但並不一定。幽靈對此類不死生物並無任何控制能力，實際上幽靈和它們永生的同伴或許對彼此抱有永不停息的敵意。</p>",
            "name": "(幽靈)群體核心 (Ghost) Lynchpin"
        },
        "(Ghost) Phantasmagoria": {
            "description": "<p>幽靈使得自己受束縛的地點看起來、聽起來、感覺起來和聞起來像是一種不同的地方，也可以讓其中充滿人或動物的簡單幻象。</p>\n<p>幽靈一般只能創造少數景象，通常是受束縛之地在自己生前的不同樣子。這種幻覺無法掩蓋該區域中的任何生物，不過可以引發小型的、表面上的改變（例如使得一個生物的衣服在宴會中顯得更精緻，或是在戰鬥中顯得血跡斑斑）。</p>\n<p>任何觸碰幻象或使用搜尋動作檢查幻象的生物都可以嘗試不相信幻象。在成功地不相信幻象之前，生物無法離開幻覺區域。</p>",
            "name": "(幽靈)幻覺效應 (Ghost) Phantasmagoria"
        },
        "(Ghost) Beatific Appearance": {
            "description": "<p><strong>需求</strong> 幽靈能夠意識到的一個生物將幽靈作為攻擊的物件</p>\n<hr />\n<p><strong>效果</strong> 鬼魂有著異常惹人憐愛的外表，或者可以改變自身外貌特徵使自己看起來像是攻擊者的親近之人，這會導致目標撤回攻擊。</p>\n<p>觸發該效果的生物必須進行@Check[type:will|dc:]檢定。檢定失敗的話，該生物攻擊檢定需承受-1環境減值（大失敗-2）。</p>",
            "name": "(幽靈)安詳外貌 (Ghost) Beatific Appearance"
        },
        "(Ghost) Dreamwalker": {
            "name": "(幽靈)夢境行者 (Ghost) Dreamwalker",
            "description": "<p>遭遇鬼魂或到訪其受縛地點的任何人都能夠受此效應影響。目標在遭遇幽靈後第一次入睡時，會成為<em>@UUID[Compendium.pf2e.spells-srd.Uqj344bezBq3ESdq]{夢魘術 Nightmare}</em>的目標，噩夢內容與幽靈有一定的關聯。</p>\n<p>大多數情況下這意味著目標會重新體驗幽靈生前的最後時光，但也有其他可能性。如果幽靈願意的話，它可以操縱夢境傳遞資訊或甚至與做夢的人進行完整的對話。</p>"
        },
        "(Ghost) Fade": {
            "name": "(幽靈)淡化 (Ghost) Fade",
            "description": "<p>幽靈變為@UUID[Compendium.pf2e.conditionitems.zJxUflt9np0q4yML]{隱形 Invisible}，直至其下一回合開始。</p>"
        },
        "(Ghost) Ghost Storm": {
            "name": "(幽靈)幽靈風暴 (Ghost) Ghost Storm",
            "description": "<p>@Template[type:emanation|distance:30]{30尺} @UUID[Compendium.pf2e.bestiary-ability-glossary-srd.v61oEQaDdcRpaZ9X]{靈光}</p>\n<hr />\n<p>一陣風圍繞著幽靈，範圍30尺。這陣風會撲滅小型非魔法火焰，驅散煙霧，將輕量負載及以下的物體吹飛，以及推動更大的物體。位於幽靈靈光內的方格為困難地形，飛行生物視為逆風飛行。</p>\n<p>幽靈可以以一個動作解除或繼續這陣風，這個動作具有專注特徵。</p>"
        },
        "(Ghost) Memento Mori": {
            "name": "(幽靈)死亡回放 (Ghost) Memento Mori",
            "description": "<p>幽靈使得30尺內的一個生物重新體驗幽靈的死法。</p>\n<p>目標必須成功通過@Check[type:will|dc:]豁免，否則會看到、感受到幽靈的經歷，幽靈每具有2個等級造成@Localize[PF2E.PersistentDamage.Mental1d4.success]。</p>\n<p>直到持續傷害結束之前，所有其他生物對於目標都處於@UUID[Compendium.pf2e.conditionitems.DmAIPqOBomZ7H95W]{隱蔽 Concealed}狀態。</p>"
        },
        "(Ghost) Pyre's Memory": {
            "name": "(幽靈)燃火回憶 (Ghost) Pyre's Memory",
            "description": "<p>幽靈毫無預兆地使得大團火焰爆發出來。</p>\n<p>幽靈選擇30尺內的3個5尺方格。如果生物在這些方格開始回合或進入這些方格，那麼幽靈每具有2等級會對其造成[[/r 1d6[fire]]]傷害，可進行@Check[type:reflex|dc:|basic:true]豁免對抗。</p>\n<p>火焰持續1分鐘，除非幽靈希望如此否則不會點燃其他物品。如果幽靈再次使用該能力，會解除所有已有的火焰。</p>"
        },
        "(Ghost) Corporeal Manifestation": {
            "name": "(幽靈)實體顯現 (Ghost) Corporeal Manifestation",
            "description": "<p>幽靈失去虛體特徵，暫時將自身力量調整值增加至其魅力調整值。幽靈處於實體狀態時失去其對精準傷害的免疫和對一切傷害的抗性。</p>\n<p>幽靈可以再次使用該動作恢復虛體形態。</p>"
        },
        "(Ghost) Haunted House": {
            "name": "(幽靈)鬼屋 (Ghost) Haunted House",
            "description": "<p><strong>頻率</strong> 每10分鐘一次</p>\n<hr />\n<p><strong>效果</strong> 幽靈將自身存在擴充套件至其受縛的整個地點，直到它的下一個回合結束。在此區域內，幽靈可以擴充套件自己的感官，獲得@UUID[Compendium.pf2e.bestiary-ability-glossary-srd.9qV49KjZujZnSp6w]{全域視野 All-Around Vision}，還可以從該區域任何位置進行鬼手攻擊或使用特殊能力。</p>"
        },
        "(Ghost) Revenant": {
            "name": "(幽靈)迴歸人世 (Ghost) Revenant",
            "description": "<p>幽靈附身並轉變一具相鄰的屍體（附身自己的屍體需要2動作，否則需要1小時）。</p>\n<p>被附身的屍體資料為比幽靈等級低2級的非虛體不死生物的資料，幽靈附身的效果類似於使用<em>@UUID[Compendium.pf2e.spells-srd.wU6hNzK8Yfqdmc8m]{佔據術 Possession}</em>法術。具體的不死生物型別由幽靈和屍體的性質決定——常見的有@UUID[Compendium.pf2e.pathfinder-bestiary.LHHgGSs0ELCR4CYK]{食屍鬼 Ghouls}、@UUID[Compendium.pf2e.pathfinder-bestiary.ZPjQkKVMi3xoPcU0]{屍妖 Wights}和@UUID[Compendium.pf2e.pathfinder-bestiary.0SJqmk4ItwL31Rg9]{無頭騎士 Dullahans}，不過幾乎任何不死生物都是有可能的。</p>\n<p>如果幽靈放棄附身屍體，那麼該實體不死生物會立即毀滅。</p>"
        },
        "(Graveknight) Graveknight's Curse": {
            "description": "<p>詛咒會影響任何穿戴死墓騎士的護甲超過1小時以上的生物。</p>\n<p><strong>豁免檢定</strong> @Check[type:will|dc:] save</p>\n<hr />\n<p><strong>潛伏期</strong> 1小時</p>\n<p><strong>階段1</strong> @UUID[Compendium.pf2e.conditionitems.3uh1r86TzbQvosxv]{毀滅 Doomed 1}並且無法脫下護甲(1天)</p>\n<p><strong>階段2</strong> @UUID[Compendium.pf2e.conditionitems.3uh1r86TzbQvosxv]{毀滅Doomed 2}，速度降低10，並且無法脫下護甲(1天)</p>\n<p><strong>階段3</strong> 死亡並轉化為護甲的死墓騎士</p>\n<p>@UUID[Compendium.pf2e.bestiary-effects.6rnB7nK6J6zF4vea]{效果: 死墓騎士詛咒}</p>",
            "name": "(死墓騎士)死墓騎士詛咒 (Graveknight) Graveknight's Curse"
        },
        "(Graveknight) Channel Magic": {
            "name": "(死墓騎士)引導魔法 (Graveknight) Channel Magic",
            "description": "<p>死墓騎士通過護甲引導魔法能量，這讓它能通過攻擊施法。</p>\n<p>死墓騎士施放一個1-2動作且需要一次法術攻擊骰的法術。法術效果不會立刻發生，而是被灌注進一次攻擊。死墓騎士接著用武器或無武裝攻擊進行一次近戰打擊。法術被附加在攻擊上，使用攻擊檢定結果來決定打擊和法術效果。</p>\n<p>這在計算多重攻擊減值時被計算為兩次攻擊，但直到引導魔法結束不增加多重攻擊減值。</p>\n<p>死墓騎士無法在[[/br 1d4 #rounds]]{1d4輪}內再次使用引導魔法。</p>"
        },
        "(Graveknight) Clutching Armor": {
            "name": "(死墓騎士)纏結護甲 (Graveknight) Clutching Armor",
            "description": "<p><strong>觸發</strong> 一個生物嘗試離開死墓騎士</p>\n<hr />\n<p><strong>效果</strong> 死墓騎士的護甲活化並嘗試@UUID[Compendium.pf2e.actionspf2e.PMbdMWc2QroouFGD]{擒拿 Grapple}觸發的生物。它進行一次用於擒抱的運動檢定，使用死墓騎士的運動加值-2作為調整值。護甲可以如常繼續擒抱該生物。</p>\n<p>因為是護甲在抓著該生物，所以死墓騎士不需要空出一隻手來使用此能力。</p>"
        },
        "(Graveknight) Betrayed Revivification": {
            "description": "<p>死墓騎士死於深重的背叛。</p>\n<p>取代死墓騎士對於某類能量傷害的免疫，他變得免疫心靈傷害，其武器會造成[[/r 1d6[mental]]]傷害，毀滅爆震能力也會造成心靈傷害，並使用意志豁免替代反射豁免。</p>",
            "name": "(死墓騎士)被辜負者 (Graveknight) Betrayed Revivification"
        },
        "(Graveknight) Create Grave Squire": {
            "name": "(死墓騎士)創造死墓侍從 (Graveknight) Create Grave Squire",
            "description": "<p>死墓騎士能將自身的護甲碎片贈予自願的盟友，後者會成為他的死墓侍從。</p>\n<p>死墓騎士可以在任意距離與侍從通過心靈感應進行溝通，通過侍從的感官觀察，能通過心靈感應連結以神術內在法術隨意對其施放<em>@UUID[Compendium.pf2e.spells-srd.qwlh6aDgi86U3Q7H]{暗示術 Suggestion}</em>；侍從會將其豁免成功度視為更差的1階。</p>\n<p>若死墓騎士的主護甲被摧毀，侍從的護甲碎片會在[[/br 1d10 #days]]{1d10天}後覆蓋他的身體，在此之後這便成為了死墓騎士的新身體。</p>\n<p>死墓騎士在同一時間只能具有1名侍從，若他想創造1名新侍從，則必須先回收先前贈予的護甲碎片。</p>"
        },
        "(Graveknight) Empty Save for Dust": {
            "name": "(死墓騎士)只餘塵土 (Graveknight) Empty Save for Dust",
            "description": "<p>在死墓騎士護甲包裹下的只是一些飛揚的塵土，它們從這副鎧甲的關節處漫出。接觸或被死墓騎士接觸的生物（包括被死墓騎士的拳頭打擊命中的生物）必須成功通過@Check[type:reflex|dc:]豁免，否則會被灰塵汙染。被汙染的生物獲得@UUID[Compendium.pf2e.conditionitems.e1XGnhKNSQIm5IXg]{呆滯 Stupefied 1}，並獲得對死墓騎士的能量的弱點，弱點數值等於死墓騎士等級一半。在1分鐘後或當生物被水浸溼時，汙染結束，以先發生的為準。</p>"
        },
        "(Graveknight) Dark Deliverance": {
            "name": "(死墓騎士)暗之救贖 (Graveknight) Dark Deliverance",
            "description": "<p>死墓騎士具有等同於其等級的正能量抗力。</p>"
        },
        "(Graveknight) Devastating Blast": {
            "name": "(死墓騎士)毀滅爆震 (Graveknight) Devastating Blast",
            "description": "<p>死墓騎士釋放出@Template[type:cone|distance:30]能量。區域內的生物受到[[/r 1d12[damagetype]]]傷害，外加每2個死墓騎士等級額外1d12點（@Check[type:reflex|dc:|basic:true]豁免）。</p>\n<p>死墓騎士每[[/br 1d4 #Recharge Devastating Blast]]{1d4輪}只能使用1次該能力。</p>\n<p>該能量傷害與其破滅武器的能量型別相同；<em>毀滅爆震獲得與其相關能量型別的特徵</em>。</p>"
        },
        "(Graveknight) Eager for Battle": {
            "name": "(死墓騎士)渴求戰鬥 (Graveknight) Eager for Battle",
            "description": "<p>當死墓騎士骰先攻時，它骰兩次並取較好的骰點。在骰先攻後的第一輪，死墓騎士獲得@UUID[Compendium.pf2e.conditionitems.nlCjDvLMf2EkV2dl]{迅捷 Quickened} 狀態，並可用額外行動來快步、行走、打擊。</p>"
        },
        "(Graveknight) Phantom Mount": {
            "name": "(死墓騎士)魅影坐騎 (Graveknight) Phantom Mount",
            "description": "<p>HP __; AC __, Fort +__, Ref +__, Will +__</p>\n<hr />\n<p>死墓騎士召喚出1匹超自然坐騎，就如同<em>@UUID[Compendium.pf2e.spells-srd.WPKJOhEihhcIm2uQ]{魅影駒 Phantom Steed}</em>一般，該法術會升階至的法術環級等同於死墓騎士等級的一半。</p>\n<p>與<em>魅影駒</em>不同的是，坐騎的AC和豁免檢定加值均比死墓騎士的數值低4點，坐騎的生命值為死墓騎士生命值的三分之一（向下取整）。</p>\n<p>若坐騎被摧毀，死墓騎士必須等待1小時才能再次使用該能力。</p>"
        },
        "(Graveknight) Sacrilegious Aura": {
            "description": "<p>@Template[type:emanation|distance:30]{30尺} @UUID[Compendium.pf2e.bestiary-ability-glossary-srd.v61oEQaDdcRpaZ9X]{靈光}</p>\n<hr />\n<p>當有生物在靈光範圍內使用正能量法術或能力時，死墓騎士會自動按照此能力條目下列出的反制調整值[[/r 1d20+0 #Counteract]]{+x}嘗試反制它。</p>",
            "name": "(死墓騎士)褻瀆靈光 (Graveknight) Sacrilegious Aura"
        },
        "(Graveknight) Graveknight's Shield": {
            "name": "(死墓騎士)死墓騎士盾牌 (Graveknight) Graveknight's Shield",
            "description": "<p>死墓騎士的詛咒延伸至它們的盾牌上，或者死墓騎士護甲用自己的一部分來製造一面盾牌。</p>\n<p>死墓騎士有一面盾牌，其使用等級不高於死墓騎士等級-1的<em>@UUID[Compendium.pf2e.equipment-srd.f9ygr5Cjrmop8LWV]{百鍊盾 Sturdy Shield}</em>的資料。</p>\n<p>盾牌準獨立於死墓騎士，並會自動保護死墓騎士不受傷害。當這面盾牌被舉起時，它會自動使用盾牌格擋來減少每輪第一次對死墓騎士的攻擊造成的傷害，死墓騎士無需為這次格擋花費反應動作。</p>\n<p>盾牌會自動和死墓騎士的剩餘部分一起復生，想要摧毀它必須用和摧毀死墓騎士護甲同樣的方式。</p>"
        },
        "(Graveknight) Rejuvenation": {
            "name": "(死墓騎士)復生 (Graveknight) Rejuvenation",
            "description": "<p>當死墓騎士被摧毀時，其護甲會在[[/br 1d10 #days]]{1d10天}內重塑身體——若護甲被活著的宿主穿戴則會更加迅速（見後文中的死墓騎士護甲）。若身體在此之前被破壞，重塑過程將重新開始。</p>\n<p>只有摧毀護甲（比如使用<em>@UUID[Compendium.pf2e.spells-srd.r7ihOgKv19eJQnik]{解離術 Disintegrate}</em>）、把死墓騎士傳送至正能量位面、或者丟進火山之中才能夠永久摧毀死墓騎士。</p>"
        },
        "(Graveknight) Portentous Glare": {
            "name": "(死墓騎士)不詳怒視 (Graveknight) Portentous Glare",
            "description": "<p>@Template[type:emanation|distance:30] @UUID[Compendium.pf2e.bestiary-ability-glossary-srd.v61oEQaDdcRpaZ9X]{靈光}</p>\n<hr />\n<p>死墓騎士的面容帶來了勢不可擋的駭人氣氛。當一個生物在靈光範圍內結束回合時，他必須進行一次@Check[type:will|dc:]豁免。豁免失敗的生物獲得@UUID[Compendium.pf2e.conditionitems.3uh1r86TzbQvosxv]{毀滅 Doomed 1}（大失敗獲得毀滅1和@UUID[Compendium.pf2e.conditionitems.TBSHQspnbcqxsmjL]{驚懼 Frightened 2}）。死墓騎士可以通過一個互動動作開關頭盔面罩進而開關此能力。</p>"
        },
        "(Graveknight) Ruinous Weapons": {
            "name": "(死墓騎士)破滅武器 (Graveknight) Ruinous Weapons",
            "description": "<p>在死墓騎士被創造時，他要從後述能量型別中選擇與其生前或死亡息息相關的一種：酸、寒冷、電擊或火焰。</p>\n<p>死墓騎士所持用的任意武器均會獲得酸蝕、凍寒、電擊或熾焰武器符文，外加+1強擊武器符文。</p>\n<p>若死墓騎士的等級為14或更高的話，其武器會獲得上述同種符文的高等版本作為替代。</p>"
        },
        "(Graveknight) Weapon Master": {
            "name": "(死墓騎士)武器大師 (Graveknight) Weapon Master",
            "description": "<p>死墓騎士無論持用何種武器，均可以使用該武器的重擊專精效果。</p>\n<p><em>因NPC的攻擊並不是從其武器中生成，此效果無法自動化。您需要手動為死墓騎士的打擊新增\"Note\"元素來應用重擊專精效果。例子已被提供。</em></p>"
        },
        "(Vampire, Basic) Vampire Weaknesses": {
            "description": "<p>所有吸血鬼都具有以下弱點。</p>\n<ul>\n<li><strong>強制力 Compulsions</strong> 吸血鬼受制於某些奇妙而又無法解釋的強制力。典型的吸血鬼除非被藏在它的棺木中，否則無法自願穿過流水；無法進入私宅，除非受到房主邀請。根據你的裁定，吸血鬼可能還會擁有各種其他的強制力——例如一隻海盜吸血鬼也行無法在未受邀的情況下踏上陸地。吸血鬼仍可能受迫去做這些事情，並且可能如同克服厭惡（見下文）那樣克服強制力。</li>\n<li><strong>厭惡 Revulsion</strong> 吸血鬼不能自願接近被揮舞著的大蒜或是非邪惡神祇的聖徽10尺以內。生物必須以一個互動動作揮舞大蒜或者聖徽，並且起效一輪（類似舉起盾牌）。如果吸血鬼非自願地來到了厭惡物件的10尺範圍內，它獲得@UUID[Compendium.pf2e.conditionitems.sDPxOjQ9kx2RZE8D]{逃跑 Fleeing}狀態，逃離至其厭惡物件的10尺以外。在暴露於其厭惡之物下的一輪之後，吸血鬼可以花費一個擁有專注特徵的動作嘗試一次@Check[type:will|dc:25|name:Overcome Revulsion]檢定。一旦成功，它能在[[/br 1d6 #rounds]]{1d6輪}內克服其厭惡（如果大成功則改為1小時）。</li>\n<li><strong>木樁 Stake</strong> 一根刺穿吸血鬼心臟的木樁能夠將吸血鬼的HP降至0點，並且阻止其在0HP時受到的治療效果，就算它躺在棺木中也是如此。用木樁刺穿吸血鬼需要花費三動作，並且僅能在吸血鬼昏迷的時候才能如此做。如果將木樁拔出，並且它還在自己的棺木中休息了1小時以後，那麼吸血鬼便能夠再次恢復至0HP以上。如果在吸血鬼被木樁釘穿時將其腦袋砍下後再塗上<em>@UUID[Compendium.pf2e.equipment-srd.z9T4c1hXwOotsMCp]{聖水 Holy Water}</em>，便能徹底摧毀這隻吸血鬼。</li>\n<li><strong>陽光 Sunlight</strong> 如果暴露於陽光直射下，吸血鬼將立即變成@UUID[Compendium.pf2e.conditionitems.xYTAsEpcJE1Ccni3]{緩慢 Slowed 1}。每次吸血鬼在陽光下結束其回合，遲緩值都將增加1點。如果吸血鬼因此失去了其所有動作，它被摧毀。由於吸血鬼對於光的超自然的厭惡，它們不會投下影子，也不會照映在鏡子裡。</li>\n</ul>",
            "name": "(吸血鬼,基礎)吸血鬼弱點 (Vampire, Basic) Vampire Weaknesses"
        },
        "(Vampire, Nosferatu Overlord) Paralytic Fear": {
            "description": "<p><strong>需求</strong> 諾斯費拉圖霸主最後一個動作是成功的利爪打擊</p>\n<hr />\n<p><strong>效果</strong> 諾斯費拉圖將打擊的目標拉近，用恐懼凍結他的心智。目標必須進行@Check[type:will|dc:]豁免，DC使用諾斯費拉圖的等級對應的適中DC。</p>\n<hr />\n<p><strong>大成功</strong> 此目標不受影響。</p>\n<p><strong>成功</strong> 此目標因恐懼而@UUID[Compendium.pf2e.conditionitems.eIcWbB5o3pP6OIMe]{禁足 Immobilized}直至諾斯費拉圖的下個回合結束</p>\n<p><strong>失敗</strong> 此目標被@UUID[Compendium.pf2e.conditionitems.VcDeM8A5oI6VqhbM]{束縛 Restrained}且在抵抗諾斯費拉圖吸血能力DC時的強韌豁免上獲得-2環境減值，直至諾斯費拉圖下個回合結束。</p>\n<p><strong>大失敗</strong> 如同失敗，目標還獲得@UUID[Compendium.pf2e.conditionitems.TBSHQspnbcqxsmjL]{驚懼 Frightened 2}。</p>",
            "name": "(吸血鬼,諾斯費拉圖霸主)驚惶爪 (Vampire, Nosferatu Overlord) Paralytic Fear"
        },
        "(Vampire, Nosferatu) Change Shape": {
            "description": "<p>諾斯費拉圖變成一群淺灰色的老鼠。它們獲得30尺陸地速度和10尺攀爬速度，體型變為大型。位於叢集內部的敵人受到[[/r 2d10[piercing]]]傷害，且必須進行一個@Check[type:reflex|dc:|basic:true]豁免，DC取該生物等級對應的強DC。豁免失敗的生物會暴露在遠古瘟疫中。</p>\n<hr />\n<p>@Localize[PF2E.NPC.Abilities.Glossary.ChangeShape]</p>",
            "name": "(吸血鬼,諾斯費拉圖)改變形體 (Vampire, Nosferatu) Change Shape"
        },
        "(Vampire, Nosferatu) Dominate": {
            "description": "<p>諾斯費拉圖將<em>@UUID[Compendium.pf2e.spells-srd.OsOhx3TGIZ7AhD0P]{支配術 Dominate}</em>作為可隨意施展的神術內在法術。因為諾斯費拉圖需要凝視目標的眼睛來施放此法術，所以此法術帶有視覺特徵(@Check[type:will|dc:])。豁免DC使用諾斯費拉圖的等級對應的強DC，豁免成功的生物在24小時內免疫它的的支配能力。完全摧毀諾斯費拉圖可以終止其支配，但是僅僅將它的HP降低到0點則不足以破壞此法術。</p>",
            "name": "(吸血鬼,諾斯費拉圖)支配 (Vampire, Nosferatu) Dominate"
        },
        "(Vampire, Nosferatu) Plague of Ancients": {
            "description": "<p><strong>豁免檢定</strong> @Check[type:fortitude|dc:] (用諾斯費拉圖的等級對應的強DC)</p>\n<hr />\n<p><strong>潛伏期</strong> 1天</p>\n<p><strong>階段1</strong> @UUID[Compendium.pf2e.conditionitems.4D2KBtexWXa6oUMR]{流失 Drained 1} (1天)</p>\n<p><strong>階段2</strong> @UUID[Compendium.pf2e.conditionitems.4D2KBtexWXa6oUMR]{流失 Drained 2}和@UUID[Compendium.pf2e.conditionitems.MIRkyAjyBeXivMa7]{力竭 Enfeebled 2} (1天)</p>\n<p><strong>階段3</strong> @UUID[Compendium.pf2e.conditionitems.3uh1r86TzbQvosxv]{毀滅 Doomed 1}, @UUID[Compendium.pf2e.conditionitems.4D2KBtexWXa6oUMR]{流失 Drained 3}, 和@UUID[Compendium.pf2e.conditionitems.MIRkyAjyBeXivMa7]{力竭 Enfeebled 3} (1天)</p>\n<p><strong>階段4</strong> @UUID[Compendium.pf2e.conditionitems.3uh1r86TzbQvosxv]{毀滅 Doomed 2}, 流失3, 和力竭3(1天)</p>\n<p><strong>階段5</strong> @UUID[Compendium.pf2e.conditionitems.fBnFDH2MTzgFijKf]{失去意識 Unconscious} (1天)</p>\n<p><strong>階段6</strong> 死亡</p>",
            "name": "(吸血鬼,諾斯費拉圖)遠古瘟疫 (Vampire, Nosferatu) Plague of Ancients"
        },
        "(Vampire, Strigoi Progenitor) Create Spawn": {
            "description": "<p>如果某個生物在被吸血或吸吮精華後生命值降低到0而死亡，或者被暮色之域殺死，吸血鬼可以通過將自身的些許血液賜予這名受害者並將其埋入地下3夜，以此將受害者轉化為一隻吸血鬼。</p>\n<p>如果新生的吸血鬼的等級比它的創造者更低，那麼它將處於創造者的控制之下。如果一隻吸血鬼同時控制了過多的子嗣（由DM決定），意志足夠堅定的子嗣能夠通過一次成功的@Check[type:will|dc:resolve(10+@actor.system.saves.will.value)|name:Escape Thralldom]檢定對抗吸血鬼的意志DC來重獲自由。</p>\n<p>一個8級或更高的受害者會變為斯特里戈伊下僕，等級更低的受害者則會變為莫羅伊吸血鬼。</p>",
            "name": "(吸血鬼,斯特里戈伊始祖)創造子嗣 (Vampire, Strigoi Progenitor) Create Spawn"
        },
        "(Vampire, Strigoi) Domain of Dusk": {
            "description": "<p>斯特里戈伊揮了揮手，從四周的陰影中喚來穢惡的毀滅：盤繞著的黑暗，陰影般的蝙蝠、老鼠、和狼猛攻@Template[type:emanation|distance:30]範圍內的生者目標。在此範圍內的活物受到[[/r 1d6[negative]]]傷害 + 斯特里戈伊每有2級額外1d6 負能量傷害（@Check[type:fortitude|dc:|basic:true]豁免，對抗斯特里戈伊等級的DC）。豁免失敗的生物還會因黑暗而@UUID[Compendium.pf2e.conditionitems.TkIyaNPgTZFBCCuh]{目眩 Dazzled}1輪（或@UUID[Compendium.pf2e.conditionitems.XgEqL1kFApUbl5Z2]{目盲 Blinded}1輪，隨後目眩1輪）。斯特里戈伊始祖在1分鐘內無法再次使用此能力。</p>",
            "name": "(吸血鬼,斯特里戈伊)暮色之域 (Vampire, Strigoi) Domain of Dusk"
        },
        "(Vampire, Strigoi) Shadow Form": {
            "description": "<p>斯特里戈伊變回為純粹的陰影，並將它的軀體和裝備吸收進黑暗中；它也可用此動作來變回物質形態。在此形態下，斯特里戈伊獲得等同於陸地速度的攀爬速度，並能通過任何不密閉的縫隙。然而，它只能沿著非高反射性的表面移動，不能在液麵或鏡面移動。如果它所在的表面被摧毀，斯特里戈伊就會恢復物理形態並獲得@UUID[Compendium.pf2e.conditionitems.dfCMdR4wnpbYNTix]{震懾 Stunned 1}。斯特里戈伊在處於陰影形態時失去快速癒合，但可以無限期地保持在陰影形態。</p>\n<p>處於陰影形態時暴露在陽光下的斯特里戈伊會獲得@UUID[Compendium.pf2e.conditionitems.xYTAsEpcJE1Ccni3]{緩慢 Slowed 2}，並且必須在它的每個回合結束時進行@Check[type:flat|dc:16]檢定。若此檢定失敗，它就會被摧毀，這塊影子隨著一聲令人毛骨悚然的哀嚎消散無蹤。</p>",
            "name": "(吸血鬼,斯特里戈伊)陰影形態 (Vampire, Strigoi) Shadow Form"
        },
        "(Vampire, True) Change Shape": {
            "description": "<p>吸血鬼變形為某一動物形態或是變為原形。大多數吸血鬼會變成蝙蝠，但是有些會變成諸如老鼠或者狼之類的其他生物。</p>\n<p>使用<em>@UUID[Compendium.pf2e.spells-srd.NzXpEzcZAjuDTZjK]{御空形態 Aerial Form}</em>和<em>@UUID[Compendium.pf2e.spells-srd.wp09USMB3GIW1qbp]{動物形態 Animal Form}</em>法術中的選項作為參考。</p>\n<ul>\n<li><strong>蝙蝠 Bat</strong> 吸血鬼變成@UUID[Compendium.pf2e.pathfinder-bestiary.VAWmwDA08ZLQd8lW]{蝙蝠叢集 Bat Swarm}或者@UUID[Compendium.pf2e.pathfinder-bestiary.C9s5tBxVValC2HTE]{巨型蝙蝠 Giant Bat}。它獲得40尺回聲定位，20尺陸地速度，30尺飛行速度，以及攻擊加值等同於其最高近戰攻擊的齧咬普通攻擊。這種齧咬攻擊造成的傷害與吸血鬼的爪抓相同，只不過傷害型別從揮砍變成了穿刺。</li>\n</ul>\n<hr />\n<p>@Localize[PF2E.NPC.Abilities.Glossary.ChangeShape]</p>",
            "name": "(吸血鬼,純血)變身 (Vampire, True) Change Shape"
        },
        "(Vampire, Vetalarana, Basic) Mental Rebirth": {
            "description": "<p>毘陀羅邏那不會在HP為0的時候被摧毀。相反，它們的身體被摧毀，崩解成灰，而它們的心智會立刻轉移到一個它們通過汲取思維能力而令其昏迷的一個生物中。這個生物必須在1英里範圍內；如果範圍內沒有這樣的生物，毘陀羅邏那就會被摧毀。該生物會被毘陀羅邏那控制，並失去呆滯和@UUID[Compendium.pf2e.conditionitems.fBnFDH2MTzgFijKf]{失去意識 Unconscious}狀態。如果以這種方式被毘陀羅邏那控制的生物被殺死，毘陀羅邏那的心智會轉移到1英里內的另一個因汲取思緒能力而昏迷的生物身上。</p>\n<p>在被控制的[[/r 1d6 #days]]{1d6天}後，被控制的生物會死亡，其身體轉變成使其昏迷的毘陀羅邏那的樣子。</p>",
            "name": "(吸血鬼,毘陀羅邏那,基礎)心靈重生 (Vampire, Vetalarana, Basic) Mental Rebirth"
        },
        "(Vampire, Vetalarana, Basic) Vetalarana Vulnerabilities": {
            "description": "<p>所有毘陀羅邏那都有以下弱點。</p>\n<ul>\n<li><strong>阻礙感知 Barred Senses</strong> 毘陀羅邏那無法看到或者感知到力場效果或者寒鐵後的東西。它們的心智也無法穿透力場或寒鐵。這樣的屏障能夠阻止毘陀羅邏那通過心靈重生能力轉移自己的心智。</li>\n<li><strong>厭惡 Revulsion</strong> 毘陀羅邏那以享用記憶和祕密為樂，並對那些公開分享這種敏感瑣事的人感到厭惡。毘陀羅邏那不能主動接近一位大聲說出自己私密的個人祕密或最珍貴的記憶的人10尺以內。堅定且大聲地說出這類資訊是一個有著“聽覺”、“專注”和“語言”特徵單動作，這會保護該生物直到他的下個回合開始。非自願地來到了厭惡物件的10尺範圍內的毘陀羅邏那會獲得@UUID[Compendium.pf2e.conditionitems.sDPxOjQ9kx2RZE8D]{逃跑 Fleeing}狀態，直到它逃至其厭惡物件的10尺以外。在暴露於一個生物的祕密一輪後，毘陀羅邏那可以花費一個擁有專注特徵的單動作嘗試一次@Check[type:will|dc:25]檢定。一旦成功，它能在[[/r 1d6 #rounds]]{1d6輪}內克服其厭惡（如果大成功則改為1小時）。</li>\n<li><strong>腦損易傷 Vulnerable to Brain Destruction</strong> 大腦被摧毀或在不能使用心靈動作時HP被降至0的毘陀羅邏那無法使用心靈重生能力。</li>\n</ul>",
            "name": "(吸血鬼,毘陀羅邏那,基礎)毘陀羅邏那弱點 (Vampire, Vetalarana, Basic) Vetalarana Vulnerabilities"
        },
        "(Vampire, Vetalarana, Manipulator) Drain Thoughts": {
            "description": "<p><strong>需求</strong> 一個被@UUID[Compendium.pf2e.conditionitems.kWc1fhmv9LBiTuei]{擒抱 Grabbed}、@UUID[Compendium.pf2e.conditionitems.6uEgoh53GbXuHpTF]{麻痺 Paralyzed}、@UUID[Compendium.pf2e.conditionitems.VcDeM8A5oI6VqhbM]{束縛 Restrained}、@UUID[Compendium.pf2e.conditionitems.fBnFDH2MTzgFijKf]{失去意識 Unconscious}或自願的生物身處毘陀羅邏那的觸及範圍內</p>\n<hr />\n<p><strong>效果</strong> 毘陀羅邏那抓住一個生物併吞噬它的記憶。如果目標被擒抱，吸血鬼需要進行一次運動檢定對抗受害者的強韌DC；在其他情況下則都將自動成功。受害者獲得@UUID[Compendium.pf2e.conditionitems.e1XGnhKNSQIm5IXg]{呆滯 Stupefied 1}（大成功時@UUID[Compendium.pf2e.conditionitems.e1XGnhKNSQIm5IXg]{呆滯 Stupefied 2}），毘陀羅邏那回復等同於自身最大生命值10%的生命值，多餘的則會變為臨時生命。從已經獲得呆滯狀態的生物身上汲取思維不會回覆任何生命值，但會使受害者的呆滯值加1。此外，毘陀羅邏那還會檢視受害者的一段記憶。毘陀羅邏那操縱者可以選擇改變、增強或消除他們所看到的記憶，如同4環<em>@UUID[Compendium.pf2e.spells-srd.FhOaQDTSnsY7tiam]{修改記憶 Modify Memory}</em>法術。</p>\n<p>受害者的呆滯狀態每週減少1點。</p>\n<p>因此能力而達到呆滯(stupefied) 5的受害者陷入昏迷，變得永遠@UUID[Compendium.pf2e.conditionitems.fBnFDH2MTzgFijKf]{失去意識 Unconscious}。只要那隻毘陀羅邏那還活著，昏迷的受害者就不能恢復意識，且他的呆滯值也不會減少。</p>",
            "name": "(吸血鬼,毘陀羅邏那操縱者)汲取思緒 (Vampire, Vetalarana, Manipulator) Drain Thoughts"
        },
        "(Vampire, Vrykolakas Master) Create Spawn": {
            "description": "<p>如果一個生物因為吸血導致HP降為0之後死亡，通過獻給這名死者一點自己的血並把他埋在土裡過3晚，一隻維克拉卡斯尊主可以將該生物變成@UUID[Compendium.pf2e.pathfinder-bestiary-2.8IyfadYYpYXBvlXN]{維克拉卡斯子嗣 Vrykolakas Spawn}。</p>\n<p>此種方法創造的子嗣通常對創造它的維克拉卡斯態度友好，但它們並不受創造者的控制，且通常都會在剛被創造出的[[/r 1d6 #days]]{1d6天}內陷入對自身（處境）的狂怒之中。</p>",
            "name": "(吸血鬼,維克拉卡斯尊主)創造子嗣 (Vampire, Vrykolakas Master) Create Spawn"
        },
        "(Vampire, Vrykolakas) Drink Blood": {
            "description": "<p><strong>需求</strong> 維克拉卡斯的最後一個動作是一次成功的尖牙打擊</p>\n<hr />\n<p><strong>效果</strong> 維克拉卡斯將尖牙刺入那個生物的體內來吸他的血。它需要進行一次運動技能鑑定對抗那個生物的體質DC。成功後那個生物獲得@UUID[Compendium.pf2e.conditionitems.4D2KBtexWXa6oUMR]{流失 Drained 1}（如吸血的是維克拉卡斯尊主，則獲得@UUID[Compendium.pf2e.conditionitems.4D2KBtexWXa6oUMR]{流失 Drained 2}），維克拉卡斯恢復數量等同於它最大HP10%的HP，溢位的生命值作為臨時生命。從一個已經流失的生物身上吸血不會讓維克卡拉斯獲得生命值，但是會讓這個生物的流失值加1。維克拉卡斯同樣可以飲下儲存於容器中的血來維生，但是它不會從中恢復HP。</p>\n<p>受害者的流失值每週減少1點。在擁有足夠的血液或是一名獻血者的情況下，可以通過一次@Check[type:medicine|dc:20|name:Blood Transfusion]檢定進行一次輸血，並在10分鐘後減少1點流失值。</p>",
            "name": "(吸血鬼,維克拉卡斯)吸血 (Vampire, Vrykolakas) Drink Blood"
        },
        "(Vampire, Basic) Drink Blood": {
            "name": "(吸血鬼,基礎)吸血 (Vampire, Basic) Drink Blood",
            "description": "<p><strong>需求</strong> 一名被@UUID[Compendium.pf2e.conditionitems.kWc1fhmv9LBiTuei]{擒抱 Grabbed}、@UUID[Compendium.pf2e.conditionitems.6uEgoh53GbXuHpTF]{麻痺 Paralyzed}、@UUID[Compendium.pf2e.conditionitems.VcDeM8A5oI6VqhbM]{束縛 Restrained}、@UUID[Compendium.pf2e.conditionitems.fBnFDH2MTzgFijKf]{失去意識 Unconscious}、或是自願的生物處於吸血鬼的觸及範圍內。</p>\n<hr />\n<p><strong>效果</strong> 吸血鬼用尖牙刺入該生物的體內吸食其血液。如果受害者被擒抱，吸血鬼需要進行一次運動檢定對抗受害者的強韌DC；在其他情況下則都將自動成功。</p>\n<p>被害者獲得@UUID[Compendium.pf2e.conditionitems.4D2KBtexWXa6oUMR]{流失 Drained 1}，同時吸血鬼獲得等同於其最大生命值10%的生命值，而多餘的生命值則作為臨時生命。從已經獲得流失狀態的生物身上吸血不會使吸血鬼回覆任何生命值，但是受害者的仍會增加1點流失狀態值。吸血鬼同樣可以通過飲下被儲存在容器內的血液並以此維生，但是這樣做並不會增加其生命值。</p>\n<p>受害者的流失狀態每週減少1點。在擁有足夠的血液或是一名獻血者的情況下，可以通過一次@Check[type:medicine|dc:20|name:Blood Transfusion]檢定進行一次輸血，並在10分鐘後減少1點流失狀態值。</p>"
        },
        "(Vampire, Basic) Coffin Restoration": {
            "description": "<p>與其他不死生物不同，吸血鬼不會在HP為0時被摧毀。作為替代，它會@UUID[Compendium.pf2e.conditionitems.fBnFDH2MTzgFijKf]{失去意識 Unconscious}。如果它的身體在其棺木中休息1小時，則吸血鬼將獲得1點生命值，緊接著它的@UUID[Compendium.pf2e.bestiary-ability-glossary-srd.fJSNOw4zHGbIm4bZ]{快速癒合 Fast Healing}能力開始正常生效。</p>",
            "name": "(吸血鬼,基礎)寢於棺木 (Vampire, Basic) Coffin Restoration"
        },
        "(Vampire, Jiang-Shi, Basic) Jiang-Shi Vulnerabilities": {
            "name": "(吸血鬼,殭屍,基礎)殭屍弱點 (Vampire, Jiang-Shi, Basic) Jiang-Shi Vulnerabilities",
            "description": "<p>所有殭屍都擁有以下弱點。</p>\n<ul>\n<li><strong>厭惡 Revulsion</strong> 殭屍無法主動靠近一個揮舞的鏡子或搖響的手鍾10尺內。生物可以通過與鏡子或手鍾互動，從而揮舞或搖響該物體一輪（類似舉起盾牌）。如果殭屍非自願地來到了厭惡之物的10尺內，其獲得@UUID[Compendium.pf2e.conditionitems.sDPxOjQ9kx2RZE8D]{逃跑 Fleeing}狀態，逃離至其厭惡物件的10尺以外。在暴露於其厭惡之物下一輪之後，殭屍可以花費一個擁有專注特徵的動作嘗試一次@Check[type:will|dc:25]檢定。一旦成功，它能在[[/r 1d6 #rounds]]{1d6輪}內克服其厭惡（大成功則為1小時）。</li>\n<li><strong>苦澀頓悟 Bitter Epiphany</strong> 殭屍一旦意識到自己墮落的本性和其存在已經與生命相悖離的真相，就會陷入嚴重的憂鬱中。每當殭屍看見一個祭壇，其上擺著至少1負載的用於供奉給先祖的食物時，它們必須進行@Check[type:will|dc:25]豁免。然後它們會臨時免疫苦澀頓悟1分鐘。</li>\n</ul>\n<hr />\n<p><strong>大成功</strong> 殭屍不受影響</p>\n<p><strong>成功</strong> 殭屍獲得@UUID[Compendium.pf2e.conditionitems.e1XGnhKNSQIm5IXg]{呆滯 Stupefied 1}，持續1輪。</p>\n<p><strong>失敗</strong> 殭屍獲得@UUID[Compendium.pf2e.conditionitems.e1XGnhKNSQIm5IXg]{呆滯 Stupefied 2}，持續1分鐘。</p>\n<p><strong>大失敗</strong> 殭屍獲得呆滯2和@UUID[Compendium.pf2e.conditionitems.yblD8fOR1J8rDwEQ]{困惑 Confused}，持續1分鐘。</p>"
        },
        "(Vampire, Jiang-Shi, Basic) One More Breath": {
            "name": "(吸血鬼,殭屍,基礎)一息尚存 (Vampire, Jiang-Shi, Basic) One More Breath",
            "description": "<p>與其他不死生物不同，殭屍不會在HP為0時被摧毀。取而代之的是，它會@UUID[Compendium.pf2e.conditionitems.fBnFDH2MTzgFijKf]{失去意識 Unconscious}，於1分鐘後甦醒並具有1點生命值。將至少1負載的糯米或雞蛋撒在無意識的殭屍身上將會永久摧毀它們。如果殭屍的HP是被暗木武器的攻擊降低到0，它們立刻被摧毀。</p>"
        },
        "(Vampire, Jiang-Shi, Basic) Rigor Mortis": {
            "name": "(吸血鬼,殭屍,基礎)屍僵 (Vampire, Jiang-Shi, Basic) Rigor Mortis",
            "description": "<p>殭屍無視困難地形和會令它@UUID[Compendium.pf2e.conditionitems.j91X7x0XSomq8d60]{倒地 Prone}的效果。殭屍不能進行@UUID[Compendium.pf2e.actionspf2e.HYNhdaPtF1QmQbR3]{趴下 Drop Prone}基本動作。每當殭屍@UUID[Compendium.pf2e.actionspf2e.d5I6018Mci2SWokk]{跳躍 Leap}時，它不會觸發通常會因移動動作觸發的反應，例如藉機攻擊。</p>"
        },
        "(Vampire, Jiang-Shi, Basic) Warped Fulu": {
            "name": "(吸血鬼,殭屍,基礎)扭曲的符籙 (Vampire, Jiang-Shi, Basic) Warped Fulu",
            "description": "<p>殭屍已經腐化了貼在它們額頭上的符籙。殭屍免疫那些從魔法物品上施展且不需要消耗法術位的法術，例如卷軸或魔杖。一個生物可以使用@UUID[Compendium.pf2e.actionspf2e.RDXXE7wMrSPCLv5k]{盜竊 Steal}技能動作來移除殭屍的符籙，投骰對抗殭屍的察覺DC。這會立即終止殭屍對這些效果的免疫。如果一個生物隨後用一個互動動作摧毀一隻殭屍被移除的符籙，殭屍也將失去@UUID[Compendium.pf2e.bestiary-ability-glossary-srd.fJSNOw4zHGbIm4bZ]{快速癒合 Fast Healing}能力。殭屍能通過用書寫工具在一張紙條（或類似的東西）上不間斷的寫一小時字，來創造一個替代的符籙。</p>"
        },
        "(Vampire, Jiang-Shi, Minister) Tumult of the Blood": {
            "name": "(吸血鬼,殭屍,宰主)屍血躁燃 (Vampire, Jiang-Shi, Minister) Tumult of the Blood",
            "description": "<p>殭屍在1分鐘內第三次成功使用吸納陽氣能力後，它會獲得持續1分鐘的@UUID[Compendium.pf2e.conditionitems.nlCjDvLMf2EkV2dl]{迅捷 Quickened}狀態。它們只能將獲得的額外動作用於打擊或行走。</p>"
        },
        "(Vampire, Nosferatu Overlord) Divine Innate Spells": {
            "name": "(吸血鬼,諾斯費拉圖霸主)神術內在法術 (Vampire, Nosferatu Overlord) Divine Innate Spells",
            "description": "<p>諾斯費拉圖每天能以神術內在法術的形式釋放3次<em>@UUID[Compendium.pf2e.spells-srd.tpLTLbJUrYcMWGld]{念動移物 Telekinetic Haul}</em>（環級提升至其等級的一半），還能將<em>@UUID[Compendium.pf2e.spells-srd.fd31tAHSSGXyOxW6]{血族驅命 Vampiric Exsanguination}</em>以神術內在法術釋放，每日兩次。它使用它的的等級對應的強DC。</p>"
        },
        "(Vampire, Nosferatu) Command Thrall": {
            "name": "(吸血鬼,諾斯費拉圖)控制血奴 (Vampire, Nosferatu) Command Thrall",
            "description": "<p><strong>需求</strong> 一位諾斯費拉圖的血奴在場並能聽到諾斯費拉圖</p>\n<hr />\n<p><strong>效果</strong> 諾斯費拉圖向它的血奴下達一個命令，血奴會在他（收到命令後）的下個回合內竭盡全力去完成命令。</p>"
        },
        "(Vampire, Nosferatu) Divine Innate Spells": {
            "name": "(吸血鬼,諾斯費拉圖)神術內在法術 (Vampire, Nosferatu) Divine Innate Spells",
            "description": "<p>諾斯費拉圖每天能以神術內在法術的形式釋放3次<em>@UUID[Compendium.pf2e.spells-srd.tpLTLbJUrYcMWGld]{念動移物 Telekinetic Haul}</em>（環級提升至其等級的一半），它使用它的的等級對應的強DC。</p>"
        },
        "(Vampire, Nosferatu) Drink Blood": {
            "name": "(吸血鬼,諾斯費拉圖)吸血 (Vampire, Nosferatu) Drink Blood",
            "description": "<p><strong>需求</strong> 諾斯費拉圖的最後一個動作是一次成功的尖牙打擊</p>\n<hr />\n<p><strong>效果</strong> 諾斯費拉圖將尖牙刺入那個生物的體內來吸他的血。它需要進行一次@Check[type:athletics]檢定對抗那個生物的強韌DC。成功後那個生物獲得@UUID[Compendium.pf2e.conditionitems.4D2KBtexWXa6oUMR]{流失 Drained 1}，諾斯費拉圖恢復數量等同於它最大HP10%的HP，任何溢位的生命值都變成臨時生命。從一個已經流失的生物身上吸血不會讓諾斯費拉圖獲得生命值，但是會讓這個生物的流失值加1。諾斯費拉圖同樣可以飲下儲存於容器中的血來維生，但是它不會從中恢復HP。</p>\n<p>受害者的流失值每週減少1點。在擁有足夠的血液或是一名獻血者的情況下，可以通過一次@Check[type:medicine|dc:20]檢定進行一次輸血，並在10分鐘後減少1點流失值。</p>"
        },
        "(Vampire, Nosferatu) Nosferatu Vulnerabilities": {
            "name": "(吸血鬼,諾斯費拉圖)諾斯費拉圖弱點 (Vampire, Nosferatu) Nosferatu Vulnerabilities",
            "description": "<ul>\n<li><strong>厭惡 Revulsion</strong> 諾斯費拉圖不能主動接近一個被揮舞著的大蒜或是非邪惡神祇的聖徽10尺以內。生物必須以一個互動動作揮舞大蒜或者聖徽，並且起效一輪（類似舉起盾牌）。如果諾斯費拉圖非自願地來到了厭惡物件的10尺範圍內，它獲得@UUID[Compendium.pf2e.conditionitems.sDPxOjQ9kx2RZE8D]{逃跑 Fleeing}狀態，逃離至其厭惡物件的10尺以外。在暴露於其厭惡之物下一輪之後，吸血鬼可以花費一個擁有專注特徵的動作嘗試一次@Check[type:will|dc:25|traits:concentrate]檢定。一旦成功，它能在[[/br 1d6 #Overcome Revulsions]]{1d6輪}內克服其厭惡（如果大成功則改為1小時）。</li>\n<li><strong>木樁 Stake</strong> 一根刺穿諾斯費拉圖心臟的魔法木樁（例如一個受武器潛力符文、魔化武器或類似魔法影響的木樁）能夠將它的HP降至0點，並且阻止其在0HP時受到的治療效果，就算它躺在棺木中也是如此。用木樁刺穿諾斯費拉圖需要花費三動作，並且僅能在吸血鬼@UUID[Compendium.pf2e.conditionitems.fBnFDH2MTzgFijKf]{失去意識 Unconscious}的時候才能如此做。如果將木樁拔出，並且它還在自己的棺木中休息了1小時以後，那麼諾斯費拉圖便能夠再次恢復至0HP以上。如果在諾斯費拉圖被木樁釘穿時將其腦袋砍下後再塗上<em>@UUID[Compendium.pf2e.equipment-srd.z9T4c1hXwOotsMCp]{聖水 Holy Water}</em>，便能徹底摧毀它。</li>\n<li><strong>陽光 Sunlight</strong> 如果暴露於陽光直射下，諾斯費拉圖將立刻獲得@UUID[Compendium.pf2e.conditionitems.xYTAsEpcJE1Ccni3]{緩慢 Slowed 1}。每當它在陽光下結束其回合，緩慢值都將增加1點，如果它不再處於陽光照射下，此條件結束。如果諾斯費拉圖因此失去了其所有動作，它被摧毀。</li>\n</ul>"
        },
        "(Vampire, Nosferatu) Plagued Coffin Restoration": {
            "name": "(吸血鬼,諾斯費拉圖)寢於疫土之棺 (Vampire, Nosferatu) Plagued Coffin Restoration",
            "description": "<p>與其他不死生物不同，諾斯費拉圖不會在HP為0時被摧毀。取而代的是，它的身體崩解成大量的老鼠，這群各自獨立的老鼠朝著各個方向逃跑，以期能返回它們的棺材。哪怕只有一隻老鼠抵達棺材，諾斯費拉圖也能開始恢復。諾斯費拉圖通過在死於疫病之人的墓土中休息來恢復它們的力量。如果它的身體在填滿了土的棺木中休息1小時，則諾斯費拉圖將獲得1點生命值，緊接著它的@UUID[Compendium.pf2e.bestiary-ability-glossary-srd.fJSNOw4zHGbIm4bZ]{快速癒合 Fast Healing}能力開始正常生效。但如果棺材裡沒有裝著疫亡者的墓土的話，它就需要在棺木裡休息1天才會獲得1點生命值並重獲它的快速癒合能力。</p>"
        },
        "(Vampire, Strigoi Progenitor) Drink Essence": {
            "name": "(吸血鬼,斯特里戈伊始祖)吸吮精華 (Vampire, Strigoi Progenitor) Drink Essence",
            "description": "<p><strong>需求</strong> 一個被@UUID[Compendium.pf2e.conditionitems.kWc1fhmv9LBiTuei]{擒抱 Grabbed}、@UUID[Compendium.pf2e.conditionitems.6uEgoh53GbXuHpTF]{麻痺 Paralyzed}、@UUID[Compendium.pf2e.conditionitems.VcDeM8A5oI6VqhbM]{束縛 Restrained}、@UUID[Compendium.pf2e.conditionitems.fBnFDH2MTzgFijKf]{失去意識 Unconscious}或自願的生物身處斯特里戈伊的觸及範圍內。</p>\n<hr />\n<p><strong>效果</strong> 斯特里戈伊將它的尖牙埋入目標生物的體內，飲下他的血並抽出生命精華。如果目標被擒抱，吸血鬼需要進行一次@Check[type:athletics]檢定對抗受害者的強韌DC；在其他情況下則都將自動成功。該生物獲得@UUID[Compendium.pf2e.conditionitems.4D2KBtexWXa6oUMR]{流失 Drained 2}和@UUID[Compendium.pf2e.conditionitems.e1XGnhKNSQIm5IXg]{呆滯 Stupefied 2}，斯特里戈伊回覆等同於其最大生命值10%的生命值，多餘的則會變為臨時生命。從已經獲得流失(drained)或呆滯(stupefied)狀態的生物身上吸血不會回覆任何生命值，但會使受害者的流失值或呆滯值加1（兩個中小的增加；若兩個狀態值相等，則由斯特里戈伊選擇增加哪個）。</p>\n<p>受害者的流失狀態每週減少1點。在擁有足夠的血液或是一名獻血者的情況下，可以通過一次@Check[type:medicine|dc:20]檢定進行一次輸血，並在10分鐘後減少1點流失狀態值。</p>\n<p>受害者的呆滯值在其完成每日準備後減少1，如果每日準備是在充足的陽光照射下完成的，那麼呆滯狀態會完全消除。</p>"
        },
        "(Vampire, Strigoi Progenitor) Shadow Escape": {
            "name": "(吸血鬼,斯特里戈伊始祖)影遁 (Vampire, Strigoi Progenitor) Shadow Escape",
            "description": "<p><strong>觸發</strong> 斯特里戈伊的HP降至0</p>\n<hr />\n<p><strong>效果</strong> 斯特里戈伊使用陰影形態能力。它能使用移動動作朝著它的棺材移動，哪怕HP為0。當它身處陰影形態且HP為0時，斯特里戈伊不會受到進一步傷害的影響。一旦斯特里戈伊抵達自己的棺材，或者它沒能在2小時內抵達棺材，它就自動變為物質形態，@UUID[Compendium.pf2e.conditionitems.fBnFDH2MTzgFijKf]{失去意識 Unconscious}。</p>"
        },
        "(Vampire, Strigoi) Strigoi Weaknesses": {
            "name": "(吸血鬼,斯特里戈伊)斯特里戈伊弱點 (Vampire, Strigoi) Strigoi Weaknesses",
            "description": "<p>所有斯特里戈伊都有以下弱點：</p>\n<ul>\n<li><strong>厭惡 Revulsion</strong> 斯特里戈伊在鏡子和明亮光源附近會感到不自在。只有斯特里戈伊的影子會映在鏡子裡，這通常迫使它們掩蓋或摧毀自己面前鏡子，而不是冒著暴露真實本性的風險。斯特里戈伊不能主動接近一個被揮舞著的鏡子或是明亮光源10尺以內，生物必須以一個互動動作揮舞鏡子或者光源，並且這隻會起效一輪（類似舉起盾牌）。如果斯特里戈伊非自願地來到了厭惡物件的10尺範圍內，它獲得@UUID[Compendium.pf2e.conditionitems.sDPxOjQ9kx2RZE8D]{逃跑 Fleeing}狀態，逃離至其厭惡物件的10尺以外。在暴露於其厭惡之物下一輪之後，斯特里戈伊可以花費一個擁有專注特徵的動作嘗試一次@Check[type:will|dc:25]檢定。一旦成功，它能在[[/r 1d6 #Overcome Revulsions Duration]]{1d6輪}內克服其厭惡（如果大成功則改為1小時）。斯特里戈伊能在沒被揮舞的鏡子或的明亮光源周圍正常移動，儘管這樣做會令它們感到不適，通過一個成功的察覺檢定來@UUID[Compendium.pf2e.actionspf2e.1xRFPTFtWtGJ9ELw]{察言觀色 Sense Motive}可以注意到這一點。</li>\n<li><strong>陽光 Sunlight</strong> 當其暴露於陽光時，斯特里戈伊立刻@UUID[Compendium.pf2e.conditionitems.fBnFDH2MTzgFijKf]{失去意識 Unconscious}並倒在地上。它看上去好像死了：它不會呼吸，體溫和周圍環境相同，也不會對疼痛或其他刺激做出反應。一個成功對抗斯特里戈伊的反射DC的@Check[type:perception|dc:resolve(10+@actor.system.saves.reflex.value)]檢定能發現一個反常現象：這具“屍體”投下的影子在輕微地變化移動，它的邊緣扭動活躍著。法術如<em>@UUID[Compendium.pf2e.spells-srd.QnTtGCAvdWRU4spv]{偵測邪惡 Detect Evil}</em> ，感官如生命感知，以及這具“屍體”會受到的正能量傷害照常生效，並可能在不需要察覺檢定的前提下揭示真相。觀察“屍體”在鏡子裡的投影也能揭示真相，因為只有軀體的影子會映照在鏡子裡。身處陽光下且失去意識的時候，斯特里戈伊失去對物理傷害的抗力。若斯特里戈伊受到了足以將它的HP降至0的傷害，它的身體迅速分解，斯特里戈伊也就被摧毀了。</li>\n<li><strong>厭惡流水 Water Revulsion</strong> 斯特里戈伊無法穿越一些明顯的流水（如小溪、河流、或者海濱上的波浪）。能飛行的斯特里戈伊能夠跨過流水，前提是它離水面至少10尺遠。若違背斯特里戈伊的意願強迫它們呆在水裡，它們會獲得@UUID[Compendium.pf2e.conditionitems.xYTAsEpcJE1Ccni3]{緩慢 Slowed 2}狀態，且只要還在水中就會獲得獲得逃跑狀態。在它的任何回合結束時，若斯特里戈伊停留在流水中，它就必須通過@Check[type:flat|dc:5]檢定，否則將被摧毀。</li>\n</ul>"
        },
        "(Vampire, True) Drink Blood": {
            "name": "(吸血鬼,純血)吸血 (Vampire, True) Drink Blood",
            "description": "<p><strong>需求</strong> 一名被@UUID[Compendium.pf2e.conditionitems.kWc1fhmv9LBiTuei]{擒抱 Grabbed}、@UUID[Compendium.pf2e.conditionitems.6uEgoh53GbXuHpTF]{麻痺 Paralyzed}、@UUID[Compendium.pf2e.conditionitems.VcDeM8A5oI6VqhbM]{束縛 Restrained}、@UUID[Compendium.pf2e.conditionitems.fBnFDH2MTzgFijKf]{失去意識 Unconscious}、或是自願的生物處於吸血鬼的觸及範圍內。</p>\n<hr />\n<p><strong>效果</strong> 吸血鬼用尖牙刺入該生物的體內吸食其血液。如果受害者被擒抱，吸血鬼需要進行一次運動檢定對抗受害者的強韌DC；在其他情況下則都將自動成功。</p>\n<p>被害者獲得@UUID[Compendium.pf2e.conditionitems.4D2KBtexWXa6oUMR]{流失 Drained 2}，同時吸血鬼獲得等同於其最大生命值10%的生命值，而多餘的生命值則作為臨時生命。從已經獲得流失狀態的生物身上吸血不會使吸血鬼回覆任何生命值，但是受害者的仍會增加1點流失狀態值。吸血鬼同樣可以通過飲下被儲存在容器內的血液並以此維生，但是這樣做並不會增加其生命值。</p>\n<p>受害者的流失狀態每週減少1點。在擁有足夠的血液或是一名獻血者的情況下，可以通過一次@Check[type:medicine|dc:20|name:Blood Transfusion]檢定進行一次輸血，並在10分鐘後減少1點流失狀態值。</p>"
        },
        "(Vampire, True) Mist Escape": {
            "name": "(吸血鬼,純血)化霧脫身 (Vampire, True) Mist Escape",
            "description": "<p><strong>觸發</strong> 吸血鬼的生命值降低到0點</p>\n<hr />\n<p><strong>效果</strong> 吸血鬼使用化霧能力。即使在0HP的狀況下，它也能獲得移動動作朝著它的棺木移動。當在這種形態下且HP為0時，吸血鬼不會受到進一步的傷害。</p>\n<p>它會在到達棺木處或是2小時後自動回覆肉身形態並且昏迷，取其先者為準。</p>"
        },
        "(Vampire, True) Turn to Mist": {
            "name": "(吸血鬼,純血)化霧 (Vampire, True) Turn to Mist",
            "description": "<p>吸血鬼如同使用<em>@UUID[Compendium.pf2e.spells-srd.V8wXOsoejQhe6CyG]{氣化形體 Gaseous Form}</em>一般化為一團霧氣，或者恢復原形。當處於氣化形態時吸血鬼失去@UUID[Compendium.pf2e.bestiary-ability-glossary-srd.fJSNOw4zHGbIm4bZ]{快速癒合 Fast Healing}能力。</p>\n<p>吸血鬼可以無限期地保持這種形態。</p>"
        },
        "(Vampire, True) Dominate": {
            "description": "<p>吸血鬼將<em>@UUID[Compendium.pf2e.spells-srd.OsOhx3TGIZ7AhD0P]{支配術 Dominate}</em>作為神術內在法術，並且可以隨意施放。因為吸血鬼需要凝視目標的眼睛來施放此法術，所以這使得法術帶有視覺特徵 (@Check[type:will|dc:])。豁免DC使用吸血鬼的等級DC，豁免成功的生物在24小時內免疫吸血鬼的支配能力。</p>\n<p>完全摧毀吸血鬼可以終止其支配，但是僅僅將吸血鬼的HP降低到0點則不足以破壞此法術。</p>",
            "name": "(吸血鬼,純血)支配 (Vampire, True) Dominate"
        },
        "(Vampire, Vetalarana, Manipulator) Paralyzing Claws": {
            "name": "(吸血鬼,毘陀羅邏那操縱者)麻痺爪 (Vampire, Vetalarana, Manipulator) Paralyzing Claws",
            "description": "<p>任何被受毘陀羅邏那操縱者的利爪打擊命中的活物必須成功通過@Check[type:fortitude|dc:]豁免，否則會陷入@UUID[Compendium.pf2e.conditionitems.6uEgoh53GbXuHpTF]{麻痺 Paralyzed}。被麻痺的生物可以在自己的每個回合結束時嘗試一次新的豁免以結束此效果，每次此豁免的DC都會遞減1點。使用法術DC和法術攻擊表對應的適中DC。</p>"
        },
        "(Vampire, Vrykolakas Master) Change Shape": {
            "name": "(吸血鬼,維克拉卡斯尊主)改變形體 (Vampire, Vrykolakas Master) Change Shape",
            "description": "<p>維克拉卡斯尊主可以將它的樣貌轉化成近似於它生前軀體的樣子，效果等同於法術類人形態但持續時間無限。它失去利爪和尖牙攻擊，但在假扮這個樣貌的@UUID[Compendium.pf2e.actionspf2e.AJstokjdG6iDjVjE]{喬裝 Impersonate}鑑定上獲得+2環境加值。</p>"
        },
        "(Vampire, Vrykolakas Master) Children of the Night": {
            "name": "(吸血鬼,維克拉卡斯尊主)夜之子 (Vampire, Vrykolakas Master) Children of the Night",
            "description": "<p>維克拉卡斯尊主的存在鼓舞著野蠻的生物現身去執行它的命令，這包括@UUID[Compendium.pf2e.pathfinder-bestiary.sPClc6y3dT3XZupv]{鼠群 Rat Swarms}、@UUID[Compendium.pf2e.pathfinder-bestiary.Sft7n3LMmnTxhhYn]{座狼 Wargs}、@UUID[Compendium.pf2e.pathfinder-bestiary.bLMoqt9xqTZKnjxr]{狼人 Werewolves}和類似的生物。</p>\n<p>維克拉卡斯尊主可以向100尺內的此類生物傳送心靈指令，但他們不能回覆。</p>"
        },
        "(Vampire, Vrykolakas Master) Bubonic Plague": {
            "name": "(吸血鬼,維克拉卡斯尊主)黑死病 (Vampire, Vrykolakas Master) Bubonic Plague",
            "description": "<p><strong>豁免檢定</strong> @Check[type:fortitude|dc:|name:Bubonic Plague|traits:disease] (用它的的等級對應的強DC)</p>\n<p><strong>潛伏期</strong> 1天</p>\n<hr />\n<p><strong>階段1</strong> @UUID[Compendium.pf2e.conditionitems.HL2l2VRSaQHu9lUw]{疲乏 Fatigued} (1天)</p>\n<p><strong>階段2</strong> @UUID[Compendium.pf2e.conditionitems.MIRkyAjyBeXivMa7]{力竭 Enfeebled 2}和疲乏 (1天)</p>\n<p><strong>階段3</strong> @UUID[Compendium.pf2e.conditionitems.MIRkyAjyBeXivMa7]{力竭 Enfeebled 3},疲乏, 每過[[/br {1d20} #minutes]]{1d20分鐘}受到@Localize[PF2E.PersistentDamage.Bleed1d6.success](1天)</p>"
        },
        "(Vampire, Vrykolakas Master) Dominate Animal": {
            "name": "(吸血鬼,維克拉卡斯尊主)支配動物 (Vampire, Vrykolakas Master) Dominate Animal",
            "description": "<p>維克拉卡斯能夠以神術內在法術的形式釋放只能影響動物的<em>@UUID[Compendium.pf2e.spells-srd.OsOhx3TGIZ7AhD0P]{支配術 Dominate}</em>，豁免DC是（法術DC和法術攻擊表中）維克拉卡斯等級對應的強DC，如該生物豁免成功，對維克拉卡斯的支配動物能力免疫24小時。摧毀維克拉卡斯能結束此效果，但將其降至HP0則不會。</p>\n<p>被支配的動物在對抗侵蝕野獸能力的豁免檢定上獲得-4環境減值。</p>"
        },
        "(Vampire, Vrykolakas) Feral Possession": {
            "name": "(吸血鬼,維克拉卡斯)侵蝕野獸 (Vampire, Vrykolakas) Feral Possession",
            "description": "<p><strong>觸發</strong> 維克拉卡斯的HP減至0，且100尺內有一隻動物</p>\n<hr />\n<p><strong>效果</strong> 與大多數不死生物不同，維克拉卡斯在HP為0時不會被摧毀。取而代之的是，它會嘗試將自己的靈魂投射進100尺內的一隻動物中，這隻動物必須進行一次@Check[type:will|dc:|name:Feral Possession]豁免（DC參照法術DC和法術攻擊表中這隻維克拉卡斯的等級對應的強DC）。</p>\n<p>一旦失敗，這隻動物就被附身。效果等同於<em>@UUID[Compendium.pf2e.spells-srd.wU6hNzK8Yfqdmc8m]{佔據術 Possession}</em>，但持續時間為等同於維克拉卡斯的等級的天數。此佔據效果無法被魔法反制（但 <em>@UUID[Compendium.pf2e.spells-srd.OyFCwQuw8XRazsNr]{移除詛咒 Remove Curse}</em>可以）。</p>\n<p>如果這隻動物豁免成功，維克拉卡斯可以嘗試佔據100尺內的另一隻動物。倘若一隻動物的豁免大成功或是100尺內沒有動物，維克拉卡斯沒能佔據任何東西並被摧毀。</p>\n<p>佔據了動物的維克拉卡斯會立即找到它的埋骨地，將自己埋在那裡。當維克拉卡斯以這種方式恢復時，它的宿主動物處於@UUID[Compendium.pf2e.conditionitems.6uEgoh53GbXuHpTF]{麻痺 Paralyzed}狀態，斬首宿主會殺死維克拉卡斯和這隻動物。</p>\n<p>[[/br 1d4 #days]]{1d4天}後，如果維克拉卡斯沒有被摧毀，宿主動物就會死亡，維克拉卡斯自和舊軀體完全一樣的、由宿主遺體塑造的新身體中復活。</p>"
        },
        "(Vampire, Vrykolakas) Swift Tracker": {
            "name": "(吸血鬼,維克拉卡斯)迅捷追蹤 (Vampire, Vrykolakas) Swift Tracker",
            "description": "<p>維克拉卡斯@UUID[Compendium.pf2e.actionspf2e.EA5vuSgJfiHH7plD]{追蹤 Tracking}時能夠以滿速度行動。</p>"
        },
        "(Vampire, Jiang-Shi, Basic) Breathsense 60 feet": {
            "name": "(吸血鬼,殭屍,基礎)呼吸感知60尺 (Vampire, Jiang-Shi, Basic) Breathsense 60 feet",
            "description": "<p>殭屍只能靠呼吸來感知5尺外的生物。列出的範圍（60尺）內的生物只要屏住呼吸，其對於殭屍而言就是@UUID[Compendium.pf2e.conditionitems.zJxUflt9np0q4yML]{隱形 Invisible}的。為了用這種方式屏住呼吸，生物必須騰出一隻手來完全堵住鼻子或捂住嘴巴。</p>"
        },
        "(Vampire, Jiang-Shi, Basic) Drain Qi": {
            "name": "(吸血鬼,殭屍,基礎)吸納陽氣 (Vampire, Jiang-Shi, Basic) Drain Qi",
            "description": "<p><strong>需求</strong> 一個處於@UUID[Compendium.pf2e.conditionitems.kWc1fhmv9LBiTuei]{擒抱 Grabbed}、@UUID[Compendium.pf2e.conditionitems.6uEgoh53GbXuHpTF]{麻痺 Paralyzed}、@UUID[Compendium.pf2e.conditionitems.VcDeM8A5oI6VqhbM]{束縛 Restrained}、@UUID[Compendium.pf2e.conditionitems.fBnFDH2MTzgFijKf]{失去意識 Unconscious}狀態下，或自願的生物正位於殭屍的觸及範圍內</p>\n<hr />\n<p><strong>效果</strong> 殭屍通過呼吸來汲取受害者的生命能量，也就是“氣”。如果受害者處於擒抱狀態，則殭屍需要進行@Check[type:athletics]檢定來對抗受害者的強韌DC，其餘情況則無需如此。受害者獲得@UUID[Compendium.pf2e.conditionitems.4D2KBtexWXa6oUMR]{流失 Drained 1}，殭屍恢復相當於其最大HP10%的HP，多餘的則會作為臨時生命獲得。從一個已經流失(drained)的生物上吸納陽氣並不會為殭屍恢復生命，但會使這個受害者的流失值+1。若受害者有能力施展真氣法術，他能花費1點聚能點來避免流失。這隻能保護它不受當前的攻擊，而不能防止之後的吸納陽氣的效果。</p>\n<p>受害者的流失值每週減少1點。如果受害者嚴格控制飲食，只吃糯米至少1天，併成功通過@Check[type:athletics|dc:25]檢定來花費10分鐘跳舞、慢跑、或進行其他激烈的體育運動，他的流失值減少1。</p>"
        },
        "(Vampire, Jiang-Shi, Minister) Dark Enlightenment": {
            "name": "(吸血鬼,殭屍,宰主)黑暗啟蒙 (Vampire, Jiang-Shi, Minister) Dark Enlightenment",
            "description": "<p>殭屍不再侷限於憑呼吸感知來“看見”生物，也不再擁有厭惡弱點。它們可以通過黑暗視覺或呼吸感知來正常地察覺生物，它們還能進行@UUID[Compendium.pf2e.actionspf2e.HYNhdaPtF1QmQbR3]{趴下 Drop Prone}基本動作。</p>"
        },
        "(Vampire, Jiang-Shi, Minister) Distant Steps": {
            "name": "(吸血鬼,殭屍,宰主)虎躍 (Vampire, Jiang-Shi, Minister) Distant Steps",
            "description": "<p>當殭屍@UUID[Compendium.pf2e.actionspf2e.d5I6018Mci2SWokk]{跳躍 Leaps}時，它能多跳10尺水平/垂直距離而不增加跳躍DC。殭屍還能在水面等其他原本不能承受它重量的固或液體表面行走。</p>"
        },
        "(Vampire, Nosferatu Overlord) Air of Sickness": {
            "name": "(吸血鬼,諾斯費拉圖霸主)嘔逆瘴氣 (Vampire, Nosferatu Overlord) Air of Sickness",
            "description": "<p>@Template[type:emanation|distance:30] @UUID[Compendium.pf2e.bestiary-ability-glossary-srd.v61oEQaDdcRpaZ9X]{靈光}</p>\n<hr />\n<p>在此靈光內開始他們的回合的生物必須進行@Check[type:fortitude|dc:]豁免，DC使用諾斯費拉圖的等級對應的適中DC。豁免失敗的生物獲得@UUID[Compendium.pf2e.conditionitems.fesd1n5eVhpCSS18]{噁心 Sickened 1}且在1小時內抵抗疾病和移除惡心的骰點獲得-2狀態減值。</p>\n<p>@UUID[Compendium.pf2e.bestiary-effects.XSXMGb5h4Um6YXiT]{效果：嘔逆瘴氣}</p>"
        },
        "(Vampire, Nosferatu Thrall) Fast Healing": {
            "name": "(吸血鬼,諾斯費拉圖血奴)快速癒合 (Vampire, Nosferatu Thrall) Fast Healing",
            "description": "<p>諾斯費拉圖血奴通過他們主子的血液獲得並維持@UUID[Compendium.pf2e.bestiary-ability-glossary-srd.fJSNOw4zHGbIm4bZ]{快速癒合 Fast Healing 5}。</p>"
        },
        "(Vampire, Nosferatu Thrall) Mindbound": {
            "name": "(吸血鬼,諾斯費拉圖血奴)心靈束縛 (Vampire, Nosferatu Thrall) Mindbound",
            "description": "<p>諾斯費拉圖主人對它們的血奴的思維進行了有效的控制。如果奴隸主之外的人將血奴選做了一個會給予他們@UUID[Compendium.pf2e.conditionitems.9qGBRpbX9NEwtAAr]{被控制 Controlled}狀態的效果的目標時，血奴的主人在骰反制(counteract)鑑定對抗時的反制鑑定調整值為支配DC-10。</p>"
        },
        "(Vampire, Nosferatu Thrall) Mortal Shield": {
            "name": "(吸血鬼,諾斯費拉圖血奴)人肉護盾 (Vampire, Nosferatu Thrall) Mortal Shield",
            "description": "<p><strong>觸發</strong> 血奴的主人將要受到打擊或法術攻擊的傷害，並且位與於血奴相鄰的方格</p>\n<hr />\n<p><strong>效果</strong> 血奴撲向主人的身前，承受一半的傷害（分攤的傷害量採用原始造傷數值計算，分攤時不計任何弱點或抗性），血奴的主人承受任何剩下的傷害，（接下來）如常應用任何弱點和抗性。</p>"
        },
        "(Vampire, Nosferatu Thrall) Rally": {
            "name": "(吸血鬼,諾斯費拉圖血奴)集結 (Vampire, Nosferatu Thrall) Rally",
            "description": "<p><strong>觸發</strong> 血奴在結束回合時距離它們的主人超過30尺</p>\n<hr />\n<p><strong>效果</strong> 血奴向它們的主人行走至多等同於他速度的距離。</p>"
        },
        "(Vampire, Nosferatu Thrall) Weakness": {
            "name": "(吸血鬼,諾斯費拉圖血奴)弱點 (Vampire, Nosferatu Thrall) Weakness",
            "description": "<p>被控制所帶來的壓力折磨著諾斯費拉圖血奴的心靈，使他們獲得心靈傷害弱點10。</p>"
        },
        "(Vampire, Strigoi) Drink Essence": {
            "name": "(吸血鬼,斯特里戈伊)吸吮精華 (Vampire, Strigoi) Drink Essence",
            "description": "<p><strong>需求</strong> 一個被@UUID[Compendium.pf2e.conditionitems.kWc1fhmv9LBiTuei]{擒抱 Grabbed}、@UUID[Compendium.pf2e.conditionitems.6uEgoh53GbXuHpTF]{麻痺 Paralyzed}、@UUID[Compendium.pf2e.conditionitems.VcDeM8A5oI6VqhbM]{束縛 Restrained}、@UUID[Compendium.pf2e.conditionitems.fBnFDH2MTzgFijKf]{失去意識 Unconscious}或自願的生物身處斯特里戈伊的觸及範圍內</p>\n<hr />\n<p><strong>效果</strong> 斯特里戈伊將它的尖牙埋入目標生物的體內，飲下他的血並抽出生命精華。如果目標被擒抱，吸血鬼需要進行一次@Check[type:athletics]檢定對抗受害者的強韌DC；在其他情況下則都將自動成功。該生物獲得@UUID[Compendium.pf2e.conditionitems.4D2KBtexWXa6oUMR]{流失 Drained 1}和@UUID[Compendium.pf2e.conditionitems.e1XGnhKNSQIm5IXg]{呆滯 Stupefied 1}，斯特里戈伊回覆等同於其最大生命值10%的生命值，多餘的則會變為臨時生命。從已經獲得流失(drained)或呆滯(stupefied)狀態的生物身上吸血不會回覆任何生命值，但會使受害者的流失值或呆滯值加1（兩個中小的增加；若兩個狀態值相等，則由斯特里戈伊選擇增加哪個）。</p>\n<p>受害者的流失狀態每週減少1點。在擁有足夠的血液或是一名獻血者的情況下，可以通過一次@Check[type:medicine|dc:20]檢定進行一次輸血，並在10分鐘後減少1點流失狀態值。</p>\n<p>受害者的呆滯值在其完成每日準備後減少1，如果每日準備是在充足的陽光照射下完成的，那麼呆滯狀態會完全消除。</p>"
        },
        "(Vampire, Strigoi) Levitation": {
            "name": "(吸血鬼,斯特里戈伊)懸浮 (Vampire, Strigoi) Levitation",
            "description": "<p>斯特里戈伊可以以神術內在法術的形式隨意施展<em>@UUID[Compendium.pf2e.spells-srd.fI20AVwOzJMHXRdo]{浮空術 Levitate}</em>；當它們如此做時，它們彷彿在一團盤繞的陰影中上升或下降。</p>"
        },
        "(Vampire, True) Children of the Night": {
            "name": "(吸血鬼,純血)夜之子 (Vampire, True) Children of the Night",
            "description": "<p>吸血鬼僅僅存在於此就能使那些黑夜中的生物對其唯命是從。這些代表性的生物包括@UUID[Compendium.pf2e.pathfinder-bestiary.sPClc6y3dT3XZupv]{老鼠叢集 Rat Swarms}、@UUID[Compendium.pf2e.pathfinder-bestiary.VAWmwDA08ZLQd8lW]{蝙蝠叢集 Bat Swarms}以及@UUID[Compendium.pf2e.pathfinder-bestiary.Oilfs8Atv2LjAsUS]{狼 Wolves}，但是也可以包括其他生物。</p>\n<p>只要這些位於其100英尺之內，吸血鬼就能夠以心靈感應對它們發出命令，不過這些動物無法以此答覆。</p>"
        },
        "(Vampire, True) Create Spawn": {
            "name": "(吸血鬼,純血)創造子嗣 (Vampire, True) Create Spawn",
            "description": "<p>如果某個生物在被吸血後生命值降低到0而死亡，吸血鬼可以通過將自身的些許血液賜予這名受害者並將其埋入地下3夜，以此將受害者轉化為一隻吸血鬼。</p>\n<p>如果新生的吸血鬼的等級比它的創造者更低，那麼它將處於創造者的控制之下。如果一隻吸血鬼同時控制了過多的子嗣（由DM決定），意志足夠堅定的子嗣能夠通過一次成功的@Check[type:will|dc:resolve(10+@actor.system.saves.will.value)|name:Escape Thralldom]檢定對抗吸血鬼的意志DC來重獲自由。</p>"
        },
        "(Vampire, Vetalarana, Basic) Drain Thoughts": {
            "name": "(吸血鬼,毘陀羅邏那,基礎)汲取思緒 (Vampire, Vetalarana, Basic) Drain Thoughts",
            "description": "<p><strong>需求</strong> 一個被@UUID[Compendium.pf2e.conditionitems.kWc1fhmv9LBiTuei]{擒抱 Grabbed}、@UUID[Compendium.pf2e.conditionitems.6uEgoh53GbXuHpTF]{麻痺 Paralyzed}、@UUID[Compendium.pf2e.conditionitems.VcDeM8A5oI6VqhbM]{束縛 Restrained}、@UUID[Compendium.pf2e.conditionitems.fBnFDH2MTzgFijKf]{失去意識 Unconscious}或自願的生物身處毘陀羅邏那的觸及範圍內</p>\n<hr />\n<p><strong>效果</strong> 毘陀羅邏那抓住一個生物併吞噬它的記憶。如果目標被擒抱，吸血鬼需要進行一次運動檢定對抗受害者的強韌DC；在其他情況下則都將自動成功。受害者獲得@UUID[Compendium.pf2e.conditionitems.e1XGnhKNSQIm5IXg]{呆滯 Stupefied 1}，毘陀羅邏那回復等同於自身最大生命值10%的生命值，多餘的則會變為臨時生命。從已經獲得呆滯(stupefied)狀態的生物身上汲取思維不會回覆任何生命值，但會使受害者的呆滯值加1。此外，毘陀羅邏那還會檢視受害者的一段記憶。</p>\n<p>受害者的呆滯狀態每週減少1點。</p>\n<p>因此能力而達到呆滯5的受害者陷入昏迷，變得永遠@UUID[Compendium.pf2e.conditionitems.fBnFDH2MTzgFijKf]{失去意識 Unconscious}。只要那隻毘陀羅邏那還活著，昏迷的受害者就不能恢復意識，且他的呆滯值也不會減少。</p>"
        },
        "(Vampire, Vetalarana, Basic) Thoughtsense 100 feet": {
            "name": "(吸血鬼,毘陀羅邏那,基礎)思維感知 (Vampire, Vetalarana, Basic) Thoughtsense 100 feet",
            "description": "<p>毘陀羅邏那能感知到100尺內所有非無心智生物，這是一個精確感官。</p>"
        },
        "(Vampire, Vetalarana, Manipulator) Control Comatose": {
            "name": "(吸血鬼,毘陀羅邏那操縱者)控制昏迷者 (Vampire, Vetalarana, Manipulator) Control Comatose",
            "description": "<p><strong>頻率</strong> 每日一次</p>\n<hr />\n<p><strong>效果</strong> 毘陀羅邏那操縱者花費10分鐘對因汲取思緒能力而昏迷的生物進行心靈控制。這具有法術<em>@UUID[Compendium.pf2e.spells-srd.wU6hNzK8Yfqdmc8m]{佔據術 Possession}</em>的效果，但持續時間至多6小時，範圍1英里，且毘陀羅邏那能夠一次控制至多自身等級一半的昏迷受害者。昏迷的受害者無法抵抗這種佔據，並且在對本能力的豁免中自動大失敗。</p>\n<p>只要昏迷的受害者被一隻毘陀羅邏那操縱者以這種方式控制，受害者的呆滯和@UUID[Compendium.pf2e.conditionitems.fBnFDH2MTzgFijKf]{失去意識 Unconscious}狀況就會暫時被壓制。</p>"
        },
        "(Vampire, Vrykolakas Master) Pestilential Aura": {
            "name": "(吸血鬼,維克拉卡斯尊主)瘟疫靈光 (Vampire, Vrykolakas Master) Pestilential Aura",
            "description": "<p>@Template[type:emanation|distance:5]{5尺} @UUID[Compendium.pf2e.bestiary-ability-glossary-srd.v61oEQaDdcRpaZ9X]{靈光}</p>\n<hr />\n<p>當維克拉卡斯處於其真實形態時，在此區域內開始他們的回合的生物暴露於黑死病。</p>"
        },
        "(Vampire, Vrykolakas) Vrykolakas Vulnerabilities": {
            "name": "(吸血鬼,維克拉卡斯)維克拉卡斯弱點 (Vampire, Vrykolakas) Vrykolakas Vulnerabilities",
            "description": "<p>維克拉卡斯都有以下弱點：</p>\n<ul>\n<li><strong>縛於其冢 Burial Site Bound</strong> 維克拉卡斯被束縛於它死亡或埋葬的地點。它必須每週返回此地一次並將自己埋在土裡24小時，在這期間它處於@UUID[Compendium.pf2e.conditionitems.6uEgoh53GbXuHpTF]{麻痺 Paralyzed}狀態並可被斬首。如果它不能返回此地，它的HP立即降至0並嘗試使用侵蝕野獸能力；如果宿主動物不能在附身結束前返回此地，維克拉卡斯就被摧毀，宿主動物恢復正常。</li>\n<li><strong>畏懼斬首 Vulnerable to Decapitation</strong> 被斬首的維克拉卡斯不能使用侵蝕野獸能力，被斬首的屍體也不能復生成維克拉卡斯。</li>\n</ul>"
        },
        "(Lich) Cold Beyond Cold": {
            "description": "<p>巫妖的手摸打擊造成寒冷傷害以取代負能量，並且目標會陷入@UUID[Compendium.pf2e.conditionitems.xYTAsEpcJE1Ccni3]{緩慢 Slowed 2}以取代被麻痺。</p>\n<p>成功的@Check[type:fortitude|name:Cold Beyond Cold|traits:arcane,curse,necromancy]豁免能將該狀態降低為@UUID[Compendium.pf2e.conditionitems.xYTAsEpcJE1Ccni3]{緩慢 Slowed 1}（大成功則沒有效果）。</p>",
            "name": "(巫妖)刺骨深寒 (Lich) Cold Beyond Cold"
        },
        "(Lich) Dark Deliverance": {
            "description": "<p>巫妖具有等同於其等級的正能量抗力。</p>",
            "name": "(巫妖)暗之救贖 (Lich) Dark Deliverance"
        },
        "(Lich) Drain Soul Cage": {
            "name": "(巫妖)汲取命匣 (Lich) Drain Soul Cage",
            "description": "<p><strong>頻率</strong> 每天一次</p>\n<hr />\n<p><strong>效果</strong> 巫妖釋放其<em>@UUID[Compendium.pf2e.equipment-srd.NEbr7nKuiluJgBHT]{命匣 Soul Cage}</em>的力量，以此來施放任意奧術法術，該法術的環級最高為巫妖自身所能施放法術的最高環級，該法術即便不在巫妖的已準備法術內也可以施放。巫妖使用該能力不需要其<em>命匣</em>在場。</p>"
        },
        "(Lich) Familiar Soul": {
            "name": "(巫妖)魔寵之魂 (Lich) Familiar Soul",
            "description": "<p>這個巫妖有一隻不死魔寵（使用魔寵的規則，除了它是不死生物而非動物）。這個巫妖並沒有將它的靈魂儲存在傳統的<em>命匣</em>中，而是在它的不死魔寵的身體裡。雖然這樣做讓它變得更加脆弱，但當巫妖的軀體被摧毀時，它可以接管魔寵的身體。1小時後，巫妖可以使用這個身體來施法，前提是魔寵有一個能夠提供姿勢成分的附肢。[[/r 1d10 #days]]{1d10天}後，這個巫妖的軀體會像普通巫妖一樣重新形成。</p>"
        },
        "(Lich) Paralyzing Touch": {
            "name": "(巫妖)麻痺之觸 (Lich) Paralyzing Touch",
            "description": "<p>被巫妖的手摸打擊所傷害的生物必須通過@Check[type:fortitude|dc:]豁免對抗巫妖的法術DC-4。</p>\n<p>失敗則會陷入@UUID[Compendium.pf2e.conditionitems.6uEgoh53GbXuHpTF]{麻痺 Paralyzed}，持續1輪。大失敗時，該生物會被永久麻痺，@UUID[Compendium.pf2e.conditionitems.j91X7x0XSomq8d60]{倒地 Prone}且看起來與死了無異。通過@Check[type:medicine|dc:25|name:Diagnose Paralysis|traits:arcane,curse,necromancy|overrideTraits:true]檢定能揭示出該受害者還活著。</p>"
        },
        "(Lich) Pillage Mind": {
            "name": "(巫妖)掠奪心智 (Lich) Pillage Mind",
            "description": "<p><strong>觸發</strong> 巫妖用它的巫妖之手打擊造成傷害</p>\n<hr />\n<p><strong>效果</strong> 巫妖從目標的心智中扯出一段記憶或想法。巫妖用它決定的一個技能進行回憶知識技能動作，但使用目標在該技能上的加值，而非巫妖自己的。如果巫妖希望揭祕的是一個非常具體的資訊，而目標知道這個資訊，那麼目標可以嘗試進行@Check[type:will|dc:]豁免來守住這個祕密。若豁免成功，目標可以向巫妖提供錯誤的資訊。 </p>"
        },
        "(Lich) Rejuvenation": {
            "name": "(巫妖)復生 (Lich) Rejuvenation",
            "description": "<p>當巫妖被摧毀時，其靈魂會立即轉移到<em>@UUID[Compendium.pf2e.equipment-srd.NEbr7nKuiluJgBHT]{命匣 Soul Cage}</em>內。只有先找到並摧毀巫妖的<em>命匣</em>，才能永久摧毀該命匣對應的巫妖。</p>"
        },
        "(Lich) Siphon Life": {
            "name": "(巫妖)生命虹吸 (Lich) Siphon Life",
            "description": "<p><strong>觸發</strong> 巫妖用他的手摸打擊造成傷害。</p>\n<hr />\n<p><strong>效果</strong> 巫妖恢復生命值，數值等同於其造成傷害量的一半。</p>"
        },
        "(Lich) Steal Soul": {
            "name": "(巫妖)竊取靈魂 (Lich) Steal Soul",
            "description": "<p><strong>觸發</strong> 距巫妖30尺內的一個生物死亡</p>\n<hr />\n<p><strong>效果</strong> 該生物必須進行最後一次@Check[type:fortitude|dc:]豁免。豁免失敗則會抽走這個瀕死生物的靈魂，把它儲存在一個環繞巫妖頭骨的黑色能量小球裡。當生物的靈魂以這種方式被困住時，他不能復活。每天一次，作為一個單動作，巫妖可以消耗一個黑色小球來恢復相當於該靈魂等級兩倍的HP。這將徹底摧毀靈魂，令該生物在除了使用許願術、神蹟術或類似魔法之外無法復活。巫妖可以擁有與它們的魅力調整值相同數量的小球（至少一個）；若巫妖獲得了超出上限的小球，最早被捕獲的那個就會被釋放，其靈魂可以自由地前往來世。</p>"
        },
        "(Nymph Queen) Change Shape": {
            "name": "(寧芙仙后)變身 (Nymph Queen) Change Shape",
            "description": "<p>寧芙仙后能夠在她們擁有符合其型別的典型寧芙特徵的原始形態和任意小型或中型類人形態之間變化，她們通常會選擇基於其自然形態的更符合類人生物外貌的形象。</p>\n<hr />\n<p>@Localize[PF2E.NPC.Abilities.Glossary.ChangeShape]</p>"
        },
        "(Nymph Queen) Focus Beauty": {
            "name": "(寧芙仙后)美之焦點 (Nymph Queen) Focus Beauty",
            "description": "<p> 寧芙仙后將她的美麗聚焦在其光環中的一個目標上。該生物必須嘗試一次@Check[type:will|dc:0]豁免。如果豁免失敗，其如同受到了寧芙仙后的寧芙之美靈光效果；如果其已經受到了靈光效果，則將遭受寧芙仙后條目中所描述的上級效果的影響。一名寧芙仙后每輪對一個生物僅能使用一次美之焦點。</p>"
        },
        "(Nymph Queen) Inspiration": {
            "name": "(寧芙仙后)啟迪靈感 (Nymph Queen) Inspiration",
            "description": "<p>一名寧芙仙后能夠通過給予一件她所偏愛的信物來激發一名智慧生物的靈感，這件信物通常會是一綹她的秀髮。只要該生物還攜帶者她的信物，並且在寧芙仙后心中維持有良好的名譽，該生物在所有手藝檢定、表演檢定和意志豁免上獲得+1狀態加值。</p>\n<p>如果寧芙仙后將她的啟迪靈感賦予一位吟遊詩人，同時這位寧芙仙后還是這名吟遊詩人的繆斯，那麼該吟遊詩人會根據他的繆斯主題獲得額外的增益：對於謎團繆斯，該吟遊詩人在所有學識檢定上獲得+1狀態加值；對於大師繆斯，在確定組曲效果的表演檢定上的狀態加值增加至+2；對於博學繆斯，該吟遊詩人在未受訓的技能檢定上獲得+4狀態加值；對於所有其他的繆斯，在對抗精類時意志豁免的狀態加值增加為+2。</p>\n<p>@UUID[Compendium.pf2e.bestiary-effects.iSyyR4QVOaY6mxtg]{效果: 寧芙仙后啟迪靈感}</p>"
        },
        "(Nymph Queen) Nymph's Beauty": {
            "name": "(寧芙仙后)寧芙之美 (Nymph Queen) Nymph's Beauty",
            "description": "<p>@Template[type:emanation|distance:30]{30尺} @UUID[Compendium.pf2e.bestiary-ability-glossary-srd.v61oEQaDdcRpaZ9X]{靈光}</p>\n<hr />\n<p>在靈光範圍內開始其回合的生物必須成功通過一次@Check[type:will|dc:0]豁免，否則將遭受到寧芙仙后條目中所描述的效果。</p>"
        },
        "(Nymph Queen) Tied to the Land": {
            "name": "(寧芙仙后)大地紐帶 (Nymph Queen) Tied to the Land",
            "description": "<p>一名寧芙仙后在本質上與一塊特定的區域相聯絡，例如一片森林之於木林仙后。只要仙后是健康的，此環境就會擁有異乎尋常的恢復能力，允許該寧芙仙后自動嘗試反制諸如<em>@UUID[Compendium.pf2e.spells-srd.7yWXx3qC4eFNHhxD]{枯萎術 Blight}</em>之類的將會傷害環境的法術和儀式，她用於反制等級的法術DC等同於她能夠施放的最高等級的德魯伊法術。當寧芙仙后的身體或是心靈開始變得不健康時，她守護之地的環境最終也同樣會變得扭曲和不健康。在這種情況下，使寧芙仙后得到恢復也能迅速治癒整片區域。</p>"
        },
        "(Lich) Animate Cage": {
            "description": "<p>巫妖將他們的<em>命匣</em>放進了一個活化物體裡，這個物體會凶狠地戰鬥以保護自己，或者它至少會躲避追捕。如果巫妖的身體被摧毀了，巫妖可以直接控制這個活化物體，儘管它們在這個容器中不能施展任何法術。巫妖的身體通常會在這個物體中恢復，在1d10天后如正常的<em>命匣</em>能力那般（重建完成並）被彈出活化物體。這個活化物體通常比巫妖至少低4級，但它不會參與戰鬥，除非直接受到威脅或巫妖正控制著它。</p>",
            "name": "(巫妖)活化命匣 (Lich) Animate Cage"
        },
        "(Lich) Aura of Rot": {
            "description": "<p>巫妖被無處不在的、超自然的腐爛所包圍。在巫妖周圍30尺範圍內無人看管的食物和飲料會立即變質。任何試圖在此範圍內飲食的人都必須成功通過@Check[type:flat|dc:5]檢定，否則就會獲得@UUID[Compendium.pf2e.conditionitems.fesd1n5eVhpCSS18]{噁心 Sickened 1} ，因為給養在被攝入之前就已變質（這會毀壞藥水和其他魔法食物與飲料）。普通植物在這個光環內停留超過1分鐘就會枯萎並開始死亡（根據它們的大小，這可能需要更長時間）。 </p>",
            "name": "(巫妖)腐壞靈光 (Lich) Aura of Rot"
        },
        "(Lich) Metamagic Alteration": {
            "description": "<p>如果巫妖的下個動作是@UUID[Compendium.pf2e.actionspf2e.aBQ8ajvEBByv45yz]{施法 Cast a Spell}，它可以用下列兩種方式之一改變它。</p>\n<ul>\n<li>將該法術射程增加30尺（若它是接觸法術，則將它的射程變為30尺）。</li>\n<li>或者，若這個法術有區域而沒有持續時間，巫妖能改變咒語的區域。若該法術範圍型別為爆發，且半徑至少為10尺，則其半徑增加5尺；如果區域型別是線形或錐形，且為15尺或更小，則在該法術區域增加10尺。</li>\n</ul>",
            "name": "(巫妖)超魔變易 (Lich) Metamagic Alteration"
        },
        "(Lich) Void Shroud": {
            "description": "<p>@Template[type:emanation|distance:30]{30尺} @UUID[Compendium.pf2e.bestiary-ability-glossary-srd.v61oEQaDdcRpaZ9X]{靈光}</p>\n<hr />\n<p>巫妖周身環繞著死亡靈光，將靈魂向著巫妖吸取，用於滿足他無盡的飢渴。</p>\n<p>發散區域內的活物會在對抗恐懼和死亡效果時，豁免檢定承受-2狀態減值。此外，除非成功通過@Check[type:will|dc:]豁免對抗巫妖的法術DC-4，否則回合開始時位於靈光範圍內的任意生物都會獲得@UUID[Compendium.pf2e.conditionitems.3uh1r86TzbQvosxv]{毀滅 Doomed 1}狀態。</p>\n<p>@UUID[Compendium.pf2e.bestiary-effects.i3942RucZD9OHbAE]{效果: 虛無壽衣}</p>",
            "name": "(巫妖)虛無壽衣 (Lich) Void Shroud"
        },
        "(Lich) Blasphemous Utterances": {
            "name": "(巫妖)褻瀆之語 (Lich) Blasphemous Utterances",
            "description": "<p>@Template[type:emanation|distance:10]{10尺} @UUID[Compendium.pf2e.bestiary-ability-glossary-srd.v61oEQaDdcRpaZ9X]{靈光}</p>\n<hr />\n<p>巫妖身旁常時迴響著褻神與汙穢的低語。</p>\n<p>靈光內的生物在對抗心靈效果的豁免檢定中均會受到-2環境減值，而且除非能成功通過@Check[type:flat|dc:10]檢定，否則無法在該靈光範圍內執行具有專注特徵的動作。檢定失敗意味著浪費該動作。</p>\n<p>@UUID[Compendium.pf2e.bestiary-effects.jrfuplUEq3PIo6j1]{效果: 褻瀆之語}</p>"
        },
        "(Lich) Mask Death": {
            "name": "(巫妖)掩飾死亡 (Lich) Mask Death",
            "description": "<p>巫妖改變它的外表，使其看起來和生前一樣。這個效果持續時間無限，但是如果巫妖受到傷害，它偽裝下的爛肉就會變得明顯起來，直到它再次使用這個能力。</p>"
        },
        "(Lich) Unholy Touch": {
            "name": "(巫妖)不潔之觸 (Lich) Unholy Touch",
            "description": "<p>巫妖的觸碰充滿了邪惡，造成邪惡傷害而非負能量傷害。重擊時，目標也會受到等於巫妖等級一半的持續邪惡傷害。</p>"
        },
        "(Ghast) Paralysis": {
            "name": "(妖鬼)麻痺 (Ghast) Paralysis",
            "description": "<p>任意活著的生物在受到妖鬼的攻擊時必須成功通過@Check[type:fortitude|dc:]豁免，失敗則會陷入@UUID[Compendium.pf2e.conditionitems.6uEgoh53GbXuHpTF]{麻痺 Paralyzed}。被麻痺的生物可以在自己的每個回合結束時嘗試一次新的豁免，每次此豁免的DC都會遞減1點。</p>"
        },
        "(Ghast) Stench": {
            "name": "(妖鬼)惡臭 (Ghast) Stench",
            "description": "<p>@Template[type:emanation|distance:10]{10尺} @UUID[Compendium.pf2e.bestiary-ability-glossary-srd.v61oEQaDdcRpaZ9X]{靈光}</p>\n<hr />\n<p>若有生物進入靈光範圍或者在回合開始時位於靈光範圍內，則必須嘗試一次@Check[type:fortitude|dc:]豁免（使用的DC基於怪物等級），失敗則會陷入@UUID[Compendium.pf2e.conditionitems.fesd1n5eVhpCSS18]{噁心 Sickened 1}（若為大失敗，則只要處於噁心狀態就還會附加@UUID[Compendium.pf2e.conditionitems.xYTAsEpcJE1Ccni3]{緩慢 Slowed 1}）。</p>\n<p>身處靈光之內時，生物在對抗疾病以及從噁心狀態中恢復的豁免檢定中會承受-2環境減值。成功豁免的生物會獲得1分鐘的臨時免疫。</p>\n<p>@UUID[Compendium.pf2e.bestiary-effects.wX9L6fbqVMLP05hn]{效果: 惡臭}</p>"
        },
        "(Ghost) Draining Touch": {
            "name": "(幽靈)抽魂之觸 (Ghost) Draining Touch",
            "description": "<p>通過一次觸控，幽靈嘗試吸取一名活物的生命力。他會作出一次幽靈之手打擊，但即便命中也不會造成傷害。</p>\n<p>取而代之的是目標會變為@UUID[Compendium.pf2e.conditionitems.4D2KBtexWXa6oUMR]{流失 Drained 1}，持續一日，幽靈還會恢復生命值，數值相當於其等級的一半。</p>"
        },
        "(Ghost) Frightful Moan": {
            "name": "(幽靈)駭人悲嘆 (Ghost) Frightful Moan",
            "description": "<p>幽靈為自身的命運而哀悼，迫使@Template[type:emanation|distance:30]{30尺}內的每個活物嘗試一次@Check[type:will|dc:]豁免。豁免失敗時，該生物會陷入@UUID[Compendium.pf2e.conditionitems.TBSHQspnbcqxsmjL]{驚懼 Frightened 2}（大失敗則為@UUID[Compendium.pf2e.conditionitems.TBSHQspnbcqxsmjL]{驚懼 Frightened 3}）。豁免成功時，該生物會在1分鐘內臨時免疫幽靈的駭人悲嘆。</p>"
        },
        "(Ghost) Inhabit Object": {
            "name": "(幽靈)佔據物體 (Ghost) Inhabit Object",
            "description": "<p>幽靈會佔據1件20尺範圍內、體型為大型或更小的物體，將自身化為活化物體（詳見活化物體）。此活化物體的等級不能超過幽靈的等級-2。若目標物體已經被某個生物持用，那麼該持用者能嘗試1次@Check[type:will|dc:]豁免抗拒幽靈的佔據。</p>\n<p>當該物體被破壞或者幽靈主動離開時，佔據便結束了。此時，幽靈會出現在物體所在的方格內，並且在[[/br 1d4 #rounds]](1d4輪}內無法再次佔據物體。</p>"
        },
        "(Ghost) Malevolent Possession": {
            "name": "(幽靈)惡意佔據 (Ghost) Malevolent Possession",
            "description": "<p>幽靈嘗試佔據與其相鄰的實體生物。這與<em>@UUID[Compendium.pf2e.spells-srd.wU6hNzK8Yfqdmc8m]{佔據術 Possession}</em>法術具有相同的效果，除了幽靈不具有肉身之外，他不會受到法術在此方面的限制。</p>"
        },
        "(Ghost) Telekinetic Assault": {
            "name": "(幽靈)念力襲擊 (Ghost) Telekinetic Assault",
            "description": "<p>幽靈痛苦地尖嘯並使得小物體和物體碎片在@Template[type:emanation|distance:30]區域內迸發飛濺。此區域內的生物會受到[[/r 1d6[bludgeoning]]]傷害 + 每2個等級1d6點鈍擊傷害，此能力受@Check[type:reflex|dc:|basic:true]豁免影響。</p>"
        },
        "(Ghoul) Consume Flesh": {
            "name": "(食屍鬼)啃食屍體 (Ghoul) Consume Flesh",
            "description": "<p><strong>需求</strong> 食屍鬼與剛死亡1小時內的生物屍體相鄰。</p>\n<hr />\n<p><strong>效果</strong> 食屍鬼吞食一大塊屍體並恢復[[/r 1d6[healing]]]{1d6生命值}外加每2個食屍鬼具有的等級1d6點生命值。</p>\n<p>食屍鬼從每具屍體上只能獲取1次生命值恢復。</p>"
        },
        "(Greater Barghest) Mutation - Vestigial Arm Strike": {
            "name": "(高等犬魔)突變-增生副肢打擊 (Greater Barghest) Mutation - Vestigial Arm Strike",
            "description": "<p><strong>頻率</strong> 每輪一次</p>\n<p><strong>觸發</strong> 犬魔完成一次打擊</p>\n<hr />\n<p><strong>效果</strong> 犬魔用增生的第三條前肢進行一次額外爪抓打擊。此攻擊不計算多重攻擊減值，也不應用多重攻擊減值。</p>"
        },
        "(Greater Barghest) Mutation - Wings": {
            "name": "(高等犬魔)突變-翅膀 (Greater Barghest) Mutation - Wings",
            "description": "<p>犬魔的背後長出扭曲的翅膀，它獲得飛行速度25尺。</p>"
        },
        "(Ghost) Corrupting Gaze": {
            "description": "<p>幽靈凝視著30尺範圍內他能看到的1個生物。目標受到[[/r 1d6[negative]]]傷害+ 每2個等級1d6點負能量傷害，可以進行@Check[type:will|dc:]{basic Will}豁免。</p>\n<p>豁免失敗的生物還會陷入@UUID[Compendium.pf2e.conditionitems.e1XGnhKNSQIm5IXg]{呆滯 Stupefied 1}，持續1分鐘。</p>",
            "name": "(幽靈)腐化凝視 (Ghost) Corrupting Gaze"
        },
        "(Ghast) Ghast Fever": {
            "description": "<p><strong>豁免檢定</strong> @Check[type:fortitude|dc:]</p>\n<hr />\n<p><strong>階段1</strong> 攜帶病原但沒有不良效果(1天)</p>\n<p><strong>階段2</strong> [[/r 3d8[negative]]]傷害且從任何治療獲得的生命值恢復均減半(1天)</p>\n<p><strong>階段3</strong> 如階段2 (1天)</p>\n<p><strong>階段4</strong> [[/r 3d8[negative]]]傷害且無法從治療獲得任何好處 (1天)</p>\n<p><strong>階段5</strong> 如階段4 (1天)</p>\n<p><strong>階段6</strong> 死亡，並在下一日的午夜作為@UUID[Compendium.pf2e.pathfinder-bestiary.VC7rtYR4hLxwg7WZ]{妖鬼 Ghast}復生。</p>",
            "name": "(妖鬼)妖鬼熱 (Ghast) Ghast Fever"
        },
        "(Ghast) Consume Flesh": {
            "name": "(妖鬼)啃食屍體 (Ghast) Consume Flesh",
            "description": "<p><strong>需求</strong> 妖鬼與剛死亡1小時內的生物屍體相鄰</p>\n<hr />\n<p><strong>效果</strong> 妖鬼吞食一大塊屍體並恢復[[/r 2d6[healing]]]{2d6生命值}外加每2個妖鬼具有的等級1d6點生命值。</p>\n<p>妖鬼從每具屍體上只能獲取1次生命值恢復。</p>"
        },
        "(Ghost) Rejuvenation": {
            "name": "(幽靈)復生 (Ghost) Rejuvenation",
            "description": "<p>當幽靈被摧毀時，他會在[[/br 2d4 #days]]{2d4天}後在被束縛的地點重新生成，生命值全滿。只有在有人確定了幽靈存在的成因並糾正任何阻止幽靈安息的因素時，幽靈才能被永久摧毀。</p>"
        },
        "(Ghost) Site Bound": {
            "name": "(幽靈)束縛之地 (Ghost) Site Bound",
            "description": "<p>典型的靈魂通常只能距離在他被殺死或作祟的地點很近的區域逗留。這個限制一般為120尺遠。部分幽靈會被限制在對他來說具有特殊意義的房間、建築、物品或生物上，而非具體的某個地點。</p>"
        },
        "(Ghoul) Ghoul Fever": {
            "name": "(食屍鬼)食屍鬼熱 (Ghoul) Ghoul Fever",
            "description": "<p><strong>豁免檢定</strong> @Check[type:fortitude|dc:]</p>\n<hr />\n<p><strong>階段1</strong> 攜帶病原但沒有不良效果 (1天)</p>\n<p><strong>階段2</strong> [[/r 2d6[negative]]]傷害且從任何治療獲得的生命值恢復均減半(1天)</p>\n<p><strong>階段3</strong> 如階段2(1天)</p>\n<p><strong>階段4</strong> [[/r 2d6[negative]]]傷害且無法從治療獲得任何好處(1天)</p>\n<p><strong>階段5</strong> 如階段4 (1天)</p>\n<p><strong>階段6</strong> 死亡，並在下一日的午夜作為@UUID[Compendium.pf2e.pathfinder-bestiary.LHHgGSs0ELCR4CYK]{食屍鬼 Ghoul}復生。</p>"
        },
        "(Ghoul) Paralysis": {
            "name": "(食屍鬼)麻痺 (Ghoul) Paralysis",
            "description": "<p>任意活著的、非精靈生物在受到食屍鬼的攻擊時必須成功通過@Check[type:fortitude|dc:]豁免，失敗則會陷入@UUID[Compendium.pf2e.conditionitems.6uEgoh53GbXuHpTF]{麻痺 Paralyzed}。被麻痺的生物可以在自己的每個回合結束時嘗試一次新的豁免，每次此豁免的DC都會遞減1點。</p>"
        },
        "(Ghoul) Swift Leap": {
            "name": "(食屍鬼)迅捷跳躍 (Ghoul) Swift Leap",
            "description": "<p>食屍鬼能跳躍至多自身速度一半的距離。這次移動不會觸發反應動作。</p>"
        },
        "(Greater Barghest) Mutation - Poison Fangs": {
            "description": "<p>犬魔最粗的長牙會滲出毒液。它的啃咬傷害能造成[[/r 1d6[poison]]]{1d6額外毒素傷害}和@Localize[PF2E.PersistentDamage.Poison1d6.success]。</p>",
            "name": "(高等犬魔)突變-毒牙 (Greater Barghest) Mutation - Poison Fangs"
        },
        "(Greater Barghest) Mutation - Toxic Breath": {
            "description": "<p>犬魔撥出一團毒氣，對@Template[type:cone|distance:30]範圍內所有生物造成[[/r 8d6[poison]]]傷害（@Check[type:fortitude|dc:25|basic:true]豁免）。</p>\n<p>它在[[/br 1d4 #Recharge Toxic Breath]]{1d4輪}內無法再次進行毒氣吐息。</p>",
            "name": "(高等犬魔)突變-毒氣吐息 (Greater Barghest) Mutation - Toxic Breath"
        },
        "(Protean) Protean Anatomy": {
            "name": "(幻蛇)幻蛇體質 (Protean) Protean Anatomy",
            "description": "<p>虛空蟲的要害器官會不斷地變形和改變位置。當虛空蟲承受酸、電擊、或音波傷害後，它會立即獲得抗力資料中所列數值的對應傷害抗力。這會持續1小時或直至幻蛇承受上述傷害型別中的其他種類為止（在這種情況下，幻蛇的抗力會再度變換並與該型別相匹配），以較先發生者為準。除非虛空蟲自身是自願的目標，否則它對變形效果免疫。若陷入@UUID[Compendium.pf2e.conditionitems.XgEqL1kFApUbl5Z2]{目盲 Blinded}或@UUID[Compendium.pf2e.conditionitems.9PR9y0bi4JPKnHPR]{耳聾 Deafened}，虛空蟲會在它的下個回合結束時自動恢復，因為新的感受器官已經形成並取代了受損的器官。</p>\n<p>@UUID[Compendium.pf2e.bestiary-effects.c6SiBB3mzV8lZUQr]{效果: 幻蛇體質}</p>"
        },
        "(Protean) Warpwave": {
            "name": "(幻蛇)扭曲波 (Protean) Warpwave",
            "description": "<p>許多幻蛇能在環境中創造被稱作扭曲波的讓現實震盪的漣漪，並以此使得敵人迷失在對時間與空間感知的變動中。當有生物受到扭曲波影響並在豁免檢定中失敗時，投擲[[/br 1d8 #Warpwave]]{1d8}並參考下表來獲取該生物承受的特殊效果。除非另有說明，扭曲波的效果會持續[[/br 1d4 #Duration Warpwave Effect]]{1d4輪}，新產生的扭曲波效果會使得對應生物之前遭受的扭曲波效果結束。</p>\n<table class=\"pf2-table\">\n<thead>\n<tr>\n<th>[[/br 1d8 #Warpwave]]{1d8}</th>\n<th>扭曲波效果</th>\n</tr>\n</thead>\n<tbody>\n<tr>\n<td>1</td>\n<td>@UUID[Compendium.pf2e.conditionitems.i3OJZU2nk64Df3xm]{笨拙 Clumsy 2} (大失敗為@UUID[Compendium.pf2e.conditionitems.i3OJZU2nk64Df3xm]{笨拙 Clumsy 3})</td>\n</tr>\n<tr>\n<td>2</td>\n<td>@UUID[Compendium.pf2e.conditionitems.yblD8fOR1J8rDwEQ]{困惑 Confused}並獲得[[/r 4d6 #Temporary Hit Points]]{4d6臨時生命值}</td>\n</tr>\n<tr>\n<td>3</td>\n<td>@UUID[Compendium.pf2e.conditionitems.TkIyaNPgTZFBCCuh]{目眩 Dazzled} (大失敗為永久狀態)</td>\n</tr>\n<tr>\n<td>4</td>\n<td>@UUID[Compendium.pf2e.conditionitems.MIRkyAjyBeXivMa7]{力竭 Enfeebled 2} (大失敗為@UUID[Compendium.pf2e.conditionitems.MIRkyAjyBeXivMa7]{力竭 Enfeebled 3})</td>\n</tr>\n<tr>\n<td>5</td>\n<td>被能量絲@UUID[Compendium.pf2e.conditionitems.eIcWbB5o3pP6OIMe]{禁足 Immobilized}</td>\n</tr>\n<tr>\n<td>6</td>\n<td>@UUID[Compendium.pf2e.conditionitems.nlCjDvLMf2EkV2dl]{迅捷 Quickened} (僅能用於打擊、行走或快步)</td>\n</tr>\n<tr>\n<td>7</td>\n<td>@UUID[Compendium.pf2e.conditionitems.xYTAsEpcJE1Ccni3]{緩慢 Slowed 1}</td>\n</tr>\n<tr>\n<td>8</td>\n<td>@UUID[Compendium.pf2e.conditionitems.e1XGnhKNSQIm5IXg]{呆滯 Stupefied 2} (大失敗為@UUID[Compendium.pf2e.conditionitems.e1XGnhKNSQIm5IXg]{呆滯 Stupefied 3})</td>\n</tr>\n</tbody>\n</table>"
        },
        "(Skeleton) Blaze": {
            "name": "(骷髏)烈火焚身 (Skeleton) Blaze",
            "description": "<p>骷髏被火焰包裹，這團火焰不會吞噬它的骨頭或是裝備。</p>\n<p>骷髏獲得火焰免疫和弱點寒冷5，失去它的寒冷抗力，並且它的打擊額外造成等同於骷髏等級一半（至少為1）的持續火焰傷害。</p>"
        },
        "(Skeleton) Aquatic Bones": {
            "name": "(骷髏)水族骨架 (Skeleton) Aquatic Bones",
            "description": "<p>這具骷髏的骨骼源自水棲生物，令它能用簡單的尾巴、槳（paddles；編輯疑似與“蹼”混用）或類似的附肢游泳。骷髏獲得20尺游泳速度，還獲得水棲特徵和@UUID[Compendium.pf2e.bestiary-ability-glossary-srd.HBrBrUzjfvj2gDXB]{水下伏擊 Aquatic Ambush}通用怪物能力。</p>"
        },
        "(Skeleton) Bloody": {
            "name": "(骷髏)血腥 (Skeleton) Bloody",
            "description": "<p>這一骷髏遍佈著不停低落的鮮血，並且獲得等同於其等級的@UUID[Compendium.pf2e.bestiary-ability-glossary-srd.fJSNOw4zHGbIm4bZ]{快速癒合 Fast Healing}。</p>"
        },
        "(Skeleton) Bone Missile": {
            "name": "(骷髏)投擲肋骨 (Skeleton) Bone Missile",
            "description": "<p>骷髏從胸肋中扯出一條肋骨充作箭矢或標槍。骷髏失去等同於其等級的生命值（最少為1），然後進行遠端攻擊。</p>\n<p>此次遠端攻擊的攻擊加值等同於骷髏其他打擊中最高的攻擊加值，造成穿刺傷害，傷害值等同於骷髏的等級（至少為1）再加上（選用其攻擊加值的）那個打擊能造成的傷害。</p>"
        },
        "(Skeleton) Bone Powder": {
            "name": "(骷髏)擊骨揚灰 (Skeleton) Bone Powder",
            "description": "<p>當骷髏受到物理重擊傷害時，其中一根骨頭碎成細粉。</p>\n<p>@Template[type:emanation|distance:5]範圍內需要呼吸的生物受到[[/r 1d6[persistent,poison]]]傷害（骷髏每有6級傷害額外加1d6）。</p>"
        },
        "(Skeleton) Crumbling Bones": {
            "name": "(骷髏)破碎骨架 (Skeleton) Crumbling Bones",
            "description": "<p>骷髏是由漂浮在塵土中的破碎骨架構成的。骷髏獲得20尺飛行速度，但是必須在距離地面不超過5尺的地方結束回合，否則就會掉落，如常承受摔落傷害。此外，骷髏可以移動通過任何大小足以讓它的頭骨通過的空間。</p>"
        },
        "(Skeleton) Bone Storm": {
            "description": "<p><strong>頻率</strong> 每日一次</p>\n<hr />\n<p><strong>效果</strong> 骷髏轉換成一團由白骨組成的旋風，佔據的地面空間與轉變前相同，但是高度卻是先前的兩倍。變形完後，它會緊接著行走至多兩倍速度。它移動時能穿過其他生物佔據的空間，且這類移動不會觸發反應。被白骨風暴穿過的生物受到揮砍傷害，傷害為骷髏每有2級就加[[/r 1d6[slashing]]]傷害，此傷害還有一次@Check[type:reflex|dc:|basic:true]豁免，對抗該生物等級對應的困難DC。等級為1或更低的骷髏只能移動，無法造成傷害。即便白骨風暴在一個生物佔據的空間內移動多次，該生物也只需要進行一次豁免。在移動結束後，骷髏重組身軀。</p>",
            "name": "(骷髏)白骨風暴 (Skeleton) Bone Storm"
        },
        "(Skeleton) Collapse": {
            "name": "(骷髏)崩塌 (Skeleton) Collapse",
            "description": "<p><strong>觸發</strong> 骷髏受到重擊。</p>\n<hr />\n<p><strong>效果</strong> 骷髏崩塌成一堆骨頭，並且攻擊只造成普通傷害。骷髏能夠花費一個動作讓自己重新站立起來，但是直到它如此行動之前它被@UUID[Compendium.pf2e.conditionitems.eIcWbB5o3pP6OIMe]{禁足 Immobilized}且@UUID[Compendium.pf2e.conditionitems.AJh5ex99aV6VTggg]{措手不及 Flat-Footed}。</p>"
        },
        "(Skeleton) Explosive Death": {
            "name": "(骷髏)爆裂而亡 (Skeleton) Explosive Death",
            "description": "<p>當骷髏被摧毀時，它被擊碎，其殘骸隨著原本維繫其形態的死靈能量的施放而爆散開來。</p>\n<p>相鄰的生物受到每2級[[/r 1d6[slashing]]]傷害（最低1d6點），並且嘗試一次@Check[type:reflex|dc:|basic:true|name:Explosive Death]豁免。</p>"
        },
        "(Skeleton) Frozen": {
            "name": "(骷髏)霜裹 (Skeleton) Frozen",
            "description": "<p>骷髏的骨頭上覆著一層薄薄的冰。骷髏獲得寒冷免疫和火焰弱點5，失去對火焰的抗力。骷髏周遭環繞著寒冷靈光，骷髏在其回合開始時對所有鄰接的生物造成[[/r @actor.level/2[cold]]]{等同於骷髏等級一半的寒冷傷害}（@Check[type:reflex|dc:|basic:true]豁免，DC為它的等級對應的標準DC）。</p>"
        },
        "(Skeleton) Grave Eruption": {
            "name": "(骷髏)破墳 (Skeleton) Grave Eruption",
            "description": "<p><strong>需求</strong> 骷髏無蹤且被埋在泥土、碎石和其他鬆散材料中</p>\n<hr />\n<p><strong>效果</strong> 骷髏從地面噴湧而出，站立並進行一次近戰打擊。被打擊目標對本次打擊@UUID[Compendium.pf2e.conditionitems.AJh5ex99aV6VTggg]{措手不及 Flat-Footed}。若打擊命中，目標獲得@UUID[Compendium.pf2e.conditionitems.TBSHQspnbcqxsmjL]{驚懼 Frightened 1}（打擊重擊則為@UUID[Compendium.pf2e.conditionitems.TBSHQspnbcqxsmjL]{驚懼 Frightened 2}）。</p>"
        },
        "(Skeleton) Lacquered": {
            "name": "(骷髏)上漆 (Skeleton) Lacquered",
            "description": "<p>在製造骷髏的過程中，它被塗上了好幾層鍊金油漆，令它的骨骼呈金色並給予額外保護。骷髏獲得酸液抗力5，以及在對老化或腐蝕目標的效果進行豁免時的+2狀態加值。</p>"
        },
        "(Skeleton) Nimble": {
            "name": "(骷髏)輕捷 (Skeleton) Nimble",
            "description": "<p>骷髏速度極快且十分靈活。它的陸地速度增加10尺，並獲得20尺攀爬速度。此外，它還獲得@UUID[Compendium.pf2e.bestiary-ability-glossary-srd.wCnsRCHvtZkZTmO0]{靈巧躲避 Nimble Dodge}反應動作。</p>"
        },
        "(Skeleton) Rotten": {
            "description": "<p>這具骷髏的骨骼腐爛發黑，因其在在汙染的水或其他汙穢的物質中度過了很多年。骷髏失去對穿刺和揮砍傷害的抗力，幷包裹於一個範圍10尺的可怕惡臭@Template[type:emanation|distance:10]{10尺靈光}中。進入靈光或在靈光範圍內開始回合的生物成功通過一個@Check[type:fortitude|dc:]檢定，對抗骷髏等級對應的標準DC，否則獲得@UUID[Compendium.pf2e.conditionitems.fesd1n5eVhpCSS18]{噁心 Sickened 1}（大失敗則只要還處於噁心時，還會獲得@UUID[Compendium.pf2e.conditionitems.xYTAsEpcJE1Ccni3]{緩慢 Slowed 1}）。身處靈光範圍內時，受影響的生物在對抗疾病的豁免和從噁心中恢復的豁免都受到-2環境減值。豁免成功的生物會臨時免疫本靈光1分鐘。</p>\n<p>腐臭骷髏被摧毀後，這種惡臭還會持續1小時，除非骨頭被燒掉，或者用至少1加侖的水洗掉腐爛物。</p>",
            "name": "(骷髏)腐臭 (Skeleton) Rotten"
        },
        "(Skeleton) Skeleton of Roses": {
            "description": "<p>厚厚的荊棘長滿了骷髏的骨頭，上面長著有一英寸長的刺的紅玫瑰。</p>\n<p>骷髏的非武裝近戰攻擊額外造成相當於骷髏等級1/3的穿刺傷害（至少為1）。</p>\n<p>每回合結束時，如果骷髏用它的刺造成過穿刺傷害，它獲得等同於其等級的生命值（至少為1）。每當骷髏以這種方式恢復生命值，它身上就會有另一朵玫瑰綻放。</p>",
            "name": "(骷髏)薔薇骷骨 (Skeleton) Skeleton of Roses"
        },
        "(Skeleton) Screaming Skull": {
            "name": "(骷髏)尖嘯之顱 (Skeleton) Screaming Skull",
            "description": "<p>骷髏將自己顱骨摘了下來並且拋了出去，發動一次觸及範圍20尺的齧咬攻擊。然後它會嘗試對目標10尺內的每個敵人進行一次@UUID[Compendium.pf2e.actionspf2e.2u915NdUyQan6uKF]{挫敗士氣 Demoralize}。</p>\n<p>這枚顱骨跳躍、翻滾、倒飛，並且在它的下一回合開始時返回骷髏身上。在此之前骷髏為@UUID[Compendium.pf2e.conditionitems.XgEqL1kFApUbl5Z2]{目盲 Blinded}。</p>"
        },
        "(Werecreature) Animal Empathy": {
            "description": "<p>化形生物能與同類別的動物進行溝通。</p>",
            "name": "(化形生物)動物認同 (Werecreature) Animal Empathy"
        },
        "(Werecreature) Change Shape": {
            "name": "(化形生物)變形 (Werecreature) Change Shape",
            "description": "<p>化形生物變為其類人、混合、或動物形態。每個形態都有一種特定且可持續的外觀。真化形者的自然形態是其混合形態。</p>\n<p>在類人形態下，化形者使用其原始的類人體型，失去爪抓和啃咬打擊，並且獲得造成鈍擊傷害的近戰拳頭打擊，傷害量等同於爪抓造成的揮砍傷害。</p>\n<p>在動物形態，其速度和體型變為該動物的資料，他會獲得其他形態下不具有的動物的任何特殊打擊效果（比如攫抓），並且失去其任何武器打擊。</p>\n<hr />\n<p>@Localize[PF2E.NPC.Abilities.Glossary.ChangeShape]</p>"
        },
        "(Werecreature) Moon Frenzy": {
            "description": "<p>當滿月出現在夜空中時，化形生物必須變化為混合形態，在之後無法進行變形，體型增大1階，觸及增加5尺，啃咬傷害增加2點。</p>\n<p>當月亮落下或太陽升起時，化形生物會變回類人形態，並陷入@UUID[Compendium.pf2e.conditionitems.HL2l2VRSaQHu9lUw]{疲乏 Fatigued}，持續[[/br 2d4 #Fatigued duration]]{2d4小時}。</p>\n<p>@UUID[Compendium.pf2e.bestiary-effects.dRe8n1nBWMIXd8jh]{效果: 滿月狂亂}</p>",
            "name": "(化形生物)滿月狂亂 (Werecreature) Moon Frenzy"
        },
        "(Werecreature) Curse of the Werecreature": {
            "name": "(化形生物)化形詛咒 (Werecreature) Curse of the Werecreature",
            "description": "<p>此詛咒僅能影響類人生物。</p>\n<hr />\n<p><strong>豁免檢定</strong> @Check[type:fortitude|dc:|name:Curse of the Werecreature] 強韌DC的化形生物的新等級-1時的標準DC。</p>\n<p>在每個月圓之夜，被詛咒的生物必須嘗試另一次強韌豁免，失敗則會變化為同種類的化形生物，直至黎明。</p>\n<p>該生物會在GM的控制之下，並在後半夜橫衝直撞，直至天明並失去知覺。</p>"
        },
        "(Zombie) Plague-Ridden": {
            "name": "(喪屍)瘟疫纏身 (Zombie) Plague-Ridden",
            "description": "<p>喪屍身上攜帶著瘟疫，能夠創造出更多同類。</p>\n<p>此能力的作用就如同@UUID[Compendium.pf2e.pathfinder-bestiary.KxN9aGFGPxl6oLGF]{瘟疫喪屍 Plague Zombie's}的屍化瘟疫一般，不過在階段5，受害者會復甦成為其他型別的喪屍，而非瘟疫喪屍。</p>\n<hr />\n<p><strong>屍化瘟疫 Zombie Rot</strong></p>\n<p>被感染的生物直至疾病被治癒之前，無法治療由屍化瘟疫造成的傷害。</p>\n<p><strong>豁免檢定</strong> @Check[type:fortitude|dc:|name:Zombie Rot]</p>\n<p><strong>階段1</strong> 受體無不良反應(1天)</p>\n<p><strong>階段2</strong> [[/r 1d6[negative]]]傷害(1天)</p>\n<p><strong>階段3</strong> [[/r 1d6[negative]]]傷害(1天)</p>\n<p><strong>階段4</strong> [[/r 1d6[negative]]]傷害(1天)</p>\n<p><strong>階段5</strong> 死亡，並立即作為感染種類的喪屍復生</p>"
        },
        "(Zombie) Putrid Stench": {
            "name": "(喪屍)腐爛惡臭 (Zombie) Putrid Stench",
            "description": "<p>@Template[type:emanation|distance:15] @UUID[Compendium.pf2e.bestiary-ability-glossary-srd.v61oEQaDdcRpaZ9X]{靈光}</p>\n<hr />\n<p>這隻喪屍的爛肉極其難聞。一個進入此範圍的生物必須進行@Check[type:fortitude|dc:]豁免。失敗時，這個生物獲得@UUID[Compendium.pf2e.conditionitems.fesd1n5eVhpCSS18]{噁心 Sickened 1}，若大失敗則在一輪內額外獲得速度-5尺狀態減值。只要在靈光範圍內，該生物在從噁心狀態中恢復的豁免獲得-2環境減值。一個成功通過豁免的生物在1分鐘內暫時免疫所有喪屍的腐爛惡臭。</p>\n<p>@UUID[Compendium.pf2e.bestiary-effects.xmES7HVxM7L3j1EN]{效果：腐爛惡臭}</p>"
        },
        "(Zombie) Rotting Aura": {
            "name": "(喪屍)腐敗靈光 (Zombie) Rotting Aura",
            "description": "<p>@Template[type:emanation|distance:10]{10尺} @UUID[Compendium.pf2e.bestiary-ability-glossary-srd.v61oEQaDdcRpaZ9X]{靈光}</p>\n<hr />\n<p>喪屍散發出充盈著腐敗與疾病的靈光，它使得傷口潰爛腐壞。</p>\n<p>任意活物若在回合開始時位於喪屍10尺範圍內，且生命值不滿時，便會由於傷口潰爛而受到[[/r (1d6}]]{1d6傷害}。喪屍的等級每提高6級，這個傷害便會增加1d6點。</p>\n<p>若有生物被此喪屍重擊，也會立即受到該傷害。</p>"
        },
        "(Zombie) Spitting Zombie": {
            "name": "(喪屍)吐酸喪屍 (Zombie) Spitting Zombie",
            "description": "<p>喪屍具有吐酸遠端打擊，射程30尺。此打擊的攻擊加值等同於喪屍已有的攻擊加值中最高的；喪屍每有3級，該打擊就造成[[/r 1d12[acid]]]傷害（若喪屍等級低於3則造成[[/r 1d6[acid]]]傷害）。該打擊重擊時，目標還會受到每3級喪屍等級[[/r 1d4[persistent,acid]]]傷害。一旦使用，喪屍就需要花費一個動作來咳出足夠的酸液才能再次使用此技能。</p>"
        },
        "(Zombie) Persistent Limbs": {
            "description": "<p>當喪屍第一次受到近戰或遠端重擊時，它的一條肢體脫離軀幹並繼續攻擊。這條肢體以該喪屍的先攻行動；每輪它能移動至多原喪屍的半速並進行一次打擊。這條肢體使用並增加喪屍的多重攻擊減值。</p>",
            "name": "(喪屍)頑強四肢 (Zombie) Persistent Limbs"
        },
        "(Zombie) Unkillable": {
            "description": "<p>此類喪屍幾乎不能被摧毀。喪屍失去對揮砍的弱點，獲得對抗所有傷害的抗力，其數值等同於其等級（最低3點），此外它還會獲得對抗重擊的弱點，數值為其等級的兩倍（最低6點）。</p>\n<p>若你賦予喪屍該能力，則立即為喪屍的等級增加1級。</p>",
            "name": "(喪屍)不滅 (Zombie) Unkillable"
        },
        "(Zombie) Ankle Biter": {
            "description": "<p>這隻喪屍趴在地上也能和站著時打得一樣好。當@UUID[Compendium.pf2e.conditionitems.j91X7x0XSomq8d60]{倒地 Prone}時，喪屍不會@UUID[Compendium.pf2e.conditionitems.AJh5ex99aV6VTggg]{措手不及 Flat-Footed}，它無視它的攻擊骰的狀態減值，並在@UUID[Compendium.pf2e.actionspf2e.ge56Lu1xXVFYUnLP]{摔絆 Trip}的運動鑑定中獲得+2環境加值。喪屍還能在它爬行的時候以最高半速移動。</p>",
            "name": "(喪屍)齧踵專家 (Zombie) Ankle Biter"
        },
        "(Zombie) Disgusting Pustules": {
            "description": "<p>喪屍被膿皰所覆蓋，當它承受任意穿刺傷害或重擊時，這些膿皰便會破裂。</p>\n<p>無論哪種情況，相鄰生物都會被膿液命中，除非這些生物能夠成功通過@Check[type:fortitude|dc:|name:Disgusting Pustules]豁免，否則便會變為@UUID[Compendium.pf2e.conditionitems.fesd1n5eVhpCSS18]{噁心 Sickened 1}。</p>",
            "name": "(喪屍)惡臭膿皰 (Zombie) Disgusting Pustules"
        },
        "(Zombie) Feast": {
            "description": "<p>若喪屍與無助或失去意識的生物、或者死亡不超過1小時的已死生物相鄰的話，喪屍能夠吞食該生物的血肉來治療自身。</p>\n<p>這將恢復與喪屍等級相同的生命值。若該生物是活物，喪屍會對其造成等同於其啃咬、拳頭或爪子的傷害。</p>",
            "name": "(喪屍)食肉 (Zombie) Feast"
        },
        "(Zombie) Infested Zombie": {
            "description": "<p>喪屍的腐肉被成群的害蟲侵染。當喪屍受到重擊或被摧毀時，叢集就會被釋放。蟲群的先攻緊接著喪屍的。如果這個叢集的等級比它們寄宿的喪屍低4級或更多，該叢集沒有XP（也不會將它的XP增加到遭遇的總XP中）。</p>",
            "name": "(喪屍)蟲染 (Zombie) Infested Zombie"
        },
        "(Zombie) Tearing Grapple": {
            "name": "(喪屍)撕裂擒拿 (Zombie) Tearing Grapple",
            "description": "<p>喪屍成群結隊地將敵人撕成碎片。每當一隻具有此能力的喪屍成功@UUID[Compendium.pf2e.actionspf2e.PMbdMWc2QroouFGD]{擒抱 Grapples}一個已經被另一個具有此能力的喪屍@UUID[Compendium.pf2e.conditionitems.kWc1fhmv9LBiTuei]{擒抱 Grabbed}或@UUID[Compendium.pf2e.conditionitems.VcDeM8A5oI6VqhbM]{束縛 Restrained}的敵人時，它會猛烈地搖晃可憐的受害者，對其造成拳頭打擊的傷害（如果喪屍沒有拳頭打擊，則會造成類似打擊的傷害）如果擒抱大成功，目標會受到雙倍傷害並且不再被任何其他生物擒抱或束縛。如果殭屍有@UUID[Compendium.pf2e.bestiary-ability-glossary-srd.Tkd8sH4pwFIPzqTr]{攫抓 Grab}怪物通用能力，使用攫抓會對目標造成一半的拳頭打擊傷害。</p>"
        },
        "(Zombie) Unholy Speed": {
            "name": "(喪屍)不潔之速 (Zombie) Unholy Speed",
            "description": "<p>喪屍在它的所有速度上獲得+10狀態加值。</p>"
        },
        "(Ravener) Consume Soul": {
            "name": "(掠劫亡龍)吞噬靈魂 (Ravener) Consume Soul",
            "description": "<p><strong>觸發</strong> 一個活物死在掠劫亡龍30尺內。</p>\n<hr />\n<p><strong>效果</strong> 掠劫亡龍扯出這個生物的靈魂並囫圇吞下。這個瀕死生物必須進行等於掠劫亡龍吐息DC的@Check[type:fortitude|dc:|name:Consume Soul]豁免。</p>\n<hr />\n<p><strong>大成功</strong> 該生物不受影響。</p>\n<p><strong>成功</strong> 掠劫亡龍從這個生物的靈魂上撕下了一小塊。如果這個生物被複活，在復活的副作用以外他們還會受到@UUID[Compendium.pf2e.conditionitems.4D2KBtexWXa6oUMR]{流失 Drained 1}。掠劫亡龍的護體之魂增加等同於此生物等級一半的HP。</p>\n<p><strong>失敗</strong> 如同成功，但是這個生物的靈魂已被毀壞。這個生物獲得@UUID[Compendium.pf2e.conditionitems.4D2KBtexWXa6oUMR]{流失 Drained 3}，掠劫亡龍的護體之魂增加等於此生物等級的HP。</p>\n<p><strong>大失敗</strong> 如同失敗，但是掠劫亡龍吞噬了全部靈魂。只要掠劫亡龍尚存，受害者就不能復活，除非使用10級效果如<em>@UUID[Compendium.pf2e.spells-srd.YfJTXyVGzLhM6V8U]{神蹟術 Miracle}</em>或<em>@UUID[Compendium.pf2e.spells-srd.6dDtGIUerazSHIOu]{祈願術 Wish}</em>，掠劫亡龍的護體之魂增加等於此生物等級兩倍的HP。</p>"
        },
        "(Ravener) Cowering Fear": {
            "name": "(掠劫亡龍)恐懼畏縮 (Ravener) Cowering Fear",
            "description": "<p>@Template[type:emanation|distance:0]{0尺} @UUID[Compendium.pf2e.bestiary-ability-glossary-srd.v61oEQaDdcRpaZ9X]{靈光} @Check[type:will|dc:|name:Cowering Fear]</p>\n<p>一條掠劫亡龍的氣勢凶猛還會使得受影響的生物在恐懼中畏縮。只要一個生物因為掠劫亡龍的氣勢凶猛而獲得至少@UUID[Compendium.pf2e.conditionitems.TBSHQspnbcqxsmjL]{驚懼 Frightened 2}，他還會因恐懼而@UUID[Compendium.pf2e.conditionitems.eIcWbB5o3pP6OIMe]{禁足 Immobilized}。</p>\n<hr />\n<p>@Localize[PF2E.NPC.Abilities.Glossary.FrightfulPresence]</p>"
        },
        "(Ravener) Discorporate": {
            "name": "(掠劫亡龍)化整為靈 (Ravener) Discorporate",
            "description": "<p><strong>觸發</strong> 掠劫亡龍的護體之魂受到轉嫁的傷害且護體之魂剩餘HP不少於51。</p>\n<hr />\n<p><strong>效果</strong> 掠劫亡龍深深地吸入它的護體之魂，將它的身體分解靈魂能量以便逃跑。掠劫亡龍的護體之魂受到50點傷害，而它的物理身軀消失，[[/r 1d4 #hours]]{1d4小時}後在它使用化整為靈的地點1英里半徑內的隨機地點再次出現。</p>"
        },
        "(Ravener) Soulsense": {
            "description": "<p>一條掠劫亡龍能感知到列出的距離內的活物和不死生物的精魂精華。那些物質身軀和他們的靈魂是一體的生物，如天族和魔族，在這個感官中顯得更明亮。</p>",
            "name": "(掠劫亡龍)探知靈魂 (Ravener) Soulsense"
        },
        "(Ravener) Soul Ward": {
            "name": "(掠劫亡龍)護體之魂 (Ravener) Soul Ward",
            "description": "<p>一個無形的死靈能量場保護著一條掠劫亡龍不被完全摧毀。護體之魂有著150點最大HP，如果掠劫亡龍的等級是21或更高的話為200 點。</p>\n<p>當掠劫亡龍的HP將降至1以下，除了將它降至1點HP的傷害之外的傷害值都會轉嫁給護體之魂。如果轉嫁的傷害能將護體之魂的HP降至0以下，掠劫亡龍就會被消滅。</p>\n<p>護體之魂的HP只能通過特定的掠劫亡龍能力來恢復，如吞噬靈魂、掠劫吐息和惡毒重擊。一條超過一週沒有成功使用吞噬靈魂能力享用一個瀕死生物的靈魂的掠劫亡龍陷入飢餓，它的護體之魂每日失去[[/r (1d4} #Soul Ward Decay]]{1d4生命值}直至它吃下靈魂。倘若掠劫亡龍的護體之魂失去了所有的HP而掠劫亡龍還有大於1點的HP，它就會變成@UUID[Compendium.pf2e.pathfinder-bestiary-2.Yv0005Vym1peVKHq]{掠劫亡龍空骸 Ravener Husk}。</p>"
        },
        "(Ravener) Vicious Criticals": {
            "name": "(掠劫亡龍)惡毒重擊 (Ravener) Vicious Criticals",
            "description": "<p>只要攻擊骰命中，掠劫亡龍將19和20骰點都視為重擊。當掠劫亡龍的打擊造成重擊時，目標必須通過@Check[type:fortitude|dc:|name:Vicious Criticals]豁免否則獲得@UUID[Compendium.pf2e.conditionitems.4D2KBtexWXa6oUMR]{流失 Drained 1}。如果目標的流失值已經大於0，則其流失值將增加1，最大為流失4。</p>\n<p>每當掠劫亡龍以這種方式吸取一個生物的生命力時，他們的護體之魂將獲得5點生命值。</p>"
        },
        "(Mana Wastes Mutant) Energy Resistance": {
            "name": "(法力廢土突變體)能量抗力 Energy Resistance",
            "description": "<p>變種生物擁有奇怪的面板和毛髮顏色，並且對某種單一能量型別具備抗力。獲得的能量抗力取決於變種生物的等級。</p>\n<table style=\"width: 100.018%; height: 88.889px;\" border=\"1\"><colgroup><col style=\"width: 73.5726%;\"><col style=\"width: 26.2643%;\"></colgroup>\n<tbody>\n<tr style=\"height: 17.7778px;\">\n<td style=\"height: 17.7778px;\">突變體等級</td>\n<td style=\"height: 17.7778px;\">能量抗力</td>\n</tr>\n<tr style=\"height: 17.7778px;\">\n<td style=\"height: 17.7778px;\">2或更低</td>\n<td style=\"height: 17.7778px;\">2</td>\n</tr>\n<tr style=\"height: 17.7778px;\">\n<td style=\"height: 17.7778px;\">3-7</td>\n<td style=\"height: 17.7778px;\">5</td>\n</tr>\n<tr style=\"height: 17.7778px;\">\n<td style=\"height: 17.7778px;\">8-14</td>\n<td style=\"height: 17.7778px;\">10</td>\n</tr>\n<tr style=\"height: 17.7778px;\">\n<td style=\"height: 17.7778px;\">15+</td>\n<td style=\"height: 17.7778px;\">15</td>\n</tr>\n</tbody>\n</table>"
        },
        "(Mana Wastes Mutant) Increased Speed": {
            "name": "(法力廢土突變體)增加速度 Increased Speed",
            "description": "<p>突變體的四肢變長，或者因為變異長出額外新肢體。將其現有的任何一種速度增加20尺，或增加某種新速度（例如飛行或游泳）15尺。</p>"
        },
        "(Mana Wastes Mutant) Energy Blast": {
            "name": "(法力廢土突變體)能量爆發 Energy Blast",
            "description": "<p>選擇一種能量傷害型別；此能力獲得該能量型別的特徵。突變體在身體外觀上呈現某種特徵，暗示它如何釋放能量爆發。這可能是它身上冒出的數不清的瘤子，也可能是額外的肢體，或者它的喉嚨裡有一個用來釋放吐息的額外缺口。為該能力選擇@Template[type:line|distance:60]範圍或@Template[type:cone|distance:30]範圍。該能量造成[[/r ((@actor.level)d6)[energy]]]{每等級1d6傷害}，@Check[type:reflex|dc:|basic:true]豁免。突變體在[[/r 1d4 #Energy Blast Recharge]]{1d4輪}內無法再次使用該能力。</p>"
        }
    }
}
