{
    "entries": {
        "Effect: Diabolic Blood Magic (Self)": {
            "description": "<p>地獄的火焰用謊言填滿了你的舌頭。你於1輪內在欺騙檢定上獲得+1狀態加值。</p>",
            "name": "效果: 魔鬼血統奧祕 Diabolic Blood Magic (自身)"
        },
        "Effect: Aberrant Blood Magic": {
            "name": "效果: 異怪血統奧祕 Aberrant Blood Magic",
            "description": "<p>怪異的耳語遮掩了你或是一個目標的思想，在意志豁免上獲得+2狀態加值，持續1輪。</p>"
        },
        "Effect: Angelic Blood Magic": {
            "name": "效果: 天界血統奧祕 Angelic Blood Magic",
            "description": "<p>天界的靈光守護著你或是一個目標，在豁免骰上獲得+1狀態加值，持續1輪。</p>"
        },
        "Effect: Demonic Blood Magic (Self)": {
            "name": "效果: 惡魔血統奧祕 Demonic Blood Magic (自身)",
            "description": "<p>源自罪孽的腐化使你愈發威嚴。你於1輪內在威嚇檢定上獲得+1狀態加值。</p>"
        },
        "Effect: Demonic Blood Magic (Target)": {
            "name": "效果: 惡魔血統奧祕 Demonic Blood Magic (目標)",
            "description": "<p>源自罪孽的腐化削弱了目標的防禦，目標於1輪內在AC上受到-1狀態罰值。</p>"
        },
        "Effect: Draconic Blood Magic": {
            "name": "效果: 龍脈血統奧祕 Draconic Blood Magic",
            "description": "<p>你或目標身上在短時間裡長出了些許龍鱗，在AC上獲得+1狀態加值，持續1輪。</p>"
        },
        "Effect: Elemental Blood Magic (Self)": {
            "name": "效果: 元素血統奧祕 Elemental Blood Magic (自身)",
            "description": "<p>元素的能量環繞著你或是一個目標。你於1輪內在威嚇檢定上獲得+1狀態加值。</p>"
        },
        "Effect: Fey Blood Magic": {
            "name": "效果: 精類血統奧祕 Fey Blood Magic",
            "description": "<p>五彩繽紛的精類在你或是一個目標的周圍跳起了迷舞，使其在1輪內隱蔽。如此顯而易見的遮蔽無法被用於躲藏。</p>"
        },
        "Effect: Hag Blood Magic": {
            "name": "效果: 鬼婆血統奧祕 Hag Blood Magic",
            "description": "<p>惡毒的詛咒懲罰著你的敵人。在你下一輪結束之前第一名對你造成傷害的敵人受到每法術環級2點的心靈傷害，且必須嘗試一次基礎意志豁免。</p>"
        },
        "Effect: Imperial Blood Magic": {
            "name": "效果: 帝皇血統奧祕 Imperial Blood Magic",
            "description": "<p>來自先祖的記憶使得你或是一個目標在技能檢定上獲得+1狀態加值，持續1輪。</p>"
        },
        "Effect: Genie Blood Magic (Self)": {
            "name": "效果: 巨靈血統奧祕 Genie Blood Magic (自身)",
            "description": "<p>你的施法能夠扭曲現實，從而分散敵人的注意力。你於1輪內在欺騙檢定上獲得+1狀態加值。</p>"
        },
        "Effect: Genie Blood Magic (Target)": {
            "name": "效果: 巨靈血統奧祕 Genie Blood Magic (目標)",
            "description": "<p>你的施法能夠扭曲現實，從而分散敵人的注意力。目標於1輪內在察覺上承受-1狀態減值。</p>"
        },
        "Effect: Nymph Blood Magic (Self)": {
            "name": "效果: 寧芙血統奧祕 Nymph Blood Magic (自身)",
            "description": "<p>你的動作中盡顯寧芙的優雅，你於1輪內在交涉檢定上獲得+1狀態加值。</p>"
        },
        "Effect: Nymph Blood Magic (Target)": {
            "name": "效果: 寧芙血統奧祕 Nymph Blood Magic (目標)",
            "description": "<p>你的動作中盡顯寧芙的優雅，甚至能使你的敵人分心。目標於1輪內在意志豁免上承受-1狀態減值。</p>"
        },
        "Effect: Psychopomp Blood Magic (Self)": {
            "name": "效果: 招魂者血統奧祕 Psychopomp Blood Magic (自身)",
            "description": "<p>生與死的界限在你身上顯得模糊不清。你於1輪內在強韌豁免上獲得+2狀態加值。</p>"
        },
        "Effect: Shadow Blood Magic (Perception)": {
            "name": "效果: 陰影血統奧祕(察覺) Shadow Blood Magic (Perception)",
            "description": "<p>影子在你或是一個目標的周圍變得愈發幽暗，使其在察覺上承受-1狀態減值，持續1輪。</p>"
        },
        "Effect: Shadow Blood Magic (Stealth)": {
            "name": "效果: 陰影血統奧祕(隱祕) Shadow Blood Magic (Stealth)",
            "description": "<p>影子在你或是一個目標的周圍變得愈發幽暗，使其在隱祕檢定上獲得+1狀態加值，持續1輪。</p>"
        },
        "Effect: Wyrmblessed Blood Magic (Status Bonus - Self)": {
            "name": "效果: 龍佑血脈奧祕(狀態加值-自身) Wyrmblessed Blood Magic (Status Bonus - Self)",
            "description": "<p>你的聲音傳遞巨龍之威。你在1個回合內獲得威嚇檢定上的+1狀態加值。</p>"
        },
        "Effect: Wyrmblessed Blood Magic (Status Penalty - Target)": {
            "name": "效果: 龍佑血脈奧祕(狀態減值-目標) Wyrmblessed Blood Magic (Status Penalty - Target)",
            "description": "<p>你的聲音傳遞巨龍之威。目標在1個回合內意志豁免受到-1狀態減值。</p>"
        },
        "Effect: Debilitating Strike": {
            "name": "效果: 衰弱打擊 Debilitating Strike",
            "description": "<p>目標被遊蕩者的@UUID[Compendium.pf2e.actionspf2e.bp0Up04x3dzGK5bB]{衰弱打擊 Debilitating Strike}影響。</p>\n<p><em>注意：此效果僅追蹤衰弱的持續時間。你需要手動新增遊蕩者所選的衰弱效果。</em></p>"
        },
        "Effect: Panache": {
            "name": "效果: 派頭 Panache",
            "description": "<p>你認為行動中採取的做法與行動的結果同樣重要。當你用特別誇張的方式行動時，你能趁這光彩奪目的時刻，進行華麗又致命的戰法。這種絢爛的狀態被稱為派頭。你要不處於派頭狀態，要不就沒有。</p>\n<p>效果來自@UUID[Compendium.pf2e.classfeatures.LzYi0OuOoypNb6jd]{派頭 Panache}。</p>"
        },
        "Effect: Rage": {
            "name": "效果: 狂暴 Rage",
            "description": "<p><strong>需求</strong> 你未@UUID[Compendium.pf2e.conditionitems.HL2l2VRSaQHu9lUw]{疲乏 Fatigued}或狂暴。</p>\n<hr />\n<p>你喚起內心的怒意，開始狂暴。你獲得等於你的等級+體質調整值的臨時生命值。狂暴持續1分鐘，或者直到沒有你能發現的敵人存在，又或者直到你@UUID[Compendium.pf2e.conditionitems.fBnFDH2MTzgFijKf]{失去意識 Unconscious}，以先發生的情況為準。你無法主動停止狂暴。在狂暴期間：</p>\n<ul>\n<li>你用近戰武器或非武裝攻擊可造成額外2點傷害。若你的武器或無武裝攻擊有靈巧特徵，此額外傷害減半。</li>\n<li>你的AC受到-1減值。</li>\n<li>你無法採取具有專注特徵但不具有狂暴特徵的行動。你可以在狂暴時進行@UUID[Compendium.pf2e.actionspf2e.BlAOM2X92SI6HMtJ]{搜尋 Seek}。</li>\n</ul>\n<p>在你停止狂暴後，你失去狂暴賦予的所有臨時生命值，並且在1分鐘內無法再次狂暴。</p>\n<p>賦予效果:</p>\n<ul>\n<li>根據等級及體質調整值賦予臨時生命值</li>\n<li>應用狂暴傷害</li>\n<li>指示物特效</li>\n</ul>"
        },
        "Effect: Ancestor Curse": {
            "name": "效果: 先祖詛咒 Ancestor Curse"
        },
        "Effect: Major Martial Ancestor Curse": {
            "name": "效果: 尚武先祖高階詛咒 Major Martial Ancestor Curse",
            "description": "<p>今天輪到這位先祖引導你了。每天你初次受到低階詛咒影響時，根據下表的先祖影響，骰[[/r 1d4]]決定今天的負責先祖。</p>\n<p>負責先祖會按其偏好來指引你對應的動作。當你嘗試使用列在其它先祖偏好欄裡的動作型別時，進行一次@Check[type:flat|dc:4]，失敗則動作消耗但不產生效果（若施放法術因此失敗，不會損失法術）。若你的動作或行動需要1分鐘或更久，則因其耗時過長，你能克服先祖的干擾，不需要進行這次純骰檢定。</p>\n<p>在戰鬥或其它按輪進行的遭遇中，先祖們會爭搶干涉你的機會。在骰先攻和你的每個回合結束時，骰[[/r 1d4]]並改變當前的負責先祖。當遭遇結束後，負責先祖會歸還給本日最初骰出的那一位。</p>\n<h4>先祖影響 Ancestral Influence</h4>\n<ol>\n<li>尚武先祖 Martial Ancestor\n<ul>\n<li><strong>偏好動作</strong> 打擊</li>\n<li><strong>高階詛咒增益</strong> 你使用打擊時，攻擊骰獲得+1狀態加值，傷害獲得+6狀態加值</li>\n</ul>\n</li>\n<li>巧技先祖 Skillful Ancestor\n<ul>\n<li><strong>偏好動作</strong> 察覺和技能動作</li>\n</ul>\n</li>\n<li>法術先祖 Spellcasting Ancestor\n<ul>\n<li><strong>偏好動作</strong> 施放法術</li>\n</ul>\n</li>\n<li>你自選影響你的先祖型別。</li>\n</ol>\n<hr />\n<p><em>注意：進行其他先祖偏好動作時，你需要手動進行純骰檢定。其餘效果已自動賦予。</em></p>"
        },
        "Effect: Major Skillful Ancestor Curse": {
            "name": "效果: 巧技先祖高階詛咒 Major Skillful Ancestor Curse",
            "description": "<p>今天輪到這位先祖引導你了。每天你初次受到低階詛咒影響時，根據下表的先祖影響，骰[[/r 1d4]]決定今天的負責先祖。</p>\n<p>負責先祖會按其偏好來指引你對應的動作。當你嘗試使用列在其它先祖偏好欄裡的動作型別時，進行一次@Check[type:flat|dc:4]，失敗則動作消耗但不產生效果（若施放法術因此失敗，不會損失法術）。若你的動作或行動需要1分鐘或更久，則因其耗時過長，你能克服先祖的干擾，不需要進行這次純骰檢定。</p>\n<p>在戰鬥或其它按輪進行的遭遇中，先祖們會爭搶干涉你的機會。在骰先攻和你的每個回合結束時，骰[[/r 1d4]]並改變當前的負責先祖。當遭遇結束後，負責先祖會歸還給本日最初骰出的那一位。</p>\n<h4>先祖影響 Ancestral Influence</h4>\n<ol>\n<li>尚武先祖 Martial Ancestor\n<ul>\n<li><strong>偏好動作</strong> 打擊</li>\n</ul>\n</li>\n<li>巧技先祖 Skillful Ancestor\n<ul>\n<li><strong>偏好動作</strong> 察覺和技能動作</li>\n<li><strong>高階詛咒增益</strong> 你的技能檢定和察覺檢定獲得+2狀態加值。</li>\n</ul>\n</li>\n<li>法術先祖 Spellcasting Ancestor\n<ul>\n<li><strong>偏好動作</strong> 施放法術</li>\n</ul>\n</li>\n<li>你自選影響你的先祖型別。</li>\n</ol>\n<hr />\n<p><em>注意：進行其他先祖偏好動作時，你需要手動進行純骰檢定。其餘效果已自動賦予。</em></p>"
        },
        "Effect: Major Spellcasting Ancestor Curse": {
            "name": "效果: 法術先祖高階詛咒 Major Spellcasting Ancestor Curse",
            "description": "<p>今天輪到這位先祖引導你了。每天你初次受到低階詛咒影響時，根據下表的先祖影響，骰[[/r 1d4]]決定今天的負責先祖。</p>\n<p>負責先祖會按其偏好來指引你對應的動作。當你嘗試使用列在其它先祖偏好欄裡的動作型別時，進行一次@Check[type:flat|dc:4]，失敗則動作消耗但不產生效果（若施放法術因此失敗，不會損失法術）。若你的動作或行動需要1分鐘或更久，則因其耗時過長，你能克服先祖的干擾，不需要進行這次純骰檢定。</p>\n<p>在戰鬥或其它按輪進行的遭遇中，先祖們會爭搶干涉你的機會。在骰先攻和你的每個回合結束時，骰[[/r 1d4]]並改變當前的負責先祖。當遭遇結束後，負責先祖會歸還給本日最初骰出的那一位。</p>\n<h4>先祖影響 Ancestral Influence</h4>\n<ol>\n<li>尚武先祖 Martial Ancestor\n<ul>\n<li><strong>偏好動作</strong> 打擊</li>\n</ul>\n</li>\n<li>巧技先祖 Skillful Ancestor\n<ul>\n<li><strong>偏好動作</strong> 察覺和技能動作</li>\n</ul>\n</li>\n<li>法術先祖 Spellcasting Ancestor\n<ul>\n<li><strong>偏好動作</strong> 施放法術</li>\n<li><strong>高階詛咒增益</strong> 非戲法無持續時間的法術在傷害和治療上獲得等於法術環級+3的狀態加值。</li>\n</ul>\n</li>\n<li>你自選影響你的先祖型別。</li>\n</ol>\n<hr />\n<p><em>注意：你需要手動執行本詛咒的效果。</em></p>"
        },
        "Effect: Minor Martial Ancestor Curse": {
            "name": "效果: 尚武先祖低階詛咒 Minor Martial Ancestor Curse",
            "description": "<p>今天輪到這位先祖引導你了。每天你初次受到低階詛咒影響時，根據下表的先祖影響，骰[[/r 1d4]]決定今天的負責先祖。</p>\n<p>負責先祖會按其偏好來指引你對應的動作。當你嘗試使用列在其它先祖偏好欄裡的動作型別時，進行一次@Check[type:flat|dc:4]，失敗則動作消耗但不產生效果（若施放法術因此失敗，不會損失法術）。若你的動作或行動需要1分鐘或更久，則因其耗時過長，你能克服先祖的干擾，不需要進行這次純骰檢定。</p>\n<p>在戰鬥或其它按輪進行的遭遇中，先祖們會爭搶干涉你的機會。在骰先攻和你的每個回合結束時，骰[[/r 1d4]]並改變當前的負責先祖。當遭遇結束後，負責先祖會歸還給本日最初骰出的那一位。</p>\n<h4>先祖影響 Ancestral Influence</h4>\n<ol>\n<li>尚武先祖 Martial Ancestor\n<ul>\n<li><strong>偏好動作</strong> 打擊</li>\n</ul>\n</li>\n<li>巧技先祖 Skillful Ancestor\n<ul>\n<li><strong>偏好動作</strong> 察覺和技能動作</li>\n</ul>\n</li>\n<li>法術先祖 Spellcasting Ancestor\n<ul>\n<li><strong>偏好動作</strong> 施放法術</li>\n</ul>\n</li>\n<li>你自選影響你的先祖型別。</li>\n</ol>\n<hr />\n<p><em>注意：你需要手動執行本詛咒的效果。</em></p>"
        },
        "Effect: Minor Skillful Ancestor Curse": {
            "name": "效果: 巧技先祖低階詛咒 Minor Skillful Ancestor Curse",
            "description": "<p>今天輪到這位先祖引導你了。每天你初次受到低階詛咒影響時，根據下表的先祖影響，骰[[/r 1d4]]決定今天的負責先祖。</p>\n<p>負責先祖會按其偏好來指引你對應的動作。當你嘗試使用列在其它先祖偏好欄裡的動作型別時，進行一次@Check[type:flat|dc:4]，失敗則動作消耗但不產生效果（若施放法術因此失敗，不會損失法術）。若你的動作或行動需要1分鐘或更久，則因其耗時過長，你能克服先祖的干擾，不需要進行這次純骰檢定。</p>\n<p>在戰鬥或其它按輪進行的遭遇中，先祖們會爭搶干涉你的機會。在骰先攻和你的每個回合結束時，骰[[/r 1d4]]並改變當前的負責先祖。當遭遇結束後，負責先祖會歸還給本日最初骰出的那一位。</p>\n<h4>先祖影響 Ancestral Influence</h4>\n<ol>\n<li>尚武先祖 Martial Ancestor\n<ul>\n<li><strong>偏好動作</strong> 打擊</li>\n</ul>\n</li>\n<li>巧技先祖 Skillful Ancestor\n<ul>\n<li><strong>偏好動作</strong> 察覺和技能動作</li>\n</ul>\n</li>\n<li>法術先祖 Spellcasting Ancestor\n<ul>\n<li><strong>偏好動作</strong> 施放法術</li>\n</ul>\n</li>\n<li>你自選影響你的先祖型別。</li>\n</ol>\n<hr />\n<p><em>注意：你需要手動執行本詛咒的效果。</em></p>"
        },
        "Effect: Minor Spellcaster Ancestor Curse": {
            "name": "效果: 法術先祖低階詛咒 Minor Spellcaster Ancestor Curse",
            "description": "<p>今天輪到這位先祖引導你了。每天你初次受到低階詛咒影響時，根據下表的先祖影響，骰[[/r 1d4]]決定今天的負責先祖。</p>\n<p>負責先祖會按其偏好來指引你對應的動作。當你嘗試使用列在其它先祖偏好欄裡的動作型別時，進行一次@Check[type:flat|dc:4]，失敗則動作消耗但不產生效果（若施放法術因此失敗，不會損失法術）。若你的動作或行動需要1分鐘或更久，則因其耗時過長，你能克服先祖的干擾，不需要進行這次純骰檢定。</p>\n<p>在戰鬥或其它按輪進行的遭遇中，先祖們會爭搶干涉你的機會。在骰先攻和你的每個回合結束時，骰[[/r 1d4]]並改變當前的負責先祖。當遭遇結束後，負責先祖會歸還給本日最初骰出的那一位。</p>\n<h4>先祖影響 Ancestral Influence</h4>\n<ol>\n<li>尚武先祖 Martial Ancestor\n<ul>\n<li><strong>偏好動作</strong> 打擊</li>\n</ul>\n</li>\n<li>巧技先祖 Skillful Ancestor\n<ul>\n<li><strong>偏好動作</strong> 察覺和技能動作</li>\n</ul>\n</li>\n<li>法術先祖 Spellcasting Ancestor\n<ul>\n<li><strong>偏好動作</strong> 施放法術</li>\n</ul>\n</li>\n<li>你自選影響你的先祖型別。</li>\n</ol>\n<hr />\n<p><em>注意：你需要手動執行本詛咒的效果。</em></p>"
        },
        "Effect: Moderate Martial Ancestor Curse": {
            "name": "效果: 尚武先祖中階詛咒 Moderate Martial Ancestor Curse",
            "description": "<p>今天輪到這位先祖引導你了。每天你初次受到低階詛咒影響時，根據下表的先祖影響，骰[[/r 1d4]]決定今天的負責先祖。</p>\n<p>負責先祖會按其偏好來指引你對應的動作。當你嘗試使用列在其它先祖偏好欄裡的動作型別時，進行一次@Check[type:flat|dc:4]，失敗則動作消耗但不產生效果（若施放法術因此失敗，不會損失法術）。若你的動作或行動需要1分鐘或更久，則因其耗時過長，你能克服先祖的干擾，不需要進行這次純骰檢定。</p>\n<p>在戰鬥或其它按輪進行的遭遇中，先祖們會爭搶干涉你的機會。在骰先攻和你的每個回合結束時，骰[[/r 1d4]]並改變當前的負責先祖。當遭遇結束後，負責先祖會歸還給本日最初骰出的那一位。</p>\n<h4>先祖影響 Ancestral Influence</h4>\n<ol>\n<li>尚武先祖 Martial Ancestor\n<ul>\n<li><strong>偏好動作</strong> 打擊</li>\n<li><strong>中階詛咒增益</strong> 你使用打擊時，攻擊骰獲得+1狀態加值，傷害獲得+2狀態加值。</li>\n</ul>\n</li>\n<li>巧技先祖 Skillful Ancestor\n<ul>\n<li><strong>偏好動作</strong> 察覺和技能動作</li>\n</ul>\n</li>\n<li>法術先祖 Spellcasting Ancestor\n<ul>\n<li><strong>偏好動作</strong> 施放法術</li>\n</ul>\n</li>\n<li>你自選影響你的先祖型別。</li>\n</ol>\n<hr />\n<p><em>注意：進行其他先祖偏好動作時，你需要手動進行純骰檢定。其餘效果已自動賦予。</em></p>"
        },
        "Effect: Moderate Skillful Ancestor Curse": {
            "name": "效果: 巧技先祖中階詛咒 Moderate Skillful Ancestor Curse",
            "description": "<p>今天輪到這位先祖引導你了。每天你初次受到低階詛咒影響時，根據下表的先祖影響，骰[[/r 1d4]]決定今天的負責先祖。</p>\n<p>負責先祖會按其偏好來指引你對應的動作。當你嘗試使用列在其它先祖偏好欄裡的動作型別時，進行一次@Check[type:flat|dc:4]，失敗則動作消耗但不產生效果（若施放法術因此失敗，不會損失法術）。若你的動作或行動需要1分鐘或更久，則因其耗時過長，你能克服先祖的干擾，不需要進行這次純骰檢定。</p>\n<p>在戰鬥或其它按輪進行的遭遇中，先祖們會爭搶干涉你的機會。在骰先攻和你的每個回合結束時，骰[[/r 1d4]]並改變當前的負責先祖。當遭遇結束後，負責先祖會歸還給本日最初骰出的那一位。</p>\n<h4>先祖影響 Ancestral Influence</h4>\n<ol>\n<li>尚武先祖 Martial Ancestor\n<ul>\n<li><strong>偏好動作</strong> 打擊</li>\n</ul>\n</li>\n<li>巧技先祖 Skillful Ancestor\n<ul>\n<li><strong>偏好動作</strong> 察覺和技能動作</li>\n<li><strong>中階詛咒增益</strong> 你的技能檢定和察覺檢定獲得+1狀態加值。</li>\n</ul>\n</li>\n<li>法術先祖 Spellcasting Ancestor\n<ul>\n<li><strong>偏好動作</strong> 施放法術</li>\n</ul>\n</li>\n<li>你自選影響你的先祖型別。</li>\n</ol>\n<hr />\n<p><em>注意：進行其他先祖偏好動作時，你需要手動進行純骰檢定。其餘效果已自動賦予。</em></p>"
        },
        "Effect: Moderate Spellcasting Ancestor Curse": {
            "name": "效果: 法術先祖中階詛咒 Moderate Spellcasting Ancestor Curse",
            "description": "<p>今天輪到這位先祖引導你了。每天你初次受到低階詛咒影響時，根據下表的先祖影響，骰[[/r 1d4]]決定今天的負責先祖。</p>\n<p>負責先祖會按其偏好來指引你對應的動作。當你嘗試使用列在其它先祖偏好欄裡的動作型別時，進行一次@Check[type:flat|dc:4]，失敗則動作消耗但不產生效果（若施放法術因此失敗，不會損失法術）。若你的動作或行動需要1分鐘或更久，則因其耗時過長，你能克服先祖的干擾，不需要進行這次純骰檢定。</p>\n<p>在戰鬥或其它按輪進行的遭遇中，先祖們會爭搶干涉你的機會。在骰先攻和你的每個回合結束時，骰[[/r 1d4]]並改變當前的負責先祖。當遭遇結束後，負責先祖會歸還給本日最初骰出的那一位。</p>\n<h4>先祖影響 Ancestral Influence</h4>\n<ol>\n<li>尚武先祖 Martial Ancestor\n<ul>\n<li><strong>偏好動作</strong> 打擊</li>\n</ul>\n</li>\n<li>巧技先祖 Skillful Ancestor\n<ul>\n<li><strong>偏好動作</strong> 察覺和技能動作</li>\n</ul>\n</li>\n<li>法術先祖 Spellcasting Ancestor\n<ul>\n<li><strong>偏好動作</strong> 施放法術</li>\n<li><strong>中階詛咒增益</strong> 非戲法無持續時間的法術在傷害和治療上獲得等於法術環級的狀態加值。</li>\n</ul>\n</li>\n<li>你自選影響你的先祖型別。</li>\n</ol>\n<hr />\n<p><em>注意：你需要手動執行本詛咒的效果。</em></p>"
        },
        "Effect: Shield Ally": {
            "name": "效果: 堅盾盟友 Shield Ally",
            "description": "<p>你手中盾牌的硬度增加2。</p>"
        },
        "Effect: Battle Curse": {
            "name": "效果: 戰爭祕示域詛咒 Battle Curse",
            "description": "<p><em>注意: 高階詛咒效果中未包含@UUID[Compendium.pf2e.conditionitems.e1XGnhKNSQIm5IXg]{呆滯 Stupefied 2}。</em></p>"
        },
        "Effect: Bones Curse": {
            "name": "效果: 骸骨祕示域詛咒 Bones Curse"
        },
        "Effect: Cosmos Curse": {
            "name": "效果: 宇宙祕示域詛咒 Cosmos Curse"
        },
        "Effect: Flames Curse": {
            "name": "效果: 烈焰祕示域詛咒 Flames Curse"
        },
        "Effect: Major Battle Curse": {
            "name": "效果: 戰爭祕示域高階詛咒 Major Battle Curse",
            "description": "<p>你的身體有能力完成英雄壯舉，但這樣做會干擾你的精神專注。</p>\n<p>你的AC和豁免獲得-2狀態減值，你獲得@UUID[Compendium.pf2e.conditionitems.e1XGnhKNSQIm5IXg]{呆滯 Stupefied 2}。</p>\n<p>你的武器和無武裝攻擊的攻擊骰獲得+1狀態加值。你的武器傷害和無武裝攻擊傷害都獲得+6狀態加值。</p>\n<p>在重要的戰鬥遭遇中你獲得等於你等級的@UUID[Compendium.pf2e.bestiary-ability-glossary-srd.fJSNOw4zHGbIm4bZ]{快速癒合 Fast Healing}。</p>\n<hr />\n<p><em>注意：你需要手動新增呆滯和快速癒合狀態。其餘效果已自動化。</em></p>"
        },
        "Effect: Major Bones Curse": {
            "name": "效果: 骸骨祕示域高階詛咒 Major Bones Curse",
            "description": "<p>你距離下葬僅一步之遙。</p>\n<p>恢復你HP的非魔法效果只會回覆正常一半的HP。</p>\n<p>你獲得@UUID[Compendium.pf2e.conditionitems.4D2KBtexWXa6oUMR]{流失 Drained 1}，該流失狀態和其它流失狀態疊加。該流失狀態僅在你再聚能時移除；通常能移除流失狀態的效果改為最多隻會將你的流失值降為1。</p>\n<p>你獲得@UUID[Compendium.pf2e.conditionitems.Yl48xTdMh3aeQYL2]{受傷 Wounded 1}。該受傷狀態僅在你再聚能時移除；通常能移除受傷狀態的效果改為最多隻會將你的受傷值降為1。</p>\n<p>另外，你獲得等於人物等級的毒素抗力。</p>\n<p>你在對抗疾病、毒素和死亡效果的豁免檢定上獲得+4狀態加值，且若你在上述豁免中骰出成功，視為大成功。</p>\n<p>當你進行復蘇檢定時，你可以選擇自動成功而非投骰子，另外，當你在對抗疾病、毒素、死亡效果的豁免檢定中骰出大失敗時，可以視為失敗。</p>\n<hr />\n<p><em>注意：豁免檢定的加值已自動化。你需要手動處理其他效果。</em></p>"
        },
        "Effect: Major Cosmos Curse": {
            "name": "效果: 宇宙祕示域高階詛咒 Major Cosmos Curse",
            "description": "<p>隨著肉體飛逝，你現在開始能浮在地面上。</p>\n<p>你獲得@UUID[Compendium.pf2e.conditionitems.MIRkyAjyBeXivMa7]{力竭 Enfeebled 4}，並在對抗@UUID[Compendium.pf2e.actionspf2e.PMbdMWc2QroouFGD]{擒拿 Grapple}、@UUID[Compendium.pf2e.actionspf2e.7blmbDrQFNfdT731]{推撞 Shove}和任何形式的強制移動時，豁免和DC受到-4減值。</p>\n<p>對抗風效果時，你的體型視為小1級。對抗@UUID[Compendium.pf2e.actionspf2e.ge56Lu1xXVFYUnLP]{摔絆 Trip}時你獲得+2狀態加值，你只受到一半的墜落傷害，你獲得@UUID[Compendium.pf2e.feats-srd.HJYQlmGTdtyGWr6a]{強力跳躍 Powerful Leap}專長和@UUID[Compendium.pf2e.feats-srd.ZBhvJ9O8MvBFAlhq]{迅速跳躍 Quick Jump}專長的效果。你的重量只有平常一半，其他人試圖攜帶你時，計算你的負載也只有一半。</p>\n<p>你可以在液體表面行走，如同其為固體一般；你獲得@UUID[Compendium.pf2e.feats-srd.TVFfTP9fHRidwBlW]{梯雲縱 Cloud Jump}專長效果；你不會留下足跡、不會觸發重量感應壓板、也不會與腳下的地面有接觸。</p>\n<hr />\n<p><em>注意：豁免檢定上的加值和減值已自動化。你需要手動處理其餘效果。</em></p>"
        },
        "Effect: Major Flames Curse": {
            "name": "效果: 烈焰祕示域高階詛咒 Major Flames Curse",
            "description": "<p>環繞周身的火焰不再是幻覺了。</p>\n<p>你對其它生物而言處於@UUID[Compendium.pf2e.conditionitems.DmAIPqOBomZ7H95W]{隱蔽 Concealed}狀態，不過因其它生物未受先知詛咒，他們可以正常從忽視和削弱隱蔽狀態的效果中受益。所有生物和物品對你來說都無視距離變為隱蔽狀態，但當你對30尺內的目標施放火焰法術時，你在因該詛咒產生的隱蔽進行的純骰檢定中自動成功。</p>\n<p>對於30尺外的事物，你的所有感官都會變成模糊感官，意味著30尺外所有生物對你而言都是@UUID[Compendium.pf2e.conditionitems.iU0fEDdBp3rXpTMC]{藏匿 Hidden}狀態。</p>\n<p>你獲得一個@Template[type:emanation|distance:10]{10尺瀰漫}範圍的火焰靈光，在你的回合結束時，對所有位於靈光範圍內的其它生物造成[[/r (4d6)[fire]]]{4d6火焰傷害}（基礎反射豁免）。每輪你自己回合結束時，你無豁免失去[[/r 1d6]]點HP；若你對火焰有弱點，失去的HP會增加弱點點數。</p>\n<p>你可用1個動作將靈光壓制到你下一回合開始，該動作有專注特徵，壓制後火焰縮小，暫時不會對靈光內的生物和你造成傷害。當你再聚能減弱先知詛咒時，你可以自動壓制火焰，使再聚能中不因此損失HP。你@UUID[Compendium.pf2e.conditionitems.fBnFDH2MTzgFijKf]{失去意識 Unconscious}後火焰亦會平息，但甦醒後會繼續瀰漫，直到你休息足夠長時間，詛咒減弱後才會停歇。和其它先知詛咒相同，你無法用任何方法減少和抵抗因此火焰損失的HP，不過你可以在損失後正常進行治療。</p>\n<hr />\n<p><em>注意：你需要手動處理本詛咒的效果。</em></p>"
        },
        "Effect: Minor Battle Curse": {
            "name": "效果: 戰爭祕示域低階詛咒 Minor Battle Curse",
            "description": "<p>沒有為敵人帶來痛苦時，身體就會虛弱。</p>\n<p>你的AC和豁免獲得-2狀態減值，但當你進行一次打擊時，你會壓制這些罰值，直到你的下一回合開始。</p>\n<hr />\n<p><em>注意：本詛咒的效果已自動化。</em></p>"
        },
        "Effect: Minor Bones Curse": {
            "name": "效果: 骸骨祕示域低階詛咒 Minor Bones Curse",
            "description": "<p>骨骼露出體外，身體逐漸腐爛，屍臭慢慢飄起，寒氣不斷散發。</p>\n<p>恢復你HP的非魔法效果只會回覆正常一半的HP。</p>\n<hr />\n<p><em>注意：你需要手動新增本詛咒的效果。</em></p>"
        },
        "Effect: Minor Cosmos Curse": {
            "name": "效果: 宇宙祕示域低階詛咒 Minor Cosmos Curse",
            "description": "<p>不自然的輕盈使你難以保持正常步伐和使用物品。</p>\n<p>你獲得@UUID[Compendium.pf2e.conditionitems.MIRkyAjyBeXivMa7]{力竭 Enfeebled 1}，並在對抗@UUID[Compendium.pf2e.actionspf2e.PMbdMWc2QroouFGD]{擒拿 Grapple}、@UUID[Compendium.pf2e.actionspf2e.7blmbDrQFNfdT731]{推撞 Shove}和任何形式的強制移動時，豁免和DC受到-2減值。</p>\n<hr />\n<p><em>注意：你需要手動處理本詛咒的效果。</em></p>"
        },
        "Effect: Minor Flames Curse": {
            "name": "效果: 烈焰祕示域低階詛咒 Minor Flames Curse",
            "description": "<p>煙塵、熱浪和火光佔據了你所有的感官的部分。</p>\n<p>30尺外的生物對你來說是@UUID[Compendium.pf2e.conditionitems.DmAIPqOBomZ7H95W]{隱蔽 Concealed}狀態。你不會從忽視和削弱隱蔽狀態的效果中受益，作為先知詛咒效果處理。</p>\n<hr />\n<p><em>注意：你需要手動處理本詛咒的效果。</em></p>"
        },
        "Effect: Moderate Battle Curse": {
            "name": "效果: 戰爭祕示域中階詛咒 Moderate Battle Curse",
            "description": "<p>戰鬥的緊張感無法驅除，就算你從中汲取活力亦是如此。</p>\n<p>進行打擊只會將低階詛咒給與的減值壓制到-1而不是完全壓制住。</p>\n<p>你的武器傷害和無武裝攻擊傷害都獲得+2狀態加值。</p>\n<p>在重要的戰鬥遭遇中你獲得等於你等級一半的@UUID[Compendium.pf2e.bestiary-ability-glossary-srd.fJSNOw4zHGbIm4bZ]{快速癒合 Fast Healing}。</p>\n<hr />\n<p><em>注意：你需要手動新增快速癒合狀態。其餘效果已自動化。</em></p>"
        },
        "Effect: Moderate Bones Curse": {
            "name": "效果: 骸骨祕示域中階詛咒 Moderate Bones Curse",
            "description": "<p>身體繼續腐爛，開始影響到你的健康。</p>\n<p>恢復你HP的非魔法效果只會回覆正常一半的HP。</p>\n<p>你獲得@UUID[Compendium.pf2e.conditionitems.4D2KBtexWXa6oUMR]{流失 Drained 1}，該流失狀態和其它流失狀態疊加。該流失狀態僅在你再聚能時移除；通常能移除流失狀態的效果改為最多隻會將你的流失值降為1。</p>\n<p>另外，你獲得等於人物等級的毒素抗力。</p>\n<p>你在對抗疾病、毒素和死亡效果的豁免檢定上獲得+4狀態加值，且若你在上述豁免中骰出成功，視為大成功。</p>\n<hr />\n<p><em>注意：豁免檢定的加值已自動化。其餘效果你需要手動處理。</em></p>"
        },
        "Effect: Moderate Cosmos Curse": {
            "name": "效果: 宇宙祕示域中階詛咒 Moderate Cosmos Curse",
            "description": "<p>身體被吸入天空的部分愈加增多。</p>\n<p>你獲得@UUID[Compendium.pf2e.conditionitems.MIRkyAjyBeXivMa7]{力竭 Enfeebled 2}，並在對抗@UUID[Compendium.pf2e.actionspf2e.PMbdMWc2QroouFGD]{擒拿 Grapple}、@UUID[Compendium.pf2e.actionspf2e.7blmbDrQFNfdT731]{推撞 Shove}和任何形式的強制移動時，豁免和DC受到-3減值。</p>\n<p>對抗風效果時，你的體型視為小1級。對抗@UUID[Compendium.pf2e.actionspf2e.ge56Lu1xXVFYUnLP]{摔絆 Trip}時你獲得+2狀態加值，你只受到一半的墜落傷害，你獲得@UUID[Compendium.pf2e.feats-srd.HJYQlmGTdtyGWr6a]{強力跳躍 Powerful Leap}專長和@UUID[Compendium.pf2e.feats-srd.ZBhvJ9O8MvBFAlhq]{迅速跳躍 Quick Jump}專長的效果。你的重量只有平常一半，其他人試圖攜帶你時，計算你的負載也只有一半。</p>\n<hr />\n<p><em>注意：豁免檢定上的加值和減值已自動化。你需要手動處理其餘效果。</em></p>"
        },
        "Effect: Moderate Flames Curse": {
            "name": "效果: 烈焰祕示域中階詛咒 Moderate Flames Curse",
            "description": "<p>煙塵和焰尾愈加充斥著你的視界，無害的閃光和火花開始出現在你的周圍。</p>\n<p>你對其它生物而言處於@UUID[Compendium.pf2e.conditionitems.DmAIPqOBomZ7H95W]{隱蔽 Concealed}狀態，不過因其它生物未受先知詛咒，他們可以正常從忽視和削弱隱蔽狀態的效果中受益。所有生物和物品對你來說都無視距離變為隱蔽狀態，但當你對30尺內的目標施放火焰法術時，你在因該詛咒產生的隱蔽進行的純骰檢定中自動成功。</p>\n<p>對於30尺外的事物，你的所有感官都會變成模糊感官，意味著30尺外所有生物對你而言都是@UUID[Compendium.pf2e.conditionitems.iU0fEDdBp3rXpTMC]{藏匿 Hidden}狀態。</p>\n<hr />\n<p><em>注意：你需要手動處理本詛咒的效果。</em></p>"
        },
        "Effect: Life Curse": {
            "name": "效果: 生命祕示域詛咒 Life Curse"
        },
        "Effect: Lore Curse": {
            "name": "效果: 知識祕示域詛咒 Lore Curse"
        },
        "Effect: Major Life Curse": {
            "name": "效果: 生命祕示域高階詛咒 Major Life Curse",
            "description": "<p>生命力的擴散增幅了你的魔力。你的某些法術會附帶上正能量。</p>\n<p>應用在你身上的恢復HP的效果，在為你恢復HP時，獲得等於你等級一半（最低為1）的狀態減值。此外，你無法被來源並非自己的魔法效果治療。不過，若你失去意識，魔法效果可以將你恢復至1HP（無法更高）。你能正常受到治療靈藥、藥水和道具的恢復。</p>\n<p>當你施放<em>@UUID[Compendium.pf2e.spells-srd.rfZpqmj0AIIdkVIs]{治療術 Heal}</em>且所有目標都是活物時，你可將D8骰替換為D12骰來決定治療術的效果。</p>\n<p>當你施放完一個非戲法法術後，你可選擇法術目標之一或最靠近你的生物之一，恢復等同法術環級的HP。你無法用此法治療自己。該次治療擁有治療、死靈系、正能量特徵，同時擁有觸發法術對應的根源特徵。</p>\n<p>每當你使用法術位施放一個至少需要2動作的5環或更高環法術時，溢散出的正能量對@Template[type:burst|distance:30]{30尺爆發範圍}造成一個3動作<em>@UUID[Compendium.pf2e.spells-srd.rfZpqmj0AIIdkVIs]{治療術 Heal}</em>效果，該治療術等效環級為你所施放法術的環級-4。這次治療在你施放法術完畢後立刻生效。你不會從這次治療中獲得恢復，相反，你會失去該次治療術治療量雙倍的HP。</p>\n<hr />\n<p><em>注意：你需要手動處理本詛咒的效果。</em></p>"
        },
        "Effect: Major Lore Curse": {
            "name": "效果: 知識祕示域高階詛咒 Major Lore Curse",
            "description": "<p>巨量縈繞內心的資訊已經完全遮蔽了你和其他人交流的意識。此時你可以理解所有語言，但你無法說、使用語言效果、也無法和盟友交流。</p>\n<p>你的先攻受到-4減值，表現在當發生事件時極大量的情報和資訊衝擊你的思維，減緩了你的反應速度。</p>\n<p>你會不自覺地將注意力轉移到這些資訊中，使自己一直處於@UUID[Compendium.pf2e.conditionitems.AJh5ex99aV6VTggg]{措手不及 Flat-Footed}狀態中。</p>\n<p>在你的每個回合開始時，你自動以自由動作進行一次@UUID[Compendium.pf2e.actionspf2e.1OagaWtBpVXExToo]{回憶知識 Recall Knowledge}檢定。該回憶知識的技能由你自選，檢定結果固定為10+你在該技能上的熟練加值（沒有其他加值、減值或調整值）。</p>\n<p>若你施放擁有聲音成分的法術，你必須通過@Check[type:flat|dc:5]，否則失去該法術。</p>\n<p>你在對抗語言效果的豁免中獲得+4狀態加值。</p>\n<hr />\n<p><em>注意：豁免檢定的加值以及先攻減值已自動化。其餘效果你需要手動處理。</em></p>"
        },
        "Effect: Major Tempest Curse": {
            "name": "效果: 風暴祕示域高階詛咒 Major Tempest Curse",
            "description": "<p>一股旋風靈光在你周圍@Template[type:emanation|distance:15]{15尺瀰漫}範圍中不斷旋轉。在你點燃或靠近小型非魔法火焰1輪後，火焰會自動熄滅。你身上迸發出的風力能夠阻止人物靠近。瞄準你或以你為源點的物理彈藥遠端攻擊因該風雨靈光受到-2環境減值。</p>\n<p>你身上迸發出的風力能夠阻止人物靠近。對於站在地面的大型或更小生物而言，和對於飛行的超大或更小生物而言，靈光內為困難地形。你不受自己的靈光困難地形影響。</p>\n<p>這股風雨產生了電能，將你變成了發光棒；你獲得5點或等級一半的電擊弱點，取其高者，不過與此同時風雨也提供給你等量的火焰抗力。對穿戴持握金屬的目標有額外效果的法術或效果會將你視為穿戴有金屬而產生額外效果。</p>\n<p>你身上的電弧已十分危險，任何觸碰（包括法術接觸攻擊或近戰無武裝攻擊）你的生物都會受到[[/r (1d6)[electricity]]]{1d6電擊傷害}。正常來說，這不影響你碰觸的生物。</p>\n<hr />\n<p><em>注意：你的遠端攻擊骰減值已自動化。你需要手動處理其餘效果。</em><em></em></p>"
        },
        "Effect: Minor Life Curse": {
            "name": "效果: 生命祕示域低階詛咒 Minor Life Curse",
            "description": "<p>隨著生命開始流出，控制身體執行變得有所困難。</p>\n<p>應用在你身上的恢復HP的效果，在為你恢復HP時，獲得等於你等級一半（最低為1）的狀態減值。</p>\n<hr />\n<p><em>注意：你需要手動處理本詛咒的效果。</em></p>"
        },
        "Effect: Minor Lore Curse": {
            "name": "效果: 知識祕示域低階詛咒 Minor Lore Curse",
            "description": "<p>你的先攻受到-4減值，表現在當發生事件時極大量的情報和資訊衝擊你的思維，減緩了你的反應速度。</p>\n<hr />\n<p><em>注意：本詛咒的效果已自動化。</em></p>"
        },
        "Effect: Minor Tempest Curse": {
            "name": "效果: 風暴祕示域低階詛咒 Minor Tempest Curse",
            "description": "<p>一股旋風靈光在你周圍@Template[type:emanation|distance:5]{5尺瀰漫}範圍中不斷旋轉。在你點燃或靠近小型非魔法火焰1輪後，火焰會自動熄滅。</p>\n<p>這股風雨產生了電能，將你變成了發光棒；你獲得2點電擊弱點，對穿戴持握金屬的目標有額外效果的法術或效果會將你視為穿戴有金屬而產生額外效果。</p>\n<hr />\n<p><em>注意：你需要手動處理本詛咒的效果。</em></p>"
        },
        "Effect: Moderate Life Curse": {
            "name": "效果: 生命祕示域中階詛咒 Moderate Life Curse",
            "description": "<p>流逝的生命力無法挽回。</p>\n<p>應用在你身上的恢復HP的效果，在為你恢復HP時，獲得等於你等級一半（最低為1）的狀態減值。此外，你無法被來源並非自己的魔法效果治療。不過，若你失去意識，魔法效果可以將你恢復至1HP（無法更高）。你能正常受到治療靈藥、藥水和道具的恢復。</p>\n<p>當你施放<em>@UUID[Compendium.pf2e.spells-srd.rfZpqmj0AIIdkVIs]{治療術 Heal}</em>且所有目標都是活物時，你可將D8骰替換為D12骰來決定治療術的效果。</p>\n<p>當你施放完一個非戲法法術後，你可選擇法術目標之一或最靠近你的生物之一，恢復等同法術環級的HP。你無法用此法治療自己。該次治療擁有治療、死靈系、正能量特徵，同時擁有觸發法術對應的根源特徵。</p>\n<hr />\n<p><em>注意：你需要手動處理本詛咒的效果。</em></p>"
        },
        "Effect: Moderate Lore Curse": {
            "name": "效果: 知識祕示域中階詛咒 Moderate Lore Curse",
            "description": "<p>資訊洪流開始在你的心智中發芽。</p>\n<p>你的先攻受到-4減值，表現在當發生事件時極大量的情報和資訊衝擊你的思維，減緩了你的反應速度。</p>\n<p>你會不自覺地將注意力轉移到這些資訊中，使自己一直處於@UUID[Compendium.pf2e.conditionitems.AJh5ex99aV6VTggg]{措手不及 Flat-Footed}狀態中。</p>\n<p>在你的每個回合開始時，你自動以自由動作進行一次@UUID[Compendium.pf2e.actionspf2e.1OagaWtBpVXExToo]{回憶知識 Recall Knowledge}檢定。該回憶知識的技能由你自選，檢定結果固定為10+你在該技能上的熟練加值（沒有其他加值、減值或調整值）。</p>\n<hr />\n<p><em>注意：先攻減值已自動化。其餘效果你需要手動處理。</em></p>"
        },
        "Effect: Moderate Tempest Curse": {
            "name": "效果: 風暴祕示域中階詛咒 Moderate Tempest Curse",
            "description": "<p>一股旋風靈光在你周圍@Template[type:emanation|distance:10]{10尺瀰漫}範圍中不斷旋轉。在你點燃或靠近小型非魔法火焰1輪後，火焰會自動熄滅。你身上迸發出的風力能夠阻止人物靠近。瞄準你或以你為源點的物理彈藥遠端攻擊因該風雨靈光受到-2環境減值。</p>\n<p>這股風雨產生了電能，將你變成了發光棒；你獲得5點或等級一半的電擊弱點，取其高者，不過與此同時風雨也提供給你等量的火焰抗力。對穿戴持握金屬的目標有額外效果的法術或效果會將你視為穿戴有金屬而產生額外效果。</p>\n<hr />\n<p><em>注意：你的遠端攻擊骰減值已自動化。你需要手動處理其餘效果。</em></p>"
        },
        "Effect: Tempest Curse": {
            "name": "效果: 風暴祕示域詛咒 Tempest Curse"
        },
        "Effect: Time Curse": {
            "name": "效果: 時間祕示域詛咒 Time Curse"
        },
        "Effect: Unleash Psyche": {
            "name": "效果: 心力解放 Unleash Psyche",
            "description": "<p>當你施展傷害性的法術時，你在法術傷害骰上獲得法術環級兩倍的狀態加值。這隻適用於沒有持續時間的法術和你心能者施法能力施放的法術。</p>"
        },
        "Effect: Enduring Debilitating Strike": {
            "name": "效果: 持久衰弱打擊 Enduring Debilitating Strike",
            "description": "<p>若遊蕩者具有@UUID[Compendium.pf2e.feats-srd.RzfWrOqHL2GcK0rr]{持久衰弱 Enduring Debilitation}專長，且對一個目標成功附加@UUID[Compendium.pf2e.actionspf2e.bp0Up04x3dzGK5bB]{衰弱打擊 Debilitating Strike}時獲得此效果。</p>\n<p><em>注意：此效果僅追蹤衰弱的持續時間。你需要手動新增遊蕩者選擇的負面效果。</em></p>"
        },
        "Effect: Celestial Wings": {
            "name": "效果: 天族飛翼 效果: Celestial Wings"
        },
        "Effect: Hydration": {
            "name": "效果: 補水 Hydration"
        },
        "Effect: Treat Wounds Immunity": {
            "name": "效果: 治療傷害免疫 Treat Wounds Immunity"
        },
        "Stance: Arcane Cascade": {
            "name": "架勢: 奧術奔湧 Arcane Cascade",
            "description": "<p><strong>需求</strong> 你已使用你最近的動作來施放法術或進行法術打擊</p>\n<hr />\n<p>你轉換一部分法術的魔法力量並通過使用特化的架式、吐納和步法，讓其在你的軀體和武器間迴圈。 當你處於架式中時，你的近戰打擊造成 [[/r (1}]]{1點額外傷害}。如果你具有武器專精，這個傷害增加到2。如果你具有高等武器專精，則增加到3。任何受益於此的打擊都獲得奧術特徵，使其魔法化。</p>\n<p>如果你進入架式前最近的法術是一個可以造成傷害的型別，來自於架式的傷害具有和這個法術造成傷害的相同型別（或者如果法術可以造成多種傷害型別則由你選擇型別）。如果這個法術不能造成傷害，架式的額外傷害取決於法術學派。</p>\n<ul>\n<li><strong>防護</strong>或<strong>塑能</strong> 力場</li>\n<li><strong>咒法</strong>火<strong>變化</strong> 與你武器或無武裝攻擊相同的型別</li>\n<li><strong>預言</strong>， <strong>惑控</strong>或<strong>幻術</strong> 心靈</li>\n<li><strong>死靈</strong> 負能量</li>\n</ul>"
        },
        "Effect: Aid": {
            "name": "效果: 協助 Aid",
            "description": "<p>你在被協助檢定上獲得環境加值，數值取決於盟友協助檢定的結果。</p>"
        },
        "Effect: Aquatic Combat": {
            "name": "效果: 水中戰鬥 Aquatic Combat"
        },
        "Effect: Aquatic Combat (No Swim Speed)": {
            "name": "效果: 水中戰鬥 Aquatic Combat (無游泳速度)"
        }
    },
    "label": "職業特性效果 Feature Effects"
}
