{
    "label": "族裔特性 Ancestry Features",
    "entries": {
        "Aquatic Adaptation": {
            "name": "水生適應 Aquatic Adaptation",
            "description": "<p>你的爬行類生理結構讓你能夠長時間屏住呼吸。你獲得@UUID[Compendium.pf2e.feats-srd.aJUXbe9HJVvv0Mxa]{龜息 Breath Control} 通用專長作為獎勵專長。 </p>"
        },
        "Automaton Core": {
            "name": "靈導械核心 Automaton Core",
            "description": "<p>你的軀體包含了一個灌注有位面精華的靈導械核心，其確保了你從事各種任務並保有你的靈魂和生命力。這種生命能量像類人生物的血液般流經你的軀體。它讓你成為一個活著的生物。你沒有一般構裝體的免疫能力，會被以活著生物為目標的效果所影響，並且可以如常通過正能量恢復生命。額外的，當生命值降為0時你不會被摧毀。取而代之的是，你的生命力會嘗試在險境中維持你的運作；當生命值將為0時，你被擊倒並瀕死（dying）。</p>"
        },
        "Bite": {
            "name": "齧咬 Bite",
            "description": "<p>你鋒利的牙齒和有利的下顎是可怕的武器。你擁有撕咬無武裝攻擊，造成1d6穿刺傷害。你的撕咬屬於搏擊（Brawling）武器組。</p>"
        },
        "Blunt Snout": {
            "name": "鈍鼻 Blunt Snout",
            "description": "<p>你小而短粗的鈍鼻和迷宮般的鼻竇系統讓你可以抵抗針對鼻子的攻擊。在面對吸入性威脅（例如吸入的毒藥）和嗅覺效果（例如戰蜥人惡臭）時，你的豁免檢定結果視為比擲骰結果提升一個等級。（譯註：大失敗變為失敗，失敗變為成功，成功變為大成功）</p>"
        },
        "Change Shape": {
            "name": "變身（狐妖） Change Shape",
            "description": "<p>身為狐妖，你獲得 @UUID[Compendium.pf2e.actionspf2e.wwvPiG2kET2rkSAG]{化形（狐妖） Change Shape (Kitsune)} 能力。</p>"
        },
        "Change Shape (Anadi)": {
            "name": "化形（半蛛人） Change Shape (Anadi)",
            "description": "<p>作為半蛛人，你獲得@UUID[Compendium.pf2e.actionspf2e.34E7k2YRcsOU5uyl]{化形（半蛛人） Change Shape (Anadi)} 能力。</p>"
        },
        "Clan Dagger": {
            "name": "氏族匕首 Clan Dagger",
            "description": "<p>你免費獲得一柄所屬氏族的@UUID[Compendium.pf2e.equipment-srd.kJJvKm80KwWXPukV]{氏族匕首 clan dagger}，它在你出生時就被交予你。出售這柄匕首是非常嚴重的禁忌，只會讓你被其他矮人蔑視。</p>"
        },
        "Claws": {
            "name": "利爪 Claws",
            "description": "<p>你尖利的爪子讓你與其他類人生物相比，擁有了另一種使用拳頭戰鬥的方式。你獲得利爪無武裝攻擊（claw unarmed attack），造成[[/r 1d4[slashing]]]傷害並且具有靈巧和嫻熟特性。</p>"
        },
        "Constructed": {
            "name": "被創造者 Constructed",
            "description": "<p>你的人造身體比單純的生物機體更能抵抗疾病。你對疾病、毒素和輻射的豁免檢定獲得+1環境加值。</p>"
        },
        "Constructed (Poppet)": {
            "name": "構造軀體（人偶） Constructed (Poppet)",
            "description": "<p>你身體的材料可以抵抗侵害肉體的惡性效果。你在對抗死亡效果、疾病和毒素時，以及在面對會使你陷入流失、麻痺或噁心狀態的效果時，在豁免上獲得+1環境加值。你的生命之火意味著你是一個活的生物，你像普通生物一樣被正能量治癒，被負能量傷害。</p>"
        },
        "Constructed Body": {
            "name": "構裝軀體 Constructed Body",
            "description": "<p>你生理學需求與其他活著的生物不同。你不需要吃飯飲水。你不需要睡覺，但是你依然需要每日休整期（daily period of rest）。在休整期，你必須進入2個小時的修復狀態，除了你依然警戒四周而無需承受 @UUID[Compendium.pf2e.conditionitems.fBnFDH2MTzgFijKf]{失去意識 Unconscious}減值以外，其和睡眠類似。格外與睡眠類似的是，如果你太長時間沒有進入你的修復狀態，你會 @UUID[Compendium.pf2e.conditionitems.HL2l2VRSaQHu9lUw]{疲乏 Fatigued}並且直到進入2小時的修復前都不能恢復狀態。</p>"
        },
        "Darkvision": {
            "name": "黑暗視覺 Darkvision",
            "description": "<p>擁有黑暗視覺的生物可以完美在黑暗和昏暗光中視物，只是這個視角下只能看到黑白二色。</p>"
        },
        "Draconic Exemplar": {
            "name": "龍血典範 Draconic Exemplar",
            "description": "<p>你能夠從龍血典範中汲取些許力量。從彩色或金屬龍中選擇一種作為你的龍血典範。這決定了你的鱗色以及外觀，根據GM的判斷，龍類有時候會對更加青睞那些與自身相近的狗頭人。你的龍血典範還會確定一些其他角色細節，詳細請使用龍血典範表。</p>\n<h3><strong>表1-1 龍血典範</strong></h3>\n<table class=\"pf2-table\">\n<thead>\n<tr>\n<th>龍種</th>\n<th>噴吐武器形狀</th>\n<th>傷害型別</th>\n<th>豁免檢定</th>\n</tr>\n</thead>\n<tbody>\n<tr>\n<td>黑龍</td>\n<td>線性</td>\n<td>酸液</td>\n<td>反射</td>\n</tr>\n<tr>\n<td>藍龍</td>\n<td>線性</td>\n<td>電擊</td>\n<td>反射</td>\n</tr>\n<tr>\n<td>綠龍</td>\n<td>錐形</td>\n<td>毒素</td>\n<td>強韌</td>\n</tr>\n<tr>\n<td>紅龍</td>\n<td>錐形</td>\n<td>火焰</td>\n<td>反射</td>\n</tr>\n<tr>\n<td>白龍</td>\n<td>錐形</td>\n<td>寒冷</td>\n<td>反射</td>\n</tr>\n<tr>\n<td>黃銅龍</td>\n<td>線性</td>\n<td>火焰</td>\n<td>反射</td>\n</tr>\n<tr>\n<td>青銅龍</td>\n<td>線性</td>\n<td>電擊</td>\n<td>反射</td>\n</tr>\n<tr>\n<td>赤銅龍</td>\n<td>線性</td>\n<td>酸液</td>\n<td>反射</td>\n</tr>\n<tr>\n<td>金龍</td>\n<td>錐形</td>\n<td>火焰</td>\n<td>反射</td>\n</tr>\n<tr>\n<td>銀龍</td>\n<td>錐形</td>\n<td>寒冷</td>\n<td>反射</td>\n</tr>\n</tbody>\n</table>"
        },
        "Emotionally Unaware": {
            "name": "無表情者 Emotionally Unaware",
            "description": "<p>你很難理解和表達複雜的情緒。在交涉、表演和察言觀色檢定中，你獲得-1環境減值。</p>"
        },
        "Eyes in Back": {
            "name": "眼觀六路 Eyes in Back",
            "description": "<p>You have eyes that point in several different directions and instinctively notice movement in the peripheries of your vision. When you use the Seek basic action, you can look for creatures in two areas instead of one. If precision is necessary, you can select two 30-foot cones or 15-foot bursts within line of sight instead of one.</p>"
        },
        "Fangs": {
            "name": "尖牙 Fangs",
            "description": "<p>你天生就具備捕獵和自衛的能力。你獲得尖牙非武裝攻擊，能造成[[/r 1d6[piercing]]]傷害。你的尖牙屬於搏擊武器組（brawling group）並且擁有嫻熟（finesse）、非武裝（unarmed）特徵。</p>"
        },
        "Flammable": {
            "name": "易燃性 Flammable",
            "description": "<p>你有對火焰傷害的弱點，相當於你等級的三分之一（最低為1）。</p>"
        },
        "Greater Darkvision": {
            "name": "高等黑暗視覺 Greater Darkvision",
            "description": "<p>擁有高等黑暗視覺的生物可以完美在黑暗和昏暗光中視物，只是這個視角下只能看到黑白二色。某些形式的魔法黑暗，例如4環<em>@UUID[Compendium.pf2e.spells-srd.4GE2ZdODgIQtg51c]{黑暗術 Darkness}</em>，能阻擋普通的 @UUID[Compendium.pf2e.ancestryfeatures.HHVQDp61ehcpdiU8]{黑暗視覺 Darkvision}，高等黑暗視覺才能看穿這些形式的魔法黑暗。</p>"
        },
        "Hydration": {
            "name": "補水 Hydration",
            "description": "<p>雖然你是一個兩棲生物，在陸地上和在水中同樣有能力，但你的身體要求你在24小時內至少返回水生環境一次。你必須浸泡在水中，以便為你適水的面板補充水分。</p>\n<p>如果你不這樣做，你的面板就會開始開裂，你的鰓會感到疼痛。在離開水的頭24小時後，你的強韌豁免會受到-1的狀態減值。48小時後，你會開始窒息，直到返回水中。</p>\n<p>@UUID[Compendium.pf2e.feat-effects.Q5FUu7yhWPJlcXei]{效果：補水}</p>"
        },
        "Keen Eyes": {
            "name": "銳眼 Keen Eyes",
            "description": "<p>敏銳的眼神讓你能發現其他人注意不到的隱蔽甚至隱形生物的蛛絲馬跡。使用@UUID[Compendium.pf2e.actionspf2e.BlAOM2X92SI6HMtJ]{搜尋 Seek} 動作尋找30尺內的@UUID[Compendium.pf2e.conditionitems.iU0fEDdBp3rXpTMC]{藏匿 Hidden}或@UUID[Compendium.pf2e.conditionitems.VRSef5y1LmL2Hkjf]{無蹤 Undetected}的生物時，你獲得+2環境加值。當你攻擊一個對你@UUID[Compendium.pf2e.conditionitems.DmAIPqOBomZ7H95W]{隱蔽 Concealed}或藏匿的對手時，對隱蔽的純骰檢定DC降至3點，藏匿則為降至9點。</p>"
        },
        "Land on Your Feet": {
            "name": "翻正反射 Land on Your Feet",
            "description": "<p>當你墜落時，只承受一半的墜落傷害，且不會陷入@UUID[Compendium.pf2e.conditionitems.j91X7x0XSomq8d60]{倒地 Prone}。</p>"
        },
        "Low-Light Vision": {
            "name": "昏暗視覺 Low-Light Vision",
            "description": "<p>有低光視覺的生物在昏暗光中視物如同在明亮光中一樣，因此其忽略昏暗光提供的 @UUID[Compendium.pf2e.conditionitems.DmAIPqOBomZ7H95W]{隱蔽 Concealed}狀態。</p>"
        },
        "Magical Strikes": {
            "name": "魔力打擊 Magical Strikes",
            "description": "<p>你天生的魔力充斥全身，你所有的攻擊都視為魔法的，無論是非武裝攻擊還是武器攻擊。</p>"
        },
        "Plant Nourishment": {
            "name": "植物營養 Plant Nourishment",
            "description": "<p>你通過與組成你身體的植物或者真菌相匹配的方式來獲得營養, 通過光合作用與根部吸收礦物質的某種組合，或者淨化腐敗物質。你通常不需要花錢購買食物。如果你通常依靠光合作用獲取養分，並且有一週時間沒有晒太陽，那麼你會開始捱餓。如果不從自然界的陽光中獲取養分，你可以從特製的瓶裝陽光中獲取營養，但這些瓶裝陽光的價格是標準口糧的10倍（或者40SP）。</p>"
        },
        "Sharp Beak": {
            "name": "尖銳鳥喙 Sharp Beak",
            "description": "<p>由於臉上長著的尖銳鳥喙，你永遠不會陷入手無寸鐵的境地。你持有造成[[/r 1d6[piercing]]]傷害的喙啄非武裝攻擊。這個喙啄屬於搏擊武器組，並持有嫻熟、非武裝特徵。 </p>"
        },
        "Stonestep Shisk": {
            "name": "巖步希斯克 Stonestep Shisk",
            "description": "<p>穿越山脈和其他岩石地貌對你而言已經是一種本能。你可以忽略由小石子和土石材質的崎嶇地面造成的非魔法困難地形效果。</p>"
        },
        "Sunlight Healing": {
            "name": "陽光治療 Sunlight Healing",
            "description": "<p>當空塑人暴露在陽光下時，可以進入冥想狀態來治療自己，這是一次10分鐘的活動。在這種情況下它能恢復1d8生命值。在3級之後每提升2級，治療效果增加1d8。[[/r ceil(@actor.level/2))d8[healing]]]{按等級提升的治療}</p>\n<p>一旦空塑人以這種方式恢復了生命值，它將在1天內對此能力臨時免疫。</p>"
        },
        "Swim": {
            "name": "游泳 Swim",
            "description": "<p>阿扎克緹擁有30尺的基礎游泳速度。</p>"
        },
        "Unusual Anatomy": {
            "name": "非正常生理 Unusual Anatomy",
            "description": "<p>你不同尋常的生理構造可以讓你抵抗其他生物所遭受的身體苦難。你在對抗疾病和毒素時獲得+1環境加值。</p>"
        },
        "Wings": {
            "name": "翅膀 Wings",
            "description": "<p>每個梟鬼都有一對強壯的翅膀。雖然不是每個梟鬼都一心鍛鍊飛行技巧，但揮動強壯的翅膀還是能幫助他們跳得更遠。</p>\n<p>你的水平跳躍距離增加5尺，而且不會因為沒有至少助跑10尺，就在跳高（High Jump）或跳遠（Long Jump）的檢定中自動失敗。此外，你在跳遠時，可以比運動檢定結果再多跳出10尺，但仍然不能超過你的移動速度。</p>"
        },
        "Advanced Undead Benefits": {
            "description": "<p><strong>黑暗視覺 Darkvision:</strong> 你獲得黑暗視覺，如果你還未獲得的話。</p>\n<p><strong>高等疾病和毒素防護 Greater Disease and Poison Protection:</strong> 你對抗疾病或毒素效果的豁免鑑定有+2環境加值。你獲得等同於你等級一半的毒素抗力。</p>\n<p><strong>麻痺和睡眠防護 Paralysis and Sleep Protection:</strong> 你對抗將要使你 @UUID[Compendium.pf2e.conditionitems.6uEgoh53GbXuHpTF]{Paralyzed} 或帶有睡眠特徵的效果的豁免鑑定（或其他防禦）有+1環境加值。</p>",
            "name": "進階不死增益 ADVANCED UNDEAD BENEFITS"
        },
        "Basic Undead Benefits": {
            "name": "基礎不死增益 BASIC UNDEAD BENEFITS",
            "description": "<p><strong>死靈語 Necril:</strong> 你知曉死靈語。</p>\n<p><strong>不死視界 Undead Vision:</strong> 你獲得昏暗視覺，或如果你的族裔已經具有昏暗視覺，你獲得黑暗視覺。</p>\n<p><strong>負能量治療 Negative Healing:</strong> 你被正能量傷害，並且不能被正能量治療效果治療。你不會受到負能量傷害，並且能被那些可以治療不死生物的負能量效果治療。</p>\n<p><strong>負能量生存 Negative Survival:</strong> 和通常的不死生物不同，當你生命值減少為0時，你不會被摧毀。相反，強大的負能量試圖阻止你被摧毀，即便是在可怕的困境中。當生命值減少為0時，你將會被擊敗（knocked out）並且開始瀕死（《核心規則書》459頁）。因為你是不死之身，很多讓人從死亡邊緣爬回來的嘗試，例如穩定傷勢（stabilize），不會對你產生作用。當你真正死亡時，你將被摧毀而非“去世”，就像其他不死生物一樣。</p>\n<p><strong>免疫死亡效果 Immunity to Death Effects:</strong> 你免疫死亡效果。這使你不會被自動殺死，也會使你的瀕死值無法自動增加，但你這不會讓你對法術的其他部分免疫。例如，你在面對魅影殺手（phantasmal killer）法術時，依然會受到心靈傷害，也會陷入驚懼，只是不會被法術直接殺死。</p>\n<p><strong>疾病和毒素防護 Disease and Poison Protection:</strong> 你對抗疾病或毒素效果的豁免鑑定（或其他防禦）有+1環境加值。</p>\n<p><strong>不死渴求 Undead Hunger:</strong> 你雖然無需像類人生物那樣吃喝，但你通常會保留和你不死狀態相關的飢渴感，例如食屍鬼對類人生物血肉的飢餓，喪屍對大腦的渴望，以及吸血鬼對血液的渴求。此外，雖然你不需要睡覺，但每天你會進入至少4小時的靜默狀態來修養自身，這能讓你的不死之身重新癒合，自然恢復。許多不死生物會選擇在一天中的正午時分進行休眠。</p>"
        },
        "Revulsion": {
            "name": "厭惡 Revulsion",
            "description": "<p>你無法主動靠近不能自願接近被揮舞著的大蒜或是非邪惡神祇的聖徽10尺以內。生物必須以一個互動動作揮舞大蒜或者聖徽，並且起效一輪（類似舉起盾牌）。如果你非自願地來到了厭惡物件的10尺範圍內，你獲得@UUID[Compendium.pf2e.conditionitems.sDPxOjQ9kx2RZE8D]{逃跑 Fleeing}狀態，逃離至其厭惡物件的10尺以外。在暴露於其厭惡之物下的一輪之後，你可以花費一個擁有專注特徵的動作嘗試一次@Check[type:will|dc:25]檢定。一旦成功，你能在[[/r 1d6 #Overcome Revulsion Duration]]{1d6輪}內克服厭惡（如果大成功則改為1小時）。</p>"
        },
        "Sunlight": {
            "name": "陽光 Sunlight",
            "description": "<p>如果暴露於陽光直射下，你將立即獲得@UUID[Compendium.pf2e.conditionitems.xYTAsEpcJE1Ccni3]{緩慢 Slowed 1}。每次在陽光下結束回合，你的緩慢值都將增加1點。如果你因此失去了所有動作，你被摧毀。由於你對於光的超自然的厭惡，你不會投下影子，也不會照映在鏡子裡。</p>"
        }
    }
}
