{
	"label": "鮮血領主 Blood Lords Bestiary",
    "mapping": {
        "name": "name",
        "portrait": {
            "path": "img",
            "converter": "npc-portrait-path"
        },
        "token": {
            "path": "prototypeToken",
            "converter": "npc-token-translation"
        },
        "data": {
            "path": "system",
            "converter": "npc-data-translation"
        },
        "items": {
            "path": "items",
            "converter": "npc-item-translation"
        }
    },
	"entries": {
		"Aeolaeka": {
			"name": "Aeolaeka"
		},
		"Afziaka Brute": {
			"name": "Afziaka Brute"
		},
		"Afziaka Stalker": {
			"name": "Afziaka Stalker"
		},
		"Agorron Guard": {
			"name": "Agorron Guard"
		},
		"Ancient Skaveling": {
			"name": "Ancient Skaveling"
		},
		"Anguished Sarenite": {
			"name": "Anguished Sarenite"
		},
		"Animated Fireplace": {
			"name": "Animated Fireplace"
		},
		"Animated Tea Cart": {
			"name": "Animated Tea Cart"
		},
		"Aquatic Ooze": {
			"name": "Aquatic Ooze"
		},
		"Arboreal Snag": {
			"name": "Arboreal Snag"
		},
		"Arboreal Snag (Axan Wood)": {
			"name": "Arboreal Snag (Axan Wood)"
		},
		"Arghun the Annihilator": {
			"name": "Arghun the Annihilator"
		},
		"Ashes of Despair": {
			"name": "Ashes of Despair"
		},
		"Azmakian Effigy": {
			"name": "Azmakian Effigy"
		},
		"Benefactor's End": {
			"name": "Benefactor's End"
		},
		"Blaanlool": {
			"name": "Blaanlool"
		},
		"Bloodshroud": {
			"name": "Bloodshroud"
		},
		"Bone Shard Tough": {
			"name": "Bone Shard Tough"
		},
		"Bulette": {
			"name": "Bulette"
		},
		"Bursting Bone Vault": {
			"name": "Bursting Bone Vault"
		},
		"Charghar": {
			"name": "Charghar"
		},
		"Chattering Jaws": {
			"name": "Chattering Jaws"
		},
		"Cleansing Fire": {
			"name": "Cleansing Fire"
		},
		"Clockwork Rifler": {
			"name": "Clockwork Rifler"
		},
		"Cobblebone Swarm": {
			"name": "Cobblebone Swarm"
		},
		"Collapsing Bridge": {
			"name": "Collapsing Bridge"
		},
		"Creeping Crone": {
			"name": "Creeping Crone"
		},
		"Crooked Coffin Brewer": {
			"name": "Crooked Coffin Brewer"
		},
		"Crystallized Agony": {
			"name": "Crystallized Agony"
		},
		"Decrosia": {
			"name": "Decrosia"
		},
		"Demilich Skull": {
			"name": "Demilich Skull"
		},
		"Dirge Piper": {
			"name": "Dirge Piper"
		},
		"Drusilla": {
			"name": "Drusilla"
		},
		"Facetbound Cascader": {
			"name": "Facetbound Cascader"
		},
		"Facetbound Nullifier": {
			"name": "Facetbound Nullifier"
		},
		"Floating Femur": {
			"name": "Floating Femur"
		},
		"Ghast Outlaw": {
			"name": "Ghast Outlaw"
		},
		"Ghiasi": {
			"name": "Ghiasi"
		},
		"Ghiasi's Double": {
			"name": "Ghiasi's Double"
		},
		"Ghostly Mob": {
			"name": "Ghostly Mob"
		},
		"Ghoul Antipaladin": {
			"name": "Ghoul Antipaladin"
		},
		"Ghoul Crocodile": {
			"name": "Ghoul Crocodile"
		},
		"Ghoul Gnawer": {
			"name": "Ghoul Gnawer"
		},
		"Ghoul Razorclaw": {
			"name": "Ghoul Razorclaw"
		},
		"Glyph of Warding (B8)": {
			"name": "Glyph of Warding (B8)"
		},
		"Glyph of Warding (D5)": {
			"name": "Glyph of Warding (D5)"
		},
		"Grace \"The Rhino\" Owano": {
			"name": "Grace \"The Rhino\" Owano"
		},
		"Graelar the Whisper": {
			"name": "Graelar the Whisper"
		},
		"Granite Vulture": {
			"name": "Granite Vulture"
		},
		"Grave Hag": {
			"name": "Grave Hag"
		},
		"Guloval": {
			"name": "Guloval"
		},
		"Hall of Mirrors": {
			"name": "Hall of Mirrors"
		},
		"Harmony In Agony": {
			"name": "Harmony In Agony"
		},
		"Hollow Husk": {
			"name": "Hollow Husk"
		},
		"Hungering Growth": {
			"name": "Hungering Growth"
		},
		"Hungry Cottage": {
			"name": "Hungry Cottage"
		},
		"Hyrune Loxenna": {
			"name": "Hyrune Loxenna"
		},
		"Iron Taviah": {
			"name": "Iron Taviah"
		},
		"Kapoacinth": {
			"name": "Kapoacinth"
		},
		"Kelganth": {
			"name": "Kelganth"
		},
		"Kepgeda the Hag-Nailed": {
			"name": "Kepgeda the Hag-Nailed"
		},
		"Kepgeda's Keening Cauldron": {
			"name": "Kepgeda's Keening Cauldron"
		},
		"Kerinza": {
			"name": "Kerinza"
		},
		"Keystone Trap": {
			"name": "Keystone Trap"
		},
		"Lasheeli": {
			"name": "Lasheeli"
		},
		"Meat Guardian": {
			"name": "Meat Guardian"
		},
		"Mechanical Laborer": {
			"name": "Mechanical Laborer"
		},
		"Memory Hole": {
			"name": "Memory Hole"
		},
		"Mosghuta, Boss Cow": {
			"name": "Mosghuta, Boss Cow"
		},
		"Mummy Valet": {
			"name": "Mummy Valet"
		},
		"Necrohulk Flailer": {
			"name": "Necrohulk Flailer"
		},
		"Necrohulk Smasher": {
			"name": "Necrohulk Smasher"
		},
		"Necromunculus": {
			"name": "Necromunculus"
		},
		"Night's Breath Trap": {
			"name": "Night's Breath Trap"
		},
		"Nightmare Portal": {
			"name": "Nightmare Portal"
		},
		"Nwanyian Archer": {
			"name": "Nwanyian Archer"
		},
		"Nwanyian Defender": {
			"name": "Nwanyian Defender"
		},
		"Nydazuul": {
			"name": "Nydazuul"
		},
		"Opkherab": {
			"name": "Opkherab"
		},
		"Ostovite Nest": {
			"name": "Ostovite Nest"
		},
		"Pain Milker": {
			"name": "Pain Milker"
		},
		"Perilous Flash Flood": {
			"name": "Perilous Flash Flood"
		},
		"Pesgahi the Poisoner": {
			"name": "Pesgahi the Poisoner"
		},
		"Phalanx of Phalanges": {
			"name": "Phalanx of Phalanges"
		},
		"Pokmit Bloody-Pike": {
			"name": "Pokmit Bloody-Pike"
		},
		"Prachalla": {
			"name": "Prachalla"
		},
		"Precarious Bone Pile": {
			"name": "Precarious Bone Pile"
		},
		"Prince Doriel": {
			"name": "Prince Doriel"
		},
		"Princess Kerinza": {
			"name": "Princess Kerinza"
		},
		"Pyrogeist": {
			"name": "Pyrogeist"
		},
		"Restored Doll": {
			"name": "Restored Doll"
		},
		"Rotbomber": {
			"name": "Rotbomber"
		},
		"Rumin Purgo": {
			"name": "Rumin Purgo"
		},
		"Rust Hag": {
			"name": "Rust Hag"
		},
		"Sahni Bride-Of-The-Sea": {
			"name": "Sahni Bride-Of-The-Sea"
		},
		"Sahreg the Dirge Screamer": {
			"name": "Sahreg the Dirge Screamer"
		},
		"Sallowdrudge": {
			"name": "Sallowdrudge"
		},
		"Scrabbling Ribcage": {
			"name": "Scrabbling Ribcage"
		},
		"Shadow Heart": {
			"name": "Shadow Heart"
		},
		"Shadowbound Monk Statue": {
			"name": "Shadowbound Monk Statue"
		},
		"Shadowforged Guardian": {
			"name": "Shadowforged Guardian"
		},
		"Shimmernewt": {
			"name": "Shimmernewt"
		},
		"Sickle Blade": {
			"name": "Sickle Blade"
		},
		"Skeletal Knight": {
			"name": "Skeletal Knight"
		},
		"Skull Fairy": {
			"name": "Skull Fairy"
		},
		"Slamming Gate": {
			"name": "Slamming Gate"
		},
		"Solar Glass Golem": {
			"name": "Solar Glass Golem"
		},
		"Sorvinaesen": {
			"name": "Sorvinaesen"
		},
		"Straugh": {
			"name": "Straugh"
		},
		"Sulvik": {
			"name": "Sulvik"
		},
		"Summoning Rune (Cockatrice)": {
			"name": "Summoning Rune (Cockatrice)"
		},
		"Teaching Assistant": {
			"name": "Teaching Assistant"
		},
		"Tenebric Giant": {
			"name": "Tenebric Giant"
		},
		"Terra-cotta Soldier": {
			"name": "Terra-cotta Soldier"
		},
		"Terrorguard": {
			"name": "Terrorguard"
		},
		"The Fight": {
			"name": "The Fight"
		},
		"The Flight": {
			"name": "The Flight"
		},
		"The Putrid Rise": {
			"name": "The Putrid Rise"
		},
		"Theater Phantasm": {
			"name": "Theater Phantasm"
		},
		"Tombstone Troll": {
			"name": "Tombstone Troll"
		},
		"Tylegmut's Last Meal": {
			"name": "Tylegmut's Last Meal"
		},
		"Umbraex": {
			"name": "Umbraex"
		},
		"Unfinished Portalrender": {
			"name": "Unfinished Portalrender"
		},
		"Urbulinex": {
			"name": "Urbulinex"
		},
		"Urglid": {
			"name": "Urglid"
		},
		"Vampire Guardian": {
			"name": "Vampire Guardian"
		},
		"Vampire Taviah": {
			"name": "Vampire Taviah"
		},
		"Virulak Necromancer": {
			"name": "Virulak Necromancer"
		},
		"Virulak Villager": {
			"name": "Virulak Villager"
		},
		"Void Garden": {
			"name": "Void Garden"
		},
		"Weeping Jack": {
			"name": "Weeping Jack"
		},
		"Wheel Archon": {
			"name": "Wheel Archon"
		},
		"Wrathful Dinosaur": {
			"name": "Wrathful Dinosaur"
		},
		"Yshula": {
			"name": "Yshula"
		},
		"Yulthruk": {
			"name": "Yulthruk"
		},
		"Yurgak": {
			"name": "Yurgak"
		},
		"Zombie Chuul": {
			"name": "Zombie Chuul"
		},
		"Zombie Horse": {
			"name": "Zombie Horse"
		},
		"Zombie Hound": {
			"name": "Zombie Hound"
		},
		"Zuntishan Guard": {
			"name": "Zuntishan Guard"
		}
	}
}