{
    "label": "專長/特性效果 Feat/Feature Effects",
    "entries": {
        "Effect: Aberrant Blood Magic": {
            "name": "效果: 異怪血統奧祕 Aberrant Blood Magic",
            "description": "<p>怪異的耳語遮掩了你或是一個目標的思想，在意志豁免上獲得+2狀態加值，持續1輪。</p>"
        },
        "Effect: Angelic Blood Magic": {
            "name": "效果: 天界血統奧祕 Angelic Blood Magic",
            "description": "<p>天界的靈光守護著你或是一個目標，在豁免骰上獲得+1狀態加值，持續1輪。</p>"
        },
        "Effect: Calculate Threats": {
            "name": "效果: 計算威脅 Calculate Threats",
            "description": "<p>效果來自@UUID[Compendium.pf2e.actionspf2e.Fha8jFmfkOPxAsrZ]{計算威脅 Calculate Threats}.</p>\n<p>直到你的下回合開始，你在AC和反射豁免上獲得+2環境加值。</p>"
        },
        "Effect: Debilitating Strike": {
            "name": "效果: 衰弱打擊 Debilitating Strike",
            "description": "<p>目標已處於遊蕩者@UUID[Compendium.pf2e.actionspf2e.bp0Up04x3dzGK5bB]{衰弱打擊 Debilitating Strike}特性影響下。</p>\n<p><em>注意: 此效果僅用於追蹤衰弱效果的持續時間。你需要手動新增特定的衰弱效果。</em></p>"
        },
        "Effect: Demonic Blood Magic (Self)": {
            "name": "效果: 惡魔血統奧祕 Demonic Blood Magic (自身)",
            "description": "<p>源自罪孽的腐化使你愈發威嚴。你於1輪內在威嚇檢定上獲得+1狀態加值。</p>"
        },
        "Effect: Demonic Blood Magic (Target)": {
            "name": "效果: 惡魔血統奧祕 Demonic Blood Magic (目標)",
            "description": "<p>源自罪孽的腐化削弱了目標的防禦，目標於1輪內在AC上受到-1狀態罰值。</p>"
        },
        "Effect: Diabolic Blood Magic (Self)": {
            "name": "效果: 魔鬼血統奧祕 Diabolic Blood Magic (自身)",
            "description": "<p>地獄的火焰用謊言填滿了你的舌頭。你於1輪內在欺騙檢定上獲得+1狀態加值。</p>"
        },
        "Effect: Disruptive Stare": {
            "name": "效果: Disruptive Stare"
        },
        "Effect: Draconic Blood Magic": {
            "name": "效果: 龍脈血統奧祕 Draconic Blood Magic",
            "description": "<p>你或目標身上在短時間裡長出了些許龍鱗，在AC上獲得+1狀態加值，持續1輪。</p>"
        },
        "Effect: Elemental Blood Magic (Self)": {
            "name": "效果: 元素血統奧祕 Elemental Blood Magic (自身)",
            "description": "<p>元素的能量環繞著你或是一個目標。你於1輪內在威嚇檢定上獲得+1狀態加值。</p>"
        },
        "Effect: Fey Blood Magic": {
            "name": "效果: 精類血統奧祕 Fey Blood Magic",
            "description": "<p>五彩繽紛的精類在你或是一個目標的周圍跳起了迷舞，使其在1輪內隱蔽。如此顯而易見的遮蔽無法被用於躲藏。</p>"
        },
        "Effect: Genie Blood Magic (Self)": {
            "name": "效果: 巨靈血統奧祕 Genie Blood Magic (自身)",
            "description": "<p>你的施法能夠扭曲現實，從而分散敵人的注意力。你於1輪內在欺騙檢定上獲得+1狀態加值。</p>"
        },
        "Effect: Genie Blood Magic (Target)": {
            "name": "效果: 巨靈血統奧祕 Genie Blood Magic (目標)",
            "description": "<p>你的施法能夠扭曲現實，從而分散敵人的注意力。目標於1輪內在察覺上承受-1狀態減值。</p>"
        },
        "Effect: Great Tengu Form": {
            "name": "效果: 大天狗形態 Great Tengu Form",
            "description": "<p>每日一次，當你使用長鼻形態時，可一併獲得4級<em>@UUID[Compendium.pf2e.spells-srd.wzctak6BxOW8xvFV]{變巨術 Enlarge}</em>與<em>@UUID[Compendium.pf2e.spells-srd.A2JfEKe6BZcTG1S8]{飛行術 Fly}</em>的效果。</p>\n<p>此效果持續5分鐘或直到你解除長鼻形態，兩者取早。</p>"
        },
        "Effect: Hag Blood Magic": {
            "name": "效果: 鬼婆血統奧祕 Hag Blood Magic",
            "description": "<p>惡毒的詛咒懲罰著你的敵人。在你下一輪結束之前第一名對你造成傷害的敵人受到每法術環級2點的心靈傷害，且必須嘗試一次基礎意志豁免。</p>"
        },
        "Effect: Hydration": {
            "name": "效果: 補水 Hydration",
            "description": "<p>效果來自@UUID[Compendium.pf2e.ancestryfeatures.vt67b8uoNEbskcBv]{補水 Hydration}，如果你離開水超過24小時。</p>"
        },
        "Effect: Imperial Blood Magic": {
            "name": "效果: 帝皇血統奧祕 Imperial Blood Magic",
            "description": "<p>來自先祖的記憶使得你或是一個目標在技能檢定上獲得+1狀態加值，持續1輪。</p>"
        },
        "Effect: Nymph Blood Magic (Self)": {
            "name": "效果: 寧芙血統奧祕 Nymph Blood Magic (自身)",
            "description": "<p>你的動作中盡顯寧芙的優雅，你於1輪內在交涉檢定上獲得+1狀態加值。</p>"
        },
        "Effect: Nymph Blood Magic (Target)": {
            "name": "效果: 寧芙血統奧祕 Nymph Blood Magic (目標)",
            "description": "<p>你的動作中盡顯寧芙的優雅，甚至能使你的敵人分心。目標於1輪內在意志豁免上承受-1狀態減值。</p>"
        },
        "Effect: Panache": {
            "name": "效果: 派頭 Panache",
            "description": "<p>你認為行動中採取的做法與行動的結果同樣重要。當你用特別誇張的方式行動時，你能趁這光彩奪目的時刻，進行華麗又致命的戰法。這種絢爛的狀態被稱為派頭。你要不處於派頭狀態，要不就沒有。</p>\n<p>效果來自@UUID[Compendium.pf2e.classfeatures.LzYi0OuOoypNb6jd]{派頭 Panache}</p>"
        },
        "Effect: Psychopomp Blood Magic (Self)": {
            "name": "效果: 招魂者血統奧祕 Psychopomp Blood Magic (自身)",
            "description": "<p>生與死的界限在你身上顯得模糊不清。你於1輪內在強韌豁免上獲得+2狀態加值。</p>"
        },
        "Effect: Renewed Vigor": {
            "name": "效果: 重現活力 Renewed Vigor",
            "description": "<p>你獲得等於你的等級一半加上體質調整值的臨時生命值。</p>"
        },
        "Effect: Soaring Flight": {
            "name": "效果: 振翅沖天 Soaring Flight",
            "description": "<p>身為天狗怎可被腳下地面給束縛。你召出魔法羽翼，或是使既存的翅膀延伸。你在5分鐘的期間內獲得等同於陸地速度或20尺的@UUID[Compendium.pf2e.actionspf2e.cS9nfDRGD83bNU1p]{飛行 Fly}速度，兩者取高。</p>"
        },
        "Effect: Supercharge Prosthetic Eyes": {
            "name": "效果: Supercharge Prosthetic Eyes",
            "description": "<p>你獲得黑暗視覺和昏暗視覺，並在利用視覺的察覺檢定上獲得+1狀態加值。</p>"
        },
        "Effect: Towering Presence": {
            "name": "效果: Towering Presence"
        },
        "Effect: Treat Wounds Immunity": {
            "name": "效果: 治療傷害免疫 Treat Wounds Immunity",
            "description": "<p>當有人對你@UUID[Compendium.pf2e.actionspf2e.1kGNdIIhuglAjIp9]{治療傷害 Treat Wounds}，你在持續時間內對治療傷害臨時免疫。</p>"
        },
        "Stance: Arcane Cascade": {
            "name": "架勢: 奧術奔湧 Arcane Cascade",
            "description": "<p><strong>需求</strong> 你已使用你最近的動作來施放法術或進行法術打擊</p>\n<hr />\n<p>你轉換一部分法術的魔法力量並通過使用特化的架式、吐納和步法，讓其在你的軀體和武器間迴圈。 當你處於架式中時，你的近戰打擊造成 [[/r (1}]]{1點額外傷害}。如果你具有武器專精，這個傷害增加到2。如果你具有高等武器專精，則增加到3。任何受益於此的打擊都獲得奧術特徵，使其魔法化。</p>\n<p>如果你進入架式前最近的法術是一個可以造成傷害的型別，來自於架式的傷害具有和這個法術造成傷害的相同型別（或者如果法術可以造成多種傷害型別則由你選擇型別）。如果這個法術不能造成傷害，架式的額外傷害取決於法術學派。</p>\n<ul>\n<li><strong>防護</strong>或<strong>塑能</strong> 力場</li>\n<li><strong>咒法</strong>火<strong>變化</strong> 與你武器或無武裝攻擊相同的型別</li>\n<li><strong>預言</strong>， <strong>惑控</strong>或<strong>幻術</strong> 心靈</li>\n<li><strong>死靈</strong> 負能量</li>\n</ul>"
        },
        "Stance: Masquerade of Seasons Stance": {
            "name": "Stance: Masquerade of Seasons Stance"
        },
        "Stance: Reflective Ripple Stance": {
            "name": "架勢: 波紋架勢 Reflective Ripple Stance",
            "description": "<p>你可以進行流波攻擊，造成1d6鈍擊傷害。它屬於搏擊武器組，具備靈巧、繳械、非致命、摔絆、無武裝和水特徵。</p>\n<p>當你處於波紋架勢時，你在@UUID[Compendium.pf2e.actionspf2e.Dt6B1slsBy8ipJu9]{卸武 Disarm}、@UUID[Compendium.pf2e.actionspf2e.c8TGiZ48ygoSPofx]{游泳 Swim}和@UUID[Compendium.pf2e.actionspf2e.ge56Lu1xXVFYUnLP]{摔絆 Trip}的運動檢定上獲得+1環境加值，你在避免被卸武和摔絆的反射DC上獲得+2環境加值。</p>"
        },
        "Favored Terrain (Increase Climb Speed)": {
            "name": "偏好地形(增加攀爬速度) Favored Terrain (Increase Climb Speed)",
            "description": "<p>如果你擁有@UUID[Compendium.pf2e.classfeatures.RlwE99yKnhq8FUuy]{荒野漫步 Wild Stride}職業特性，當你身處森林，山地和地底中且已經擁有攀爬速度時，獲得@UUID[Compendium.pf2e.feats-srd.sgo7J9BVofBqwlsF]{偏好地形（森林，山地和地底） Favored Terrain (Forest, Moutain or Underground)}的效果。</p>\n<p>你的攀爬速度獲得+10尺狀態加值。</p>"
        },
        "Favored Terrain (Increase Swim Speed)": {
            "name": "偏好地形(增加游泳速度) Favored Terrain (Increase Swim Speed)",
            "description": "<p>如果你擁有@UUID[Compendium.pf2e.classfeatures.RlwE99yKnhq8FUuy]{荒野漫步 Wild Stride}職業特性，當你身處水域中且已經擁有游泳速度時，獲得@UUID[Compendium.pf2e.feats-srd.sgo7J9BVofBqwlsF]{偏好地形（水域） Favored Terrain (Aquatic)}的效果。</p>\n<p>你的游泳速度獲得+10尺狀態加值。</p>"
        },
        "Favored Terrain (Gain Climb Speed)": {
            "name": "偏好地形(獲得攀爬速度) Favored Terrain (Gain Climb Speed)",
            "description": "<p>如果你擁有@UUID[Compendium.pf2e.classfeatures.RlwE99yKnhq8FUuy]{荒野漫步 Wild Stride}職業特性，當你身處森林，山地和地底中且沒有攀爬速度時，獲得@UUID[Compendium.pf2e.feats-srd.sgo7J9BVofBqwlsF]{偏好地形（森林，山地和地底） Favored Terrain (Forest, Moutain or Underground)}的效果。</p>\n<p>你獲得等同於移動速度的攀爬速度。</p>"
        },
        "Favored Terrain (Gain Swim Speed)": {
            "name": "偏好地形(獲得游泳速度) Favored Terrain (Gain Swim Speed)",
            "description": "<p>如果你擁有@UUID[Compendium.pf2e.classfeatures.RlwE99yKnhq8FUuy]{荒野漫步 Wild Stride}職業特性，當你身處水域中且沒有游泳速度時，獲得@UUID[Compendium.pf2e.feats-srd.sgo7J9BVofBqwlsF]{偏好地形（水域） Favored Terrain (Aquatic)}的效果。</p>\n<p>你獲得等同於速度的游泳速度。</p>"
        },
        "Effect: Accept Echo": {
            "name": "效果: 接納餘響 Accept Echo",
            "description": "<p>處於這個狀態，你在所選武器上獲得受訓熟練度並且所選技能上獲得專家熟練度。另外，當你處於這個狀態，迴響可以使用你的軀體與物質位面交談和互動，並且你在對抗所有佔據效果的豁免骰上獲得 +4 狀態加值，因為佔據你的魂魄會保護你免受其他事物佔據。</p>\n<p>這個狀態持續10分鐘，隨後直到你的下一次日常準備前餘響都會消失不見。你可以@UUID[Compendium.pf2e.actionspf2e.AjLSHZSWQ90exdLo]{解消 Dismiss}這個效果。</p>\n<p>7級時，你在所選技能上獲得大師熟練度，13級時，你在所選武器上獲得專家熟練度，並且15級時，在所選技能上獲得傳奇熟練度。</p>"
        },
        "Effect: Aldori Parry": {
            "name": "效果: 奧多裡劍格 Aldori Parry",
            "description": "<p><strong>需求</strong> 你只持握一柄奧多裡決鬥劍並且雙手或單手處於空閒。</p>\n<hr />\n<p>只要你持續滿足要求，你將直到下一個回合開始前在防禦等級上獲得+2環境加值。</p>"
        },
        "Effect: Aquatic Endemic Herbs": {
            "name": "效果: 水域草藥 Aquatic Endemic Herbs",
            "description": "<p>效果來自@UUID[Compendium.pf2e.feats-srd.BQzExsEZrwGsJD66]{地域性草藥 Endemic Herbs}</p>\n<p>強韌豁免獲得+1環境加值。</p>"
        },
        "Effect: Arctic Endemic Herb": {
            "name": "效果: 極地草藥 Arctic Endemic Herb",
            "description": "<p>效果來自@UUID[Compendium.pf2e.feats-srd.BQzExsEZrwGsJD66]{地域性草藥 Endemic Herbs}</p>\n<p>持續1小時，將環境的寒冷效果視為比正常弱1級。</p>"
        },
        "Effect: Armor Tampered With (Critical Success)": {
            "name": "效果: 護甲篡改 Armor Tampered With (大成功)",
            "description": "<p>你的護甲被篡改了！你@UUID[Compendium.pf2e.conditionitems.AJh5ex99aV6VTggg]{措手不及 Flat-footed}且在速度上承受-10罰值。該效果持續到你用@UUID[Compendium.pf2e.actionspf2e.pvQ5rY2zrtPI614F]{互動 Interact}動作移除。</p>"
        },
        "Effect: Armor Tampered With (Success)": {
            "name": "效果: 護甲篡改 Armor Tampered With (成功)",
            "description": "<p>你的護甲被篡改了！你@UUID[Compendium.pf2e.conditionitems.AJh5ex99aV6VTggg]{措手不及 Flat-footed}且在速度上承受-10罰值。該效果持續到發明家下回合開始，或你用@UUID[Compendium.pf2e.actionspf2e.pvQ5rY2zrtPI614F]{互動 Interact}動作移除。</p>"
        },
        "Effect: Assisting Shot": {
            "name": "效果: 援助射擊 Assisting Shot",
            "description": "<p>效果來自@UUID[Compendium.pf2e.feats-srd.UiQbjeqBUFjUtgUR]{援助射擊 Assisting Shot}，若你擊中目標。</p>\n<p>在你下一回合開始前，除你之外的下一個攻擊同一目標的生物在擲骰上獲得+1環境加值。</p>"
        },
        "Effect: Assisting Shot (Critical Hit)": {
            "name": "效果: 援助射擊 Assisting Shot (重擊)",
            "description": "<p>效果來自@UUID[Compendium.pf2e.feats-srd.UiQbjeqBUFjUtgUR]{援助射擊 Assisting Shot}，若你重擊目標。</p>\n<p>在你下一回合開始前，除你之外的下一個攻擊同一目標的生物在擲骰上獲得+2環境加值。</p>"
        },
        "Effect: Aura of Despair": {
            "name": "效果: 絕望靈氣 Aura of Despair",
            "description": "<p>效果來自@UUID[Compendium.pf2e.feats-srd.wjnfdh6WzN7HbmeE]{絕望靈氣 Aura Of Despair}</p>\n<p>15尺內所有敵人在對抗恐懼效果的豁免上承受-1環境罰值。</p>"
        },
        "Effect: Aura of Faith": {
            "name": "效果: 信念靈光 Aura of Faith",
            "description": "<p>效果來自@UUID[Compendium.pf2e.feats-srd.7sFhBYoz5GSBFNbY]{信念靈光 Aura of Faith}</p>\n<p>周圍15尺內所有善良陣營的盟友都能在每輪第一次對邪惡生物進行打擊時造成額外1點善良傷害。</p>"
        },
        "Effect: Aura of Life": {
            "name": "效果: 生命靈光 Aura of Life",
            "description": "<p>效果來自@UUID[Compendium.pf2e.feats-srd.YawVDUc9uzREIAnO]{生命靈光 Aura of Life}</p>\n<p>你周圍15尺內的盟友獲得針對負能量的抗力5，並在對抗死靈系效果的豁免檢定上獲得+1狀態加值。</p>"
        },
        "Effect: Aura of Preservation": {
            "name": "效果: 護佑靈光 Aura of Preservation",
            "description": "<p>效果來自@UUID[Compendium.pf2e.feats-srd.z7kwVNaCB4oJs3Fe]{護佑靈光 Aura Of Preservation}</p>\n<p>你和15尺內的盟友在對抗來自異怪的效果時，在強韌和意志豁免上獲得+1狀態加值。</p>"
        },
        "Effect: Aura of Righteousness": {
            "name": "效果: 正義靈光 Aura of Righteousness",
            "description": "<p>效果來自@UUID[Compendium.pf2e.feats-srd.erCOcFZJPT2O3gwC]{正義靈光 Aura of Righteousness}</p>\n<p>你和你周圍15內的所有盟友獲得邪惡抗力5。</p>"
        },
        "Effect: Battle Medicine Immunity": {
            "name": "效果: 戰地醫療免疫 Battle Medicine Immunity",
            "description": "<p>當某人對你@UUID[Compendium.pf2e.feats-srd.wYerMk6F1RZb0Fwt]{戰地醫療 Battle Medicine}後，你在持續時間內對此人的戰地醫療臨時免疫。</p>"
        },
        "Effect: Bespell Weapon": {
            "name": "效果: 附法武器 Bespell Weapon",
            "description": "<p>效果來自@UUID[Compendium.pf2e.feats-srd.tWBK7Zbt80JlPryC]{附法武器 Bespell Weapon}，若你施放咒法或變化法術。</p>\n<p>直到你下一回合結束，該武器額外造成1d6點傷害。</p>"
        },
        "Effect: Bespell Weapon (Force)": {
            "name": "效果: 附法武器 Bespell Weapon (力場)",
            "description": "<p>效果來自@UUID[Compendium.pf2e.feats-srd.tWBK7Zbt80JlPryC]{附法武器 Bespell Weapon}如果你施放防護法術或沒造成傷害的塑能法術。</p>\n<p>直到你下一回合結束，該武器額外造成1d6點力場傷害。</p>"
        },
        "Effect: Bespell Weapon (Mental)": {
            "name": "效果: 附法武器 Bespell Weapon (心靈)",
            "description": "<p>效果來自@UUID[Compendium.pf2e.feats-srd.tWBK7Zbt80JlPryC]{附法武器 Bespell Weapon}，若你施放預言，惑控或幻術法術。</p>\n<p>直到你下一回合結束，該武器額外造成1d6點心靈傷害。</p>"
        },
        "Effect: Bespell Weapon (Negative)": {
            "name": "效果: 附法武器 Bespell Weapon (負能量)",
            "description": "<p>效果來自@UUID[Compendium.pf2e.feats-srd.tWBK7Zbt80JlPryC]{附法武器 Bespell Weapon}，若你施放死靈法術。</p>\n<p>直到你下一回合結束，該武器額外造成1d6點負能量傷害。</p>"
        },
        "Effect: Bon Mot": {
            "name": "效果: 當頭棒喝 Bon Mot",
            "description": "<p>效果來自@UUID[Compendium.pf2e.feats-srd.0GF2j54roPFIDmXf]{當頭棒喝 Bon Mot}</p>\n<p>目標受到影響，察覺和意志豁免都受到-2狀態減值，持續1分鐘。</p>\n<p>你可以通過反駁敵人的當頭棒喝來嘗試提前終止該效果。反駁需要一個擁有專注特徵的單動作或合適的技能動作來駁斥敵人的觀點。GM決定什麼技能動作可用，且必須消耗至少一個動作。通常反駁需要使用基於語言和魅力的技能動作。</p>"
        },
        "Effect: Bon Mot (Critical Success)": {
            "name": "效果: 當頭棒喝 Bon Mot (大成功)",
            "description": "<p>效果來自@UUID[Compendium.pf2e.feats-srd.0GF2j54roPFIDmXf]{當頭棒喝 Bon Mot}</p>\n<p>目標受到影響，察覺和意志豁免都受到-3狀態減值，持續1分鐘。</p>\n<p>你可以通過反駁敵人的當頭棒喝來嘗試提前終止該效果。反駁需要一個擁有專注特徵的單動作或合適的技能動作來駁斥敵人的觀點。GM決定什麼技能動作可用，且必須消耗至少一個動作。通常反駁需要使用基於語言和魅力的技能動作。</p>"
        },
        "Effect: Bone Swarm": {
            "name": "效果: 骸骨風暴 Bone Swarm",
            "description": "<p>你變為超大型體型，獲得叢集特徵，以及40尺的飛行速度。作為叢集，你獲得下列特點。</p>\n<ul>\n<li>你免疫 @UUID[Compendium.pf2e.conditionitems.kWc1fhmv9LBiTuei]{擒抱 Grabbed}、@UUID[Compendium.pf2e.conditionitems.j91X7x0XSomq8d60]{倒地 Prone}和@UUID[Compendium.pf2e.conditionitems.VcDeM8A5oI6VqhbM]{束縛 Restrained}狀態。</li>\n<li>你對區域和濺射傷害具有5點弱點。</li>\n<li>你可以和其他生物共享空間，並且必須如此才能使用傷害能力。</li>\n<li>你可以使用一個2動作的行動，來對所有位於你所在空間的生物造成[[/r 10d6[bludgeoning]]]傷害(@Check[type:reflex|dc:resolve(@actor.attributes.classOrSpellDC)|basic:true]豁免，DC等於你的職業DC或法術DC，取其高者)。</li>\n<li>你不能說話、施法、使用需要用到手的操縱動作、啟用魔法物品、或使用你正常身體形態時可用的攻擊。</li>\n<li>你不會獲得叢集思維能力，所以你仍然會受到心靈效果的影響。你仍然保留任何不需要使用手或交流能力的骷髏專長的好處。</li>\n</ul>"
        },
        "Effect: Combat Mentor Boon (PFS)": {
            "name": "效果: Combat Mentor Boon (PFS)"
        },
        "Effect: Deep Freeze (Critical Failure)": {
            "name": "效果: 深度冷凍 Deep Freeze (大失敗)",
            "description": "<p>目標在速度上承受-15尺狀態減值，持續1輪。</p>"
        },
        "Effect: Deep Freeze (Failure)": {
            "name": "效果: 深度冷凍 Deep Freeze (失敗)",
            "description": "<p>目標在速度上承受-10尺狀態減值，持續1輪。</p>"
        },
        "Effect: Deep Freeze (Success)": {
            "name": "效果: 深度冷凍 Deep Freeze (成功)",
            "description": "<p>目標在速度上承受-5尺狀態減值，持續1輪。</p>"
        },
        "Effect: Desert Endemic Herbs": {
            "name": "效果: 沙漠草藥 Desert Endemic Herbs",
            "description": "<p>效果來自@UUID[Compendium.pf2e.feats-srd.BQzExsEZrwGsJD66]{地域性草藥 Endemic Herbs}</p>\n<p>持續1小時，將環境的炎熱效果視為比正常弱1級。</p>"
        },
        "Effect: Discordant Voice": {
            "name": "效果: 不諧之音 Discordant Voice",
            "description": "<p>效果來自@UUID[Compendium.pf2e.feats-srd.8JMOgtB3XG7o6ffW]{不諧之音 Discordant Voice}，當你受到激發勇氣影響時。</p>"
        },
        "Effect: Dread Marshal Stance": {
            "name": "效果: 恐怖軍勢 Dread Marshal Stance",
            "description": "<p>效果來自@UUID[Compendium.pf2e.feats-srd.R7c4PyTNkZb0yvoT]{恐怖軍勢 Dread Marshal Stance}</p>\n<p>並且你和處於戰將靈光範圍內的盟友會在傷害檢定上獲得相當於你所持用的武器或是你的徒手擊打傷害骰數的狀態加值。當你或是處於你的靈光範圍內的盟友的攻擊動作對敵人造成了一次重擊時，該敵人會獲得@UUID[Compendium.pf2e.conditionitems.TBSHQspnbcqxsmjL]{驚懼 Frightened 1}。</p>"
        },
        "Effect: Educate Allies (Ally)": {
            "name": "效果: 言傳身教 Educate Allies (盟友)",
            "description": "<p>效果來自@UUID[Compendium.pf2e.feats-srd.9cHQua33V35JPE3U]{言傳身教 Educate Allies}。</p>"
        },
        "Effect: Educate Allies (Self)": {
            "name": "效果: 言傳身教 Educate Allies (自身)",
            "description": "<p>效果來自對盟友施放@UUID[Compendium.pf2e.feats-srd.9cHQua33V35JPE3U]{言傳身教 Educate Allies}。</p>"
        },
        "Effect: Enforce Oath": {
            "name": "效果: 迫行誓約 Enforce Oath",
            "description": "<p>效果來自@UUID[Compendium.pf2e.feats-srd.YZ138OqflDhrkqmR]{迫行誓約 Enforce Oath}</p>\n<p>你在對抗所選生物發起的攻擊與效果時，於AC和豁免上獲得+1狀態加值。你也在對抗所選生物的攻擊骰上獲得+1狀態加值。</p>\n<p>但是，因為你迫行自己履約，你無暇分心其他敵人。當你迫行誓約時，你對其他所有生物在AC、攻擊骰以及豁免上承受-1狀態罰值，直到你停止迫行誓約。當所選生物的生命值降為0，或該生物向你或你的盟友合理正當的投降，迫行誓約就結束。</p>\n<p>如果你陷入 @UUID[Compendium.pf2e.conditionitems.fBnFDH2MTzgFijKf]{失去意識 Unconscious} ，或如果所選生物被你 @UUID[Compendium.pf2e.conditionitems.9evPzg9E6muFcoSk]{未發現 Unnoticed} 超過1分鐘，那你會立刻結束迫行誓約。你還可以在自己回合時以一個自由動作立刻結束迫行誓約。</p>"
        },
        "Effect: Engine of Destruction": {
            "name": "效果: 破壞引擎 Engine of Destruction",
            "description": "<p>你的構裝發明在攻擊骰上獲得+2環境加值。</p>"
        },
        "Effect: Fiendish Wings": {
            "name": "效果: 魔族飛翼 Fiendish Wings",
            "description": "<p>透過努力，你可在背上召出魔法飛翼，外觀形似蝙蝠翅膀或其他魔族的飛翼。此飛翼存續10分鐘，你在飛翼顯現期間獲得等同於陸地速度的飛行速度。</p>"
        },
        "Effect: Forest Endemic Herbs": {
            "name": "效果: 林地草藥 Forest Endemic Herbs",
            "description": "<p>效果來自@UUID[Compendium.pf2e.feats-srd.BQzExsEZrwGsJD66]{地域性草藥 Endemic Herbs}</p>\n<p>對抗疾病和毒素效果的豁免檢定獲得+2環境加值。</p>"
        },
        "Effect: Harsh Judgement": {
            "name": "效果: Harsh Judgement",
            "description": "<p>效果來自@UUID[Compendium.pf2e.feats-srd.37uOb0iaWCfTCvBZ]{Harsh Judgement}</p>\n<p>You gain a +2 circumstance bonus to Perception checks to Seek your condemned foe and on Intimidation checks to Demoralize them. You have a -1 circumstance penalty to Perception checks to Seek creatures other than your condemned foe and on Intimidation checks to Demoralize anyone other than your condemned foe.</p>"
        },
        "Effect: Hybrid Form": {
            "name": "效果: 混合型態 Hybrid Form",
            "description": "<p>處於混合形態中，你的外觀變成你先祖和動物的混合體。處於混合形態時，你獲得和動物種類對應的啃咬無武裝打擊（蝙蝠為尖牙，鷹為喙啄，蜜蜂為蟲顎，以此類推）。你的啃咬造成1d4穿刺傷害，擁有靈巧、嫻熟和無武裝特徵，屬於搏擊武器組。</p>"
        },
        "Effect: Inspiring Marshal Stance": {
            "name": "效果: 激昂軍勢 Inspiring Marshal Stance",
            "description": "<p>效果來自@UUID[Compendium.pf2e.feats-srd.bvOsJNeI0ewvQsFa]{激昂軍勢 Inspiring Marshal Stance}</p>\n<p>你和處於靈光範圍內的盟友會在傷攻擊檢定和對抗心靈效果的豁免檢定上獲得+1狀態加值。</p>"
        },
        "Effect: Liberating Step (vs. Aberration)": {
            "name": "效果: 自由快步 Liberating Step (對抗異怪)",
            "description": "<p>效果來自@UUID[Compendium.pf2e.feats-srd.VU7aZC7L08Mk1GVA]{祕教誓約(解放者) Esoteric Oath}.</p>\n<p>如果你使用 自由快步 且觸發的是邪惡異怪，你的盟友在檢定上從自由快步那獲得+4環境加值，且之後你的盟友可以快步兩次。</p>"
        },
        "Effect: Liberating Step (vs. Dragon)": {
            "name": "效果: 自由快步 Liberating Step (vs.龍)",
            "description": "<p>效果來自@UUID[Compendium.pf2e.feats-srd.K3QkcNWY8qpNEJrk]{屠龍誓約(解放者) Dragonslayer Oath}</p>\n<p>如果你使用由邪惡龍類觸發的自由快步，你的盟友會在自由快步所給予的檢定上獲得+4的環境加值，這名盟友在之後還可以進行兩次快步。</p>"
        },
        "Effect: Liberating Step (vs. Fiend)": {
            "name": "效果: 自由快步 Liberating Step (vs.魔族)",
            "description": "<p>效果來自@UUID[Compendium.pf2e.feats-srd.uv235v6hXCITAFej]{驅魔誓約(解放者) Fiendsbane Oath}</p>\n<p>如果你使用由魔族觸發的自由快步，你的盟友會在自由快步所給予的檢定上獲得+4的環境加值，這名盟友在之後還可以進行兩次快步。</p>"
        },
        "Effect: Liberating Step (vs. Undead)": {
            "name": "效果: 自由快步 Liberating Step (vs. 不死)",
            "description": "<p>效果來自@UUID[Compendium.pf2e.feats-srd.lDfOzhKJoTCkLPtn]{光輝誓約(解放者) Shining Oath}</p>\n<p>如果你使用由不死生物觸發的自由快步，你的盟友會在自由快步所給予的檢定上獲得+4的環境加值，這名盟友在之後還可以進行兩次快步。</p>"
        },
        "Effect: Life-Giving Magic": {
            "name": "效果: 賦生魔法 Life-Giving Magic",
            "description": "<p>你獲得一半於你等級的臨時生命（至少 1），直到你的下個回合結束。</p>"
        },
        "Effect: Magical Mentor Boon (PFS)": {
            "name": "效果: Magical Mentor Boon (PFS)"
        },
        "Effect: Marshal's Aura": {
            "name": "效果: 戰將靈光 Marshal's Aura",
            "description": "<p>位於戰將靈光中時獲得此效果。</p>\n<hr />\n<p>你的這一靈光具有情緒、心靈和視覺特性。你和處於該靈光內的盟友會在對抗恐懼效果的豁免檢定上獲得+1狀態加值。</p>"
        },
        "Effect: Mountain Endemic Herbs": {
            "name": "效果: 山區草藥 Mountain Endemic Herbs",
            "description": "<p>效果來自@UUID[Compendium.pf2e.feats-srd.BQzExsEZrwGsJD66]{地域性草藥 Endemic Herbs}</p>\n<p>反射豁免獲得+1環境加值。</p>"
        },
        "Effect: Overdrive (Critical Success)": {
            "name": "效果: 超載 Overdrive (大成功)",
            "description": "<p>你的小玩意兒進入一種極度高效的狀態，稱為極限超載，為你的攻擊提供強大的力量。你的打擊造成等同於你智力調整值的額外傷害，持續1分鐘。當超載結束，你身上的裝置需要冷卻或重置，你無法在1分鐘內再次使用超載。</p>"
        },
        "Effect: Overdrive (Success)": {
            "name": "效果: 超載 Overdrive (成功)",
            "description": "<p>你的小玩意兒進入超載，為你的攻擊提供力量。你的打擊造成等同於你智力調整值一半的額外傷害，持續1分鐘。當超載結束，你身上的裝置需要冷卻或重置，你無法在1分鐘內再次使用超。</p>"
        },
        "Effect: Plains Endemic Herbs": {
            "name": "效果: 平原草藥 Plains Endemic Herbs",
            "description": "<p>效果來自@UUID[Compendium.pf2e.feats-srd.BQzExsEZrwGsJD66]{地域性草藥 Endemic Herbs}</p>\n<p>意志豁免獲得+1環境加值。</p>"
        },
        "Effect: Protective Mentor Boon (Admired) (PFS)": {
            "name": "效果: Protective Mentor Boon (Admired) (PFS)"
        },
        "Effect: Protective Mentor Boon (Liked) (PFS)": {
            "name": "效果: Protective Mentor Boon (Liked) (PFS)"
        },
        "Effect: Protective Mentor Boon (Revered) (PFS)": {
            "name": "效果: Protective Mentor Boon (Revered) (PFS)"
        },
        "Effect: Rampaging Form": {
            "name": "效果: 熾怒型態 Rampaging Form",
            "description": "<p>你變形進入結冰形態，持續一分鐘，直到你變回原形。你的戰鬥形態為超大型，並具有以下資料：</p>\n<ul>\n<li>AC = 18 + 你的等級。忽略護甲檢定減值和速度減少。</li>\n<li>20臨時生命值。</li>\n<li>昏暗視覺，以及靈敏嗅覺(模糊)30尺。</li>\n<li>速度30尺，飛行速度40尺，無需呼吸</li>\n<li><strong>近戰</strong> <span class=\"pf2-icon\">a</span> 啃咬 Jaws, <strong>傷害</strong> 2d8穿刺+1d4火焰傷害。</li>\n<li>你的無武裝打擊額外造成1d4火焰傷害，你的火焰法術造成額外一個傷害骰的火焰傷害（和火焰法術相同的骰面）。</li>\n<li>你能以內在法術的形式施放 <em>@UUID[Compendium.pf2e.spells-srd.O9w7r4BKgPogYDDe]{燃火術 Produce Flame}</em>，施放動作縮減為單動作，而非正常的2動作。</li>\n<li>任何以無武裝打擊或非觸及近戰武器接觸你的生物受到[[/r 3d6[fire]]]傷害。</li>\n<li>運動調整值+20，除非你自身的調整值更高。</li>\n</ul>"
        },
        "Effect: Rampaging Form (Frozen Winds Kitsune)": {
            "name": "效果: 熾怒型態 Rampaging Form (雪狐)",
            "description": "<p>你變形進入結冰形態，持續一分鐘，直到你變回原形。你的戰鬥形態為超大型，並具有以下資料：</p>\n<ul>\n<li>AC = 18 + 你的等級。忽略護甲檢定減值和速度減少。</li>\n<li>20臨時生命值。</li>\n<li>昏暗視覺，以及靈敏嗅覺(模糊)30尺。</li>\n<li>速度30尺，飛行速度40尺，無需呼吸</li>\n<li><strong>近戰</strong> <span class=\"pf2-icon\">a</span> 啃咬 Jaws, <strong>傷害</strong> 2d8穿刺+1d4寒冷傷害。</li>\n<li>你的無武裝打擊額外造成1d4寒冷傷害，你的寒冷法術造成額外一個傷害骰的寒冷傷害（和寒冷法術相同的骰面）。</li>\n<li>你能以內在法術的形式施放<em>@UUID[Compendium.pf2e.spells-srd.gYjPm7YwGtEa1oxh]{冰凍射線 Ray of Frost}</em>，施法動作縮減為單動作，而非正常的2動作。</li>\n<li>任何以無武裝打擊或非觸及近戰武器接觸你的生物受到[[/r 3d6[cold]]]傷害。</li>\n<li>運動調整值+20，除非你自身的調整值更高。</li>\n</ul>"
        },
        "Effect: Read Shibboleths": {
            "name": "效果: 解讀民風 Read Shibboleths",
            "description": "<p>效果來自@UUID[Compendium.pf2e.feats-srd.Crd3qMecF9FYHjuH]{解讀民風 Read Shibboleths}</p>\n<p>一旦你收集到關於某個人的一個或更多真實事實，便能夠把這些行為習慣融入到你的言行中，並以一種他們熟悉的方式來表現自己。這使得你在與他們進行交涉和欺騙檢定時獲得+1環境加值。</p>"
        },
        "Effect: Reflexive Shield": {
            "name": "效果: 反射之盾 Reflexive Shield",
            "description": "<p>效果來自@UUID[Compendium.pf2e.feats-srd.dHUoQVzDa9Cf4QCG]{反射之盾 Reflexive Shield}，當你舉起盾牌並在AC哈桑獲得+2環境加值時。</p>\n<p>你在反射豁免上得到你的盾牌提供的環境加值。</p>"
        },
        "Effect: Rugged Mentor Boon (PFS)": {
            "name": "效果: Rugged Mentor Boon (PFS)"
        },
        "Effect: Skillful Mentor Boon (PFS)": {
            "name": "效果: Skillful Mentor Boon (PFS)"
        },
        "Effect: Underground Endemic Herbs": {
            "name": "效果: 地下草藥 Underground Endemic Herbs",
            "description": "<p>效果來自@UUID[Compendium.pf2e.feats-srd.BQzExsEZrwGsJD66]{地域性草藥 Endemic Herbs}</p>\n<p>察覺獲得+1環境加值。</p>"
        },
        "Effect: Victorious Vigor": {
            "name": "效果: 勝利活力 Victorious Vigor",
            "description": "<p>你獲得等同於你體質調整的臨時生命值直到你下一輪結束。</p>"
        },
        "Effect: Weapon Tampered With (Critical Success)": {
            "name": "效果: 武器篡改 Weapon Tampered With (大成功)",
            "description": "<p>效果來自@UUID[Compendium.pf2e.feats-srd.SheifYobjKqyK3Fv]{篡改 Tamper}</p>\n<p>你的武器被篡改了！你在使用該武器進行的攻擊骰和傷害骰上承受-2環境罰值。效果持續到你用@UUID[Compendium.pf2e.actionspf2e.pvQ5rY2zrtPI614F]{互動 Interact}動作移除它為止。</p>"
        },
        "Effect: Weapon Tampered With (Success)": {
            "name": "效果: 武器篡改 Weapon Tampered With (成功)",
            "description": "<p>效果來自@UUID[Compendium.pf2e.feats-srd.SheifYobjKqyK3Fv]{篡改 Tamper}</p>\n<p>你的武器被篡改了！你在使用該武器進行的攻擊骰和傷害骰上承受-2環境罰值。效果持續到發明家下回合開始，火你用@UUID[Compendium.pf2e.actionspf2e.pvQ5rY2zrtPI614F]{互動 Interact}動作移除它為止。</p>"
        },
        "Effect: Worldly Mentor Boon (PFS)": {
            "name": "效果: Worldly Mentor Boon (PFS)"
        },
        "Effect: Vivacious Bravado": {
            "name": "效果: 一身是膽 Vivacious Bravado",
            "description": "<p>使用@UUID[Compendium.pf2e.feats-srd.2MHzEh1KUQEbhjUf]{一身是膽 Vivacious Bravado}時獲得此效果。</p>"
        },
        "Effect: Undying Conviction": {
            "name": "效果: 不滅信念 Undying Conviction",
            "description": "<p>效果來自@UUID[Compendium.pf2e.feats-srd.xSYkYRKlSyLzPrH1]{不滅信念 Undying Conviction}</p>\n<p>你控制下的不死生物對抗正能量傷害的豁免骰和抵抗使它們被控制的效果的意志豁免骰有+2狀態加值。</p>"
        },
        "Effect: Maiden's Mending": {
            "name": "效果: 仕女癒身 Maiden's Mending",
            "description": "<p>你獲得等於你等級一半的臨時生命值(至少為1)，此臨時生命存續直到你的下回合結束。</p>"
        },
        "Effect: Legendary Monster Warden": {
            "name": "效果: 傳奇怪物守望者 Legendary Monster Warden",
            "description": "<p>如果你擁有@UUID[Compendium.pf2e.feats-srd.Veyt4x2Kb5YcPGTv]{傳奇怪物獵手 Legendary Monster Hunter}專長，則獲得此來自@UUID[Compendium.pf2e.feats-srd.2yq3l8e2Vzz34yRV]{怪物守望者 Monster Warden}的效果。</p>\n<p>你在下一次對抗該獵物的攻擊骰上獲得+2環境加值。</p>\n<p>你在下一次對抗該特定生物的豁免檢定上獲得+2環境加值，在對抗該生物下一次攻擊的 AC上獲得+2環境加值。</p>"
        },
        "Effect: Legendary Monster Hunter": {
            "name": "效果: 傳奇怪物獵手 Legendary Monster Hunter",
            "description": "<p>如果你擁有@UUID[Compendium.pf2e.feats-srd.Veyt4x2Kb5YcPGTv]{傳奇怪物獵手 Legendary Monster Hunter}專長，則獲得此來自@UUID[Compendium.pf2e.feats-srd.YTTJqRKH8QZl6al2]{怪物獵手 Monster Hunter}的效果。</p>\n<p>你在下一次對抗該獵物的攻擊骰上獲得+2環境加值。</p>"
        },
        "Effect: Reckless Abandon (Goblin)": {
            "name": "效果: 僥倖活命(地精) Reckless Abandon (Goblin)",
            "description": "<p>在你回合的剩餘時間裡，若你對抗有害效果的豁免檢定失敗或大失敗，改為獲得成功。</p>"
        },
        "Effect: Repair Module": {
            "name": "效果: 修復模組 Repair Module",
            "description": "<p>效果來自@UUID[Compendium.pf2e.feats-srd.ZGT7NLpcvREkJsMd]{修復模組 Repair Module}。</p>"
        },
        "Effect: Elemental Assault": {
            "name": "效果: 元素攻襲 Elemental Assault",
            "description": "<p>你的手臂和持有的武器被元素魔法所籠罩。選擇一種元素。直到你的下一個回合結束，你的打擊會造成額外的[[/r 1d6]]傷害，並具有與該元素相對應的特性：空氣是閃電，土是鈍擊，火是火焰，水是寒冷。</p>"
        },
        "Effect: Ancestor Curse": {
            "name": "效果: 先祖詛咒 Ancestor Curse",
            "description": "<p>效果來自@UUID[Compendium.pf2e.classfeatures.qvRlih3u7vK3FYUR]{Ancestors}</p>"
        },
        "Effect: Avenge in Glory": {
            "name": "效果: 光榮復仇 Avenge in Glory",
            "description": "<p>效果來自@UUID[Compendium.pf2e.feats-srd.gKDRnsBPBdhJB0FI]{光榮復仇 Avenge in Glory}</p>\n<p><strong>頻率</strong> 每天一次</p>\n<p><strong>許可</strong> 山地矮人種群</p>\n<p><strong>觸發</strong> 一名30尺內的盟友陷入@UUID[Compendium.pf2e.conditionitems.yZRUzMqrMmfLu0V1]{瀕死 Dying}狀態。</p>\n<hr />\n<p>你為盟友的生命復仇，在1分鐘內獲得等同於你等級的臨時生命。此臨時生命值存在時，你的攻擊和傷害獲得+1環境加值。</p>\n<p>附加效果:</p>\n<ul>\n<li>按等級賦予臨時生命值</li>\n<li>攻擊和傷害獲得+1環境加值</li>\n</ul>"
        },
        "Effect: Shared Avoidance": {
            "name": "效果: 共享迴避 Shared Avoidance",
            "description": "<p>效果來自@UUID[Compendium.pf2e.feats-srd.wIJC00ODLq9WYc1m]{共享迴避 Shared Avoidance}.</p>\n<p>在你15尺內的盟友若也需要對相同的危害投擲相同的豁免骰，則他們在豁免骰上也會獲得+2環境加值。</p>"
        },
        "Effect: Shared Clarity": {
            "name": "效果: 共享澄澈 Shared Clarity",
            "description": "<p>效果來自@UUID[Compendium.pf2e.feats-srd.ybrx1nsg5J0L8d3j]{共享澄澈 Shared Clarity}。</p>\n<p>若在你15尺內的盟友針對對相同的心靈效果的相同豁免骰失敗，他們也能花費其反應動作來重骰該失敗的豁免骰，並獲得+2環境加值。</p>"
        },
        "Effect: Dueling Parry": {
            "name": "效果: 決鬥招架 Dueling Parry",
            "description": "<p>效果來自@UUID[Compendium.pf2e.feats-srd.WcY7H7mRiK2VDquV]{決鬥招架(浪客) Dueling Parry (Swashbuckler)} 或 @UUID[Compendium.pf2e.feats-srd.n7nQQR940OvFbw7T]{決鬥招架(戰士) Dueling Parry (Fighter)}。</p>"
        },
        "Effect: Purifying Breeze": {
            "name": "效果: 淨化微風 Purifying Breeze",
            "description": "<p>你的強韌豁免獲得+1狀態加值。</p>"
        },
        "Effect: Hydraulic Deflection": {
            "name": "效果: 凝水成盾 Hydraulic Deflection",
            "description": "<p>效果來自@UUID[Compendium.pf2e.feats-srd.kqRFoXfErUFEndIs]{凝水成盾 Hydraulic Deflection}</p>"
        },
        "Effect: Distracting Feint": {
            "name": "效果: 分神虛招 Distracting Feint",
            "description": "<p>效果來自@UUID[Compendium.pf2e.feats-srd.hLYoIjH8gPEVXyWG]{分神虛招 Distracting Feint}</p>\n<p>當一個生物被你虛招而陷入@UUID[Compendium.pf2e.conditionitems.AJh5ex99aV6VTggg]{措手不及 Flat-Footed}時，你可以讓他在察覺檢定和反射豁免上獲得-2環境減值。</p>"
        },
        "Effect: Blade Ally Axiomatic Rune": {
            "name": "效果: 利刃盟友公理符文 Blade Ally Axiomatic Rune",
            "description": "<p>複雜而對稱，<em>公理</em>符文為武器注入秩序能量。擁有該符文的武器對混亂目標額外造成1d6點秩序傷害。若你為混亂陣營，你在攜帶或持握該武器時獲得@UUID[Compendium.pf2e.conditionitems.MIRkyAjyBeXivMa7]{力竭 Enfeebled 2}。 </p>\n<p>當你用該武器對混亂生物的攻擊骰成功重擊時。取代骰傷害，你直接將每個武器傷害骰取平均值取高（d4取3，d6取4，d8取5，d10取6，d12取7）。</p>\n<p><strong>製造需求</strong> 你是守序陣營。</p>"
        },
        "Effect: Blade Ally Fearsome Rune": {
            "name": "效果: 利刃盟友可怖符文 Blade Ally Fearsome Rune",
            "description": "<p>當你使用這把武器造成重擊，你的目標陷入@UUID[Compendium.pf2e.conditionitems.TBSHQspnbcqxsmjL]{驚懼 Frightened 1}。</p>"
        },
        "Effect: Blade Ally Ghost Touch Rune": {
            "name": "效果: 利刃盟友幽冥符文 Blade Ally Ghost Touch Rune",
            "description": "<p>該武器可以傷害到沒有實體的生物。幽冥武器對虛體生物特別有效，那些東西大多數都對幽冥武器有著弱點。虛體生物可以接觸、手持和持握幽冥武器（這和大多數物質物體不同）。</p>"
        },
        "Effect: Blade Ally Anarchic Rune": {
            "name": "效果: 利刃盟友混沌符文 Blade Ally Anarchic Rune",
            "description": "<p><em>混沌</em>符文滿是鋸齒和不對稱感，能引導混亂能量。擁有該符文的武器對守序目標額外造成1d6點混亂傷害。若你為守序陣營，你在攜帶或持握該武器時獲得@UUID[Compendium.pf2e.conditionitems.MIRkyAjyBeXivMa7]{力竭 Enfeebled 2}</p>\n<p>當你用該武器對守序生物的打擊成功重擊時，骰1d6。若為1或2，你造成最小傷害的雙倍；若為3或4，正常造成雙倍傷害；若為5或6，你造成最大傷害的雙倍。</p>\n<p><strong>製造需求</strong> 你是混亂陣營。</p>"
        },
        "Effect: Blade Ally Flaming Rune": {
            "name": "效果: 利刃盟友熾焰符文 Blade Ally Flaming Rune",
            "description": "<p>該武器用閃爍著的火焰增強了威力。該武器成功的打擊命中額外造成[[/r 1d6[fire]]]傷害，若重擊，還能再造成[[/r 1d10[persistent,fire]]]傷害。</p>"
        },
        "Effect: Blade Ally Disrupting Rune": {
            "name": "效果: 利刃盟友瓦解符文 Blade Ally Disrupting Rune",
            "description": "<p>瓦解武器充斥著正能量，對不死生物額外造成[[/r 1d6[positive]]]傷害。若重擊，目標不死生物直到你的下一回合結束為止獲得@UUID[Compendium.pf2e.conditionitems.MIRkyAjyBeXivMa7]{力竭 Enfeebled 1}。</p>"
        },
        "Effect: Blade Ally Disrupting Rune (Greater)": {
            "name": "效果: 利刃盟友瓦解符文(高等) Blade Ally Disrupting Rune (Greater)",
            "description": "<p>瓦解武器充斥著正能量，對不死生物額外造成[[/r 2d6[positive]]]傷害。若重擊，目標不死生物必須進行@Check[type:fortitude|dc:34]，並按下列結果處理。這是一個失能效果。</p>\n<hr />\n<p><strong>大成功</strong> 目標直到你的下一回合結束為止@UUID[Compendium.pf2e.conditionitems.MIRkyAjyBeXivMa7]{力竭 Enfeebled 1}。</p>\n<p><strong>成功</strong> 目標直到你的下一回合結束為止@UUID[Compendium.pf2e.conditionitems.MIRkyAjyBeXivMa7]{力竭 Enfeebled 2}。</p>\n<p><strong>失敗</strong> 目標直到你的下一回合結束為止@UUID[Compendium.pf2e.conditionitems.MIRkyAjyBeXivMa7]{力竭 Enfeebled 3}。</p>\n<p><strong>大失敗</strong> 目標被摧毀。</p>"
        },
        "Effect: Blade Ally Holy Rune": {
            "name": "效果: 利刃盟友神聖符文 Blade Ally Holy Rune",
            "description": "<p><em>神聖</em>武器能號令強大的天界能量。擁有該符文的武器對邪惡目標額外造成[[/r 1d6[good]]]傷害。若你為邪惡陣營，你在攜帶或持握該武器時獲得@UUID[Compendium.pf2e.conditionitems.MIRkyAjyBeXivMa7]{力竭 Enfeebled 2}。</p>\n<p><strong>啟動</strong> <span class=\"pf2-icon\">R</span> 命令</p>\n<p><strong>頻率</strong> 每天一次</p>\n<p><strong>觸發</strong> 你用該武器對一邪惡生物重擊成功</p>\n<hr />\n<p><strong>效果</strong> 你恢復該邪惡生物等級雙倍的HP。這是一個善良、正能量、治療效果。</p>"
        },
        "Effect: Blade Ally Unholy Rune": {
            "name": "效果: 利刃盟友邪惡符文 Blade Ally Unholy Rune",
            "description": "<p><em>邪惡</em>符文將煉獄之力賦予給武器。擁有該符文的武器對善良目標額外造成[[/r 1d6[evil]]]傷害。若你為善良陣營，你在攜帶或持握該武器時獲得@UUID[Compendium.pf2e.conditionitems.MIRkyAjyBeXivMa7]{力竭 Enfeebled 2}。</p>\n<p><strong>啟動</strong> <span class=\"pf2-icon\">R</span> 命令</p>\n<p><strong>頻率</strong> 每天一次</p>\n<p><strong>觸發</strong> 你用該武器對一善良生物重擊成功</p>\n<hr />\n<p><strong>效果</strong> 符文蝕刻的武器每有1個武器傷害骰，目標就受到@Localize[PF2E.PersistentDamage.Bleed1d8.success]。</p>"
        },
        "Effect: Blade Ally Keen Rune": {
            "name": "效果: 利刃盟友銳鋒符文 Blade Ally Keen Rune",
            "description": "<p>銳鋒武器的鋒刃超乎尋常的銳利。用該武器的攻擊若骰出19且攻擊結果為成功，則可為重擊。若骰出19但結果為失敗，則該效能符文沒有效果。</p>"
        },
        "Effect: Smite Good": {
            "name": "效果: 制裁善良 Smite Good",
            "description": "<p>效果來自@UUID[Compendium.pf2e.feats-srd.T5xFirAE8VLL5Lbu]{制裁善良 Smite Good}。</p>\n<p>直到你下一回合開始，你寄居著利刃盟友的武器對該敵人的打擊會造成額外4點邪惡傷害，如果你在這武器上達到大師熟練度，則變成6點。</p>\n<p>如果你選的敵人在你下一回合開始前攻擊你，那本能力延長到該敵人下一回合結束。如果敵人每一輪都攻擊你，那就一直延長。</p>"
        },
        "Effect: Smite Evil": {
            "name": "效果: 制裁邪惡 Smite Evil",
            "description": "<p>效果來自@UUID[Compendium.pf2e.feats-srd.xgvKXeTxns0gIdAn]{制裁邪惡 Smite Evil}。</p>\n<p>直到你下一回合開始為止，你用利刃盟友棲息的武器對這名敵人進行的打擊會造成額外4點善良傷害，如果你在這把武器上的熟練等級達到大師則將傷害提升至6點。</p>\n<p>如果這名敵人攻擊你的盟友，這個效果的持續時間會延長到這名敵人下一回合結束為止。如果這名敵人每回合都持續攻擊你的盟友，這個效果的持續時間還會繼續延長。</p>"
        },
        "Effect: Emblazon Armament (Weapon)": {
            "name": "效果: 刻印武裝(武器) Emblazon Armament (Weapon)",
            "description": "<p>當@UUID[Compendium.pf2e.feats-srd.7RFjTTzznsdPcaYB]{刻印武裝 Emblazon Armament}刻印在武器時獲得此效果。</p>\n<ul>\n<li><strong>武器</strong> 持用者在傷害骰上獲得+1狀態加值。</li>\n</ul>"
        },
        "Effect: Emblazon Energy (Weapon, Cold)": {
            "name": "效果: 刻印能量(武器,寒冷) Emblazon Energy (Weapon, Cold)",
            "description": "<p>當你對一把武器使用@UUID[Compendium.pf2e.feats-srd.rKZE8BA9IQHSSWoW]{刻印能量 Emblazon Energy}時獲得此效果。</p>\n<ul>\n<li><strong>武器</strong> 該武器額外造成1d4寒冷傷害，如果你具有寒冷傷害型別的領域，該額外傷害增加到1d6。</li>\n</ul>"
        },
        "Effect: Emblazon Energy (Weapon, Fire)": {
            "name": "效果: 刻印能量(武器,火焰) Emblazon Energy (Weapon, Fire)",
            "description": "<p>當你對一把武器使用@UUID[Compendium.pf2e.feats-srd.rKZE8BA9IQHSSWoW]{刻印能量 Emblazon Energy}時獲得此效果。</p>\n<ul>\n<li><strong>武器</strong> 該武器額外造成1d4火焰傷害，如果你具有火焰傷害型別的領域，該額外傷害增加到1d6。</li>\n</ul>"
        },
        "Effect: Emblazon Energy (Weapon, Electricity)": {
            "name": "效果: 刻印能量(武器,電擊) Emblazon Energy (Weapon, Electricity)",
            "description": "<p>當你對一把武器使用@UUID[Compendium.pf2e.feats-srd.rKZE8BA9IQHSSWoW]{刻印能量 Emblazon Energy}時獲得此效果。</p>\n<ul>\n<li><strong>武器</strong> 該武器額外造成1d4電擊傷害，如果你具有電擊傷害型別的領域，該額外傷害增加到1d6。</li>\n</ul>"
        },
        "Effect: Emblazon Energy (Weapon, Acid)": {
            "name": "效果: 刻印能量(武器,酸液) Emblazon Energy (Weapon, Acid)",
            "description": "<p>當你對一把武器使用@UUID[Compendium.pf2e.feats-srd.rKZE8BA9IQHSSWoW]{刻印能量 Emblazon Energy}時獲得此效果。</p>\n<ul>\n<li><strong>武器</strong> 該武器額外造成1d4酸液傷害，如果你具有酸液傷害型別的領域，該額外傷害增加到1d6。</li>\n</ul>"
        },
        "Effect: Emblazon Energy (Weapon, Sonic)": {
            "name": "效果: 刻印能量(武器,音波) Emblazon Energy (Weapon, Sonic)",
            "description": "<p>當你對一把武器使用@UUID[Compendium.pf2e.feats-srd.rKZE8BA9IQHSSWoW]{刻印能量 Emblazon Energy}時獲得此效果。</p>\n<ul>\n<li><strong>武器</strong> 該武器額外造成1d4音波傷害，如果你具有音波傷害型別的領域，該額外傷害增加到1d6。</li>\n</ul>"
        },
        "Effect: Emblazon Antimagic (Weapon)": {
            "name": "效果: 刻印驅魔(武器) Emblazon Antimagic (Weapon)",
            "description": "<p>效果來自@UUID[Compendium.pf2e.feats-srd.xAFdoKl7aOP9rVkl]{刻印驅魔 Emblazon Antimagic}.</p>\n<p>當武器的持用者使用武器重擊時，他可以嘗試反制目標身上的一個法術，使用他的等級的一半，向上取整，作為反制等級。如果他如此做，刻印的徽記會立即消失。</p>"
        },
        "Effect: Resounding Bravery": {
            "name": "效果: 勇者無懼Resounding Bravery",
            "description": "<p>效果來自@UUID[Compendium.pf2e.feats-srd.dTO1ShJovbzrKUY4]{勇者無懼 Resounding Bravery}。 </p>\n<p>當你在意志豁免上對抗敵人的能力大成功時，你在豁免上獲得+1狀態加值，並且獲得你等級一半的臨時生命值，持續一分鐘。</p>"
        },
        "Effect: Resounding Bravery (vs. Fear)": {
            "name": "效果: 勇者無懼Resounding Bravery (對抗恐懼)",
            "description": "<p>效果來自@UUID[Compendium.pf2e.feats-srd.dTO1ShJovbzrKUY4]{勇者無懼 Resounding Bravery}。 </p>\n<p>如果你在對抗恐懼效果的意志豁免上大成功，你在豁免上獲得+2狀態加值，並且獲得相當於你等級的臨時生命值，持續一分鐘。</p>"
        },
        "Effect: Twin Parry": {
            "name": "效果: 雙重招架 Twin Parry",
            "description": "<p>若兩把武器都沒有格擋特徵，獲得來自@UUID[Compendium.pf2e.feats-srd.Y8LHfkzGyOhPlUou]{雙重招架 Twin Parry}的效果。</p>\n<p>直到你下回合開始，你在AC上得到+1環境加值。</p>"
        },
        "Effect: Twin Parry (Parry Trait)": {
            "name": "效果: 雙重招架(格擋特徵) Twin Parry (Parry Trait)",
            "description": "<p>如果至少一把武器擁有格擋特徵，獲得來自@UUID[Compendium.pf2e.feats-srd.Y8LHfkzGyOhPlUou]{雙重招架 Twin Parry}的效果。</p>\n<p>直到你下回合開始，你在AC上得到+2環境加值。</p>"
        },
        "Effect: Mutate Weapon": {
            "name": "效果: 變異武器 Mutate Weapon",
            "description": "<p>從你肢體武器專長獲得的非武裝攻擊中選擇一種。該攻擊方式的傷害骰增加一級，持續到你的回合結束。除此之外你還可以選擇獲得以下兩種額外效果之一：攻擊觸及增加到10尺，或攻擊檢定獲得+1狀態加值，效果持續到你的回合結束。</p>"
        },
        "Effect: Divine Aegis": {
            "name": "效果: 呼神護衛 Divine Aegis",
            "description": "<p>效果來自@UUID[Compendium.pf2e.feats-srd.xoIxiRtBVHV27Rvd]{呼神護衛 Divine Aegis}。</p>\n<p>直到你的下一回合開始，你在對抗非神術魔法效果時豁免獲得+1環境加值，但對抗神術效果時豁免受到-1環境減值。</p>"
        },
        "Effect: Decry Thief (Critical Success)": {
            "name": "效果: 喝止盜賊(大成功) Decry Thief (大成功)",
            "description": "<p>效果來自@UUID[Compendium.pf2e.feats-srd.4HHw2DjTxdv1jBZd]{喝止盜賊 Decry Thief}</p>\n<p>在1輪內，目標的速度有-10尺狀態減值，並且隱祕技能有-4狀態減值。</p>"
        },
        "Effect: Decry Thief (Success)": {
            "name": "效果: 喝止盜賊(成功) Decry Thief (Success)",
            "description": "<p>效果來自@UUID[Compendium.pf2e.feats-srd.4HHw2DjTxdv1jBZd]{喝止盜賊 Decry Thief}</p>\n<p>在1輪內，目標的速度有-5尺狀態減值，並且隱祕技能有-2狀態減值。</p>"
        },
        "Goblin Song (Critical Success)": {
            "name": "效果: 地精小調(大成功) Goblin Song (Critical Success)",
            "description": "<p>效果來自@UUID[Compendium.pf2e.feats-srd.QZb0Utg0WFPf2Qg0]{地精小調 Goblin Song}。</p>\n<p>目標的察覺檢定和意志豁免受到-1狀況減值。</p>"
        },
        "Goblin Song (Success)": {
            "name": "效果: 地精小調(成功) Goblin Song (Success)",
            "description": "<p>效果來自@UUID[Compendium.pf2e.feats-srd.QZb0Utg0WFPf2Qg0]{地精小調 Goblin Song}。</p>\n<p>目標的察覺檢定和意志豁免受到-1狀況減值</p>"
        },
        "Effect: Shield Ally": {
            "name": "效果: 堅盾盟友 Shield Ally",
            "description": "<p>你手中盾牌的硬度增加2。</p>"
        },
        "Effect: Augment Senses": {
            "name": "效果: 增強感官 Augment Senses",
            "description": "<p>直到你的下回合開始，你無法被夾擊。</p>"
        },
        "Effect: Striking Retribution": {
            "name": "效果: 復仇者 Striking Retribution",
            "description": "<p>效果來自@UUID[Compendium.pf2e.feats-srd.TGlb3gmSKkJBZt5q]{復仇者 Striking Retribution}</p>"
        },
        "Effect: Masterful Hunter's Edge, Outwit": {
            "name": "效果: 大師獵手優勢(機智) Masterful Hunter's Edge, Outwit",
            "description": "<p>當遊俠與你分享其@UUID[Compendium.pf2e.classfeatures.vWZaLE2fEKMBw3D5]{大師獵手(機智) Masterful Hunter (Outwit)}優勢時獲得此效果。</p>\n<p>你對於多種技能的擅長讓你能夠輕易擊敗獵物。如果你在欺騙、威嚇、隱祕或者你用來回憶關於獵物知識的技能上擁有大師熟練，你使用該技能對抗獵物的環境加值從+2提升到+4。</p>\n<p>如果你對你的護甲擁有大師熟練，你對抗獵物的AC環境加值從+1提升到+2。</p>"
        },
        "Effect: Masterful Hunter's Edge, Precision": {
            "name": "效果: 大師獵手優勢(精準) Masterful Hunter's Edge, Precision",
            "description": "<p>當遊俠與你分享其@UUID[Compendium.pf2e.classfeatures.BJYSUbFUGcTLaPDn]{大師獵手(精準) Masterful Hunter (Precision)}優勢時獲得此效果。</p>\n<p>你在一輪中第二次擊中獵殺目標的時候也會造成1d8精準傷害。</p>\n<p>19級時第二次擊中目標會造成2d8精準傷害，第三次擊中目標會造成1d8精準傷害。</p>"
        },
        "Effect: Masterful Hunter's Edge, Flurry": {
            "name": "效果: 大師獵手優勢(連擊) Masterful Hunter's Edge, Flurry",
            "description": "<p>當遊俠與你分享其@UUID[Compendium.pf2e.classfeatures.JhLncIB10GSQowWL]{大師獵手(連擊) Masterful Hunter (Flurry)}優勢時獲得此效果。</p>\n<p>你同一輪對獵殺目標的多次攻擊減值變為，第二次攻擊-2（使用靈巧武器-1），第三次和後續攻擊-4（使用靈巧武器-2）。</p>"
        },
        "Effect: Wings of Air": {
            "name": "效果: 大氣之翼 Wings of Air",
            "description": "<p>你可以設法從你的背後召喚出羽毛狀或雲狀的翅膀。一旦顯現出來，這些翅膀會保持10分鐘。當你顯現出翅膀時，你會獲得與陸地速度相等的飛行速度。</p>"
        },
        "Effect: Heaven's Thunder": {
            "name": "效果: 天堂之雷 Heaven's Thunder",
            "description": "<p>效果來自@UUID[Compendium.pf2e.feats-srd.qJdbK8vgIqeHU7bu]{天堂之雷 Heaven's Thunder}</p>\n<p>直到你的下一回合結束，你的無武裝打擊和擁有武僧特徵的武器打擊能造成相當於你等級一半的額外電擊傷害和相當於你等級一半的額外音波傷害。一個成功擒抱你或被你成功擒抱的生物在進行擒抱檢定之後也會立即受到此額外傷害。</p>\n<p>如果你已經學會<em>@UUID[Compendium.pf2e.spells-srd.oo7YcRC2gcez81PV]{真氣波 Ki Blast}</em>真氣法術，你也可以選擇用電擊或音波傷害來代替法術原本的力場傷害（<em>真氣波</em>失去原本的力場特徵，獲得電擊或音波特徵）。</p>"
        },
        "Effect: Celestial Wings": {
            "name": "效果: 天族飛翼 效果: Celestial Wings",
            "description": "<p>效果來自@UUID[Compendium.pf2e.feats-srd.vtCrMziYxNyj8kP7]{天族飛翼 Celestial Wings}</p>\n<p>你在飛翼顯現期間獲得等同於陸地速度的飛行速度。</p>"
        },
        "Effect: Arcane Propulsion": {
            "name": "效果: 奧術推進 Arcane Propulsion",
            "description": "<p>效果來自@UUID[Compendium.pf2e.feats-srd.YgytD4HGjWNFwiev]{奧術推進 Arcane Propulsion}。</p>"
        },
        "Effect: Witch's Charge": {
            "name": "效果: 女巫監護 Witch's Charge",
            "description": "<p>通過@UUID[Compendium.pf2e.feats-srd.52QyoGaysrfBOy5H]{女巫監護 Witch's Charge}與另一個生物構築聯絡時獲得此效果。</p>"
        },
        "Effect: Cosmos Curse": {
            "name": "效果: 宇宙祕示域詛咒 Cosmos Curse"
        },
        "Effect: Protective Spirit Mask": {
            "name": "效果: 守護之魂面具 Protective Spirit Mask",
            "description": "<p>你的AC獲得+1環境加值，直到施法者的下個回合開始。</p>\n<p><strong>效果來自</strong>@UUID[Compendium.pf2e.feats-srd.nn7DiYYWinsSYrZy]{守護之魂面具 Protective Spirit Mask}</p>"
        },
        "Effect: Overwatch Field": {
            "name": "效果: 守望戰場 Overwatch Field",
            "description": "<p>你的守望戰場靈光提高了你的察覺能力，並允許你在靈光範圍內向你的盟友發出警告以指出威脅。這種靈光具有聽覺和視覺特徵。當使用察覺以進行先攻檢定時，你和你守望戰場靈光內的盟友將獲得+2環境加值。</p>"
        },
        "Effect: Brightness Seeker": {
            "name": "效果: 尋光者 Brightness Seeker",
            "description": "<p><strong>觸發</strong> 你正要為執行<em>@UUID[Compendium.pf2e.spells-srd.41TZEjhO6D1nWw2X]{卜筮術 Augury}</em>詢問的特定行為而要進行攻擊檢定，技能檢定或者豁免檢定，但尚未擲骰。</p>\n<hr />\n<p><strong>效果</strong> 你在觸發反應的檢定上獲得+1狀態加值，如果卜筮術的結果是“凶(woe)”而你仍要執行該行為，則獲得+2狀態加值。</p>"
        },
        "Effect: Mountain Stronghold": {
            "name": "效果: 山嶽壁壘 Mountain Stronghold",
            "description": "<p>你專注於和大地的連線，呼喚山嶽之力阻擋敵人進攻。直到你的下一回合開始前，你的AC獲得+2環境加值。</p>"
        },
        "Effect: Giant's Stature": {
            "name": "效果: 巨人雄姿 Giant's Stature",
            "description": "<p>效果來自@UUID[Compendium.pf2e.feats-srd.W21jKAcG0GtEtBiK]{Giant's Stature}</p>"
        },
        "Effect: Daydream Trance": {
            "name": "效果: 幻夢出神 Daydream Trance",
            "description": "<p>你在察覺和先攻檢定時獲得-1罰值。你在意志豁免上獲得+1狀態加值。該加值在對抗心靈效果時提升為+2。若你在神祕達到傳奇熟練度，則對抗心靈效果時的加值為+3。</p>"
        },
        "Effect: Didactic Strike": {
            "name": "效果: 廣泛打擊 Didactic Strike",
            "description": "<p>效果來自@UUID[Compendium.pf2e.feats-srd.6fojN9yBJByTZ1Q9]{廣泛打擊 Didactic Strike}。</p>\n<p>在調查員的下一回合前，你對指定敵人的首次攻擊如果擊中，會對目標額外造成2d6點精準傷害。</p>"
        },
        "Effect: Eye of the Arclords": {
            "name": "效果: 弧光領主之眼 Eye of the Arclords",
            "description": "<p>效果來自@UUID[Compendium.pf2e.feats-srd.OtV7esAwza1U6Kwr]{弧光領主之眼 Eye of the Arclords}。</p>\n<p>當眼睛開啟時，你獲得如下增益：</p>\n<ul>\n<li>你在你的每回合開始時，無需施法便獲得來自奧法感知的偵測魔法內在法術效果；</li>\n<li>你獲得黑暗視覺；</li>\n<li>你在搜尋無蹤和藏匿生物的察覺檢定，以及對抗躲藏或潛行的察覺DC上獲得+2狀態加值。</li>\n</ul>"
        },
        "Effect: Unleash Psyche": {
            "name": "效果: 心力解放 Unleash Psyche",
            "description": "<p>當你施展傷害性的法術時，你在法術傷害骰上獲得法術環級兩倍的狀態加值。這隻適用於沒有持續時間的法術和你心能者施法能力施放的法術。</p>"
        },
        "Effect: Psychic Rapport": {
            "name": "效果: 心能諧和 Psychic Rapport",
            "description": "<p>效果來自@UUID[Compendium.pf2e.feats-srd.9oKtrUzXixj58hOg]{心能諧和 Psychic Rapport}</p>\n<p>你在欺騙、交涉和威嚇檢定，以及用於@UUID[Compendium.pf2e.actionspf2e.1xRFPTFtWtGJ9ELw]{察言觀色 Sense Motive}的察覺檢定上獲得+1環境加值。</p>"
        },
        "Effect: Fleet Tempo": {
            "name": "效果: 快速行動 Fleet Tempo",
            "description": "<p>你和所有30尺內的盟友在速度上獲得+10尺狀態加值，持續1分鐘。</p>"
        },
        "Effect: Monster Warden": {
            "name": "效果: 怪物守望者 Monster Warden",
            "description": "<p>效果來自@UUID[Compendium.pf2e.feats-srd.2yq3l8e2Vzz34yRV]{怪物守望者 Monster Warden}。</p>\n<p>你在下一次對抗該獵物的攻擊骰上獲得+1環境加值。</p>\n<p>你在下一次對抗該特定生物的豁免檢定上獲得+1環境加值，在對抗該生物下一次攻擊的 AC上獲得+1環境加值。</p>"
        },
        "Effect: Monster Hunter": {
            "name": "效果: 怪物獵手 Monster Hunter",
            "description": "<p>效果來自by @UUID[Compendium.pf2e.feats-srd.YTTJqRKH8QZl6al2]{怪物獵手 Monster Hunter}。</p>\n<p>你在下一次對抗該獵物的攻擊骰上獲得+1環境加值。</p>"
        },
        "Effect: Defensive Instincts": {
            "name": "效果: 戒備本能 Defensive Instincts",
            "description": "<p>@UUID[Compendium.pf2e.feats-srd.RxA1PdgGbijkieJD]{戒備本能 Defensive Instincts}</p>\n<p><strong>需求</strong> 你與至少兩個敵人相鄰</p>\n<hr />\n<p>當你被包圍時，你的身體會緊張到讓你足以預感接下來的攻擊。直到你的下一個回合開始你在AC上獲得+1環境加值，並進行一次快步。</p>"
        },
        "Effect: Battle Curse": {
            "name": "效果: 戰爭祕示域詛咒 Battle Curse",
            "description": "<p>效果來自@UUID[Compendium.pf2e.classfeatures.gjOGOR30Czpnx3tM]{戰爭 Battle}</p>\n<p><em>注意: 高階詛咒效果中未包含@UUID[Compendium.pf2e.conditionitems.e1XGnhKNSQIm5IXg]{呆滯 Stupefied 2}。</em></p>"
        },
        "Effect: Methodical Debilitations": {
            "name": "效果: 戰術衰弱 Methodical Debilitations",
            "description": "<p>目標無法夾擊其他生物，也無法為盟友提供夾擊。</p>"
        },
        "Effect: Inspired Stratagem": {
            "name": "效果: 戰略分享 Inspired Stratagem",
            "description": "<p>你重骰觸發檢定，並在雙骰中取高。</p>"
        },
        "Effect: Topple Giants": {
            "name": "效果: 打倒巨人 Topple Giants",
            "description": "<p>當一個在你的守望戰場中的盟友對一個在你的守望戰場中的敵人，嘗試@UUID[Compendium.pf2e.actionspf2e.Dt6B1slsBy8ipJu9]{卸武 Disarm}、@UUID[Compendium.pf2e.actionspf2e.7blmbDrQFNfdT731]{推撞 Shove}、或@UUID[Compendium.pf2e.actionspf2e.ge56Lu1xXVFYUnLP]{摔絆 Trip}但失敗了的時候，你的協作會在該目標的下回合之前，為對該目標的下一次運動檢定骰提供+2環境加值，這必須是一個不同的盟友對該目標做出的相同動作中的運動檢定。</p>"
        },
        "Effect: Push Back the Dead!": {
            "name": "效果: 打退它們！ Push Back the Dead!",
            "description": "<p>在對抗來自不死生物的效果時，生物的豁免獲得+2環境加值。</p>"
        },
        "Effect: Ceremony of Protection": {
            "name": "效果: 護衛儀典 Ceremony of Protection",
            "description": "<p>直到你下回合開始之前，你的AC獲得+1環境加值。</p>"
        },
        "Effect: Guardian's Deflection": {
            "name": "效果: 護衛格擋 Guardian's Deflection",
            "description": "<p>效果來自@UUID[Compendium.pf2e.feats-srd.JdCRxwgtdQkJ1Ha6]{護衛格擋（戰士） Guardian's Deflection (Fighter)} 或 @UUID[Compendium.pf2e.feats-srd.YJIzE2RhGRGfbt9j]{護衛格擋 (浪客) Guardian's Deflection (Swashbuckler)}。</p>\n<p>你在對抗觸發此專長的攻擊時在AC上得到+2環境加值。</p>"
        },
        "Effect: Safeguard Soul": {
            "name": "效果: 護衛靈魂 Safeguard Soul",
            "description": "<p>你在對抗死亡效果、佔據效果、以及嘗試操縱或竊取你的靈魂的效果時，豁免檢定獲得+2狀態加值。</p>"
        },
        "Effect: Enduring Debilitating Strike": {
            "name": "效果: 持久衰弱打擊 Enduring Debilitating Strike",
            "description": "<p>若遊蕩者具有@UUID[Compendium.pf2e.feats-srd.RzfWrOqHL2GcK0rr]{持久衰弱 Enduring Debilitation}專長，且對一個目標成功附加@UUID[Compendium.pf2e.actionspf2e.bp0Up04x3dzGK5bB]{衰弱打擊 Debilitating Strike}時獲得此效果。</p>\n<p><em>注意：此效果僅追蹤衰弱的持續時間。你需要手動新增遊蕩者選擇的負面效果。</em></p>"
        },
        "Effect: Control Tower": {
            "name": "效果: 指揮台 Control Tower",
            "description": "<p>你的感官更加敏銳，處理戰場資訊的能力大大提高，使你可以減少那些還沒被看見的敵人的優勢。當使用搜尋動作來尋找你的守望戰場內的藏匿或無蹤的生物時，你和處於你守望戰場的盟友將獲得+2環境加值。你和你的盟友在瞄準你的守望戰場內的隱蔽生物時不需要一次成功的純骰。當你或你的盟友瞄準你的守望戰場內的藏匿生物時，減少純骰的DC到5。</p>"
        },
        "Effect: Clue In": {
            "name": "效果: 提供線索 Clue In",
            "description": "<p>效果來自@UUID[Compendium.pf2e.actionspf2e.25WDi1cVUrW92sUj]{提供線索 Clue In}。</p>\n<p>當你嘗試用一次察覺或技能檢定來調查指定的客體時，你會在該檢定上獲得+1的環境加值。</p>"
        },
        "Effect: Clue In (Expertise)": {
            "name": "效果: 提供線索(專家) Clue In (Expertise)",
            "description": "<p>如果調查員擁有@UUID[Compendium.pf2e.classfeatures.PFvB79O2VFdiAeSj]{調查員專家訓練 Investigator Expertise}職業特性，獲得來自@UUID[Compendium.pf2e.actionspf2e.25WDi1cVUrW92sUj]{提供線索 Clue In}的效果。</p>\n<p>當你嘗試用一次察覺或技能檢定來調查指定的客體時，你會在該檢定上獲得+2的環境加值。</p>"
        },
        "Effect: Clue In (Detective's Readiness, Expertise)": {
            "name": "效果: 提供線索(偵探預備，專家) Clue In (Detective's Readiness, Expertise)",
            "description": "<p>效果來自@UUID[Compendium.pf2e.actionspf2e.25WDi1cVUrW92sUj]{提供線索 Clue In}。如果調查員擁有@UUID[Compendium.pf2e.feats-srd.5cYFHKQK6OZCwavI]{偵探預備 Detective's Readiness}專長和@UUID[Compendium.pf2e.classfeatures.PFvB79O2VFdiAeSj]{調查員專家訓練 Investigator Expertise}職業特性，獲得此效果。</p>\n<p>你在對抗追查客體的豁免上獲得+2的環境加值。</p>"
        },
        "Effect: Clue In (Detective's Readiness)": {
            "name": "效果: 提供線索(偵探預備) Clue In (Detective's Readiness)",
            "description": "<p>如果調查員擁有@UUID[Compendium.pf2e.feats-srd.5cYFHKQK6OZCwavI]{Detective's Readiness}專長，獲得來自@UUID[Compendium.pf2e.actionspf2e.25WDi1cVUrW92sUj]{提供線索 Clue In}的效果。</p>\n<p>你在對抗追查客體的豁免上獲得+1環境加值。</p>"
        },
        "Effect: Scout's Warning": {
            "name": "效果: 斥候警告 Scout's Warning",
            "description": "<p>效果來自@UUID[Compendium.pf2e.feats-srd.Tpcq3Lk7qEOZ3LDP]{斥候警告 Scout's Warning}.</p>\n<p>你在先攻檢定上獲得+1環境加值。</p>"
        },
        "Effect: Shed Tail": {
            "name": "效果: 斷尾掙脫 Shed Tail",
            "description": "<p>你在保持平衡的檢定中受到-2的減值。</p>"
        },
        "Effect: Time Curse": {
            "name": "效果: 時間祕示域詛咒 Time Curse",
            "description": "<p>效果來自@UUID[Compendium.pf2e.classfeatures.EslxR2sbDK9XJaAl]{Time}</p>"
        },
        "Effect: Shadow Sight": {
            "name": "效果: 暗影視界 Shadow Sight",
            "description": "<p>你獲得@UUID[Compendium.pf2e.ancestryfeatures.vPhPgzpRjYDMT9Kq]{高等黑暗視覺 Greater Darkvision}，效果持續1分鐘。</p>"
        },
        "Effect: Blizzard Evasion": {
            "name": "效果: 暴雪迴避 Blizzard Evasion",
            "description": "<p>你獲得10點物理傷害抗力和力場傷害+10的弱點，你獲得飛行速度40尺。</p>"
        },
        "Effect: Core Cannon": {
            "name": "效果: 核心火炮 Core Cannon",
            "description": "<p>效果來自@UUID[Compendium.pf2e.feats-srd.zeyrLJr6b7hPdx4w]{核心火炮 Core Cannon}。</p>"
        },
        "Effect: Flamboyant Cruelty": {
            "name": "效果: 棒打落水狗 Flamboyant Cruelty",
            "description": "<p>使用@UUID[Compendium.pf2e.feats-srd.SAOtGk9k8veaX3Ww]{棒打落水狗 Flamboyant Cruelty}時獲得此效果。</p>"
        },
        "Effect: Necrotic Infusion": {
            "name": "效果: 死靈注能 Necrotic Infusion",
            "description": "<p>效果來自@UUID[Compendium.pf2e.feats-srd.6erzXaxxvcXYnL9H]{死靈注能 Necrotic Infusion}.</p>\n<p>如果下個你使用的動作是施放<em>@UUID[Compendium.pf2e.spells-srd.wdA52JJnsuQWeyqz]{傷害術 Harm}</em>為單個不死生物回覆生命值，目標直到其下個回合的結束前，近戰武器造成額外1d6負能量傷害。如果<em>傷害術 Harm</em>傷害術達到5環，該傷害增加到2d6，如果<em>傷害術 Harm</em>達到8環，該傷害增加到3d6。</p>"
        },
        "Effect: Channel the Godmind": {
            "name": "效果: 溝通神識 Channel the Godmind",
            "description": "<p>效果來自@UUID[Compendium.pf2e.feats-srd.DYFOlJlMoDuHjrZx]{溝通神識 Channel The Godmind}。</p>"
        },
        "Effect: Bolera's Interrogation (Critical Failure)": {
            "name": "效果: 波萊拉的審訊(大失敗) Bolera's Interrogation (Critical Failure)",
            "description": "<p>效果來自@UUID[Compendium.pf2e.feats-srd.cBYTVYqw1EFVEuzs]{波萊拉的審訊 Bolera's Interrogation}</p>\n<p>一旦失敗，該生物無法說出任何精心捏造的或蓄謀已久的謊言，並且在欺騙檢定上有-4減值。只要你和目標保持在30尺距離內，並且目標能意識到你在對他使用此能力，該效果就能維持10分鐘之久。如果你開始新的審訊，則對之前目標的效果立即結束。在審訊結束之後，目標在24小時內免疫此能力。</p>"
        },
        "Effect: Bolera's Interrogation (failure)": {
            "name": "效果: 波萊拉的審訊(失敗) Bolera's Interrogation (failure)",
            "description": "<p>效果來自@UUID[Compendium.pf2e.feats-srd.cBYTVYqw1EFVEuzs]{波萊拉的審訊 Bolera's Interrogation}</p>\n<p>一旦失敗，該生物無法說出任何精心捏造的或蓄謀已久的謊言，並且在欺騙檢定上有-2減值。只要你和目標保持在30尺距離內，並且目標能意識到你在對他使用此能力，該效果就能維持10分鐘之久。如果你開始新的審訊，則對之前目標的效果立即結束。在審訊結束之後，目標在24小時內免疫此能力。</p>"
        },
        "Effect: Titan's Stature": {
            "name": "效果: 泰坦雄姿 Titan's Stature"
        },
        "Effect: Known Weakness": {
            "name": "效果: 洞悉弱點 Known Weakness",
            "description": "<p>效果來自@UUID[Compendium.pf2e.feats-srd.iWvpq3uDZcXvBJj8]{洞悉弱點 Known Weaknesses}。</p>\n<p>只要你的盟友在你的下一回合開始前發動攻擊，他們在對目標的下一次攻擊檢定中就會獲得+1環境加值。Your ally gains a +1 circumstance bonus to their next attack roll against the subject of known weakness, as long as their attack is made before the beginning of your next turn.</p>"
        },
        "Effect: Radiant Infusion": {
            "name": "效果: 活力注能 Radiant Infusion",
            "description": "<p>效果來自@UUID[Compendium.pf2e.feats-srd.JcXzKwrdMkNszrJQ]{活力注能 Radiant Infusion}.</p>\n<p>如果你的下個動作是施放<em>@UUID[Compendium.pf2e.spells-srd.rfZpqmj0AIIdkVIs]{治療術 Heal}</em>以恢復單個活物的生命值，直到其下個回合結束，目標的近戰武器和無武裝攻擊額外造成1d6正能量傷害。如果<em>治療術 Heal</em>至少有5環級，該傷害增加到2d6，如果該法術至少8環級則增加到3d6。</p>"
        },
        "Effect: Current Spell (Water)": {
            "name": "效果: 流動超魔(水) Current Spell (Water)",
            "description": "<p>如果你施展一個帶有水特徵的法術，獲得來自@UUID[Compendium.pf2e.feats-srd.ajesR7y0jWzqjAgc]{流動超魔 Current Spell}的效果。</p>\n<p>你的AC獲得+1環境加值，如果是對抗遠端攻擊，那就+2。你在對抗具有水特徵的效果時，在所有豁免上獲得+1環境加值。</p>\n<p>此效果具有水特徵。 </p>"
        },
        "Effect: Current Spell (Air)": {
            "name": "效果: 流動超魔(空氣) Current Spell (Air)",
            "description": "<p>如果你施展一個帶有空氣特徵的法術，獲得來自@UUID[Compendium.pf2e.feats-srd.ajesR7y0jWzqjAgc]{流動超魔 Current Spell}的效果。</p>\n<p>你的AC獲得+1環境加值，如果是對抗遠端攻擊，那就+2。你在對抗具有空氣特徵的效果時，在所有豁免上獲得+1環境加值。</p>\n<p>此效果具有空氣特徵。</p>"
        },
        "Effect: Poison Weapon": {
            "name": "效果: 塗毒武器 Poison Weapon",
            "description": "<p>當你用@UUID[Compendium.pf2e.feats-srd.ALbosSUygdq4T1Yk]{塗毒武器 Poison Weapon}為武器塗毒後獲得此效果。</p>"
        },
        "Effect: Lost in the Crowd (100 Creatures)": {
            "name": "效果: 混跡人群(100個生物) Lost in the Crowd (100 Creatures)",
            "description": "<p>效果來自@UUID[Compendium.pf2e.feats-srd.d8RfatiK9UOQANLz]{混跡人群 Lost in the Crowd}。</p>\n<p>你已經學會如何在人群中移動並隱藏其中，你可以眨眼間消失在繁忙的街道上。你能在人群中全速移動並能通過人群掩體進行隱匿與偷襲，當你處於至少100個生物的人群中時，你的隱祕檢定獲得+4環境加值。</p>"
        },
        "Effect: Lost in the Crowd (10 Creatures)": {
            "name": "效果: 混跡人群(10個生物) Lost in the Crowd (10 Creatures)",
            "description": "<p>效果來自@UUID[Compendium.pf2e.feats-srd.d8RfatiK9UOQANLz]{混跡人群 Lost in the Crowd}。</p>\n<p>你已經學會如何在人群中移動並隱藏其中，你可以眨眼間消失在繁忙的街道上。你能在人群中全速移動並能通過人群掩體進行隱匿與偷襲，當你處於至少10個生物的人群中時，你的隱祕檢定獲得+2環境加值。</p>"
        },
        "Effect: Tidal Shield": {
            "name": "效果: 潮汐之盾 Tidal Shield",
            "description": "<p>你召喚出潮汐的力量，獲得+4的AC環境加值，直到你下一個回合結束。在持續時間內，任何與你相鄰的盟友只要保持與你相鄰，就會獲得+2的AC環境加值。你可以維持該效果，最長持續時間為5回合。</p>"
        },
        "Effect: Inspiring Resilience": {
            "name": "效果: 激發韌性 Inspiring Resilience",
            "description": "<p>你對抗觸發效果的意志豁免有+1環境加值。如果該效果來源於不死生物，則此加值增加到+2。</p>"
        },
        "Effect: Energize Wings": {
            "name": "效果: 激發飛翼 Energize Wings",
            "description": "<p>你獲得30尺飛行速度。</p>"
        },
        "Effect: Predictable!": {
            "name": "效果: 火眼金睛 Predictable!",
            "description": "<p>當你在@UUID[Compendium.pf2e.feats-srd.cErltcAC7OVnIyO1]{火眼金睛 Predictable!}上成功時，獲得此效果。</p>"
        },
        "Effect: Predictable! (Critical Failure)": {
            "name": "效果: 火眼金睛(大失敗) Predictable! (Critical Failure)",
            "description": "<p>若你在@UUID[Compendium.pf2e.feats-srd.cErltcAC7OVnIyO1]{火眼金睛 Predictable!}上大失敗，獲得此效果。</p>"
        },
        "Effect: Predictable! (Critical Success)": {
            "name": "效果: 火眼金睛(大成功) Predictable! (大成功)",
            "description": "<p>若你在@UUID[Compendium.pf2e.feats-srd.cErltcAC7OVnIyO1]{火眼金睛 Predictable!}上大成功，獲得此效果。</p>"
        },
        "Effect: Ashes Curse": {
            "name": "效果: 灰燼蔓延詛咒 Ashes Curse",
            "description": "<p><em>注意: 中等詛咒中的@UUID[Compendium.pf2e.conditionitems.TkIyaNPgTZFBCCuh]{目眩 Dazzled}和@UUID[Compendium.pf2e.conditionitems.DmAIPqOBomZ7H95W]{隱蔽 Concealed}狀態並未自動化。</em></p>"
        },
        "Effect: Bristle": {
            "name": "效果: 炸毛 Bristle",
            "description": "<p>效果來自@UUID[Compendium.pf2e.feats-srd.1gAehVvstGY885kJ]{炸毛 Bristle}</p>\n<p>你蜷縮身子，擺出一副豎起你骨刺的姿態。直到你的下個回合開始，你在AC上獲得+1環境加值。</p>\n<hr />\n<p><strong>特殊</strong> 如果你有@UUID[Compendium.pf2e.actionspf2e.oAWNluJaMlaGysXA]{帶刺羽尖 Barbed Quills}反應或是一個尖刺無武裝攻擊，每有一個，直到你的下個回合開始，你在傷害骰上獲得+1環境加值。</p>"
        },
        "Effect: Emotional Surge": {
            "name": "效果: 熾情奔湧 Emotional Surge",
            "description": "<p>效果來自@UUID[Compendium.pf2e.feats-srd.d8DI7wLxtUy99g9K]{熾情奔湧 Emotional Surge}</p>\n<p>你在技能檢定和法術攻擊檢定上獲得+2狀態加值。</p>"
        },
        "Effect: Flames Curse": {
            "name": "效果: 烈焰祕示域詛咒 Flames Curse"
        },
        "Effect: Rage": {
            "name": "效果: 狂暴 Rage",
            "description": "<p><strong>需求</strong> 你未@UUID[Compendium.pf2e.conditionitems.HL2l2VRSaQHu9lUw]{疲乏 Fatigued}或狂暴。</p>\n<hr />\n<p>你喚起內心的怒意，開始狂暴。你獲得等於你的等級+體質調整值的臨時生命值。狂暴持續1分鐘，或者直到沒有你能發現的敵人存在，又或者直到你@UUID[Compendium.pf2e.conditionitems.fBnFDH2MTzgFijKf]{失去意識 Unconscious}，以先發生的情況為準。你無法主動停止狂暴。在狂暴期間：</p>\n<ul>\n<li>你用近戰武器或非武裝攻擊可造成額外2點傷害。若你的武器或無武裝攻擊有靈巧特徵，此額外傷害減半。</li>\n<li>你的AC受到-1減值。</li>\n<li>你無法採取具有專注特徵但不具有狂暴特徵的行動。你可以在狂暴時進行@UUID[Compendium.pf2e.actionspf2e.BlAOM2X92SI6HMtJ]{搜尋 Seek}。</li>\n</ul>\n<p>在你停止狂暴後，你失去狂暴賦予的所有臨時生命值，並且在1分鐘內無法再次狂暴。</p>\n<p>賦予效果:</p>\n<ul>\n<li>根據等級及體質調整值賦予臨時生命值</li>\n<li>應用狂暴傷害</li>\n<li>指示物特效</li>\n</ul>"
        },
        "Effect: Sniping Duo Dedication": {
            "name": "效果: 狙擊小組入門 Sniping Duo Dedication",
            "description": "<p>效果來自@UUID[Compendium.pf2e.feats-srd.6PP57Aa5HmSr0qIZ]{狙擊小組入門 Sniping Duo Dedication}。</p>\n<p>當你或觀察手成功打擊一個目標時，在另一位成員的下一回合結束前，其在針對相同目標的下一次打擊傷害獲得等同於其武器傷害骰數量的環境加值。</p>"
        },
        "Effect: Corpse-Killer's Defiance": {
            "name": "效果: 獵屍人的蔑視 Corpse-Killer's Defiance",
            "description": "<p>效果來自@UUID[Compendium.pf2e.feats-srd.fzERYW7BJQoxlvoD]{ 獵屍人的蔑視 Corpse-Killer's Defiance}</p>\n<p>對不死生物的攻擊骰和傷害骰獲得+2狀態加值。</p>"
        },
        "Effect: Corpse-Killer's Defiance (Lower Level)": {
            "name": "效果: 獵屍人的蔑視(低等級) Corpse-Killer's Defiance (Lower Level)",
            "description": "<p>效果來自@UUID[Compendium.pf2e.feats-srd.fzERYW7BJQoxlvoD]{獵屍人的蔑視 Corpse-Killer's Defiance}</p>\n<p>對不死生物的攻擊骰和傷害骰獲得+1狀態加值。</p>"
        },
        "Effect: Hunter's Edge, Outwit": {
            "name": "效果: 獵手優勢（機智） Hunter's Edge, Outwit",
            "description": "<p>當遊俠與你分享其@UUID[Compendium.pf2e.classfeatures.NBHyoTrI8q62uDsU]{機智 Outwit}優勢時獲得此效果。</p>\n<p>你在唬騙、威懾、隱匿和任何回想關於獵物知識的檢定上獲得+2環境加值，對抗獵物攻擊的AC上獲得+1環境加值。</p>"
        },
        "Effect: Hunter's Edge, Precision": {
            "name": "效果: 獵手優勢（精準） Hunter's Edge, Precision",
            "description": "<p>當遊俠與你分享其@UUID[Compendium.pf2e.classfeatures.u6cBjqz2fiRBadBt]{精準 Precision}優勢時獲得此效果。</p>\n<p>訓練讓你可以攻擊目標的薄弱部位。你每輪第一次命中你的獵殺目標時，還會造成1d8點額外精準傷害。（精準傷害會增加你原本造成的傷害，使用相同的傷害型別，但是對沒有致命器官或者薄弱點的目標無效）。</p>\n<p>在11級時，這一額外傷害提升到2d8點精準傷害，19級時，這一額外傷害提升到3d8點精準傷害。</p>"
        },
        "Effect: Hunter's Edge, Flurry": {
            "name": "效果: 獵手優勢（連擊） Hunter's Edge, Flurry",
            "description": "<p>當遊俠與你分享其@UUID[Compendium.pf2e.classfeatures.6v4Rj7wWfOH1882r]{連擊 Flurry}優勢時獲得此效果。</p>\n<p>你對於獵殺目標的回合內第二次攻擊的多重攻擊減值變為-3（使用靈巧武器為-2）而非-5，你同輪的第三次攻擊的多重攻擊減值變為-6（使用靈巧武器為-4）而非-10。</p>"
        },
        "Effect: Crimson Shroud": {
            "name": "效果: 猩紅壽衣 Crimson Shroud",
            "description": "<p>效果來自@UUID[Compendium.pf2e.feats-srd.M2V1vqAziOkWV30B]{猩紅壽衣 Crimson Shroud}。</p>"
        },
        "Effect: Cat Nap": {
            "name": "效果: 貓族小睡 Cat Nap",
            "description": "<p>效果來自@UUID[Compendium.pf2e.feats-srd.zvtYsz9jk8tPvlpS]{貓族小睡 Cat Nap}。</p>\n<p>你獲得等同於你的等級的臨時生命值，此臨時生命存續10分鐘。</p>"
        },
        "Effect: Catfolk Dance": {
            "name": "效果: 貓族怪舞 Catfolk Dance",
            "description": "<p>目標生物在反射豁免上承受-2環境減值。</p>"
        },
        "Effect: Life Curse": {
            "name": "效果: 生命祕示域詛咒 Life Curse"
        },
        "Effect: Fortify Shield": {
            "name": "效果: 盾牌強固 Fortify Shield",
            "description": "<p>將你的角色等級加到盾牌的硬度上。</p>"
        },
        "Effect: Lore Curse": {
            "name": "效果: 知識祕示域詛咒 Lore Curse"
        },
        "Effect: Divine Weapon (Force)": {
            "name": "效果: 神聖武器(力場) Divine Weapon (Force)",
            "description": "<p>效果來自@UUID[Compendium.pf2e.feats-srd.Trj5azJlaOk5jgBi]{神聖武器 Divine Weapon}。</p>\n<p>直到你的回合結束，該武器額外造成1d4力場傷害。</p>"
        },
        "Effect: Divine Weapon (Good)": {
            "name": "效果: 神聖武器(善良) Divine Weapon (Good)",
            "description": "<p>效果來自@UUID[Compendium.pf2e.feats-srd.Trj5azJlaOk5jgBi]{神聖武器 Divine Weapon}。</p>\n<p>直到你的回合結束，該武器額外造成1d6善良傷害。</p>"
        },
        "Effect: Divine Weapon (Lawful)": {
            "name": "效果: 神聖武器(守序) Divine Weapon (Lawful)",
            "description": "<p>效果來自@UUID[Compendium.pf2e.feats-srd.Trj5azJlaOk5jgBi]{神聖武器 Divine Weapon}。</p>\n<p>直到你的回合結束，該武器額外造成1d6守序傷害。</p>"
        },
        "Effect: Divine Weapon (Chaotic)": {
            "name": "效果: 神聖武器(混亂) Divine Weapon (Chaotic)",
            "description": "<p>效果來自@UUID[Compendium.pf2e.feats-srd.Trj5azJlaOk5jgBi]{神聖武器 Divine Weapon}。</p>\n<p>直到你的回合結束，該武器額外造成1d6混亂傷害。</p>"
        },
        "Effect: Divine Weapon (Evil)": {
            "name": "效果: 神聖武器(邪惡) Divine Weapon (Evil)",
            "description": "<p>效果來自@UUID[Compendium.pf2e.feats-srd.Trj5azJlaOk5jgBi]{神聖武器 Divine Weapon}。</p>\n<p>直到你的回合結束，該武器額外造成1d6邪惡傷害。</p>"
        },
        "Effect: Prayer-Touched Weapon": {
            "name": "效果: 禱言武器 Prayer-Touched Weapon",
            "description": "<p>該武器造成額外[[/r (1d6)[positive]]]{1d6正能量傷害}。</p>"
        },
        "Effect: Cut from the Air": {
            "name": "效果: 空中截擊 Cut from the Air",
            "description": "<p>效果來自@UUID[Compendium.pf2e.feats-srd.6xBu4BewIkOIt9M0]{空中截擊 Cut From The Air}。</p>\n<p>你在對抗觸發條件的攻擊上AC獲得+4環境加值。</p>"
        },
        "Effect: Prevailing Position": {
            "name": "效果: 立身中正 Prevailing Position",
            "description": "<p>效果來自@UUID[Compendium.pf2e.feats-srd.Xw7qG0SHepXx24vl]{立身中正 Prevailing Position}。</p>\n<p>你離開所處的架式，在對抗觸發條件的攻擊或傷害效果的AC或豁免檢定獲得+4環境加值。</p>"
        },
        "Effect: Improved Poison Weapon": {
            "name": "效果: 精通塗毒武器 Improved Poison Weapon",
            "description": "<p>當你用@UUID[Compendium.pf2e.feats-srd.9Eufa07qvXG41QmG]{精通塗毒武器 Improved Poison Weapon}為武器塗毒後獲得此效果。</p>"
        },
        "Effect: Saoc Astrology": {
            "name": "效果: 索克占星術 Saoc Astrology",
            "description": "<p>此效果賦予你所選技能檢定上的環境加值或減值。</p>\n<hr />\n<p><em>注意：此效果持續到你的回合結束，在你進行過技能檢定後應手動移除它。</em></p>"
        },
        "Effect: Nanite Surge": {
            "name": "效果: 奈米機械激增 Nanite Surge",
            "description": "<p>效果來自@UUID[Compendium.pf2e.feats-srd.JS24EjgLYcHB9E3T]{奈米機械激增 Nanite Surge}。</p>"
        },
        "Effect: Spin Tale": {
            "name": "效果: 編故事 Spin Tale",
            "description": "<p>直到你下回合開始前，“英雄”對“反派”的攻擊骰和豁免骰獲得+1狀態加值。</p>"
        },
        "Effect: Guided by the Stars": {
            "name": "效果: 群星指引 Guided by the Stars",
            "description": "<p>效果來自@UUID[Compendium.pf2e.feats-srd.s1swBWSqtfrXTJHK]{群星指引 Guided by the Stars}</p>\n<p>你將要嘗試技能檢定或豁免檢定時，雙骰取佳。若在晚上而且你能看見群星，你在此觸發骰上獲得+1環境加值。</p>"
        },
        "Effect: Anoint Ally": {
            "name": "效果: 膏立盟友 Anoint Ally",
            "description": "<p>效果來自@UUID[Compendium.pf2e.feats-srd.bRftzbFvSF1pilIo]{膏立盟友 Anoint Ally}。</p>"
        },
        "Effect: Deadly Poison Weapon": {
            "name": "效果: 致命塗毒武器 Deadly Poison Weapon",
            "description": "<p>當你用@UUID[Compendium.pf2e.feats-srd.AYXherMu9gFTyXjp]{致命塗毒武器 Deadly Poison Weapon}為武器塗毒後獲得此效果。</p>"
        },
        "Effect: Heroic Recovery": {
            "name": "效果: 英勇恢復 Heroic Recovery",
            "description": "<p>效果來自@UUID[Compendium.pf2e.feats-srd.KR78kinMmAZQHeoa]{英勇恢復 Heroic Recovery}。</p>\n<p>如果你的下個動作是以一個活物為目標施放<em>@UUID[Compendium.pf2e.spells-srd.rfZpqmj0AIIdkVIs]{治療術 Heal}</em>來回復其生命值，目標也會獲得以下好處，直到其下個回合的結束：在速度上+5尺狀態加值，在攻擊骰上+1狀態加值，在傷害骰上+1狀態加值。</p>"
        },
        "Effect: Heroes' Call": {
            "name": "效果: 英靈召喚 Heroes' Call",
            "description": "<p>你獲得兩倍於你等級的臨時生命。</p>"
        },
        "Effect: Spiral Sworn": {
            "name": "效果: 螺旋誓言 Spiral Sworn",
            "description": "<p>於3輪之內，你在對抗不死生物、被囚困的靈魂所佔據的生物、或者你過去目擊到的曾創造或命令不死生物的生物時，你的打擊和法術會對它們造成額外傷害。你在對抗這些生物時，打擊傷害上獲得的狀態加值等同於武器的傷害骰數量。你從法術位中施放的法術在對抗這些生物時，法術傷害上獲得的狀態加值等同於法術的環級；這些加值僅適用於那些能造成傷害且不具有持續時間的法術。</p>"
        },
        "Effect: Enlightened Presence": {
            "name": "效果: 覺悟之相 Enlightened Presence",
            "description": "<p>效果來自@UUID[Compendium.pf2e.feats-srd.ROnjdPMvH0vkkWjQ]{覺悟之相 Enlightened Presence}。</p>\n<p>你和15尺內的盟友在對抗心靈效果的意志豁免上獲得+2狀態加值。</p>"
        },
        "Effect: Watchful Gaze": {
            "name": "效果: 警戒注視 Watchful Gaze",
            "description": "<p>直到你的下一個回合開始時，你獲得@UUID[Compendium.pf2e.bestiary-ability-glossary-srd.9qV49KjZujZnSp6w]{全域視野 All-Around Vision}。這讓你能夠同時看見所有方向，因此無法被夾擊。</p>"
        },
        "Effect: Accursed Clay Fist": {
            "name": "效果: 詛咒陶拳 Accursed Clay Fist",
            "description": "<p>效果來自@UUID[Compendium.pf2e.feats-srd.tMsAj0H0B9XZQjtH]{詛咒陶拳 Accursed Clay Fist}。</p>\n<p>生物在對抗詛咒效應的豁免骰上獲得-2狀態減值，維持1小時。</p>"
        },
        "Effect: Reanimator Dedication": {
            "name": "效果: 賦生者入門 Reanimator Dedication",
            "description": "<p>效果來自@UUID[Compendium.pf2e.feats-srd.5Cm2TYHzoO2DbQNM]{賦生者入門 Reanimator Dedication}</p>\n<p>你活化的不死生物於<em>@UUID[Compendium.pf2e.spells-srd.9WGeBwIIbbUuWKq0]{操控死屍 Animate Dead}</em>的持續時間內，在攻擊檢定、AC、豁免和技能檢定上獲得+1狀態加值。</p>"
        },
        "Effect: Radiant Circuitry": {
            "name": "效果: 輻射電路 Radiant Circuitry",
            "description": "<p>效果來自@UUID[Compendium.pf2e.feats-srd.2XmdYW8OsAvjGDG3]{輻射電路 Radiant Circuitry}。</p>"
        },
        "Effect: Juvenile Flight": {
            "name": "效果: 追風少年 Juvenile Flight",
            "description": "<p>當你展開雙翼，你獲得和陸地速度相同的飛行速度。</p>\n<p>如果你有@UUID[Compendium.pf2e.feats-srd.UuVz1QY7QXD5cnLu]{振翅離巢 Fledgling Flight}專長，此專長提供的飛行速度獲得+10尺的狀態加值。你的飛行速度是衍生自陸地速度，因此和正常情況一樣，如果你的陸地速度有狀態加值，就不能和這個狀態加值疊加。</p>"
        },
        "Effect: Tiller's Drive": {
            "name": "效果: 阡陌疾行 Tiller's Drive",
            "description": "<p>效果來自@UUID[Compendium.pf2e.feats-srd.Wo0HNBh6CCgPN3Co]{阡陌疾行 Tiller's Drive}</p>\n<p>你的“莊稼”成員的速度得到+5尺環境加值。</p>"
        },
        "Effect: Defensive Recovery": {
            "name": "效果: 防禦恢復 Defensive Recovery",
            "description": "<p>效果來自@UUID[Compendium.pf2e.feats-srd.d1ktdX1Fk37dG5ms]{防禦恢復 Defensive Recovery}。</p>\n<p>如果你的下個動作是以一個目標釋放<em>@UUID[Compendium.pf2e.spells-srd.wdA52JJnsuQWeyqz]{傷害術 Harm}</em>或者<em>@UUID[Compendium.pf2e.spells-srd.rfZpqmj0AIIdkVIs]{治療術 Heal}</em>以令其回覆生命值，目標也會在AC和豁免骰上獲得+2狀態加值，持續1輪。</p>"
        },
        "Effect: Shadow Blood Magic (Perception)": {
            "name": "效果: 陰影血統奧祕(察覺) Shadow Blood Magic (Perception)",
            "description": "<p>Shadows grow deeper around you or one target, imposing a -1 status penalty to Perception for 1 round.</p>"
        },
        "Effect: Shadow Blood Magic (Stealth)": {
            "name": "效果: 陰影血統奧祕(隱祕) Shadow Blood Magic (Stealth)",
            "description": "<p>Shadows grow deeper around you or one target, granting a +1 status bonus to Stealth for 1 round.</p>"
        },
        "Effect: Formation Training": {
            "name": "效果: 陣型訓練 Formation Training",
            "description": "<p>效果來自@UUID[Compendium.pf2e.feats-srd.aoz9dCq2NynyUYEf]{陣型訓練 Formation Training}。</p>\n<p>你知道如何與你的同胞一起組建陣型作戰。當你與至少兩個大地精盟友相鄰，你在AC和豁免骰上獲得+1環境加值。在對抗範圍效果的反射豁免中，該加值提升至+2。</p>"
        },
        "Effect: Align Armament (Good)": {
            "name": "效果: 陣營武裝(善良) Align Armament (Good)",
            "description": "<p>效果來自@UUID[Compendium.pf2e.feats-srd.xtXWw3cUnVB25XSV]{陣營武裝 Align Armament}.</p>\n<p>在1輪中，該武器造成額外1d6善良傷害。</p>"
        },
        "Effect: Align Armament (Lawful)": {
            "name": "效果: 陣營武裝(守序) Align Armament (Lawful)",
            "description": "<p>效果來自@UUID[Compendium.pf2e.feats-srd.xtXWw3cUnVB25XSV]{陣營武裝 Align Armament}.</p>\n<p>在1輪中，該武器造成額外1d6守序傷害。</p>"
        },
        "Effect: Align Armament (Chaotic)": {
            "name": "效果: 陣營武裝(混亂) Align Armament (Chaotic)",
            "description": "<p>效果來自@UUID[Compendium.pf2e.feats-srd.xtXWw3cUnVB25XSV]{陣營武裝 Align Armament}.</p>\n<p>在1輪中，該武器造成額外1d6混亂傷害。</p>"
        },
        "Effect: Align Armament (Evil)": {
            "name": "效果: 陣營武裝(邪惡) Align Armament (Evil)",
            "description": "<p>效果來自@UUID[Compendium.pf2e.feats-srd.xtXWw3cUnVB25XSV]{陣營武裝 Align Armament}.</p>\n<p>在1輪中，該武器造成額外1d6邪惡傷害。</p>"
        },
        "Effect: Azarketi Purification": {
            "name": "效果: 阿扎克緹淨化術 Azarketi Purification",
            "description": "<p>效果來自@UUID[Compendium.pf2e.feats-srd.u94fcPT5Oukqzql5]{阿扎克緹淨化術 Azarketi Purification}</p>"
        },
        "Effect: Favorable Winds": {
            "name": "效果: 順風矢彈 Favorable Winds",
            "description": "<p>效果來自@UUID[Compendium.pf2e.feats-srd.OK8Fm7EG8wjoYZBX]{順風矢彈 Favorable Winds}。</p>\n<hr />\n<p>你使順風纏繞你所持握的武器。在你的下回合開始前，你以遠端武器進行的下1次打擊不承受來自風向的環境減值。此外，若該武器的射程增量只有10尺或更短，則在這次打擊期間將其射程增量增加10尺。</p>"
        },
        "Effect: Tempest Curse": {
            "name": "效果: 風暴祕示域詛咒 Tempest Curse"
        },
        "Effect: Hungry Goblin": {
            "name": "效果: 飢餓地精 Hungry Goblin",
            "description": "<p>每當你用你的顎咬無武裝攻擊造成@UUID[Compendium.pf2e.conditionitems.lDVqvLKA6eF3Df60]{持續流血傷害}時，你會獲得一半於你等級的臨時生命值，持續1分鐘。</p>"
        },
        "Effect: Bones Curse": {
            "name": "效果: 骸骨祕示域詛咒 Bones Curse"
        },
        "Effect: Wyrmblessed Blood Magic (Status Penalty - Target)": {
            "name": "效果: 龍佑血脈奧祕(狀態減值-目標) Wyrmblessed Blood Magic (Status Penalty - Target)",
            "description": "<p>你的聲音傳遞巨龍之威。目標在1個回合內意志豁免受到-1狀態減值。</p>"
        },
        "Effect: Wyrmblessed Blood Magic (Status Bonus - Self)": {
            "name": "效果: 龍佑血脈奧祕(狀態加值-自身) Wyrmblessed Blood Magic (Status Bonus - Self)",
            "description": "<p>你的聲音傳遞巨龍之威。你在1個回合內獲得威嚇檢定上的+1狀態加值。</p>"
        },
        "Effect: Cavalier's Banner": {
            "name": "效果: 騎兵旗幟 Cavalier's Banner",
            "description": "<p>效果來自@UUID[Compendium.pf2e.feats-srd.CAaXGhHDMRM3Pt4J]{騎兵旗幟 Cavalier's Banner}。</p>\n<p>你在坐騎上揚起曾經宣誓的旗幟，鼓舞盟友的士氣。你和所有30尺範圍內的盟友在對抗恐懼效果的意志豁免和DC上獲得+1環境加值。若你的旗幟被破壞或移除，所有30尺內的盟友會陷入@UUID[Compendium.pf2e.conditionitems.TBSHQspnbcqxsmjL]{驚懼 Frightened 1}。</p>"
        },
        "Stance: Clinging Shadows Stance": {
            "name": "架勢: 附影式 Clinging Shadows Stance",
            "description": "<p>效果來自<em>@UUID[Compendium.pf2e.spells-srd.uJXs4M6IeixfPBLc]{附影式 Clinging Shadows Stance}</em></p>\n<p>你展開附影架式。你能作出影爪 @UUID[Compendium.pf2e.actionspf2e.VjxZFuUXrCU94MWR]{打擊 Strikes}。這會造成 [[/r (1d4)[negative]]]{1d4 負能量傷害}；屬於搏擊武器組；具有靈巧、擒抱、長觸及和非武裝特徵。</p>\n<p>當你處於附影架式中時，你會在用於 @UUID[Compendium.pf2e.actionspf2e.PMbdMWc2QroouFGD]{擒拿 Grapple}的運動檢定、以及其他生物 @UUID[Compendium.pf2e.actionspf2e.SkZAQRkLLkmBQNB9]{逃脫 Escape} 你的DC獲得+2環境加值。</p>"
        },
        "Stance: Point-Blank Shot": {
            "name": "架勢: 近程射擊 Point-Blank Shot",
            "description": "<p>效果來自@UUID[Compendium.pf2e.feats-srd.Yl2wYv24v5kw95aS]{近程射擊 Point-Blank Shot}.</p>\n<p>使用不帶遠射特性的遠端武器時，你在此武器的第一個射程增量內的傷害骰上得到+2加值。</p>"
        },
        "Stance: Vitality-Manipulation Stance": {
            "name": "架勢: 戲命式 Vitality-Manipulation Stance",
            "description": "<p>你學會像你的對手白谷真野那樣打擊經脈和穴位。你獲得生命波遠端無武裝打擊，造成[[/r 1d4[negative]]]傷害，具有30尺射程，且具有無武裝和多用正能量特徵。</p>\n<p>當你使用震懾拳時，取代豁免造成震懾，你可以選擇改為讓目標進行一次強韌豁免對抗你的職業DC，對照下列結果。你必須在目標擲豁免骰之前選擇。</p>\n<hr />\n<p><strong>大成功</strong> 目標不受影響。</p>\n<p><strong>成功</strong> 目標的肌肉會暫時變弱1輪，目標陷入@UUID[Compendium.pf2e.conditionitems.MIRkyAjyBeXivMa7]{力竭 Enfeebled 2}，並且它在嘗試使用具有操作特徵的動作時，除非成功通過一次DC為5+力竭狀態值的純骰檢定，否則被打斷。</p>\n<p><strong>失敗</strong> 同成功，但持續時間為1分鐘。</p>\n<p><strong>大失敗</strong> 同成功，但持續時間為1分鐘，純骰DC為11，且目標在持續時間內所有速度承受-10尺狀態減值。</p>"
        },
        "Stance: Wild Winds Stance": {
            "name": "架勢: 狂風架勢 Wild Winds Stance",
            "description": "<p>效果來自<em>@UUID[Compendium.pf2e.spells-srd.SkarN4VlNxSJSJNw]{狂風架勢 Wild Winds Stance}</em></p>\n<p>你展開流風的架式，隔空就能傳遞能量波動。</p>\n<p>你可以對30尺內的目標進行風襲無武裝遠端打擊。它造成1d6點鈍擊傷害，屬於搏擊武器組，擁有靈巧、非致命、助進和非武裝特徵。風襲打擊忽視隱蔽和所有的掩蔽。</p>\n<p>當處於狂風架勢中時，你對遠端攻擊的AC獲得+2環境加值。</p>"
        },
        "Stance: Six Pillars Stance": {
            "name": "架勢: 六柱架勢 Six Pillars Stance",
            "description": "<p>@UUID[Compendium.pf2e.feats-srd.hT0pVPqFuiEsmRb8]{六柱架勢 Six Pillars Stance}</p>\n<p><strong>需求</strong> 你未穿甲</p>\n<p>你站穩身軀，讓意志和身軀都堅硬如鐵，這樣你就可以不受干擾地使用魔法。在此架勢下，你在使用具有專注或操作特徵的動作時，針對所觸發的反應動作，在AC上有+4環境加值。此外，當你在此架勢下施放需要一個或多個動作的法術時，你的非武裝攻擊在傷害上獲得+1環境加值。</p>"
        },
        "Stance: Dueling Dance": {
            "name": "架勢: 決鬥之舞Dueling Dance",
            "description": "<p>效果來自@UUID[Compendium.pf2e.feats-srd.9VGmE7X4aK2W8YWj]{決鬥之舞（浪客） Dueling Dance (Swashbuckler)}或@UUID[Compendium.pf2e.feats-srd.FYz5eQeTox9IDkSd]{決鬥之舞（戰士） Dueling Dance (Fighter)}。</p>"
        },
        "Stance: Everstand Stance": {
            "name": "架勢: 堅衛架式 Everstand Stance",
            "description": "<p>維持此架式時，你以兩手持握一面盾牌，以此法裝備盾牌時，將該盾牌的盾凸或盾刺的傷害骰提高1階，並在使用@UUID[Compendium.pf2e.feats-srd.jM72TjJ965jocBV8]{盾牌格擋 Shield Block}反應動作時，將該盾牌的硬度提高2。</p>"
        },
        "Stance: Multishot Stance": {
            "name": "架勢: 多重射擊姿態 Multishot Stance",
            "description": "<p>效果來自@UUID[Compendium.pf2e.feats-srd.RzhnxgiAopWILCvs]{多重射擊姿態 Multishot Stance}.</p>\n<p>當你處於此架勢中時，你的@UUID[Compendium.pf2e.feats-srd.PwcmmJOLY8C9JHau]{二重射擊 Double Shot}減值降低到-1，若你要再用一個額外動作來普通攻擊三次則為-2。若你從目前的位置移開，則此架勢結束。</p>"
        },
        "Stance: Peafowl Stance": {
            "name": "架勢: 孔雀式 Peafowl Stance",
            "description": "<p>效果來自@UUID[Compendium.pf2e.feats-srd.C3MgEkPNaIhTddbr]{孔雀式 Peafowl Stance}。</p>\n<p>你擺出一個高姿態且自傲的架式，但仍保持靈活性，像孔雀一樣鎮靜又優雅。</p>\n<p>在此架式時，你唯一能進行的打擊就是需求條件中的劍的近戰打擊。一輪一次，在你用這把劍進行攻擊且擊中後，你可以在下個動作以一個自由動作進行快步。</p>"
        },
        "Stance: Mountain Stance": {
            "name": "架勢: 山嶽架勢 Mountain Stance",
            "description": "<p>效果來自@UUID[Compendium.pf2e.feats-srd.ZL5UU9quCTvcWzfY]{山嶽架勢 Mountain Stance}。</p>\n<p>你進入山嶽架勢——最早由矮人武僧發現的技術——允許你藉助山崩之力攻擊敵人。你唯一能進行的打擊是落石無武裝攻擊。它造成1d8點鈍擊傷害，屬於搏擊武器組，具有蓄力、非致命和無武裝特徵</p>\n<p>處於山嶽架勢時，你的AC獲得+4狀態加值，對抗推撞或摔拌的防禦會獲得+2環境加值。但是，你AC上的敏捷上限會變成+0，意味著你無法將敏捷新增到AC上，並且你的所有速度降低5尺。山嶽架勢賦予的AC狀態加值與@UUID[Compendium.pf2e.equipment-srd.dDIPA1WE9ESF67EB]{探險者服裝 Clothing (Explorer's)}、@UUID[Compendium.pf2e.spells-srd.aAbfKn8maGjJjk2W]{法師護甲 Mage Armor}和盔甲護腕上的潛能符文疊加。</p>"
        },
        "Stance: Paragon's Guard": {
            "name": "架勢: 護衛典範 Paragon's Guard",
            "description": "<p>效果來自@UUID[Compendium.pf2e.feats-srd.hPDerDCYmag3s0dP]{護衛典範 Paragon's Guard}。</p>\n<hr />\n<p><strong>需求</strong> 你正持用一面盾牌。</p>\n<hr style=\"border-top: 1px solid var(--color-border-light-primary); border-bottom: 1px solid var(--color-border-light-highlight);\">\n<p>當你有時間來定下你的架勢時，你總是能不假思索地準備好你的盾牌。</p>\n<p>當你在此架勢下時，只要你滿足動作的需求，你總是保持你的盾牌舉起，如同已經使用過@UUID[Compendium.pf2e.actionspf2e.xjGwis0uaC2305pm]{舉起盾牌 Raise a Shield}動作一般。 </p>"
        },
        "Stance: Shooting Stars Stance": {
            "name": "架勢: 散星式 Shooting Stars Stance",
            "description": "<p>效果來自@UUID[Compendium.pf2e.feats-srd.6cQSPqXoAO6oJl0i]{散星式 Shooting Stars Stance}。</p>\n<p>你進入一個能讓你以閃電般的速度投擲手裡劍的架式。</p>\n<p>在此架式時，你能夠在使用手裡劍時，應用那些一般需要非武裝攻擊的武僧專長或武僧能力。</p>"
        },
        "Stance: Jellyfish Stance": {
            "name": "架勢: 水母架勢 Jellyfish Stance",
            "description": "<p>效果來自@UUID[Compendium.pf2e.feats-srd.Jwq5o13uZF3ooln1]{水母架勢 Jellyfish Stance}</p>\n<p><strong>需求</strong> 你未穿甲</p>\n<p>你放鬆你的姿勢和關節，以難以置信的流體步法移動。你能進行蟄刺抽打（stinging lash）攻擊，造成1d8揮砍傷害。這些攻擊屬於搏擊武器組，具有嫻熟、非致命、長觸及和非武裝特徵。</p>\n<p>在水母架勢下，你的反射豁免、@UUID[Compendium.pf2e.actionspf2e.SkZAQRkLLkmBQNB9]{逃脫 Escape}和@UUID[Compendium.pf2e.actionspf2e.kMcV8e5EZUxa6evt]{擠入空間 Squeeze}檢定有+2環境加值。</p>"
        },
        "Stance: Whirling Blade Stance": {
            "name": "架勢: 遊鳶式 Whirling Blade Stance",
            "description": "<p>效果來自@UUID[Compendium.pf2e.feats-srd.IaiEZaA8erufMUCr]{遊鳶式 Whirling Blade Stance}。</p>\n<p>你進入了一個沉靜的架式，你與你的武僧武器間產生了緊密的聯絡，讓你能以氣御刀。</p>\n<p>你持握且擁有嫻熟特徵的近戰武僧武器獲得投擲10尺的特徵(除非這武器已經有了能投的更遠的特徵)。</p>\n<p>當你用這種武器做了投擲打擊後，你精準的投擲力道可以進行額外打擊，就算武器與你有段距離。在判斷新目標在不在打擊範圍內時，要以先前目標的空間當作開始計算武器的射程增量。在你的回合結束時，該投擲武器會筆直地朝你飛回來。如果路徑上有堅固的屏障，那武器會在撞到屏障後落下。</p>"
        },
        "Stance: Rain of Embers Stance": {
            "name": "架勢: 燼雨架勢 Rain of Embers Stance",
            "description": "<p>效果來自@UUID[Compendium.pf2e.feats-srd.rbiMK71SvGZGRLJ1]{燼雨架勢 Rain of Embers Stance}</p>\n<p>你擺出暴怒鳳凰的架勢，你的手像致命的鳥爪一般剛硬，同時快速移動，閃爍的火苗在你周身舞蹈。你唯一能進行的打擊是火爪打擊（fire talon）。這造成1d4火焰傷害；屬於搏擊武器組，擁有靈巧、嫻熟、火焰、非致命、非武裝特徵。</p>\n<p>當你處於燼雨架勢時，你的AC獲得+1狀態加值，以及等同於你等級一半的火焰抗力（最少為1）。</p>"
        },
        "Stance: Stoked Flame Stance": {
            "name": "架勢: 燃焰架勢 Stoked Flame Stance",
            "description": "<p><strong>需求</strong> 你未穿甲。</p>\n<hr />\n<p>你進入一個迅速熱烈的架勢。你可以進行爍焰攻擊，造成1d8揮砍傷害。它屬於搏擊武器組，具備蓄力、非致命、橫掃和無武裝特徵。如果你發動了爍焰攻擊的重擊專精效果，你可以使用另一種效果：若你的重擊造成傷害，目標額外受到1d6持續火焰傷害。</p>\n<p>在燃焰架勢下，你的速度額外獲得5尺狀態加值。如果你擁有@UUID[Compendium.pf2e.classfeatures.Cq6NjvcKZOMySBVj]{高速移動 Incredible Movement}特性，其加值提升至15尺，且在3級之後的每4級提升5尺。</p>\n<hr />\n<p><strong>特殊</strong> 此專長獲得神術或異能特徵，以匹配你真氣法術的根源，如果你有的話。</p>"
        },
        "Stance: Dragon Stance": {
            "name": "架勢: 狂龍架勢 Dragon Stance",
            "description": "<p>效果來自@UUID[Compendium.pf2e.feats-srd.8sy3sHwOHS4ImwvJ]{狂龍架勢 Dragon Stance}。</p>\n<p>你進入狂龍架勢，強力的鞭腿攻擊猶如狂龍擺尾。你可以進行龍尾攻擊，造成1d10點鈍擊傷害。它屬於搏擊武器組並且有回擺、非致命、無武裝特徵。</p>\n<p>處於狂龍架勢中時，你可以忽略行走動作遇到的第一格困難地形。</p>"
        },
        "Stance: Tiger Stance": {
            "name": "架勢: 猛虎架勢 Tiger Stance",
            "description": "<p>效果來自@UUID[Compendium.pf2e.feats-srd.VCjAlOvjNvFJOsG5]{猛虎架勢 Tiger Stance}。</p>\n<p>你進入猛虎架勢，能進行虎爪攻擊。它造成1d8點揮砍傷害，屬於搏擊武器組，擁有靈巧、嫻熟、非致命和無武裝特徵。</p>\n<p>當你使用虎爪大成功時，若你造成傷害，目標會受到@Localize[PF2E.PersistentDamage.Bleed1d4.success]。</p>\n<p>當你處於猛虎架勢中至少擁有20尺的速度時，你的快步就能移動10尺。</p>"
        },
        "Stance: Crane Stance": {
            "name": "架勢: 白鶴架勢 Crane Stance",
            "description": "<p>效果來自@UUID[Compendium.pf2e.feats-srd.bf7NCeKqDClaqhTR]{白鶴架勢 Crane Stance}</p>\n<p>你進入白鶴架勢，雙臂宛如鶴翼舒張，如流水一般展開防禦。你的AC獲得+1環境加值，但唯一能進行的打擊是鶴翼攻擊。它造成1d6點鈍擊傷害，屬於搏擊武器組；擁有靈巧、嫻熟、非致命和無武裝特徵。</p>\n<p>處於白鶴架勢中時，減少@UUID[Compendium.pf2e.actionspf2e.2HJ4yuEFY1Cast4h]{跳高 High Jump}和@UUID[Compendium.pf2e.actionspf2e.JUvAvruz7yRQXfz2]{跳遠 Long Jump}的DC5點，當你@UUID[Compendium.pf2e.actionspf2e.d5I6018Mci2SWokk]{跳躍 Leap}時，可額外水平移動5尺或垂直移動2尺。</p>"
        },
        "Stance: Tangled Forest Stance": {
            "name": "架勢: 盤根架勢 Tangled Forest Stance",
            "description": "<p>效果來自@UUID[Compendium.pf2e.feats-srd.2tUdsoPEnW9yS8so]{盤根架勢 Tangled Forest Stance}。</p>\n<p>你伸長雙臂，彷如扭曲的枝條一般阻礙敵人移動。你可以進行枝掃無武裝攻擊。它造成1d8點揮砍傷害，屬於搏擊武器組，擁有靈巧、嫻熟、非致命、無武裝特徵。</p>\n<p>當你處於盤根架勢中並可以行動，每個在你觸及內試圖遠離你的敵人必須成功一次反射豁免檢定、特技技能檢定或運動技能檢定，對抗你的職業DC，失敗則在那個動作中被@UUID[Compendium.pf2e.conditionitems.eIcWbB5o3pP6OIMe]{禁足 Immobilized}。若你願意，可以允許敵人進行移動。</p>"
        },
        "Stance: Monastic Archer Stance": {
            "name": "架勢: 禪弓式 Monastic Archer Stance",
            "description": "<p>效果來自@UUID[Compendium.pf2e.feats-srd.YG2RxXE9SMfwo6wP]{禪弓式 Monastic Archer Stance}。</p>\n<p>你擺出一個以弓為中心的特殊架式。進入禪弓式時，你唯一能進行的打擊就是使用長弓、短弓或有武僧特徵的弓的打擊。</p>\n<p>你可以在使用弓時進行@UUID[Compendium.pf2e.actionspf2e.nbfNETdpee8CVM17]{疾風連擊 Flurry of Blows}。在用這些弓攻擊，如果距離在第一射程增幅一半以內，那你就可以把一般需要非武裝攻擊的武僧專長或武僧能力用在弓的攻擊上(一般來說，長弓是50尺，短弓是30尺)，只要該專長或能力沒有要求要一次、具體的打擊。</p>"
        },
        "Stance: Disarming Stance": {
            "name": "架勢: 繳械姿態 Disarming Stance",
            "description": "<p>該效果來自 @UUID[Compendium.pf2e.feats-srd.1p5ErCp33nGOzEsk]{繳械姿態 Disarming Stance}.</p>\n<p>你在@UUID[Compendium.pf2e.actionspf2e.Dt6B1slsBy8ipJu9]{繳械 Disarm}的運動檢定上得到+1環境加值。</p>"
        },
        "Stance: Cobra Stance": {
            "name": "架勢: 蛇拳式 Cobra Stance",
            "description": "<p>效果來自@UUID[Compendium.pf2e.feats-srd.AkV4Jyllo6nlK2Sl]{蛇拳式 Cobra Stance}。</p>\n<p>你擺出一個緊繃的架式，盤旋纏繞像是一條眼鏡蛇，而你平穩的手就是毒牙。在此架式時，你唯一能進行的打擊就是蛇牙非武裝攻擊。這造成1d4點毒素傷害；屬於搏擊武器組；擁有靈巧、致命d10、嫻熟、非致命、毒素和無武裝特徵。</p>\n<p>在此架勢時，你在強韌豁免與強韌DC上獲得+1環境加值，你還獲得等級一半的毒素抗力。</p>"
        },
        "Stance: Cobra Stance (Cobra Envenom)": {
            "name": "架勢: 蛇拳式(毒蛇出洞) Cobra Stance (Cobra Envenom)",
            "description": "<p>如果你擁有@UUID[Compendium.pf2e.feats-srd.xQuNswWB3eg1UM28]{毒蛇出洞 Cobra Envenom}專長，@UUID[Compendium.pf2e.feats-srd.AkV4Jyllo6nlK2Sl]{蛇拳式 Cobra Stance}在強韌豁免還有強韌DC上賦予的環境加值從+1變成+2。</p>\n<p>你擺出一個緊繃的架式，盤旋纏繞像是一條眼鏡蛇，而你平穩的手就是毒牙。在此架式時，你唯一能進行的打擊就是蛇牙非武裝攻擊。這造成1d4點毒素傷害；屬於搏擊武器組；擁有靈巧、致命d10、嫻熟、非致命、毒素和無武裝特徵。</p>\n<p>在此架勢時，你在強韌豁免與強韌DC上獲得+2環境加值，你還獲得等級一半的毒素抗力。</p>"
        },
        "Stance: Sky and Heaven Stance": {
            "name": "架勢: 諸天涅槃架勢 Sky and Heaven Stance",
            "description": "<p>效果來自@UUID[Compendium.pf2e.feats-srd.UjEeHamC2C8JfgJz]{諸天涅槃架勢 Sky and Heaven Stance}</p>\n<p>你像雷電劃過天空。你能做出的唯一打擊是天空劈（skyward slash）無武裝攻擊。這些無武裝攻擊造成1d10揮砍傷害；屬於搏擊武器組，並且擁有非致命、無武裝、多用P特徵。在諸天涅槃架勢下，你獲得2點電擊抗力和2點音波抗力。這些抗力在12級時增加到5，在18級時增加到8。</p>"
        },
        "Stance: Stumbling Stance": {
            "name": "架勢: 醉拳式 Stumbling Stance",
            "description": "<p>效果來自@UUID[Compendium.pf2e.feats-srd.7FRYyKXDKjGoANYj]{醉拳式 Stumbling Stance}。</p>\n<p>進入醉拳式時，你在使用@UUID[Compendium.pf2e.actionspf2e.QNAVeNKtHA0EUw4X]{虛招 Feint}進行欺騙檢定時獲得+1環境加值。</p>\n<p>你唯一能進行的打擊就是晃身勸酒非武裝攻擊。這個非武裝攻擊造成1d8點鈍擊傷害；屬於搏擊武器組；有靈巧、背刺、嫻熟、非致命和非武裝特性。如果你處在這個架式時有敵人用近戰打擊擊中你，那直到你下一回合結束之前，該敵人對你下一次的晃身勸酒@UUID[Compendium.pf2e.conditionitems.AJh5ex99aV6VTggg]{措手不及 Flat-Footed}。</p>"
        },
        "Stance: Gorilla Stance": {
            "name": "架勢: 金剛式 Gorilla Stance",
            "description": "<p>效果來自@UUID[Compendium.pf2e.feats-srd.DqD7htz8Sd1dh3BT]{金剛式 Gorilla Stance}。</p>\n<p>你俯下身子，採取一個用指關節行動，令人難忘的架式。你進入金剛式，你唯一能進行的打擊就是猩猩非武裝攻擊的揮擊。這能造成1d8點鈍擊傷害；屬於搏擊武器組；擁有回擺、疊勁、擒抱、非致命與非武裝特徵。</p>\n<p>當你處於金剛式時，你在@UUID[Compendium.pf2e.actionspf2e.pprgrYQ1QnIDGZiy]{攀爬 Climb}的運動檢定上獲得+2環境加值，如果你在攀爬的運動檢定上骰出成功，你算做大成功。</p>"
        },
        "Stance: Gorilla Stance (Gorilla Pound)": {
            "name": "架勢: 金剛式(金剛重捶) Gorilla Stance (Gorilla Pound)",
            "description": "<p>如果你擁有@UUID[Compendium.pf2e.feats-srd.nRjyyDulHnP5OewA]{金剛重捶 Gorilla Pound}專長，處於@UUID[Compendium.pf2e.feats-srd.DqD7htz8Sd1dh3BT]{金剛式 Gorilla Stance}時你額外獲得15尺攀爬速度。</p>\n<p>你俯下身子，採取一個用指關節行動，令人難忘的架式。你進入金剛式，你唯一能進行的打擊就是猩猩非武裝攻擊的揮擊。這能造成1d8點鈍擊傷害；屬於搏擊武器組(brawling group)；擁有回擺、疊勁、擒抱、非致命與非武裝特徵。</p>\n<p>當你進入金剛式時，你會獲得15尺@UUID[Compendium.pf2e.actionspf2e.pprgrYQ1QnIDGZiy]{攀爬 Climb}速度。並且，當你進行攀爬的運動檢定成功時，視為大成功。</p>"
        },
        "Stance: Ironblood Stance": {
            "name": "架勢: 鐵血架勢 Ironblood Stance",
            "description": "<p>效果來自@UUID[Compendium.pf2e.feats-srd.x9cYkB8DrUBBwqJd]{鐵血架勢 Ironblood Stance}。</p>\n<p>你進入堅固如鐵的架勢中，不懼怕任何暴力攻擊。你可以進行鐵鞭無武裝攻擊。它造成1d8點鈍擊傷害，屬於搏擊武器組，擁有非致命、格擋、橫掃和無武裝特徵。</p>\n<p>當處於鐵血架勢中時，你對所有傷害獲得抗力2。這個抗力在12級時提升為3，在16級時提升為4，在20級時提升為5。</p>\n<p>@UUID[Compendium.pf2e.equipment-effects.fRlvmul3LbLo2xvR]{效果: 格擋}</p>"
        },
        "Stance: Wolf Stance": {
            "name": "架勢: 餓狼架勢 Wolf Stance",
            "description": "<p>效果來自@UUID[Compendium.pf2e.feats-srd.AN9jY1JVcU20Qdw6]{餓狼架勢 Wolf Stance}。</p>\n<p>你進入餓狼架勢，降低重心身體貼至地面，雙手猶如狼牙之形。你可以進行狼咬無武裝攻擊。它造成1d8點穿刺傷害，屬於搏擊武器組，擁有靈巧、背刺、嫻熟、非致命、無武裝特徵。</p>\n<p>若你處於餓狼架勢時夾擊一個目標，你的狼咬無武裝攻擊還能獲得摔拌特徵。</p>"
        }
    }
}
