{
    "label": "構裝夥伴 CC Construct Companions",
    "entries": {
        "Advanced Construct (Large)": {
            "name": "進階構裝夥伴(大型) Advanced Construct (Large)"
        },
        "Advanced Construct (Medium)": {
            "name": "進階構裝夥伴(中型) Advanced Construct (Medium)"
        },
        "Advanced Construct (Small)": {
            "name": "進階構裝夥伴(小型) Advanced Construct (Small)"
        },
        "Incredible Construct": {
            "name": "驚人構裝夥伴 Incredible Construct"
        },
        "Paragon Construct": {
            "name": "典範構裝夥伴 Paragon Construct"
        },
        "Prototype Construct": {
            "name": "原型構裝夥伴 Prototype Construct"
        },
        "Unarmed Strike 1": {
            "name": "無武裝打擊1 Unarmed Strike 1",
            "description": "<p>重新命名此專長可重新命名此專長附帶的打擊，此專長的圖示也可以按喜好調整。</p>"
        },
        "Unarmed Strike 2": {
            "name": "無武裝打擊2 Unarmed Strike 2",
            "description": "<p>重新命名此專長可重新命名此專長附帶的打擊，此專長的圖示也可以按喜好調整。</p>"
        }
    }
}
