{
    "label": "動物夥伴支援收益 CC Support Benefits",
    "entries": {
        "Ape Support Benefit": {
            "name": "猿-支援收益 Ape Support Benefit",
            "description": "<p>你的猿夥伴用充滿威脅性的咆哮威嚇敵人。直至你的下個回合開始為止，若你命中1個生物並造成傷害，且該生物在猿夥伴的觸及範圍內時，該生物陷入@UUID[Compendium.pf2e.conditionitems.TBSHQspnbcqxsmjL]{驚懼 Frightened 1}。</p>"
        },
        "Arboreal Sapling Support Benefit": {
            "name": "樹人幼苗-支援收益 Arboreal Sapling Support Benefit",
            "description": "<p>你的樹人幼苗在敵人周遭種植根鬚，阻礙對方的移動。直至你的下個回合開始為止，若你命中一個生物並造成傷害，且該生物在樹人幼苗的觸及範圍內時，該生物在受到傷害之後移動進入的第一個方格是困難地形。</p>"
        },
        "Badger Support Benefit": {
            "name": "獾-支援收益 Badger Support Benefit",
            "description": "<p>獾在敵人的位置周圍挖坑，妨礙它的腳步。直到你下一回合開始，如果你命中並傷害了獾所威脅的生物，目標在移出當前所在的位置前無法使用快步動作（除非它能夠快步通過困難地形）。</p>"
        },
        "Bat Support Benefit": {
            "name": "蝙蝠-支援收益 Bat Support Benefit",
            "description": "<p>你的蝙蝠夥伴在敵人周圍拍擊其手臂和臉部，妨礙他們的攻擊。直至你的下個回合開始為止，被你用打擊傷害且在蝙蝠夥伴的觸及範圍內的生物，會在其攻擊檢定上承受-1環境減值。</p>"
        },
        "Bear Support Benefit": {
            "name": "熊-支援收益 Bear Support Benefit",
            "description": "<p>熊會抓住機會撕咬敵人。直到你下一回合開始，每次你以打擊命中熊觸及範圍內的生物時，這名生物會受到來自於熊的[[/r (1d8)[slashing]]]{1d8揮砍傷害}。如果你的熊是靈敏或狂怒夥伴，那麼揮砍傷害會提升至[[/r 2d8]]{2d8}。</p>"
        },
        "Beetle Support Benefit": {
            "name": "甲蟲-支援收益 Beetle Support Benefit",
            "description": "<p>當你突破防線時，你的甲蟲衝進敵群眾四處踐踏，能將敵人撞得失去平衡或擠到旁邊。直到你的下回合開始，當你騎乘甲蟲時，你的打擊如果造成傷害，可以讓目標陷入@UUID[Compendium.pf2e.conditionitems.AJh5ex99aV6VTggg]{措手不及 Flat-Footed}直到你的下一回合結束，或讓目標被推離甲蟲5尺（強制移動）。由目標來選擇兩種效果中的其中之一。</p>"
        },
        "Bird Support Benefit": {
            "name": "鳥-支援收益 Bird Support Benefit",
            "description": "<p>鳥兒會抓住機會啄擊敵人的雙眼。直到你下一回合開始，你的打擊在傷害一名位於你的鳥兒威脅範圍內的生物的同時，也會造成[[/r (1d4)[persistent,bleed]]]{1d4} @UUID[Compendium.pf2e.conditionitems.lDVqvLKA6eF3Df60]{持續流血傷害}，這個目標直到流血傷害被移除前都會陷入@UUID[Compendium.pf2e.conditionitems.TkIyaNPgTZFBCCuh]{目眩 Dazzled}。如果你的鳥兒是靈敏或狂怒動物夥伴，持續流血傷害會提升至[[/r (2d4)[persistent,bleed]]]{2d4} @UUID[Compendium.pf2e.conditionitems.lDVqvLKA6eF3Df60]{持續流血傷害}。</p>"
        },
        "Boar Support Benefit": {
            "name": "豬-支援收益 Boar Support Benefit",
            "description": "<p>你的豬夥伴會頂傷敵人。直至你的下個回合開始為止，被你用打擊傷害且在豬夥伴的觸及範圍內的生物，還會受到[[/r (1d6)[persistent,bleed]]]{1d6} @UUID[Compendium.pf2e.conditionitems.lDVqvLKA6eF3Df60]{持續流血傷害}。若你的豬夥伴是靈敏或狂怒動物夥伴，持續出血傷害會增加至[[/r (2d6)[persistent,bleed]]]{2d6} @UUID[Compendium.pf2e.conditionitems.lDVqvLKA6eF3Df60]{持續流血傷害}。</p>"
        },
        "Camel Support benefit": {
            "name": "駱駝-支援收益 Camel Support benefit",
            "description": "<p>駱駝對10尺內的一個敵人吐出一大口唾液。如果命中，該敵人@UUID[Compendium.pf2e.conditionitems.TkIyaNPgTZFBCCuh]{目眩 Dazzled}1輪。</p>"
        },
        "Capybara Support Benefit": {
            "name": "水豚-支援收益 Capybara Support Benefit",
            "description": "<p>你的水豚在戰鬥中幫助你。當你打擊一個位於水豚觸及範圍內的敵人時，你的攻擊骰有+1環境加值。此加值一直持續到你進行下一次打擊或到你的下一回合開始，以最先發生的為準。</p>"
        },
        "Cat Support Benefit": {
            "name": "貓-支援收益 Cat Support Benefit",
            "description": "<p>貓咪會抓住機會令敵人失衡。直到你下一回合開始，你的攻擊對一名處於你的貓咪威脅範圍內的生物造成傷害的同時還會讓它在你下一回合結束前陷入@UUID[Compendium.pf2e.conditionitems.AJh5ex99aV6VTggg]{措手不及 Flat-Footed}。</p>"
        },
        "Cave Gecko Support Benefit": {
            "name": "Cave Gecko Support Benefit",
            "description": "<p>Your cave gecko helps you stay afoot, leaning into you and propping you up as you maneuver your opponent. Until the end of your next turn, as long as you are adjacent to your cave gecko, if you attempt to Disarm, Shove, or Trip an opponent and roll a critical failure, you get a failure instead.</p>"
        },
        "Cave Pterosaur Support Benefit": {
            "name": "Cave Pterosaur Support Benefit",
            "description": "<p>Your pterosaur expands its wings and makes distracting flapping motions. Any creature that would gain lesser cover from the pterosaur gains standard cover instead.</p>"
        },
        "Crocodile Support Benefit": {
            "name": "鱷魚-支援收益 Crocodile Support Benefit",
            "description": "<p>你的鱷魚夥伴緊緊咬住敵人不肯鬆口。直至你的下個回合開始為止，若你的打擊傷害的目標在鱷魚夥伴的觸及範圍內，你的鱷魚能夠靠著咬緊附著在該生物身上。由於此種行動，鱷魚夥伴能夠在目標移動時隨著一同移動，直至你的下個回合結束為止。你的鱷魚夥伴只能以此方式附著在1個生物身上，而且它必須放開該生物才能夠作出獠牙打擊。若目標比鱷魚夥伴的體型還小，那麼在鱷魚夥伴附著期間，該生物的速度會受到-10環境減值，而且無法飛行。</p>"
        },
        "Dromaeosaur Support Benefit": {
            "name": "馳龍-支援收益 Dromaeosaur Support Benefit",
            "description": "<p>迅猛龍在夾擊位附近反覆橫跳。直到你下一回合開始，在判斷你和你的夥伴是否構成夾擊時，它被視作處於自己原本的位置或周圍10尺內由你選擇的一個未被佔據的空間；你可以為你的每次攻擊選擇不同的空間。</p>"
        },
        "Elephant Support Benefit": {
            "name": "大象-支援收益 Elephant Support Benefit",
            "description": "<p>你的大象大聲鳴叫，威脅你的敵人。在你的下回合開始前，大象觸及範圍內第一隻被你擊中且傷害的生物，會因為噪音導致耳朵嗡嗡作響，他在嘗試純粹聽覺的察覺檢定時有-4狀態減值，直到你的下回合結束。</p>"
        },
        "Ghost Support Benefit": {
            "name": "幽靈-支援收益 Ghost Support Benefit",
            "description": "<p>你的幽靈神出鬼沒並在你攻擊時驚嚇你的對手。直到你下一個回合開始，如果你命中在你幽靈觸及範圍內的一個生物並造成傷害，此生物@UUID[Compendium.pf2e.conditionitems.TBSHQspnbcqxsmjL]{驚懼 Frightened 1}。</p>"
        },
        "Horse Support Benefit": {
            "name": "馬-支援收益 Horse Support Benefit",
            "description": "<p>馬兒為你的衝鋒增添威勢。直到你下一回合開始，如果你在打擊前以某個動作移動至少10尺，那麼在這次打擊的傷害上增加等同於傷害骰子數量兩倍的環境加值。如果你的武器已經具有騎戰武器特徵，則騎戰特徵為每個骰子提供的傷害加值再提升2點。</p>"
        },
        "Hyena Support Benefit": {
            "name": "鬣狗-支援收益 Hyena Support Benefit",
            "description": "<p>鬣狗嘲笑般地對敵人嚎叫，並且當你製造破綻時，它會啃咬你的敵人。直到你的下個回合開始前，每當你的打擊命中鬣狗觸及範圍內的生物時，生物還會陷入@UUID[Compendium.pf2e.conditionitems.TBSHQspnbcqxsmjL]{驚懼 Frightened 1}。</p>"
        },
        "Legchair Support Benefit": {
            "name": "腿椅-支援收益 Legchair Support Benefit",
            "description": "<p>你的腿椅移動它的四肢阻擋敵人的攻擊。你可以從你的腿椅處獲得次級掩蔽，以對抗所有的攻擊，而不僅僅是腿椅會擋住的攻擊。</p>"
        },
        "Monitor Lizard Support Benefit": {
            "name": "Monitor Lizard Support Benefit",
            "description": "<p>The monitor lizard distracts an adjacent opponent with snapping jaws and rapid movements. Until the start of your next turn, if your Strike damages a foe, any time the foe attempts an action with the manipulate trait until the end of your next turn, it must attempt a <span data-pf2-check=\"flat\" data-pf2-traits=\"\" data-pf2-label=\"Monitor\" data-pf2-dc=\"5\" data-pf2-show-dc=\"owner\">Flat Check</span>. On a failure, the action is disrupted.</p>"
        },
        "Moth Support Benefit": {
            "name": "飛蛾-支援收益 Moth Support Benefit",
            "description": "<p>你的飛蛾播撒一片粉塵，暴露你的敵人。直到你的下一回合開始，如果你以打擊傷害一個對你@UUID[Compendium.pf2e.conditionitems.DmAIPqOBomZ7H95W]{隱蔽 Concealed}或@UUID[Compendium.pf2e.conditionitems.iU0fEDdBp3rXpTMC]{藏匿 Hidden}、且位於飛蛾觸及範圍內的敵人，則命中隱蔽生物的<span data-pf2-check=\"flat\" data-pf2-traits=\"target:condition:concealed\" data-pf2-label=\"Moth Support Action DC\" data-pf2-dc=\"3\" data-pf2-show-dc=\"all\">純骰檢定</span>DC僅為3，命中藏匿敵人的<span data-pf2-check=\"flat\" data-pf2-traits=\"target:condition:concealed\" data-pf2-label=\"Moth Support Action DC\" data-pf2-dc=\"9\" data-pf2-show-dc=\"all\">純骰檢定</span>DC僅為9。DC減免效果將持續到你的下回合結束。</p>"
        },
        "Pangolin Support Benefit": {
            "name": "穿山甲-支援收益 Pangolin Support Benefit",
            "description": "<p>你的穿山甲用它的鋸齒狀甲片撕裂敵人。直到你的下個回合開始，你以打擊傷害一個位於穿山甲觸及範圍內的敵人時，還能造成[[/r (1d6)[persistent,bleed]]]{1d6} @UUID[Compendium.pf2e.conditionitems.lDVqvLKA6eF3Df60]{持續流血傷害}。如果你的穿山甲是靈敏動物夥伴或狂怒動物夥伴，則持續性流血傷害增加到[[/r (2d6)[persistent,bleed]]]{2d6} @UUID[Compendium.pf2e.conditionitems.lDVqvLKA6eF3Df60]{持續流血傷害}。</p>"
        },
        "Rhinoceros Support Benefit": {
            "name": "犀牛-支援收益 Rhinoceros Support Benefit",
            "description": "<p>你的犀牛搖晃沉重的腦袋讓對手失衡。在你的下回合開始前，犀牛觸及範圍內第一隻被你擊中且傷害的生物，會陷入@UUID[Compendium.pf2e.conditionitems.i3OJZU2nk64Df3xm]{笨拙 Clumsy 1}，直到你的下個回合結束。</p>"
        },
        "Riding Drake Support Benefit": {
            "name": "騎乘龍獸-支援收益 Riding Drake Support Benefit",
            "description": "<p>你的龍獸夥伴能把火噴到敵人臉上。直至你的下個回合開始為止，每當你騎乘著龍獸進行打擊，且命中的生物在龍獸的觸及範圍內時，該生物會由於龍獸而受到[[/r (1d4)[fire]]]{1d4火焰傷害}。若你的龍獸夥伴是靈敏或狂怒動物夥伴，火焰傷害會增加至[[/r 2d4]]{2d4}點。</p>"
        },
        "Scorpion Support Benefit": {
            "name": "蠍子-支援收益 Scorpion Support Benefit",
            "description": "<p>蠍子夥伴會在你創造出傷口後將尾刺的毒液注入進去。直至你的下個回合開始為止，你的打擊（Strikes）對生物造成傷害，且該生物在蠍子夥伴的觸及範圍內時，還會造成[[/r (1d6)[persistent,poison]]]{1d6} @UUID[Compendium.pf2e.conditionitems.lDVqvLKA6eF3Df60]{持續毒素傷害}。若你的蠍子夥伴是靈敏或狂怒動物夥伴，持續毒素傷害會增加至[[/r (2d6)[persistent,poison]]]{2d6} @UUID[Compendium.pf2e.conditionitems.lDVqvLKA6eF3Df60]{持續毒素傷害}。</p>"
        },
        "Shadow Hound Support Benefit": {
            "name": "暗影獵犬-支援收益 Shadow Hound Support Benefit",
            "description": "<p>在你開啟缺口時，你的暗影獵犬將你的敵人用幽影覆蓋。直到你的下回合開始，當你使用了1次打擊傷害了1個生物，且該生物位於暗影獵犬的觸及內，你和暗影獵犬相對該生物來說都處於@UUID[Compendium.pf2e.conditionitems.DmAIPqOBomZ7H95W]{隱蔽 Concealed}狀態，直到你的下一回合結束。</p>"
        },
        "Shark Support Benefit": {
            "name": "鯊魚-支援收益 Shark Support Benefit",
            "description": "<p>你的鯊魚夥伴在嗅探到血液時會撕咬敵人。直至你的下個回合開始為止，每當你使用造成揮砍或穿刺傷害的打擊命中生物，且該生物在鯊魚的觸及範圍內時，它會由於鯊魚而承受[[/r (1d8)[slashing]]]{1d8揮砍傷害}。若你的鯊魚夥伴是靈敏或狂怒動物夥伴，揮砍傷害會增加至[[/r (2d8)[slashing]]]{2d8揮砍傷害}。</p>"
        },
        "Skeletal Constrictor Support Benefit": {
            "name": "骷髏蟒蛇-支援收益 Skeletal Constrictor Support Benefit",
            "description": "<p>你的蛇搖晃著上半身迷惑一個敵人。選擇蟒蛇20尺內的一個能看到蟒蛇的生物。在你的下個回合開始之前，你對該生物造成的打擊會讓目標@UUID[Compendium.pf2e.conditionitems.AJh5ex99aV6VTggg]{措手不及 Flat-Footed}，直到你的下個回合結束。</p>"
        },
        "Skeletal Mount Support Benefit": {
            "name": "骷髏坐騎-支援收益 Skeletal Mount Support Benefit",
            "description": "<p>你的骷髏坐騎在衝鋒時散播恐懼。直到你下個回合開始，如果你騎乘你的骷髏坐騎並在你攻擊前的動作中移動至少10尺，任何被攻擊傷害到的生物@UUID[Compendium.pf2e.conditionitems.TBSHQspnbcqxsmjL]{驚懼 Frightened 1}，如果攻擊重擊則為@UUID[Compendium.pf2e.conditionitems.TBSHQspnbcqxsmjL]{驚懼 Frightened 2}。這是一個情緒、恐懼和心靈效果。</p>"
        },
        "Skeletal Servant Support Benefit": {
            "name": "骷髏侍從-支援收益 Skeletal Servant Support Benefit",
            "description": "<p>你的骷髏侍從在你攻擊時用骨頭戳擊你的敵人。直到你的下個回合開始時，當你的打命中你的侍從觸及範圍內一個生物並造成傷害時，目標直到你的下個回合結束前@UUID[Compendium.pf2e.conditionitems.AJh5ex99aV6VTggg]{措手不及 Flat-Footed}。</p>"
        },
        "Snake Support Benefit": {
            "name": "蛇-支援收益 Snake Support Benefit",
            "description": "<p>蛇纏繞住你的敵人，妨礙它們的反應動作。直到你下一回合開始，任何處於你的蛇的威脅範圍內的敵人不能使用由你觸發的反應動作，除非它們等級比你更高。</p>"
        },
        "Terror Bird Support Benefit": {
            "name": "恐鳥-支援收益 Terror Bird Support Benefit",
            "description": "<p>當你讓對手露出破綻時，你的恐鳥會對敵人尖叫。直到你的下個回合開始，你以打擊傷害一個恐鳥觸及範圍內的敵人時，該敵人陷入@UUID[Compendium.pf2e.conditionitems.AJh5ex99aV6VTggg]{措手不及 Flat-Footed}，直到你的下回合開始。</p>"
        },
        "Triceratops Support Benefit": {
            "name": "三角龍-支援收益 Triceratops Support Benefit",
            "description": "<p>你的三角龍會跟著你用角頂那些@UUID[Compendium.pf2e.conditionitems.j91X7x0XSomq8d60]{倒地 Prone}的敵人。在你的下回合開始前，當你打擊並傷害一個三角龍觸及範圍內且倒地的敵人時，還會造成[[/r (1d8)[persistent,bleed]]]{1d8} @UUID[Compendium.pf2e.conditionitems.lDVqvLKA6eF3Df60]{持續流血傷害}。如果你的三角龍是靈敏或狂怒動物夥伴，流血傷害增加到[[/r (2d8)[persistent,bleed]]]{2d8} @UUID[Compendium.pf2e.conditionitems.lDVqvLKA6eF3Df60]{持續流血傷害}。</p>"
        },
        "Tyrannosaurus Support Benefit": {
            "name": "暴龍-支援收益 Tyrannosaurus Support Benefit",
            "description": "<p>當你攻擊時，你的暴龍會咆哮並作出可怕的樣子，驚嚇你的敵人。直到你的下回合開始，如果你命中並傷害暴龍觸及範圍內的一個生物，該生物陷入@UUID[Compendium.pf2e.conditionitems.TBSHQspnbcqxsmjL]{驚懼 Frightened 1}。</p>"
        },
        "Ulgrem-Lurann Support Benefit": {
            "name": "Ulgrem-Lurann Support Benefit",
            "description": "<p>The Ulgrem-Lurann grabs at your foe and zaps it. Until the start of your next turn, each time you hit a creature in the Ulgrem-Lurann's reach with a Strike, the creature takes an additional [[/r (1d4)[piercing]]]{1d4 piercing傷害} and [[/r (1d4)[electricity]]]{1d4 electricity傷害} from the Ulgrem-Lurann. If the Ulgrem-Lurann is nimble or savage, the piercing damage and electricity damage each increase to [[/r 2d4]]{2d4}.</p>"
        },
        "Undead Bird of Prey Support Benefit": {
            "name": "骷髏猛禽-支援收益 Skeletal Bird of Prey Support Benefit",
            "description": "<p>你的鳥飛來飛去，讓敵人失去平衡。直到你的下個回合開始，當你的打擊對鳥觸及範圍內的敵人造成傷害時，該生物會陷入@UUID[Compendium.pf2e.conditionitems.i3OJZU2nk64Df3xm]{笨拙 Clumsy 1}，直到你的下個回合結束。</p>"
        },
        "Undead Hand Support Benefit": {
            "name": "不死手掌-支援收益 Undead Hand Support Benefit",
            "description": "<p>手掌惡毒地擊打你攻擊的敵人。 直到你的下一回合開始，每當你的打擊命中手掌觸及範圍內的敵人，手掌還會對它造成[[/r (1d6)[bludgeoning]]]{1d6鈍擊傷害}。如果手掌為靈敏動物夥伴或狂怒動物夥伴，鈍擊傷害增加到[[/r 2d6]]{2d6}。</p>"
        },
        "Vampiric Animal Support Benefit": {
            "name": "吸血野獸-支援收益 Vampiric Animal Support Benefit",
            "description": "<p>當你的吸血野獸察覺到敵人鮮血時，它會迫不及待撕碎他。直到你的下個回合開始時，你的打擊在傷害一個位於你吸血野獸觸及範圍內的生物同時，也會造成[[/r (1d6)[persistent,bleed]]]{1d6} @UUID[Compendium.pf2e.conditionitems.lDVqvLKA6eF3Df60]{持續流血傷害}。如果你的吸血野獸是靈敏或狂怒動物夥伴，持續流血傷害提高到[[/r (2d6)[persistent,bleed]]]{2d6} @UUID[Compendium.pf2e.conditionitems.lDVqvLKA6eF3Df60]{持續流血傷害}。</p>"
        },
        "Vulture Support Benefit": {
            "name": "兀鷲-支援收益 Vulture Support Benefit",
            "description": "<p>兀鷲對10尺內的敵人嘔吐。直到你的下個回合開始前，如果你擊中目標並對其造成傷害，目標必須通過強韌豁免，否則會陷入@UUID[Compendium.pf2e.conditionitems.fesd1n5eVhpCSS18]{噁心 Sickened 1} （大失敗@UUID[Compendium.pf2e.conditionitems.fesd1n5eVhpCSS18]{噁心 Sickened 2}）。強韌豁免的DC為12+你的等級+兀鷲的體質調整值（如果兀鷲為特化動物夥伴，則DC為14+你的等級+兀鷲的體質調整值）。</p>"
        },
        "Water Wraith Support Benefit": {
            "name": "水縛靈-支援收益 Water Wraith Support Benefit",
            "description": "<p>你的水縛靈發出嘶嘶聲，在環境複雜的交鋒中迅速改變顏色，在一片陰影和色澤的瞬息間中壓倒你的敵人。直到你的下一個回合開始，每次你擊中水縛靈觸及範圍內的生物，該生物會被@UUID[Compendium.pf2e.conditionitems.TkIyaNPgTZFBCCuh]{目眩 Dazzled}1輪。</p>"
        },
        "Wolf Support Benefit": {
            "name": "狼-支援收益 Wolf Support Benefit",
            "description": "<p>狼不會放過任何一個撕裂肌腱的機會。直到你下一回合開始，你的打擊在對身處你的狼的威脅範圍內的生物造成傷害的同時還會令目標在速度上承受持續1分鐘的-5尺狀態減值（大成功時為-10尺）。</p>"
        },
        "Zombie Carrion Bird Support Benefit": {
            "name": "喪屍食腐鳥-支援收益 Zombie Carrion Bird Support Benefit",
            "description": "<p>喪屍鳥散發出腐爛靈光，導致傷口潰爛。知道你的下個回合開始前，每當你命中某個喪屍食腐鳥10尺範圍內的生物並造成傷害時，目標會受到[[/r 1d6]]額外傷害，因為傷口開始潰爛。如果你的食腐鳥為靈敏動物夥伴或狂怒動物夥伴，傷害增加到[[/r 2d6]]{2d6}。這是疾病和死靈系效果。</p>"
        },
        "Zombie Mount Support Benefit": {
            "name": "喪屍坐騎-支援收益 Zombie Mount Support Benefit",
            "description": "<p>你的喪屍坐騎啃咬你的敵人。直到你的下一回合開始，每當你在騎乘喪屍坐騎時打擊並命中喪屍坐騎觸及範圍內的敵人時，喪屍坐騎對該生物造成[[/r (1d4)[bludgeoning]]]{1d4鈍擊傷害}。如果你的喪屍坐騎為靈敏動物夥伴或狂怒動物夥伴，傷害增加到[[/r 2d4]]{2d4}。該支援收益基於喪屍馬或喪屍駱駝，但如果你的坐騎有尖銳的牙齒，它可能會造成穿刺傷害。</p>"
        },
        "Zombie Support Benefit": {
            "name": "喪屍-支援收益 Zombie Support Benefit",
            "description": "<p>喪屍散發著腐敗氣息，使傷口惡化。直到你的下個回合開始時，每次你命中喪屍10尺範圍內的一個生物並且造成傷害，生物因傷口惡化額外受到[[/r 1d6]]傷害。如果你的喪屍是靈敏或狂怒動物夥伴，傷害提高到[[/r 2d6]]{2d6}。這是一個疾病、死靈系效果。</p>"
        }
    }
}
