{
	"label": "PF2e Workbench道具 xdy-pf2e-workbench-items",
	"entries": {
		"[Effect] Dirge Of Doom": {
			"name": "[效果] 末日喪歌 Dirge Of Doom",
			"description": "<p><span style=\"color: #191813; font-family: Roboto, sans-serif; font-size: 13px;\">被附加此效果的敵人</span><span style=\"color: #191813; font-family: Roboto, sans-serif; font-size: 13px;\">身上的@Compendium[pf2e.conditionitems.TBSHQspnbcqxsmjL]{驚懼 Frightened}值不會自動被降至低於1。</span></p>"
		},
		"Aura: Bane": {
			"name": "靈光: 絕望術 Bane",
			"description": "<p>一個“湊合能用”的絕望術靈光。（嚴格來說它不是一個靈光，但，嗯……）</p>\n<p>此效果的靈光半徑為5尺，如果想要增加靈光半徑，你需要手動修改規則元素。</p>"
		},
		"Aura: Bless": {
			"name": "靈光: 祝福術 Bless",
			"description": "<p>一個“湊合能用”的祝福術靈光。（嚴格來說它不是一個靈光，但，嗯……）</p>\n<p>此效果的靈光半徑為5尺，如果想要增加靈光半徑，你需要手動修改規則元素。</p>"
		},
		"Aura: Inspire Courage": {
			"name": "靈光: 激發勇氣 Inspire Courage",
			"description": "<p>一個“湊合能用”的激發勇氣靈光。（嚴格來說它不是一個靈光，但，嗯……）</p>\n<p>預設效果持續1輪，可維持。每回合自動重新生效，或者可用Shift+左鍵點選效果來修改持續時間（如果你啟用了Extempore Effects這個MOD，你應該啟用……）。</p>"
		},
		"Aura: Inspire Defense": {
			"name": "靈光: 激發防禦 Inspire Defense",
			"description": "<p>一個“湊合能用”的激發防禦靈光。（嚴格來說它不是一個靈光，但，嗯……）</p>\n<p>預設效果持續1輪，可維持。每回合自動重新生效，或者可用Shift+左鍵點選效果來修改持續時間（如果你啟用了Extempore Effects這個MOD，你應該啟用……）。</p>"
		},
		"Aura: Protective Ward": {
			"name": "靈光: 防護結界 Protective Ward",
			"description": "<p>效果來自@Compendium[pf2e.spells-srd.lY9fOk1qBDDhBT8s]{防護結界 Protective Ward}。</p>\n<p>你散發出保護魔法的閃耀靈光。你和區域內的任意盟友在AC上獲得+1狀態加值。每當你@Compendium[pf2e.actionspf2e.3f5DMFu8fPiqHpRg]{維持法術 Sustain the Spell}時，瀰漫區域的半徑增加5尺，至多達到半徑30尺。</p>"
		},
		"Stance: Dread Marshal Stance": {
			"name": "架勢: 恐怖軍勢 Dread Marshal Stance",
			"description": ""
		},
		"Stance: Inspiring Marshal Stance": {
			"name": "架勢: 激昂軍勢 Inspiring Marshal Stance",
			"description": ""
		},
		"Workbench ABP": {
			"name": "Workbench自動成長加值",
			"description": "<p>一個使用規則元素實現自動成長加值ABP系統的嘗試（使用“專長”為載體）。還未完成，但已經夠用了。（我的玩家不喜歡ABP，所以近期我不會再用它了，但我猜它對其他人可能有點用，所以我把它放進Workbench了）</p>\n<p>使用時，<em>不要</em>勾選Foundry VTT中的自動成長加值選項，相對的，將此“專長”放入所有使用ABP玩家角色的戰役專長區。</p>\n<p>僅經過一點點測試，可能需要在升級時移除它，再重新新增回角色卡。</p>\n<p>按你的需要調整經濟。如果你不想，就不需要移除武器或護甲上的符文，這些規則元素被設定為“物品加值”，因此不管用什麼符文，都是最高加值才被計算。<em>除了</em>絕望打擊(Devastating Attacks)這種*確實*和強擊符文疊加的。（我用了阿巴達爾的圖示，你看，我剛剛在上一句話裡說了戰役經濟，感覺很合適:）</p>"
		},
		"Workbench Flat Check Notes V3.35.2": {
			"name": "Workbench純骰檢定提醒 V3.35.2",
			"description": "<p>此“動作”中包含了幾條有用的提示規則元素。該進行純骰檢定時，它會進行提醒。使用時，將此動作新增到角色/npc卡中，忽略它即可。Workbench更新時，它會自動跟隨更新。</p>\n<p>它離完成還早，但它是個不錯的開始。</p>\n<p>目前能夠處理:</p>\n<ul>\n<li>目標為無蹤、藏匿、隱形或隱蔽狀態時，提示進行純骰檢定。</li>\n<li>自身目盲或目眩。</li>\n<li>自身擁有盲鬥專長（只能部分處理無蹤狀態）</li>\n</ul>\n<p>你可能會收到多個提醒，使用最差的那個。</p>"
		}
	}
}